#FIG 3.2  Produced by xfig version 3.2.7b
Landscape
Center
Metric
A4
100.00
Single
-2
1200 2
6 2753 4687 3850 5864
1 3 0 1 0 0 50 -1 20 0.000 1 0.0000 2870 4872 16 16 2870 4872 2886 4872
1 3 0 1 0 0 50 -1 20 0.000 1 0.0000 3203 4816 16 16 3203 4816 3219 4816
1 3 0 1 0 0 50 -1 20 0.000 1 0.0000 3826 4714 16 16 3826 4714 3842 4714
1 3 0 1 0 0 50 -1 20 0.000 1 0.0000 3537 4760 16 16 3537 4760 3553 4760
1 3 0 1 0 0 50 -1 20 0.000 1 0.0000 3191 5147 16 16 3191 5147 3207 5147
1 3 0 1 0 0 50 -1 20 0.000 1 0.0000 3472 5398 16 16 3472 5398 3488 5398
1 3 0 1 0 0 50 -1 20 0.000 1 0.0000 3797 5673 16 16 3797 5673 3813 5673
1 3 0 1 0 0 50 -1 20 0.000 1 0.0000 3809 5355 16 16 3809 5355 3825 5355
1 3 0 1 0 0 50 -1 20 0.000 1 0.0000 3818 5023 16 16 3818 5023 3834 5023
1 3 0 1 0 0 50 -1 20 0.000 1 0.0000 2814 5207 16 16 2814 5207 2830 5207
1 3 0 1 0 0 50 -1 20 0.000 1 0.0000 2798 5523 16 16 2798 5523 2814 5523
1 3 0 1 0 0 50 -1 20 0.000 1 0.0000 2779 5837 16 16 2779 5837 2795 5837
1 3 0 1 0 0 50 -1 20 0.000 1 0.0000 3084 5808 16 16 3084 5808 3100 5808
1 3 0 1 0 0 50 -1 20 0.000 1 0.0000 3406 5774 16 16 3406 5774 3422 5774
1 3 0 1 0 0 50 -1 20 0.000 1 0.0000 3744 5733 16 16 3744 5733 3760 5733
1 3 0 1 0 0 50 -1 20 0.000 1 0.0000 3429 5450 16 16 3429 5450 3446 5450
1 3 0 1 0 0 50 -1 20 0.000 1 0.0000 3150 5202 16 16 3150 5202 3166 5202
1 3 0 1 0 0 50 -1 20 0.000 1 0.0000 2834 4922 16 16 2834 4922 2850 4922
2 3 0 1 0 7 50 -1 -1 0.000 0 0 -1 0 0 4
	 2821 4857 3818 5726 3850 4687 2821 4857
2 3 0 1 0 7 50 -1 -1 0.000 0 0 -1 0 0 5
	 2817 4880 3802 5750 2753 5864 2815 4898 2817 4880
-6
1 3 0 1 0 0 50 -1 20 0.000 1 0.0000 3155 3796 16 16 3155 3796 3171 3796
1 3 0 1 0 0 50 -1 20 0.000 1 0.0000 3452 4049 16 16 3452 4049 3468 4049
1 3 0 1 0 0 50 -1 20 0.000 1 0.0000 3203 3430 16 16 3203 3430 3219 3430
1 3 0 1 0 0 50 -1 20 0.000 1 0.0000 3556 3370 16 16 3556 3370 3572 3370
1 3 0 1 0 0 50 -1 20 0.000 1 0.0000 3828 3655 16 16 3828 3655 3844 3655
1 3 0 1 0 0 50 -1 20 0.000 1 0.0000 3823 3994 16 16 3823 3994 3839 3994
1 3 0 1 0 0 50 -1 20 0.000 1 0.0000 3399 4411 16 16 3399 4411 3415 4411
1 3 0 1 0 0 50 -1 20 0.000 1 0.0000 3072 4451 16 16 3072 4451 3088 4451
1 3 0 1 0 0 50 -1 20 0.000 1 0.0000 2759 4162 16 16 2759 4162 2775 4162
1 3 0 1 0 0 50 -1 20 0.000 1 0.0000 2788 3823 16 16 2788 3823 2804 3823
1 3 0 1 0 0 50 -1 20 0.000 1 0.0000 2742 4456 16 16 2742 4456 2758 4456
1 3 0 1 0 0 50 -1 20 0.000 1 0.0000 2807 3535 16 16 2807 3535 2823 3535
1 3 0 1 0 0 50 -1 20 0.000 1 0.0000 3839 3362 16 16 3839 3362 3855 3362
1 3 0 1 0 0 50 -1 20 0.000 1 0.0000 3771 4368 16 16 3771 4368 3787 4368
1 3 0 1 0 0 50 -1 20 0.000 1 0.0000 2845 3523 16 16 2845 3523 2861 3523
1 3 0 1 0 0 50 -1 20 0.000 1 0.0000 2861 3486 16 16 2861 3486 2877 3486
1 3 0 1 0 0 50 -1 20 0.000 1 0.0000 3807 3331 16 16 3807 3331 3823 3331
1 3 0 1 0 0 50 -1 20 0.000 1 0.0000 3769 4330 16 16 3769 4330 3786 4330
1 3 0 1 0 0 50 -1 20 0.000 1 0.0000 3809 4319 16 16 3809 4319 3825 4319
1 3 0 1 0 0 50 -1 20 0.000 1 0.0000 2760 4487 16 16 2760 4487 2777 4487
1 3 0 1 0 0 50 -1 20 0.000 1 0.0000 3216 6126 16 16 3216 6126 3232 6126
1 3 0 1 0 0 50 -1 20 0.000 1 0.0000 3550 6070 16 16 3550 6070 3566 6070
1 3 0 1 0 0 50 -1 20 0.000 1 0.0000 3204 6457 16 16 3204 6457 3220 6457
1 3 0 1 0 0 50 -1 20 0.000 1 0.0000 3485 6709 16 16 3485 6709 3501 6709
1 3 0 1 0 0 50 -1 20 0.000 1 0.0000 3822 6665 16 16 3822 6665 3838 6665
1 3 0 1 0 0 50 -1 20 0.000 1 0.0000 3831 6333 16 16 3831 6333 3847 6333
1 3 0 1 0 0 50 -1 20 0.000 1 0.0000 2827 6517 16 16 2827 6517 2843 6517
1 3 0 1 0 0 50 -1 20 0.000 1 0.0000 2812 6833 16 16 2812 6833 2828 6833
1 3 0 1 0 0 50 -1 20 0.000 1 0.0000 3097 7119 16 16 3097 7119 3113 7119
1 3 0 1 0 0 50 -1 20 0.000 1 0.0000 3419 7085 16 16 3419 7085 3435 7085
1 3 0 1 0 0 50 -1 20 0.000 1 0.0000 3443 6760 16 16 3443 6760 3459 6760
1 3 0 1 0 0 50 -1 20 0.000 1 0.0000 3163 6513 16 16 3163 6513 3179 6513
1 3 0 1 0 0 50 -1 20 0.000 1 0.0000 2908 6207 16 16 2908 6207 2924 6207
1 3 0 1 0 0 50 -1 20 0.000 1 0.0000 2842 6273 16 16 2842 6273 2858 6273
1 3 0 1 0 0 50 -1 20 0.000 1 0.0000 2878 6252 16 16 2878 6252 2894 6252
1 3 0 1 0 0 50 -1 20 0.000 1 0.0000 2919 6168 16 16 2919 6168 2935 6168
1 3 0 1 0 0 50 -1 20 0.000 1 0.0000 3842 6047 16 16 3842 6047 3858 6047
1 3 0 1 0 0 50 -1 20 0.000 1 0.0000 3815 6021 16 16 3815 6021 3831 6021
1 3 0 1 0 0 50 -1 20 0.000 1 0.0000 2816 7149 16 16 2816 7149 2832 7149
1 3 0 1 0 0 50 -1 20 0.000 1 0.0000 2785 7125 16 16 2785 7125 2801 7125
1 3 0 1 0 0 50 -1 20 0.000 1 0.0000 3741 7018 16 16 3741 7018 3757 7018
1 3 0 1 0 0 50 -1 20 0.000 1 0.0000 3730 7052 16 16 3730 7052 3746 7052
1 3 0 1 0 0 50 -1 20 0.000 1 0.0000 3782 6970 16 16 3782 6970 3798 6970
1 3 0 1 0 0 50 -1 20 0.000 1 0.0000 3818 6954 16 16 3818 6954 3834 6954
1 3 0 1 0 0 50 -1 20 0.000 1 0.0000 2814 2150 16 16 2814 2150 2830 2150
1 3 0 1 0 0 50 -1 20 0.000 1 0.0000 3808 3015 16 16 3808 3015 3824 3015
1 3 0 1 0 0 50 -1 20 0.000 1 0.0000 3155 2449 16 16 3155 2449 3171 2449
1 3 0 1 0 0 50 -1 20 0.000 1 0.0000 3453 2702 16 16 3453 2702 3469 2702
1 3 0 1 0 0 50 -1 20 0.000 1 0.0000 3839 1976 16 16 3839 1976 3855 1976
1 3 0 1 0 0 50 -1 20 0.000 1 0.0000 3203 2083 16 16 3203 2083 3219 2083
1 3 0 1 0 0 50 -1 20 0.000 1 0.0000 3557 2023 16 16 3557 2023 3573 2023
1 3 0 1 0 0 50 -1 20 0.000 1 0.0000 2736 3145 16 16 2736 3145 2752 3145
1 3 0 1 0 0 50 -1 20 0.000 1 0.0000 3828 2307 16 16 3828 2307 3844 2307
1 3 0 1 0 0 50 -1 20 0.000 1 0.0000 3823 2647 16 16 3823 2647 3839 2647
1 3 0 1 0 0 50 -1 20 0.000 1 0.0000 3400 3063 16 16 3400 3063 3416 3063
1 3 0 1 0 0 50 -1 20 0.000 1 0.0000 3073 3104 16 16 3073 3104 3089 3104
1 3 0 1 0 0 50 -1 20 0.000 1 0.0000 2759 2815 16 16 2759 2815 2776 2815
1 3 0 1 0 0 50 -1 20 0.000 1 0.0000 2788 2476 16 16 2788 2476 2804 2476
2 3 0 1 0 7 50 -1 -1 0.000 0 0 -1 0 0 4
	 2810 3492 3807 4362 3839 3323 2810 3492
2 1 0 1 0 7 50 -1 -1 0.000 0 0 -1 0 0 3
	 2810 3492 2736 4489 3807 4362
2 3 0 1 0 7 50 -1 -1 0.000 0 0 -1 0 0 4
	 2834 6167 3831 7037 3863 5997 2834 6167
2 3 0 1 0 7 50 -1 -1 0.000 0 0 -1 0 0 5
	 2830 6190 3815 7061 2766 7174 2829 6209 2830 6190
2 3 0 1 0 7 50 -1 -1 0.000 0 0 -1 0 0 4
	 2811 2145 3808 3015 3839 1975 2811 2145
2 1 0 1 0 7 50 -1 -1 0.000 0 0 -1 0 0 3
	 2811 2145 2737 3142 3808 3015
4 0 0 50 -1 0 12 0.0000 6 180 3120 4114 4988 {\\tt space Mhr (omega, "trace(P3d)"); }\001
4 0 0 50 -1 0 12 0.0000 6 180 5370 4116 6268 {\\tt space Mhs (omega, "{\\color[rgb]{0,0,1}{trace\\_n}}(RT3d)"); }\001
4 0 0 50 -1 0 12 0.0000 6 180 3225 4117 3638 {\\tt space Mh (omega["sides"], "P3d"); }\001
4 0 0 50 -1 0 12 0.0000 6 180 5340 3945 3938 {\\tt = space Mh (omega, "{\\color[rgb]{0,0,1}{trace\\_n}}(RT3)"); }\001
4 0 0 50 -1 0 12 0.0000 6 165 4245 4115 4241 used for $\\lambda_{h}\\in M_{h}$ in HDG and HHO\001
4 0 0 50 -1 0 12 0.0000 6 180 5400 4108 4475 the second syntax is not yet supported, but should be more general\001
4 0 0 50 -1 0 12 0.0000 6 180 3120 4143 2218 {\\tt space Mh (omega["sides"], "P3"); }\001
4 0 0 50 -1 0 12 0.0000 6 165 210 2295 2295 (a)\001
4 0 0 50 -1 0 12 0.0000 6 165 225 2295 3645 (b)\001
4 0 0 50 -1 0 12 0.0000 6 165 210 2295 4995 (c)\001
4 0 0 50 -1 0 12 0.0000 6 165 225 2295 6300 (d)\001
4 0 0 50 -1 0 12 0.0000 6 180 5985 4112 6574 used for $\\lambda_{sh}\\in M_{sh}$ for HHO difference operator building\001
4 0 0 50 -1 0 12 0.0000 6 180 2475 4140 5265 neither need nor supported yet\001
4 0 0 50 -1 0 12 0.0000 6 180 2475 4185 2520 neither need nor supported yet\001
