#FIG 3.2  Produced by xfig version 3.2.7b
Landscape
Center
Metric
A4
100.00
Single
-2
1200 2
1 3 0 3 0 7 50 -1 -1 0.000 1 0.0000 6300 4500 900 900 6300 4500 7200 4500
2 1 0 1 0 7 50 -1 -1 0.000 0 0 -1 1 0 2
	2 1 1.00 60.00 120.00
	 6300 4500 6300 2250
2 1 0 1 0 7 10 -1 -1 0.000 0 0 -1 1 0 2
	2 1 1.00 60.00 120.00
	 6300 4500 9765 4500
2 1 0 1 1 7 5 -1 -1 0.000 0 0 -1 1 0 2
	2 1 1.00 60.00 120.00
	 9000 4275 9450 4275
2 1 0 1 1 7 5 -1 -1 0.000 0 0 -1 1 0 2
	2 1 1.00 60.00 120.00
	 9000 4050 9450 4050
2 1 0 1 1 7 5 -1 -1 0.000 0 0 -1 1 0 2
	2 1 1.00 60.00 120.00
	 9000 3825 9450 3825
2 1 0 1 1 7 5 -1 -1 0.000 0 0 -1 1 0 2
	2 1 1.00 60.00 120.00
	 9000 3375 9450 3375
2 1 0 1 1 7 5 -1 -1 0.000 0 0 -1 1 0 2
	2 1 1.00 60.00 120.00
	 9000 2925 9450 2925
2 1 0 1 1 7 5 -1 -1 0.000 0 0 -1 1 0 2
	2 1 1.00 60.00 120.00
	 9000 3150 9450 3150
2 1 0 1 1 7 5 -1 -1 0.000 0 0 -1 1 0 2
	2 1 1.00 60.00 120.00
	 9000 3600 9450 3600
2 1 0 1 1 7 5 -1 -1 0.000 0 0 -1 1 0 2
	2 1 1.00 60.00 120.00
	 9000 2700 9450 2700
2 1 0 1 1 7 5 -1 -1 0.000 0 0 -1 1 0 2
	2 1 1.00 60.00 120.00
	 9000 4500 9450 4500
2 1 0 3 0 7 10 -1 -1 0.000 0 0 -1 0 0 5
	 7200 4500 9000 4500 9000 2700 6300 2700 6300 3600
2 2 0 1 7 7 25 -1 20 0.000 0 0 -1 0 0 5
	 6282 3584 5355 3584 5355 4725 6282 4725 6282 3584
2 2 0 1 7 7 25 -1 20 0.000 0 0 -1 0 0 5
	 5355 4517 7222 4517 7222 5490 5355 5490 5355 4517
4 0 0 50 -1 0 12 0.0000 6 165 525 6390 2520 $x_1$\001
4 1 0 10 -1 0 12 0.0000 6 150 315 6300 4725 $0$\001
4 1 0 10 -1 0 12 0.0000 6 150 315 7200 4725 $1$\001
4 0 0 10 -1 0 12 0.0000 6 165 2160 7155 4095 $\\Gamma_{\\rm obstacle}$\001
4 0 0 50 -1 0 12 0.0000 6 165 525 9585 4725 $x_0$\001
4 0 0 10 -1 0 12 0.0000 6 165 1830 7380 2610 $\\Gamma_{\\rm wall}$\001
4 1 0 10 -1 0 12 0.0000 6 165 1815 8100 4725 $\\Gamma_{\\rm axis}$\001
4 1 0 10 -1 0 12 0.0000 6 150 330 9000 4725 $L$\001
4 0 0 10 -1 0 12 0.0000 6 150 300 6345 2880 $c$\001
4 0 0 10 -1 0 12 0.0000 6 150 315 6345 3555 $1$\001
4 2 0 10 -1 0 12 0.0000 6 165 2460 8955 3465 $\\Gamma_{\\rm downstream}$\001
4 1 0 10 -1 0 12 0.0000 6 180 840 7492 3304 $\\Omega$\001
4 2 0 10 -1 0 12 0.0000 6 165 1920 6230 3287 $\\Gamma_{\\rm vaxis}$\001
4 0 0 10 -1 0 12 0.0000 6 180 11490 6306 5059 $\\Gamma_{\\rm wall}\\cup\\Gamma_{axis}\\cup\\Gamma_{obstacle}: \\boldsymbol{u}.\\boldsymbol{n}=0$ and $\\boldsymbol{\\sigma}_{nt}=0$\001
4 0 0 10 -1 0 12 0.0000 6 180 5745 7629 5344 $\\Gamma_{\\rm vaxis}: \\boldsymbol{u}_{t}=0$ and $\\sigma_{nn}=0$\001
4 0 0 10 -1 0 12 0.0000 6 180 4050 7186 5582 $\\Gamma_{downstream}: \\boldsymbol{u}=(1,0)$\001
