#!geo
mesh
1 2 79 126

0 0
0 1
1 1
1 0
0 0.5
0 0.225
0 0.0875
0 0.775
0 0.9125
0 0.3625
0 0.6375
0.55 1
0.275 1
0.1375 1
0.825 1
0.4125 1
0.6875 1
1 0.5
1 0.225
1 0.0875
1 0.775
1 0.9125
1 0.3625
1 0.6375
0.55 0
0.275 0
0.1375 0
0.825 0
0.4125 0
0.6875 0
0.1375 0.0875
0.1375 0.225
0.1375 0.3625
0.1375 0.5
0.1375 0.6375
0.1375 0.775
0.1375 0.9125
0.275 0.0875
0.275 0.225
0.275 0.3625
0.275 0.5
0.275 0.6375
0.275 0.775
0.275 0.9125
0.4125 0.0875
0.4125 0.225
0.4125 0.3625
0.4125 0.5
0.4125 0.6375
0.4125 0.775
0.4125 0.9125
0.55 0.0875
0.55 0.225
0.55 0.3625
0.55 0.5
0.55 0.6375
0.55 0.775
0.55 0.9125
0.6875 0.0875
0.6875 0.225
0.6875 0.3625
0.6875 0.5
0.6875 0.6375
0.6875 0.775
0.6875 0.9125
0.825 0.0875
0.825 0.225
0.825 0.3625
0.825 0.5
0.825 0.6375
0.825 0.775
0.825 0.9125
0.9625 0.0875
0.9625 0.225
0.9625 0.3625
0.9625 0.5
0.9625 0.6375
0.9625 0.775
0.9625 0.9125

t	6 0 30
t	5 6 30
t	0 26 30
t	26 25 30
t	5 30 31
t	4 9 32
t	9 5 32
t	5 31 32
t	4 32 33
t	10 4 34
t	7 10 34
t	4 33 34
t	7 34 35
t	1 8 36
t	8 7 36
t	13 1 36
t	12 13 36
t	7 35 36
t	30 25 37
t	31 30 38
t	30 37 38
t	32 31 39
t	31 38 39
t	33 32 40
t	32 39 40
t	34 33 41
t	33 40 41
t	35 34 42
t	34 41 42
t	12 36 43
t	36 35 43
t	35 42 43
t	28 24 44
t	25 28 44
t	37 25 44
t	38 37 45
t	37 44 45
t	39 38 46
t	38 45 46
t	40 39 47
t	39 46 47
t	41 40 48
t	40 47 48
t	42 41 49
t	41 48 49
t	11 15 50
t	15 12 50
t	12 43 50
t	43 42 50
t	42 49 50
t	44 24 51
t	45 44 52
t	44 51 52
t	46 45 53
t	45 52 53
t	47 46 54
t	46 53 54
t	48 47 55
t	47 54 55
t	49 48 56
t	48 55 56
t	11 50 57
t	50 49 57
t	49 56 57
t	24 29 58
t	29 27 58
t	51 24 58
t	52 51 59
t	51 58 59
t	53 52 60
t	52 59 60
t	54 53 61
t	53 60 61
t	55 54 62
t	54 61 62
t	56 55 63
t	55 62 63
t	16 11 64
t	14 16 64
t	11 57 64
t	57 56 64
t	56 63 64
t	27 3 65
t	58 27 65
t	59 58 66
t	58 65 66
t	60 59 67
t	59 66 67
t	61 60 68
t	60 67 68
t	62 61 69
t	61 68 69
t	63 62 70
t	62 69 70
t	2 14 71
t	14 64 71
t	64 63 71
t	63 70 71
t	3 19 72
t	19 18 72
t	65 3 72
t	66 65 73
t	72 18 73
t	65 72 73
t	22 17 74
t	18 22 74
t	67 66 74
t	73 18 74
t	66 73 74
t	68 67 75
t	74 17 75
t	67 74 75
t	17 23 76
t	23 20 76
t	69 68 76
t	75 17 76
t	68 75 76
t	70 69 77
t	76 20 77
t	69 76 77
t	21 2 78
t	20 21 78
t	2 71 78
t	71 70 78
t	77 20 78
t	70 77 78


