#!geo

mesh
4
header
 dimension 2
 nodes	101
 edges	100
end header

1 0
1 0.01
1 0.02
1 0.03
1 0.04
1 0.05
1 0.06
1 0.07
1 0.08
1 0.09
1 0.1
1 0.11
1 0.12
1 0.13
1 0.14
1 0.15
1 0.16
1 0.17
1 0.18
1 0.19
1 0.2
1 0.21
1 0.22
1 0.23
1 0.24
1 0.25
1 0.26
1 0.27
1 0.28
1 0.29
1 0.3
1 0.31
1 0.32
1 0.33
1 0.34
1 0.35
1 0.36
1 0.37
1 0.38
1 0.39
1 0.4
1 0.41
1 0.42
1 0.43
1 0.44
1 0.45
1 0.46
1 0.47
1 0.48
1 0.49
1 0.5
1 0.51
1 0.52
1 0.53
1 0.54
1 0.55
1 0.56
1 0.57
1 0.58
1 0.59
1 0.6
1 0.61
1 0.62
1 0.63
1 0.64
1 0.65
1 0.66
1 0.67
1 0.68
1 0.69
1 0.7
1 0.71
1 0.72
1 0.73
1 0.74
1 0.75
1 0.76
1 0.77
1 0.78
1 0.79
1 0.8
1 0.81
1 0.82
1 0.83
1 0.84
1 0.85
1 0.86
1 0.87
1 0.88
1 0.89
1 0.9
1 0.91
1 0.92
1 0.93
1 0.94
1 0.95
1 0.96
1 0.97
1 0.98
1 0.99
1 1

e	0 1
e	1 2
e	2 3
e	3 4
e	4 5
e	5 6
e	6 7
e	7 8
e	8 9
e	9 10
e	10 11
e	11 12
e	12 13
e	13 14
e	14 15
e	15 16
e	16 17
e	17 18
e	18 19
e	19 20
e	20 21
e	21 22
e	22 23
e	23 24
e	24 25
e	25 26
e	26 27
e	27 28
e	28 29
e	29 30
e	30 31
e	31 32
e	32 33
e	33 34
e	34 35
e	35 36
e	36 37
e	37 38
e	38 39
e	39 40
e	40 41
e	41 42
e	42 43
e	43 44
e	44 45
e	45 46
e	46 47
e	47 48
e	48 49
e	49 50
e	50 51
e	51 52
e	52 53
e	53 54
e	54 55
e	55 56
e	56 57
e	57 58
e	58 59
e	59 60
e	60 61
e	61 62
e	62 63
e	63 64
e	64 65
e	65 66
e	66 67
e	67 68
e	68 69
e	69 70
e	70 71
e	71 72
e	72 73
e	73 74
e	74 75
e	75 76
e	76 77
e	77 78
e	78 79
e	79 80
e	80 81
e	81 82
e	82 83
e	83 84
e	84 85
e	85 86
e	86 87
e	87 88
e	88 89
e	89 90
e	90 91
e	91 92
e	92 93
e	93 94
e	94 95
e	95 96
e	96 97
e	97 98
e	98 99
e	99 100


domain
boundary
2 1 100
0
1
2
3
4
5
6
7
8
9
10
11
12
13
14
15
16
17
18
19
20
21
22
23
24
25
26
27
28
29
30
31
32
33
34
35
36
37
38
39
40
41
42
43
44
45
46
47
48
49
50
51
52
53
54
55
56
57
58
59
60
61
62
63
64
65
66
67
68
69
70
71
72
73
74
75
76
77
78
79
80
81
82
83
84
85
86
87
88
89
90
91
92
93
94
95
96
97
98
99
