#!geo
mesh
2 2 140 238 377

0 0
1 0
1 1
0 1
0.1 0
0.2 0
0.3 0
0.4 0
0.5 0
0.6 0
0.7 0
0.8 0
0.9 0
1 0.1
1 0.2
1 0.3
1 0.4
1 0.5
1 0.6
1 0.7
1 0.8
1 0.9
0.9 1
0.8 1
0.7 1
0.6 1
0.5 1
0.4 1
0.3 1
0.2 1
0.1 1
0 0.9
0 0.8
0 0.7
0 0.6
0 0.5
0 0.4
0 0.3
0 0.2
0 0.1
0.166666666154 0.266666666154
0.866666666154 0.666666666154
0.733333332821 0.866666666154
0.149999998976 0.149999998976
0.0714285709163 0.571428570916
0.733333332821 0.133333332821
0.333333332821 0.916666666667
0.819999999898 0.159999999693
0.85 0.0749999997439
0.924999999232 0.85
0.499999999488 0.499999999488
0.714285713773 0.214285713773
0.714285713773 0.785714285202
0.357142856631 0.142857142345
0.25 0.199999999488
0.0666666661544 0.333333332821
0.799999999488 0.75
0.666666666154 0.933333332821
0.224999999232 0.0749999997439
0.916666666667 0.333333332821
0.266666666154 0.833333332821
0.133333332821 0.933333332821
0.85 0.899999999488
0.499999999488 0.399999999488
0.785714285202 0.285714285202
0.642857142345 0.857142856631
0.079999999078 0.239999999283
0.428571428059 0.928571428059
0.866666666154 0.266666666154
0.199999999488 0.75
0.774999999744 0.0749999997439
0.933333332821 0.133333332821
0.224999999232 0.924999999232
0.0666666661544 0.866666666154
0.499999999488 0.299999999488
0.571428570916 0.928571428059
0.133333332821 0.666666666154
0.149999998976 0.85
0.499999999488 0.899999999488
0.499999999488 0.199999999488
0.928571428059 0.428571428059
0.142857142345 0.357142856631
0.0749999997439 0.149999998976
0.924999999232 0.224999999232
0.0749999997439 0.774999999744
0.774999999744 0.924999999232
0.499999999488 0.799999999488
0.499999999488 0.0999999994878
0.928571428059 0.571428570916
0.0714285709163 0.428571428059
0.333333332821 0.0666666661544
0.499999999488 0.699999999488
0.571428570916 0.0714285709163
0.879999999078 0.759999999693
0.666666666154 0.0666666661544
0.133333332821 0.0666666661544
0.499999999488 0.599999999488
0.642857142345 0.142857142345
0.428571428059 0.0714285709163
0.607142856118 0.482142856375
0.642857142345 0.723809523297
0.316666665642 0.633333332821
0.714285713773 0.464285713261
0.571428570916 0.661904761393
0.224999999232 0.649999998976
0.821428570404 0.446428570148
0.399999998463 0.649999998976
0.428571427035 0.221428570404
0.642857142345 0.392857141833
0.299999999488 0.733333332821
0.714285713773 0.339285713517
0.410714284946 0.464285713261
0.232142855862 0.367857142089
0.571428570916 0.221428570404
0.321428570404 0.428571427035
0.410714284946 0.389285713005
0.13968253917 0.460317459805
0.333333332821 0.266666666154
0.683333332309 0.633333332821
0.774999998719 0.649999998976
0.408333332053 0.541666665386
0.824999999232 0.824999999232
0.42222222171 0.744444443932
0.416666665642 0.858333332565
0.344444443932 0.788888888377
0.642857142345 0.276190475678
0.571428570916 0.338095237583
0.571428570916 0.778571427547
0.714285713773 0.53571428469
0.821428570404 0.553571427803
0.3273809511 0.347619046082
0.230555554275 0.444444442908
0.241071427419 0.283928570276
0.419642855478 0.305357141192
0.767857141064 0.392857141833
0.182341268689 0.55515872939
0.273214284818 0.539285712493
0.645238094214 0.557738094598
0.572619046851 0.578869047043
0.842261903353 0.363095237327

t	49 21 22
t	52 56 121
t	20 21 49
t	30 3 31
t	73 31 32
t	84 77 73
t	33 84 32
t	76 69 84
t	61 30 73
t	72 61 77
t	46 72 60
t	29 61 72
t	30 31 73
t	77 61 73
t	32 84 73
t	69 60 77
t	72 46 28
t	77 60 72
t	84 69 77
t	34 76 33
t	135 44 116
t	131 135 116
t	104 76 135
t	120 111 50
t	106 120 96
t	106 101 120
t	120 101 136
t	91 106 96
t	91 86 122
t	116 44 89
t	81 116 89
t	136 114 120
t	81 131 116
t	112 114 131
t	109 104 101
t	76 44 135
t	138 50 99
t	124 123 46
t	109 124 60
t	109 122 124
t	69 76 104
t	33 76 84
t	34 44 76
t	29 30 61
t	89 55 81
t	46 27 28
t	29 72 28
t	75 78 127
t	127 78 86
t	124 46 60
t	86 123 122
t	67 46 123
t	35 44 34
t	93 41 19
t	62 121 49
t	56 41 93
t	49 121 93
t	138 96 50
t	137 138 99
t	137 118 138
t	102 128 99
t	100 127 103
t	96 138 103
t	52 65 100
t	57 65 42
t	119 100 118
t	111 63 50
t	136 135 131
t	114 136 131
t	101 104 136
t	132 40 54
t	117 132 54
t	112 40 132
t	115 114 130
t	120 114 111
t	136 104 135
t	81 40 112
t	35 89 44
t	117 54 53
t	133 117 107
t	74 133 107
t	115 130 133
t	130 132 117
t	87 98 8
t	74 63 133
t	95 43 82
t	5 95 4
t	58 43 95
t	107 117 53
t	98 107 53
t	114 115 111
t	40 43 54
t	0 4 39
t	82 39 95
t	58 95 5
t	58 54 43
t	6 58 5
t	6 90 58
t	40 66 43
t	53 54 58
t	82 38 39
t	4 95 39
t	43 66 82
t	90 53 58
t	7 90 6
t	7 98 90
t	66 40 55
t	37 66 55
t	38 82 66
t	87 92 113
t	55 40 81
t	37 55 36
t	37 38 66
t	92 97 113
t	89 36 55
t	112 131 81
t	35 36 89
t	104 109 69
t	122 106 91
t	78 123 86
t	109 106 122
t	69 109 60
t	101 106 109
t	103 91 96
t	127 65 75
t	91 127 86
t	100 65 127
t	78 67 123
t	1 13 12
t	48 12 71
t	83 14 15
t	47 83 68
t	71 14 83
t	48 71 47
t	13 14 71
t	59 15 16
t	17 80 16
t	83 47 71
t	139 68 59
t	64 47 68
t	70 48 47
t	94 70 45
t	11 48 70
t	68 83 59
t	70 47 45
t	12 48 11
t	12 13 71
t	126 63 74
t	11 70 10
t	99 50 63
t	108 99 63
t	134 102 108
t	64 134 110
t	105 102 134
t	139 105 134
t	80 88 129
t	119 129 41
t	129 105 80
t	41 129 88
t	119 128 129
t	56 119 41
t	105 129 102
t	118 128 119
t	137 99 128
t	118 137 128
t	118 103 138
t	51 45 47
t	83 15 59
t	98 53 90
t	8 98 7
t	87 79 107
t	98 87 107
t	9 92 8
t	97 94 45
t	125 113 97
t	110 125 51
t	110 108 125
t	92 94 97
t	8 92 87
t	9 10 94
t	74 107 79
t	126 108 63
t	113 126 74
t	125 108 126
t	64 110 51
t	102 99 108
t	115 63 111
t	130 117 133
t	112 130 114
t	112 132 130
t	133 63 115
t	110 134 108
t	126 113 125
t	139 59 80
t	64 139 134
t	64 68 139
t	47 64 51
t	139 80 105
t	50 96 120
t	94 10 70
t	51 97 45
t	92 9 94
t	88 17 18
t	119 52 100
t	80 17 88
t	118 100 103
t	128 102 129
t	119 56 52
t	59 16 80
t	113 79 87
t	51 125 97
t	74 79 113
t	103 127 91
t	27 46 67
t	18 41 88
t	18 19 41
t	75 57 25
t	26 78 75
t	27 67 26
t	122 123 124
t	52 42 65
t	20 49 93
t	75 25 26
t	67 78 26
t	65 57 75
t	85 57 42
t	24 25 57
t	19 20 93
t	2 22 21
t	62 22 23
t	85 23 24
t	121 85 42
t	62 23 85
t	121 62 85
t	52 121 42
t	56 93 121
t	49 22 62
t	24 57 85

21 49
22 21
49 22
56 52
121 56
52 121
20 21
20 49
30 3
3 31
30 31
31 73
31 32
73 32
77 84
73 77
84 73
84 33
32 84
32 33
69 76
84 69
76 84
30 61
73 30
61 73
61 72
77 61
72 77
72 46
60 72
46 60
61 29
29 72
60 69
77 60
69 77
28 46
72 28
76 34
33 76
33 34
44 135
116 44
135 116
135 131
131 116
76 104
135 76
104 135
111 120
50 111
120 50
120 106
96 120
106 96
101 106
120 101
136 101
120 136
106 91
91 96
86 91
122 86
91 122
89 44
116 89
116 81
81 89
114 136
120 114
131 81
114 112
131 114
112 131
104 109
101 104
109 101
44 76
50 138
99 50
138 99
123 124
46 123
124 46
124 109
60 124
109 60
122 109
124 122
69 104
44 34
29 30
55 89
81 55
27 46
27 28
28 29
78 75
127 78
75 127
86 78
127 86
123 86
122 123
46 67
67 123
44 35
34 35
41 93
19 41
93 19
121 62
49 121
62 49
41 56
56 93
93 121
49 93
96 138
50 96
138 137
137 99
118 137
138 118
128 102
99 128
102 99
127 100
103 127
100 103
103 138
96 103
65 52
100 65
52 100
65 57
42 65
57 42
100 119
118 100
119 118
63 111
50 63
135 136
136 131
136 104
40 132
54 40
132 54
132 117
117 54
40 112
112 132
114 115
130 114
115 130
111 114
40 81
81 112
89 35
53 54
117 53
117 133
107 117
133 107
133 74
74 107
133 130
115 133
132 130
130 117
98 87
8 98
87 8
63 74
133 63
43 95
82 43
95 82
95 5
4 95
4 5
43 58
58 95
107 53
107 98
98 53
111 115
43 40
54 43
0 4
39 4
39 0
39 82
95 39
58 5
54 58
58 6
5 6
90 6
58 90
66 40
43 66
53 58
38 82
38 39
82 66
53 90
90 7
6 7
98 7
90 98
55 40
66 55
66 37
37 55
38 66
92 87
113 92
87 113
36 55
36 37
37 38
97 92
113 97
36 89
35 36
69 109
106 122
123 78
106 109
91 103
65 127
75 65
127 91
67 78
1 13
12 13
12 1
12 48
71 12
48 71
14 83
14 15
83 15
83 47
68 83
47 68
14 71
71 83
47 71
48 47
13 14
13 71
15 59
15 16
59 16
80 17
16 80
16 17
68 139
59 68
139 59
47 64
64 68
48 70
70 47
70 94
45 70
94 45
48 11
11 70
59 83
45 47
11 12
63 126
126 74
10 70
10 11
99 63
99 108
108 63
102 134
108 102
134 108
134 64
110 134
64 110
102 105
105 134
105 139
139 134
88 80
129 88
80 129
129 119
41 129
119 41
105 129
80 105
41 88
128 119
129 128
119 56
102 129
128 118
137 128
103 118
45 51
51 47
7 8
79 87
107 79
87 107
92 9
8 92
8 9
94 97
97 45
113 125
125 97
125 110
51 125
110 51
108 110
125 108
94 92
9 10
94 10
9 94
74 79
108 126
126 113
113 74
125 126
64 51
63 115
130 112
80 59
139 80
139 64
97 51
17 88
17 18
88 18
52 119
79 113
27 67
41 18
18 19
57 75
25 57
75 25
78 26
26 75
26 67
26 27
42 52
20 93
25 26
57 85
85 42
24 25
24 57
19 20
2 22
21 2
22 62
22 23
62 23
23 85
23 24
85 24
85 121
121 42
62 85


domain
bottom
1 1 10
0 4
4 5
5 6
6 7
7 8
8 9
9 10
10 11
11 12
12 1

domain
right
1 1 10
1 13
13 14
14 15
15 16
16 17
17 18
18 19
19 20
20 21
21 2

domain
top
1 1 10
2 22
22 23
23 24
24 25
25 26
26 27
27 28
28 29
29 30
30 3

domain
left
1 1 10
3 31
31 32
32 33
33 34
34 35
35 36
36 37
37 38
38 39
39 0

domain
boundary
1 1 40
0 4
4 5
5 6
6 7
7 8
8 9
9 10
10 11
11 12
12 1
1 13
13 14
14 15
15 16
16 17
17 18
18 19
19 20
20 21
21 2
2 22
22 23
23 24
24 25
25 26
26 27
27 28
28 29
29 30
30 3
3 31
31 32
32 33
33 34
34 35
35 36
36 37
37 38
38 39
39 0

