#!geo

mesh
4
header
 dimension 2
 nodes	21
 edges	20
end header

1 0
1 1
1 0.1
1 0.2
1 0.3
1 0.4
1 0.5
1 0.6
1 0.7
1 0.8
1 0.9
1 0.05
1 0.15
1 0.25
1 0.35
1 0.45
1 0.55
1 0.65
1 0.75
1 0.85
1 0.95

e	0 11
e	11 2
e	2 12
e	12 3
e	3 13
e	13 4
e	4 14
e	14 5
e	5 15
e	15 6
e	6 16
e	16 7
e	7 17
e	17 8
e	8 18
e	18 9
e	9 19
e	19 10
e	10 20
e	20 1


domain
boundary
2 1 20
0
1
2
3
4
5
6
7
8
9
10
11
12
13
14
15
16
17
18
19
