#!geo
mesh
4
header
 dimension 2
 nodes 36
 triangles 50
 edges 85
end header

0 0
0 0.2
0 0.4
0 0.6
0 0.8
0 1
0.2 0
0.2 0.2
0.2 0.4
0.2 0.6
0.2 0.8
0.2 1
0.4 0
0.4 0.2
0.4 0.4
0.4 0.6
0.4 0.8
0.4 1
0.6 0
0.6 0.2
0.6 0.4
0.6 0.6
0.6 0.8
0.6 1
0.8 0
0.8 0.2
0.8 0.4
0.8 0.6
0.8 0.8
0.8 1
1 0
1 0.2
1 0.4
1 0.6
1 0.8
1 1

t 	0 6 7
t 	0 7 1
t 	1 7 8
t 	1 8 2
t 	2 8 9
t 	2 9 3
t 	3 9 10
t 	3 10 4
t 	4 10 11
t 	4 11 5
t 	6 12 13
t 	6 13 7
t 	7 13 14
t 	7 14 8
t 	8 14 15
t 	8 15 9
t 	9 15 16
t 	9 16 10
t 	10 16 17
t 	10 17 11
t 	12 18 19
t 	12 19 13
t 	13 19 20
t 	13 20 14
t 	14 20 21
t 	14 21 15
t 	15 21 22
t 	15 22 16
t 	16 22 23
t 	16 23 17
t 	18 24 25
t 	18 25 19
t 	19 25 26
t 	19 26 20
t 	20 26 27
t 	20 27 21
t 	21 27 28
t 	21 28 22
t 	22 28 29
t 	22 29 23
t 	24 30 31
t 	24 31 25
t 	25 31 32
t 	25 32 26
t 	26 32 33
t 	26 33 27
t 	27 33 34
t 	27 34 28
t 	28 34 35
t 	28 35 29

e 0 6
e 7 6
e 0 7
e 1 7
e 1 0
e 8 7
e 1 8
e 2 8
e 2 1
e 9 8
e 2 9
e 3 9
e 3 2
e 10 9
e 3 10
e 4 10
e 4 3
e 11 10
e 4 11
e 11 5
e 5 4
e 6 12
e 13 12
e 6 13
e 7 13
e 14 13
e 7 14
e 8 14
e 15 14
e 8 15
e 9 15
e 16 15
e 9 16
e 10 16
e 17 16
e 10 17
e 17 11
e 12 18
e 19 18
e 12 19
e 13 19
e 20 19
e 13 20
e 14 20
e 21 20
e 14 21
e 15 21
e 22 21
e 15 22
e 16 22
e 23 22
e 16 23
e 23 17
e 18 24
e 25 24
e 18 25
e 19 25
e 26 25
e 19 26
e 20 26
e 27 26
e 20 27
e 21 27
e 28 27
e 21 28
e 22 28
e 29 28
e 22 29
e 29 23
e 24 30
e 30 31
e 24 31
e 25 31
e 31 32
e 25 32
e 26 32
e 32 33
e 26 33
e 27 33
e 33 34
e 27 34
e 28 34
e 34 35
e 28 35
e 35 29
