#!geo

mesh
4
header
 dimension 2
 order     3
 nodes	931
 triangles	196
 edges	310
end header

1 0
0 1
-1 0
0 -1
0.980785280403569 0.195090322014425
0.923879532512616 0.382683432361881
0.831469612303709 0.555570233017861
0.707106781187053 0.707106781186042
0.555570233018917 0.831469612303003
0.382683432362906 0.923879532512191
0.195090322014969 0.980785280403461
-0.195090322014425 0.980785280403569
-0.382683432361881 0.923879532512616
-0.555570233017861 0.831469612303709
-0.707106781186042 0.707106781187053
-0.831469612303003 0.555570233018917
-0.923879532512191 0.382683432362906
-0.980785280403461 0.195090322014969
-0.980785280403569 -0.195090322014425
-0.923879532512616 -0.382683432361881
-0.831469612303709 -0.555570233017861
-0.707106781187053 -0.707106781186042
-0.555570233018917 -0.831469612303003
-0.382683432362906 -0.923879532512191
-0.195090322014969 -0.980785280403461
0.195090322014425 -0.980785280403569
0.382683432361881 -0.923879532512616
0.555570233017861 -0.831469612303709
0.707106781186042 -0.707106781187053
0.831469612303003 -0.555570233018917
0.923879532512191 -0.382683432362906
0.980785280403461 -0.195090322014969
0 0
-0.461370424881335 0.220990358047375
0.461370424881335 -0.220990358047375
0.350009859570077 0.126340690999522
-0.350009859570077 -0.126340690999522
-0.120980482836047 0.339090762231227
0.120980482836047 -0.339090762231227
0.0062938373830326 -0.197126649090751
-0.0062938373830326 0.197126649090751
-0.145598449220739 0.118947217114709
0.145598449220739 -0.118947217114709
-0.763476654527997 0.166459048845276
0.763476654527997 -0.166459048845276
-0.0295183705814131 -0.712514566823229
0.0295183705814131 0.712514566823229
0.705962090060214 -0.000878249716532266
-0.705962090060214 0.000878249716532266
-0.411963173963975 0.386780531825645
0.411963173963975 -0.386780531825645
-0.278003016479977 0.256645705833556
0.278003016479977 -0.256645705833556
-0.28793048747505 -0.314399215686225
0.28793048747505 0.314399215686225
-0.52790609378635 -0.0806390412138818
0.52790609378635 0.0806390412138818
-0.468592638738865 -0.259690701349093
0.468592638738865 0.259690701349093
0.542928616958003 -0.385316994271607
-0.542928616958003 0.385316994271607
-0.442648426177078 0.0224594405652961
0.442648426177078 -0.0224594405652961
-0.064029680353047 0.531494454397286
0.064029680353047 -0.531494454397286
-0.166686966801327 -0.120364028016494
0.166686966801327 0.120364028016494
-0.444859371286399 -0.469860334609434
0.444859371286399 0.469860334609434
0.401213414390721 -0.552716690460293
-0.401213414390721 0.552716690460293
-0.203216651446144 -0.549449331948732
0.203216651446144 0.549449331948732
0.651698016444902 0.189898992968776
-0.651698016444902 -0.189898992968776
0.184531449453036 -0.650479343627689
-0.184531449453036 0.650479343627689
0.587068938070183 -0.0901777681600627
-0.587068938070183 0.0901777681600627
-0.641156555820452 0.281150308427
0.641156555820452 -0.281150308427
0.243453536246134 -0.452867914729283
-0.243453536246134 0.452867914729283
-0.0777550175250658 -0.341987406895119
0.0777550175250658 0.341987406895119
-0.833350122666112 -0.114469021359031
0.833350122666112 0.114469021359031
-0.307386190521755 0.062056333757487
0.307386190521755 -0.062056333757487
0.0877417336508788 -0.830951847620552
-0.0877417336508788 0.830951847620552
0.654026455507679 0.508065455228955
-0.654026455507679 -0.508065455228955
-0.466295013535464 0.715415169750847
0.466295013535464 -0.715415169750847
-0.286259227567734 0.775704644062594
0.286259227567734 -0.775704644062594
-0.0964684282118877 -0.862320500279038
0.0964684282118877 0.862320500279038
0.650747751407358 -0.527664370141966
-0.650747751407358 0.527664370141966
0.792009154934292 -0.310609496358423
-0.792009154934292 0.310609496358423
-0.552204625423728 -0.637041818584883
0.552204625423728 0.637041818584883
-0.862509739241488 0.0487126167480768
0.862509739241488 -0.0487126167480768
-0.215273300522099 -0.789258116248013
0.215273300522099 0.789258116248013
-0.393826071690151 -0.697655754175727
0.393826071690151 0.697655754175727
-0.600277776284809 -0.351128995471904
0.600277776284809 0.351128995471904
0.782212399446199 0.328129493203262
-0.782212399446199 -0.328129493203262
-0.097065632813826 0.0792981447431393
-0.048532816406913 0.0396490723715697
-0.0020979457943442 0.0657088830302503
-0.0041958915886884 0.131417766060501
-0.0527287079956014 0.17106683843207
-0.0991635786081702 0.14500702777339
-0.129186471630944 0.265709580525721
-0.137392460425842 0.192328398820215
-0.0445227192007041 0.244448020137576
-0.0827516010183755 0.291769391184402
0.097065632813826 -0.0792981447431393
0.048532816406913 -0.0396490723715697
0.0020979457943442 -0.0657088830302503
0.0041958915886884 -0.131417766060501
0.0527287079956014 -0.17106683843207
0.0991635786081702 -0.14500702777339
0.129186471630944 -0.265709580525721
0.137392460425842 -0.192328398820215
0.0445227192007041 -0.244448020137576
0.0827516010183755 -0.291769391184402
-0.233868160726898 0.21074620959394
-0.189733304973818 0.164846713354325
-0.173321327384024 0.311609076765337
-0.225662171932 0.284127391299446
-0.322656402307976 0.300023981164252
-0.367309788135976 0.343402256494949
-0.428432257603095 0.331517140566222
-0.444901341242215 0.276253749306798
-0.400247955414216 0.232875473976102
-0.339125485947096 0.244760589904829
0.233868160726898 -0.21074620959394
0.189733304973818 -0.164846713354325
0.173321327384024 -0.311609076765337
0.225662171932 -0.284127391299446
0.322656402307976 -0.300023981164252
0.367309788135976 -0.343402256494949
0.428432257603095 -0.331517140566222
0.444901341242215 -0.276253749306798
0.400247955414216 -0.232875473976102
0.339125485947096 -0.244760589904829
-0.409308604308835 -0.111106807737642
-0.468607349047592 -0.0958729244757619
-0.508134942103855 -0.140322927925619
-0.48836379042136 -0.200006814637356
-0.429065045682602 -0.215240697899236
-0.38953745262634 -0.170790694449379
0.409308604308835 0.111106807737642
0.468607349047592 0.0958729244757619
0.508134942103855 0.140322927925619
0.48836379042136 0.200006814637356
0.429065045682602 0.215240697899236
0.38953745262634 0.170790694449379
0.455618321628651 -0.386292685974299
0.499273469293327 -0.385804840122953
0.515742552932447 -0.33054144886353
0.488556488906891 -0.275765903455452
-0.455618321628651 0.386292685974299
-0.499273469293327 0.385804840122953
-0.515742552932447 0.33054144886353
-0.488556488906891 0.275765903455452
-0.471067648713502 -0.0119067200277632
-0.499486871249926 -0.0462728806208225
-0.380889381772411 -0.0767406471445826
-0.411768903974744 -0.0271406032896433
0.471067648713502 0.0119067200277632
0.499486871249926 0.0462728806208225
0.380889381772411 0.0767406471445826
0.411768903974744 0.0271406032896433
-0.329316735538401 -0.18902686589509
-0.308623611506726 -0.251713040790657
-0.247515980583809 -0.249720819796315
-0.207101473692568 -0.185042423906404
-0.227794597724244 -0.122356249010837
-0.28890222864716 -0.124348470005179
0.329316735538401 0.18902686589509
0.308623611506726 0.251713040790657
0.247515980583809 0.249720819796315
0.207101473692568 0.185042423906404
0.227794597724244 0.122356249010837
0.28890222864716 0.124348470005179
0.610434042225385 0.153479009050478
0.569170068005867 0.11705902513218
0.587258092544305 0.0534666109037438
0.646610091302259 0.0262941805936058
0.687874065521777 0.0627141645119038
0.669786040983339 0.12630657874034
-0.610434042225385 -0.153479009050478
-0.569170068005867 -0.11705902513218
-0.587258092544305 -0.0534666109037438
-0.646610091302259 -0.0262941805936058
-0.687874065521777 -0.0627141645119038
-0.669786040983339 -0.12630657874034
0.144364193086373 -0.610817713884221
0.10419693671971 -0.571156084140754
0.032846996708227 -0.5918344918726
0.00166431306340693 -0.652174529347915
0.0418315694300699 -0.691836159091382
0.113181509441553 -0.671157751359536
-0.144364193086373 0.610817713884221
-0.10419693671971 0.571156084140754
-0.032846996708227 0.5918344918726
-0.00166431306340693 0.652174529347915
-0.0418315694300699 0.691836159091382
-0.113181509441553 0.671157751359536
0.547627041880961 0.0237001047559003
0.567347989975572 -0.0332388317020812
0.626699988733527 -0.0604112620122192
0.66633103939687 -0.0306447558643757
0.645871510222788 -0.1156048617218
0.704674082375392 -0.141031955283538
0.744305133038736 -0.111265449135695
0.725133611549475 -0.0560718494261135
-0.547627041880961 -0.0237001047559003
-0.567347989975572 0.0332388317020812
-0.626699988733527 0.0604112620122192
-0.66633103939687 0.0306447558643757
-0.645871510222788 0.1156048617218
-0.704674082375392 0.141031955283538
-0.744305133038736 0.111265449135695
-0.725133611549475 0.0560718494261135
-0.575671263245486 0.350594765656738
-0.608413909532969 0.315872537041869
-0.581227845507413 0.261096991633792
-0.521299135194374 0.241043674840583
-0.605098143986939 0.153835281582375
-0.623127349903696 0.217492795004688
-0.6819299220563 0.242919888566425
-0.722703288292149 0.204689468705851
-0.5451694336739 0.133781964789167
-0.503269929277618 0.177386161418271
0.575671263245486 -0.350594765656738
0.608413909532969 -0.315872537041869
0.581227845507413 -0.261096991633792
0.521299135194374 -0.241043674840583
0.605098143986939 -0.153835281582375
0.623127349903696 -0.217492795004688
0.6819299220563 -0.242919888566425
0.722703288292149 -0.204689468705851
0.5451694336739 -0.133781964789167
0.503269929277618 -0.177386161418271
0.10199688200838 -0.40322532628658
0.0830132811807137 -0.467359890341933
0.123837632317409 -0.505285607841285
0.183645584281772 -0.479076761285284
0.202629185109438 -0.414942197229931
0.161804833972743 -0.377016479730579
-0.10199688200838 0.40322532628658
-0.0830132811807137 0.467359890341933
-0.123837632317409 0.505285607841285
-0.183645584281772 0.479076761285284
-0.202629185109438 0.414942197229931
-0.161804833972743 0.377016479730579
-0.352473602406863 0.04885736936009
-0.39756101429197 0.0356584049626931
-0.335801969887303 -0.0635416827471857
-0.321594080204529 -0.000742674494849327
0.352473602406863 -0.04885736936009
0.39756101429197 -0.0356584049626931
0.335801969887303 0.0635416827471857
0.321594080204529 0.000742674494849327
-0.408371921650927 -0.277926872794804
-0.348151204562988 -0.296163044240514
0.408371921650927 0.277926872794804
0.348151204562988 0.296163044240514
-0.254970029657415 0.387460511764041
-0.266486523068696 0.322053108798798
-0.299623415485414 0.430838787094737
-0.355793294724695 0.408809659460191
-0.40837992077289 0.442092584703861
-0.404796667581806 0.497404637582077
-0.448451815246482 0.496916791730731
-0.495690216102242 0.441116893001169
0.254970029657415 -0.387460511764041
0.266486523068696 -0.322053108798798
0.299623415485414 -0.430838787094737
0.355793294724695 -0.408809659460191
0.40837992077289 -0.442092584703861
0.404796667581806 -0.497404637582077
0.448451815246482 -0.496916791730731
0.495690216102242 -0.441116893001169
-0.0497387325556997 -0.293700487626996
-0.0217224475863335 -0.245413568358874
-0.0513664306784206 -0.171539108732665
-0.109026698739874 -0.14595156837458
-0.13704298370924 -0.194238487642702
-0.107399000617153 -0.268112947268911
-0.217871997491722 -0.323595279422523
-0.147813507508394 -0.332791343158821
0.0497387325556997 0.293700487626996
0.0217224475863335 0.245413568358874
0.0513664306784206 0.171539108732665
0.109026698739874 0.14595156837458
0.13704298370924 0.194238487642702
0.107399000617153 0.268112947268911
0.217871997491722 0.323595279422523
0.147813507508394 0.332791343158821
-0.44888909241183 0.0886364130593224
-0.455129758646583 0.154813385553349
-0.538928767439148 0.0676049922951405
-0.490788596808113 0.0450322164302183
-0.59066289054289 -0.213162895762215
-0.529627764640877 -0.236426798555654
0.44888909241183 -0.0886364130593224
0.455129758646583 -0.154813385553349
0.538928767439148 -0.0676049922951405
0.490788596808113 -0.0450322164302183
0.59066289054289 0.213162895762215
0.529627764640877 0.236426798555654
0.145317224491234 0.603804410240231
0.0874177975363234 0.65815948853173
0.0250524302466833 0.537479413581101
0.114134540846414 0.543464372764917
-0.145317224491234 -0.603804410240231
-0.0874177975363234 -0.65815948853173
-0.0250524302466833 -0.537479413581101
-0.114134540846414 -0.543464372764917
-0.204172145050735 0.58460886732822
-0.223812840648435 0.518738391028752
0.204172145050735 -0.58460886732822
0.223812840648435 -0.518738391028752
-0.888900081777408 -0.0763126809060207
-0.944450040888704 -0.0381563404530103
-0.997865050828362 -0.0653095730755517
-0.991432619323551 -0.130619146151103
-0.931640227824417 -0.168216555129294
-0.882495175245264 -0.141342788244162
-0.748424767595513 -0.0375708406419888
-0.790887445130813 -0.0760199310005099
-0.772799420592375 -0.139612345228946
-0.712248718518639 -0.164755669098861
0.888900081777408 0.0763126809060207
0.944450040888704 0.0381563404530103
0.997865050828362 0.0653095730755517
0.991432619323551 0.130619146151103
0.931640227824417 0.168216555129294
0.882495175245264 0.141342788244162
0.748424767595513 0.0375708406419888
0.790887445130813 0.0760199310005099
0.772799420592375 0.139612345228946
0.712248718518639 0.164755669098861
0.0584944891005859 -0.887301231747035
0.0292472445502929 -0.943650615873517
0.0653095730755517 -0.997865050828362
0.130619146151103 -0.991432619323551
0.159307459226576 -0.93084080280923
0.123524596438728 -0.880896325214891
0.00956833082935087 -0.751993660422337
0.0486550322401148 -0.791472754021444
0.120004972251598 -0.770794346289598
0.152268210852317 -0.710636844958643
-0.0584944891005859 0.887301231747035
-0.0292472445502929 0.943650615873517
-0.0653095730755517 0.997865050828362
-0.130619146151103 0.991432619323551
-0.159307459226576 0.93084080280923
-0.123524596438728 0.880896325214891
-0.00956833082935087 0.751993660422337
-0.0486550322401148 0.791472754021444
-0.120004972251598 0.770794346289598
-0.152268210852317 0.710636844958643
-0.442204600527527 0.896914205078886
-0.500081193403347 0.865978521676077
-0.525811826523729 0.792784798119421
-0.496053420029596 0.754099983935134
-0.438424486477603 0.784903290671437
-0.410553959419742 0.854391411592026
0.442204600527527 -0.896914205078886
0.500081193403347 -0.865978521676077
0.525811826523729 -0.792784798119421
0.496053420029596 -0.754099983935134
0.438424486477603 -0.784903290671437
0.410553959419742 -0.854391411592026
0.055562322267109 0.0401213426721647
0.111124644534218 0.0802426853443293
0.152627955080935 -0.0391768020709747
0.159657460941131 0.0405936129727597
0.21358670804147 0.0595572407585003
0.260486449281612 -0.00124954649949333
0.199527696321078 -0.0999835893289683
0.253456943421416 -0.0810199615432277
-0.055562322267109 -0.0401213426721647
-0.111124644534218 -0.0802426853443293
-0.152627955080935 0.0391768020709747
-0.159657460941131 -0.0405936129727597
-0.21358670804147 -0.0595572407585003
-0.260486449281612 0.00124954649949333
-0.199527696321078 0.0999835893289683
-0.253456943421416 0.0810199615432277
-0.0115098507380282 -0.341021858673822
0.0547353160490094 -0.340056310452524
-0.0304934515656949 -0.405156422729175
0.0167681143936761 -0.46832543856323
-0.119575562165425 -0.41114138191299
-0.161396106805785 -0.480295356930861
0.0115098507380282 0.341021858673822
-0.0547353160490094 0.340056310452524
0.0304934515656949 0.405156422729175
-0.0167681143936761 0.46832543856323
0.119575562165425 0.41114138191299
0.161396106805785 0.480295356930861
-0.318400629165783 0.825096273545935
-0.350542030763832 0.874487903029275
-0.406283084879554 0.735511661188096
-0.346271156223644 0.755608152625345
-0.252349968196168 0.733962877250959
-0.218440708824602 0.692221110439324
-0.153914231623164 0.812536113101233
-0.220086729595449 0.794120378581913
0.318400629165783 -0.825096273545935
0.350542030763832 -0.874487903029275
0.406283084879554 -0.735511661188096
0.346271156223644 -0.755608152625345
0.252349968196168 -0.733962877250959
0.218440708824602 -0.692221110439324
0.153914231623164 -0.812536113101233
0.220086729595449 -0.794120378581913
-0.130619146151471 -0.991432619323502
-0.0653095730757354 -0.99786505082835
-0.0321561427372959 -0.954106833426346
-0.0643122854745918 -0.908213666852692
-0.129342392812915 -0.901808760320512
-0.162216357413942 -0.941297020361987
0.130619146151471 0.991432619323502
0.0653095730757354 0.99786505082835
0.0321561427372959 0.954106833426346
0.0643122854745918 0.908213666852692
0.129342392812915 0.901808760320512
0.162216357413942 0.941297020361987
0.782498321465527 -0.262559347187374
0.772987487996762 -0.214509198016325
0.691440755525065 -0.290970037737474
0.741724955229679 -0.300789767047949
-0.782498321465527 0.262559347187374
-0.772987487996762 0.214509198016325
-0.691440755525065 0.290970037737474
-0.741724955229679 0.300789767047949
-0.901934919628812 0.0975051851703742
-0.941360100016137 0.146297753592672
-0.991432619323502 0.130619146151471
-0.99786505082835 0.0653095730757354
-0.954169913080496 0.0162375389160256
-0.908339826160992 0.0324750778320512
-0.835912863153152 0.176002806568507
-0.908349071778306 0.185546564291738
-0.829498711003658 0.0879614274471432
-0.796487682765827 0.12721023814621
-0.843069994857904 -0.0600751419899951
-0.852789867049696 -0.00568126262095914
0.901934919628812 -0.0975051851703742
0.941360100016137 -0.146297753592672
0.991432619323502 -0.130619146151471
0.99786505082835 -0.0653095730757354
0.954169913080496 -0.0162375389160256
0.908339826160992 -0.0324750778320512
0.835912863153152 -0.176002806568507
0.908349071778306 -0.185546564291738
0.829498711003658 -0.0879614274471432
0.796487682765827 -0.12721023814621
0.843069994857904 0.0600751419899951
0.852789867049696 0.00568126262095914
-0.659416302151393 -0.75177798614816
-0.608687044215813 -0.793410412210363
-0.554448363820521 -0.766660347730296
-0.553326494622124 -0.70185108315759
-0.603838677344836 -0.660396806118603
-0.655472729265945 -0.683751793652322
0.659416302151393 0.75177798614816
0.608687044215813 0.793410412210363
0.554448363820521 0.766660347730296
0.553326494622124 0.70185108315759
0.603838677344836 0.660396806118603
0.655472729265945 0.683751793652322
-0.75177798614816 0.659416302151393
-0.793410412210362 0.608687044215813
-0.771228992004455 0.5462682787266
-0.710988371705906 0.536966324434283
-0.669534094666919 0.587478507156995
-0.688320437926481 0.647292644172024
0.75177798614816 -0.659416302151393
0.793410412210362 -0.608687044215813
0.771228992004455 -0.5462682787266
0.710988371705906 -0.536966324434283
0.669534094666919 -0.587478507156995
0.688320437926481 -0.647292644172024
0.835965947460258 -0.334634141693251
0.879922739986225 -0.358658787028078
0.946899988260328 -0.321528244844197
0.965950088039492 -0.258728482035702
0.917859905247071 -0.233596713462787
0.854934530090682 -0.272103104910605
-0.835965947460258 0.334634141693251
-0.879922739986225 0.358658787028078
-0.946899988260328 0.321528244844197
-0.965950088039492 0.258728482035702
-0.917859905247071 0.233596713462787
-0.854934530090682 0.272103104910605
-0.810327189514397 0.032767827737562
-0.758144639787305 0.0168230387270471
0.810327189514397 -0.032767827737562
0.758144639787305 -0.0168230387270471
0.258728482034988 -0.965950088039683
0.321528244843321 -0.946899988260626
0.255869592383298 -0.844064856176252
0.225479957198861 -0.912425068289911
-0.258728482034988 0.965950088039683
-0.321528244843321 0.946899988260626
-0.255869592383298 0.844064856176252
-0.225479957198861 0.912425068289911
0.02633834636329 -0.841408065173381
-0.0350650409242989 -0.851864282726209
-0.051835056458238 -0.762449877975165
-0.0741517423350628 -0.812385189127102
-0.02633834636329 0.841408065173381
0.0350650409242989 0.851864282726209
0.051835056458238 0.762449877975165
0.0741517423350628 0.812385189127102
-0.578868328441121 0.432766119561727
-0.61480803992424 0.480215244851846
-0.647550686211723 0.445493016236977
-0.644353621016087 0.363321662331989
-0.697834885916336 0.455312745547452
-0.744922020425314 0.382961120952937
0.578868328441121 -0.432766119561727
0.61480803992424 -0.480215244851846
0.647550686211723 -0.445493016236977
0.644353621016087 -0.363321662331989
0.697834885916336 -0.455312745547452
0.744922020425314 -0.382961120952937
0.321528244844197 0.946899988260328
0.258728482035702 0.965950088039492
0.201817981517346 0.916942892351645
0.208545641019722 0.853100504299829
0.271076677802368 0.834131921669406
0.326880055082637 0.879005727090798
0.136070052315291 0.837966372268696
0.175671676418695 0.813612244258355
0.207235534471462 0.629385593381826
0.211254417496781 0.709321854814919
0.15335499054187 0.763676933106418
0.0914366805616417 0.738095749964824
-0.321528244844197 -0.946899988260328
-0.258728482035702 -0.965950088039492
-0.201817981517346 -0.916942892351645
-0.208545641019722 -0.853100504299829
-0.271076677802368 -0.834131921669406
-0.326880055082637 -0.879005727090798
-0.136070052315291 -0.837966372268696
-0.175671676418695 -0.813612244258355
-0.207235534471462 -0.629385593381826
-0.211254417496781 -0.709321854814919
-0.15335499054187 -0.763676933106418
-0.0914366805616417 -0.738095749964824
0.29604016229433 -0.486150839972953
0.348626788342525 -0.519433765216623
0.256758771098931 -0.61789179257189
0.328986092744826 -0.585304241516092
0.324577289842063 -0.70137532619516
0.362895352116392 -0.627046008327727
0.444601147153883 -0.661182343320662
0.422907280772302 -0.606949516890478
-0.29604016229433 0.486150839972953
-0.348626788342525 0.519433765216623
-0.256758771098931 0.61789179257189
-0.328986092744826 0.585304241516092
-0.324577289842063 0.70137532619516
-0.362895352116392 0.627046008327727
-0.444601147153883 0.661182343320662
-0.422907280772302 0.606949516890478
-0.4843915267296 0.544365917020851
-0.567569639068479 0.536015143581408
-0.527779259492762 0.65283156988122
-0.58926350545006 0.590247970011593
0.4843915267296 -0.544365917020851
0.567569639068479 -0.536015143581408
0.527779259492762 -0.65283156988122
0.58926350545006 -0.590247970011593
0.514581732693492 0.482595374815941
0.584304094100586 0.495330415022448
0.620085845479695 0.551057576347598
0.586145235451712 0.59404969746624
0.516422874044618 0.581314657259733
0.480641122665509 0.525587495934584
-0.514581732693492 -0.482595374815941
-0.584304094100586 -0.495330415022448
-0.620085845479695 -0.551057576347598
-0.586145235451712 -0.59404969746624
-0.516422874044618 -0.581314657259733
-0.480641122665509 -0.525587495934584
-0.297591799174496 0.126919457782843
-0.287797407827236 0.1917825818082
-0.410042346761475 0.168012349950746
-0.358714268641615 0.115034341854116
0.297591799174496 -0.126919457782843
0.287797407827236 -0.1917825818082
0.410042346761475 -0.168012349950746
0.358714268641615 -0.115034341854116
-0.865978521675469 0.500081193404401
-0.896914205078372 0.44220460052857
-0.805162640723862 0.392263075245254
-0.818316126513433 0.473916654132086
0.865978521675469 -0.500081193404401
0.896914205078372 -0.44220460052857
0.805162640723862 -0.392263075245254
0.818316126513433 -0.473916654132086
-0.608687044214763 0.793410412211168
-0.659416302150358 0.751777986149068
-0.626836191969183 0.709876244041651
-0.546565602752323 0.712645706896249
0.608687044214763 -0.793410412211168
0.659416302150358 -0.751777986149068
0.626836191969183 -0.709876244041651
0.546565602752323 -0.712645706896249
0.713174174439689 0.52390038115859
0.772321893371699 0.539735307088226
0.793410412211168 0.608687044214763
0.751777986149068 0.659416302150358
0.689413339293928 0.64075967253368
0.671719897400804 0.574412563881317
-0.713174174439689 -0.52390038115859
-0.772321893371699 -0.539735307088226
-0.793410412211168 -0.608687044214763
-0.751777986149068 -0.659416302150358
-0.689413339293928 -0.64075967253368
-0.671719897400804 -0.574412563881317
-0.447740792133073 -0.742260373551486
-0.501655512575995 -0.786864992927244
-0.500081193404401 -0.865978521675469
-0.44220460052857 -0.896914205078372
-0.386397645471988 -0.848471606400036
-0.390111858581069 -0.773063680287882
-0.27479089091145 -0.758723995557251
-0.3343084813008 -0.728189874866489
-0.446618922934677 -0.677451108978779
-0.499411774179202 -0.657246463781831
0.447740792133073 0.742260373551486
0.501655512575995 0.786864992927244
0.500081193404401 0.865978521675469
0.44220460052857 0.896914205078372
0.386397645471988 0.848471606400036
0.390111858581069 0.773063680287882
0.27479089091145 0.758723995557251
0.3343084813008 0.728189874866489
0.446618922934677 0.677451108978779
0.499411774179202 0.657246463781831
-0.266753124860813 -0.598851472691064
-0.330289598275482 -0.648253613433395
-0.410837171555567 -0.621723947653629
-0.427848271420983 -0.545792141131532
0.266753124860813 0.598851472691064
0.330289598275482 0.648253613433395
0.410837171555567 0.621723947653629
0.427848271420983 0.545792141131532
0.460681549588043 0.329747245769207
0.452770460437221 0.39980379018932
0.392549743349283 0.418039961635031
0.340240115412166 0.366219588660628
-0.460681549588043 -0.329747245769207
-0.452770460437221 -0.39980379018932
-0.392549743349283 -0.418039961635031
-0.340240115412166 -0.366219588660628
-0.259692542132081 -0.392749254440394
-0.231454596789113 -0.471099293194563
-0.364311798006314 -0.4963900003892
-0.283764224726229 -0.522919666168966
0.259692542132081 0.392749254440394
0.231454596789113 0.471099293194563
0.364311798006314 0.4963900003892
0.283764224726229 0.522919666168966
-0.512487684587513 -0.290170132723363
-0.556382730436161 -0.320649564097634
-0.548471641285339 -0.390706108517747
-0.496665506285869 -0.430283221563591
-0.634557936391538 -0.243642327136485
-0.617417856338173 -0.297385661304195
-0.618194002692432 -0.403441148724254
-0.636110229100056 -0.455753301976605
0.512487684587513 0.290170132723363
0.556382730436161 0.320649564097634
0.548471641285339 0.390706108517747
0.496665506285869 0.430283221563591
0.634557936391538 0.243642327136485
0.617417856338173 0.297385661304195
0.618194002692432 0.403441148724254
0.636110229100056 0.455753301976605
0.816304214926141 0.185689178640441
0.79925830718617 0.256909335921852
0.738707605112433 0.282052659791767
0.695202810778668 0.235975826380271
-0.816304214926141 -0.185689178640441
-0.79925830718617 -0.256909335921852
-0.738707605112433 -0.282052659791767
-0.695202810778668 -0.235975826380271
-0.965950088039683 -0.258728482034988
-0.946899988260626 -0.321528244843321
-0.87665715482381 -0.364498785975675
-0.829434777135005 -0.346314139589468
-0.848403359765322 -0.283783102806983
-0.914594320084446 -0.239436712410704
-0.896914205078886 -0.442204600527527
-0.865978521676077 -0.500081193403347
-0.815050541351205 -0.479756653079661
-0.798631470398702 -0.403943073141462
-0.696755103487186 -0.448086801220391
-0.739483751466692 -0.388108147211826
0.965950088039683 0.258728482034988
0.946899988260626 0.321528244843321
0.87665715482381 0.364498785975675
0.829434777135005 0.346314139589468
0.848403359765322 0.283783102806983
0.914594320084446 0.239436712410704
0.896914205078886 0.442204600527527
0.865978521676077 0.500081193403347
0.815050541351205 0.479756653079661
0.798631470398702 0.403943073141462
0.696755103487186 0.448086801220391
0.739483751466692 0.388108147211826
0.721567525059069 0.335795993959476
0.660922650671939 0.34346249471569
-0.721567525059069 -0.335795993959476
-0.660922650671939 -0.34346249471569
-0.0506307622012572 0.10535795540182
-0.0909575898132729 0.218388209478896
0.0506307622012572 -0.10535795540182
0.0909575898132729 -0.218388209478896
-0.181527316178921 0.238227895059831
-0.383778871775096 0.288138865235525
0.181527316178921 -0.238227895059831
0.383778871775096 -0.288138865235525
-0.448836197365097 -0.155556811187499
0.448836197365097 0.155556811187499
0.472087405267771 -0.331029294714876
-0.472087405267771 0.331029294714876
-0.440188126511168 -0.0615067638827026
0.440188126511168 0.0615067638827026
-0.268209104615485 -0.187034644900747
0.268209104615485 0.187034644900747
0.628522066763822 0.0898865948220419
-0.628522066763822 -0.0898865948220419
0.07301425307489 -0.631496121616068
-0.07301425307489 0.631496121616068
0.606979040638916 -0.00347232555423772
0.685502560886131 -0.085838355573957
-0.606979040638916 0.00347232555423772
-0.685502560886131 0.085838355573957
-0.54848519921993 0.295819220248661
-0.663900716139544 0.179262375144113
-0.563198639590657 0.197439478211479
0.54848519921993 -0.295819220248661
0.663900716139544 -0.179262375144113
0.563198639590657 -0.197439478211479
0.142821233145076 -0.441151043785932
-0.142821233145076 0.441151043785932
-0.366681492089637 -0.0139416388922463
0.366681492089637 0.0139416388922463
-0.368844328594664 -0.233476869344947
0.368844328594664 0.233476869344947
-0.214145678520719 0.349534794264689
-0.311139908896695 0.365431384129495
-0.452035068437566 0.441604738852515
0.214145678520719 -0.349534794264689
0.311139908896695 -0.365431384129495
0.452035068437566 -0.441604738852515
-0.0793827156477867 -0.219826028000788
-0.177457490600481 -0.258916883532613
0.0793827156477867 0.219826028000788
0.177457490600481 0.258916883532613
-0.497029263042865 0.111209188924245
-0.519207819344537 0.010666055837159
-0.549398916323372 -0.176742911843917
0.497029263042865 -0.111209188924245
0.519207819344537 -0.010666055837159
0.549398916323372 0.176742911843917
0.0562351138915034 0.597819451056416
-0.0562351138915034 -0.597819451056416
-0.164004888684072 0.544947237584753
0.164004888684072 -0.544947237584753
-0.940173231793646 -0.103396047094209
-0.730336743057076 -0.101163254870425
0.940173231793646 0.103396047094209
0.730336743057076 0.101163254870425
0.0944869511914921 -0.93937380677846
0.0809182708408339 -0.73131525269049
-0.0944869511914921 0.93937380677846
-0.0809182708408339 0.73131525269049
-0.469190925109518 0.825474000340384
0.469190925109518 -0.825474000340384
0.0534643764727648 0.105830225702415
0.104095138674022 0.000472270300594997
0.274694338964386 0.061549461752843
0.206557202181274 -0.020213174285234
-0.0534643764727648 -0.105830225702415
-0.104095138674022 -0.000472270300594997
-0.274694338964386 -0.061549461752843
-0.206557202181274 0.020213174285234
0.0165064342313379 -0.292734939405699
0.0357517152213427 -0.404190874507877
-0.0723139962060543 -0.474310397747046
-0.0165064342313379 0.292734939405699
-0.0357517152213427 0.404190874507877
0.0723139962060543 0.474310397747046
-0.378412557821693 0.804999782108686
-0.186177470223883 0.752378611770278
0.378412557821693 -0.804999782108686
0.186177470223883 -0.752378611770278
-0.0973958493786782 -0.949830024331264
0.0973958493786782 0.949830024331264
0.732214121760914 -0.2527396178769
-0.732214121760914 0.2527396178769
-0.949893103985414 0.0814772455574079
-0.868923891390982 0.136753995869441
-0.8986199539692 -0.0219188015369847
0.949893103985414 -0.0814772455574079
0.868923891390982 -0.136753995869441
0.8986199539692 0.0219188015369847
-0.606317129583542 -0.726859071908679
0.606317129583542 0.726859071908679
-0.731427716182837 0.598137044489621
0.731427716182837 -0.598137044489621
0.90093763846269 -0.296748493370939
0.845423696621917 -0.224052955739556
-0.90093763846269 0.296748493370939
-0.845423696621917 0.224052955739556
-0.777316161276566 0.0720166384366284
-0.800607317322605 -0.021626051631474
0.777316161276566 -0.0720166384366284
0.800607317322605 0.021626051631474
0.288631737106847 -0.895502801505624
0.189697094411013 -0.862480590695572
-0.288631737106847 0.895502801505624
-0.189697094411013 0.862480590695572
-0.00290889818700298 -0.897757449299863
-0.012748355047474 -0.801928971574273
0.00290889818700298 0.897757449299863
0.012748355047474 0.801928971574273
-0.611610974728604 0.398043890946858
-0.694637820720701 0.373141391642463
0.611610974728604 -0.398043890946858
0.694637820720701 -0.373141391642463
0.264969761425497 0.900020625567264
0.168944016916319 0.877454632310171
0.149336107516552 0.683740671673325
0.113753366438467 0.78803106111676
-0.264969761425497 -0.900020625567264
-0.168944016916319 -0.877454632310171
-0.149336107516552 -0.683740671673325
-0.113753366438467 -0.78803106111676
0.35221004153361 -0.464121712338407
0.27639946669663 -0.552021316272422
0.290668030470497 -0.659633559383525
0.384589218497973 -0.681278834757911
-0.35221004153361 0.464121712338407
-0.27639946669663 0.552021316272422
-0.290668030470497 0.659633559383525
-0.384589218497973 0.681278834757911
-0.531629927585361 0.488566018291289
-0.506085393111181 0.598598743451035
0.531629927585361 -0.488566018291289
0.506085393111181 -0.598598743451035
0.550363484072602 0.538322536141091
-0.550363484072602 -0.538322536141091
-0.348919877294356 0.179897465879473
-0.403801680526723 0.101835377456719
-0.243662552074157 0.145883085568584
0.348919877294356 -0.179897465879473
0.403801680526723 -0.101835377456719
0.243662552074157 -0.145883085568584
-0.85100532873449 0.417295752717869
-0.758075506214884 0.464614699839769
0.85100532873449 -0.417295752717869
0.758075506214884 -0.464614699839769
-0.57768059228676 0.752983522297905
-0.608049848709621 0.650062107026622
0.57768059228676 -0.752983522297905
0.608049848709621 -0.650062107026622
0.732520617550182 0.591604072851257
0.63777928737282 0.61740468499996
-0.732520617550182 -0.591604072851257
-0.63777928737282 -0.61740468499996
-0.445034611161778 -0.819554195148302
-0.330594268191719 -0.803597800978644
-0.500533643377599 -0.722055728354538
0.445034611161778 0.819554195148302
0.330594268191719 0.803597800978644
0.500533643377599 0.722055728354538
-0.270772007886131 -0.678787734124157
-0.463630022800093 -0.601519302456681
0.270772007886131 0.678787734124157
0.463630022800093 0.601519302456681
0.400460832500105 0.347983417214917
-0.400460832500105 -0.347983417214917
-0.189634052148753 -0.401945318176692
-0.312002170069198 -0.444569627414797
-0.347300698140898 -0.572321806911298
0.189634052148753 0.401945318176692
0.312002170069198 0.444569627414797
0.347300698140898 0.572321806911298
-0.504576595436691 -0.360226677143477
-0.573522810489525 -0.266906229929924
-0.566387867692962 -0.443018261770098
0.504576595436691 0.360226677143477
0.573522810489525 0.266906229929924
0.566387867692962 0.443018261770098
0.755753512852404 0.210832502510356
-0.755753512852404 -0.210832502510356
-0.897672053300159 -0.30258849231869
-0.865449267505293 -0.212562945525573
-0.847739743572168 -0.423135751665451
-0.755902822419196 -0.463921727150026
0.897672053300159 0.30258849231869
0.865449267505293 0.212562945525573
0.847739743572168 0.423135751665451
0.755902822419196 0.463921727150026
0.678062730725303 0.289719160547981
0.678838877079562 0.39577464796804
-0.678062730725303 -0.289719160547981
-0.678838877079562 -0.39577464796804

t	41 32 40
t	37 41 40
t	42 32 39
t	38 42 39
t	51 41 37
t	51 49 33
t	52 42 38
t	52 50 34
t	36 55 57
t	35 56 58
t	34 50 59
t	33 49 60
t	61 55 36
t	62 56 35
t	36 53 65
t	35 54 66
t	73 56 47
t	74 55 48
t	75 64 45
t	76 63 46
t	47 56 77
t	77 44 47
t	48 55 78
t	78 43 48
t	33 60 79
t	43 78 79
t	79 78 33
t	34 59 80
t	44 77 80
t	80 77 34
t	38 64 81
t	37 63 82
t	87 61 36
t	88 62 35
t	53 36 57
t	54 35 58
t	51 37 82
t	51 82 49
t	49 70 60
t	52 38 81
t	52 81 50
t	50 69 59
t	83 39 65
t	53 83 65
t	84 40 66
t	54 84 66
t	61 33 78
t	61 78 55
t	55 74 57
t	62 34 77
t	62 77 56
t	56 73 58
t	72 46 63
t	71 45 64
t	76 82 63
t	75 81 64
t	85 2 18
t	74 48 85
t	86 0 4
t	73 47 86
t	89 3 25
t	45 89 75
t	90 1 11
t	46 90 76
t	12 13 93
t	26 27 94
t	66 40 32
t	32 42 66
t	35 66 88
t	88 66 42
t	65 39 32
t	32 41 65
t	36 65 87
t	87 65 41
t	38 39 83
t	38 83 64
t	83 71 64
t	37 40 84
t	37 84 63
t	84 72 63
t	95 12 93
t	95 76 90
t	96 26 94
t	96 75 89
t	24 3 97
t	10 1 98
t	101 44 80
t	102 43 79
t	105 17 2
t	43 17 105
t	2 85 105
t	106 31 0
t	44 31 106
t	0 86 106
t	21 22 103
t	7 8 104
t	14 15 100
t	28 29 99
t	101 30 31
t	44 101 31
t	102 16 17
t	43 102 17
t	48 43 105
t	48 105 85
t	47 44 106
t	47 106 86
t	25 26 96
t	25 96 89
t	11 12 95
t	11 95 90
t	97 3 89
t	45 97 89
t	98 1 90
t	46 98 90
t	79 60 100
t	79 100 102
t	80 59 99
t	80 99 101
t	9 10 108
t	98 108 10
t	72 108 46
t	46 108 98
t	23 24 107
t	97 107 24
t	71 107 45
t	45 107 97
t	69 50 81
t	75 69 81
t	69 75 96
t	69 96 94
t	70 49 82
t	76 70 82
t	70 76 95
t	70 95 93
t	70 100 60
t	70 93 100
t	69 99 59
t	69 94 99
t	68 91 104
t	67 92 103
t	87 51 33
t	33 61 87
t	41 51 87
t	88 52 34
t	34 62 88
t	42 52 88
t	15 16 102
t	15 102 100
t	29 30 101
t	29 101 99
t	93 13 14
t	100 93 14
t	94 27 28
t	99 94 28
t	91 6 7
t	104 91 7
t	92 20 21
t	103 92 21
t	109 22 23
t	23 107 109
t	103 22 109
t	110 8 9
t	9 108 110
t	104 8 110
t	107 71 109
t	67 103 109
t	108 72 110
t	68 104 110
t	54 58 68
t	53 57 67
t	83 53 71
t	53 67 71
t	71 67 109
t	84 54 72
t	54 68 72
t	72 68 110
t	67 57 111
t	111 57 74
t	111 92 67
t	68 58 112
t	112 58 73
t	112 91 68
t	73 86 113
t	74 85 114
t	18 19 114
t	18 114 85
t	114 19 20
t	92 114 20
t	4 5 113
t	4 113 86
t	113 5 6
t	91 113 6
t	112 73 113
t	112 113 91
t	111 74 114
t	111 114 92

e	41 32
e	32 40
e	40 41
e	37 41
e	40 37
e	42 32
e	32 39
e	39 42
e	38 42
e	39 38
e	51 41
e	37 51
e	51 49
e	49 33
e	33 51
e	52 42
e	38 52
e	52 50
e	50 34
e	34 52
e	36 55
e	55 57
e	57 36
e	35 56
e	56 58
e	58 35
e	50 59
e	59 34
e	49 60
e	60 33
e	61 55
e	36 61
e	62 56
e	35 62
e	36 53
e	53 65
e	65 36
e	35 54
e	54 66
e	66 35
e	73 56
e	56 47
e	47 73
e	74 55
e	55 48
e	48 74
e	75 64
e	64 45
e	45 75
e	76 63
e	63 46
e	46 76
e	56 77
e	77 47
e	77 44
e	44 47
e	55 78
e	78 48
e	78 43
e	43 48
e	60 79
e	79 33
e	78 79
e	79 43
e	78 33
e	59 80
e	80 34
e	77 80
e	80 44
e	77 34
e	38 64
e	64 81
e	81 38
e	37 63
e	63 82
e	82 37
e	87 61
e	36 87
e	88 62
e	35 88
e	57 53
e	58 54
e	82 51
e	82 49
e	49 70
e	70 60
e	81 52
e	81 50
e	50 69
e	69 59
e	83 39
e	39 65
e	65 83
e	53 83
e	84 40
e	40 66
e	66 84
e	54 84
e	61 33
e	78 61
e	74 57
e	62 34
e	77 62
e	73 58
e	72 46
e	63 72
e	71 45
e	64 71
e	76 82
e	75 81
e	85 2
e	2 18
e	18 85
e	48 85
e	85 74
e	86 0
e	0 4
e	4 86
e	47 86
e	86 73
e	89 3
e	3 25
e	25 89
e	45 89
e	89 75
e	90 1
e	1 11
e	11 90
e	46 90
e	90 76
e	12 13
e	13 93
e	93 12
e	26 27
e	27 94
e	94 26
e	32 66
e	42 66
e	66 88
e	42 88
e	32 65
e	41 65
e	65 87
e	41 87
e	83 38
e	83 64
e	83 71
e	84 37
e	84 63
e	84 72
e	95 12
e	93 95
e	95 76
e	90 95
e	96 26
e	94 96
e	96 75
e	89 96
e	24 3
e	3 97
e	97 24
e	10 1
e	1 98
e	98 10
e	101 44
e	80 101
e	102 43
e	79 102
e	105 17
e	17 2
e	2 105
e	43 17
e	105 43
e	85 105
e	106 31
e	31 0
e	0 106
e	44 31
e	106 44
e	86 106
e	21 22
e	22 103
e	103 21
e	7 8
e	8 104
e	104 7
e	14 15
e	15 100
e	100 14
e	28 29
e	29 99
e	99 28
e	101 30
e	30 31
e	31 101
e	102 16
e	16 17
e	17 102
e	105 48
e	106 47
e	25 26
e	96 25
e	11 12
e	95 11
e	89 97
e	45 97
e	90 98
e	46 98
e	60 100
e	100 79
e	100 102
e	59 99
e	99 80
e	99 101
e	9 10
e	10 108
e	108 9
e	98 108
e	72 108
e	108 46
e	23 24
e	24 107
e	107 23
e	97 107
e	71 107
e	107 45
e	81 69
e	75 69
e	96 69
e	94 69
e	82 70
e	76 70
e	95 70
e	93 70
e	70 100
e	93 100
e	69 99
e	94 99
e	68 91
e	91 104
e	104 68
e	67 92
e	92 103
e	103 67
e	87 51
e	33 87
e	88 52
e	34 88
e	15 16
e	102 15
e	29 30
e	101 29
e	13 14
e	14 93
e	27 28
e	28 94
e	91 6
e	6 7
e	7 91
e	92 20
e	20 21
e	21 92
e	109 22
e	22 23
e	23 109
e	107 109
e	109 103
e	110 8
e	8 9
e	9 110
e	108 110
e	110 104
e	71 109
e	109 67
e	72 110
e	110 68
e	58 68
e	68 54
e	57 67
e	67 53
e	53 71
e	67 71
e	54 72
e	68 72
e	57 111
e	111 67
e	74 111
e	111 92
e	58 112
e	112 68
e	73 112
e	112 91
e	86 113
e	113 73
e	85 114
e	114 74
e	18 19
e	19 114
e	114 18
e	19 20
e	20 114
e	92 114
e	4 5
e	5 113
e	113 4
e	5 6
e	6 113
e	91 113
e	113 112
e	114 111

domain
boundary
2 1 32
116
302
305
257
183
268
214
161
126
202
130
252
186
248
196
169
111
296
299
260
180
263
220
158
121
200
133
254
189
250
193
175
