#!geo

mesh
4
header
 dimension	2
 order		10
 nodes		1461
 triangles	4
 quadrangles	12
end header

1 0
0 -1
-1 0
0 1
0.866025403785716 -0.499999999997788
0.499999999998842 -0.866025403785107
-0.499999999997788 -0.866025403785716
-0.866025403785107 -0.499999999998842
-0.866025403785716 0.499999999997788
-0.499999999998842 0.866025403785107
0.499999999997788 0.866025403785716
0.866025403785107 0.499999999998842
1.63471723558436e-06 1.63471723553868e-06
-0.421359777294645 -0.421359777295
0.421361864763829 0.421361864764185
-0.421359344034558 0.421361851030553
0.421361851030908 -0.421359344034203
0.451459222032719 1.44568522759264e-06
-0.451456341248722 1.43509877021872e-06
1.32397641926128e-06 0.451459100324205
1.31339055034027e-06 -0.451456462957236
0.998629534754586 -0.0523359562427176
0.994521895368323 -0.104528463267183
0.987688340595243 -0.156434465039564
0.978147600733994 -0.207911690816875
0.965925826289376 -0.258819045101374
0.951056516295602 -0.309016994373567
0.933580426497818 -0.358367949543695
0.913545457643417 -0.406736643073968
0.891006524189403 -0.453990499737516
0.838670567946677 -0.544639035013098
0.809016994376151 -0.587785252290817
0.777145961458086 -0.629320391048461
0.743144825478442 -0.669130606357695
0.707106781187483 -0.707106781185612
0.669130606359462 -0.743144825476851
0.629320391050057 -0.777145961456793
0.587785252292243 -0.809016994375115
0.544639035014318 -0.838670567945885
0.4539904997385 -0.891006524188901
0.406736643074861 -0.913545457643019
0.358367949544473 -0.933580426497519
0.309016994374264 -0.951056516295376
0.258819045101953 -0.965925826289221
0.207911690817299 -0.978147600733903
0.156434465039903 -0.98768834059519
0.104528463267421 -0.994521895368298
0.0523359562428158 -0.998629534754581
-0.0523359562427176 -0.998629534754586
-0.104528463267183 -0.994521895368323
-0.156434465039564 -0.987688340595243
-0.207911690816875 -0.978147600733994
-0.258819045101374 -0.965925826289376
-0.309016994373567 -0.951056516295602
-0.358367949543695 -0.933580426497818
-0.406736643073968 -0.913545457643417
-0.453990499737516 -0.891006524189403
-0.544639035013098 -0.838670567946677
-0.587785252290817 -0.809016994376151
-0.629320391048461 -0.777145961458086
-0.669130606357695 -0.743144825478442
-0.707106781185612 -0.707106781187483
-0.743144825476851 -0.669130606359462
-0.777145961456793 -0.629320391050057
-0.809016994375115 -0.587785252292243
-0.838670567945885 -0.544639035014318
-0.891006524188901 -0.4539904997385
-0.913545457643019 -0.406736643074861
-0.933580426497519 -0.358367949544473
-0.951056516295376 -0.309016994374264
-0.965925826289221 -0.258819045101953
-0.978147600733903 -0.207911690817299
-0.98768834059519 -0.156434465039903
-0.994521895368298 -0.104528463267421
-0.998629534754581 -0.0523359562428158
-0.998629534754586 0.0523359562427176
-0.994521895368323 0.104528463267183
-0.987688340595243 0.156434465039564
-0.978147600733994 0.207911690816875
-0.965925826289376 0.258819045101374
-0.951056516295602 0.309016994373567
-0.933580426497818 0.358367949543695
-0.913545457643417 0.406736643073968
-0.891006524189403 0.453990499737516
-0.838670567946677 0.544639035013098
-0.809016994376151 0.587785252290817
-0.777145961458086 0.629320391048461
-0.743144825478442 0.669130606357695
-0.707106781187483 0.707106781185612
-0.669130606359462 0.743144825476851
-0.629320391050057 0.777145961456793
-0.587785252292243 0.809016994375115
-0.544639035014318 0.838670567945885
-0.4539904997385 0.891006524188901
-0.406736643074861 0.913545457643019
-0.358367949544473 0.933580426497519
-0.309016994374264 0.951056516295376
-0.258819045101953 0.965925826289221
-0.207911690817299 0.978147600733903
-0.156434465039903 0.98768834059519
-0.104528463267421 0.994521895368298
-0.0523359562428158 0.998629534754581
0.0523359562427176 0.998629534754586
0.104528463267183 0.994521895368323
0.156434465039564 0.987688340595243
0.207911690816875 0.978147600733994
0.258819045101374 0.965925826289376
0.309016994373567 0.951056516295602
0.358367949543695 0.933580426497818
0.406736643073968 0.913545457643417
0.453990499737516 0.891006524189403
0.544639035013098 0.838670567946677
0.587785252290817 0.809016994376151
0.629320391048461 0.777145961458086
0.669130606357695 0.743144825478442
0.707106781185612 0.707106781187483
0.743144825476851 0.669130606359462
0.777145961456793 0.629320391050057
0.809016994375115 0.587785252292243
0.838670567945885 0.544639035014318
0.891006524188901 0.4539904997385
0.913545457643019 0.406736643074861
0.933580426497519 0.358367949544473
0.951056516295376 0.309016994374264
0.965925826289221 0.258819045101953
0.978147600733903 0.207911690817299
0.98768834059519 0.156434465039903
0.994521895368298 0.104528463267421
0.998629534754581 0.0523359562428158
-0.821558841136061 -0.492135977728458
-0.777092278487015 -0.484271955458074
-0.732625715837968 -0.476407933187689
-0.688159153188922 -0.468543910917305
-0.643692590539876 -0.460679888646921
-0.59922602789083 -0.452815866376537
-0.554759465241783 -0.444951844106153
-0.510292902592737 -0.437087821835769
-0.465826339943691 -0.429223799565384
-0.429223799564959 -0.465826339944072
-0.437087821835273 -0.510292902593143
-0.444951844105588 -0.554759465242215
-0.452815866375902 -0.599226027891286
-0.460679888646216 -0.643692590540358
-0.468543910916531 -0.68815915318943
-0.476407933186845 -0.732625715838501
-0.484271955457159 -0.777092278487573
-0.492135977727474 -0.821558841136644
0.821559049882979 0.492136186475376
0.777092695980852 0.48427237295191
0.732626342078724 0.476408559428445
0.688159988176596 0.468544745904979
0.643693634274468 0.460680932381513
0.59922728037234 0.452817118858047
0.554760926470212 0.444953305334582
0.510294572568084 0.437089491811116
0.465828218665957 0.42922567828765
0.429225678287225 0.465828218666338
0.437089491810621 0.510294572568491
0.444953305334017 0.554760926470644
0.452817118857412 0.599227280372797
0.460680932380808 0.64369363427495
0.468544745904204 0.688159988177103
0.4764085594276 0.732626342079256
0.484272372950996 0.77709269598141
0.492136186474392 0.821559049883563
-0.465825950009674 0.429225665927276
-0.51029255598479 0.437089480824
-0.554759161959906 0.444953295720723
-0.599225767935021 0.452817110617447
-0.643692373910137 0.46068092551417
-0.688158979885253 0.468544740410894
-0.732625585860369 0.476408555307617
-0.777092191835484 0.484272370204341
-0.8215587978106 0.492136185101064
-0.492135934402413 0.821559048509652
-0.484271868805985 0.777092693234196
-0.476407803209557 0.732626337958741
-0.468543737613129 0.688159982683285
-0.4606796720167 0.64369362740783
-0.452815606420272 0.599227272132374
-0.444951540823844 0.554760916856919
-0.437087475227415 0.510294561581463
-0.429223409630987 0.465828206306008
0.465828206306389 -0.429223409630561
0.51029456158187 -0.43708747522692
0.554760916857351 -0.444951540823278
0.599227272132831 -0.452815606419637
0.643693627408312 -0.460679672015995
0.688159982683793 -0.468543737612354
0.732626337959273 -0.476407803208713
0.777092693234754 -0.484271868805071
0.821559048510235 -0.492135934401429
0.492136185102048 -0.821558797810017
0.484272370205255 -0.777092191834926
0.476408555308462 -0.732625585859836
0.468544740411668 -0.688158979884746
0.460680925514875 -0.643692373909655
0.452817110618082 -0.599225767934565
0.444953295721288 -0.554759161959474
0.437089480824495 -0.510292555984384
0.429225665927702 -0.465825950009293
1.18205149530624e-06 -0.506310816661512
1.05071244027222e-06 -0.561165170365789
9.19373385238189e-07 -0.616019524070065
7.88034330204162e-07 -0.670873877774341
6.56695275170135e-07 -0.725728231478618
5.25356220136108e-07 -0.780582585182894
3.94017165102081e-07 -0.835436938887171
2.62678110068054e-07 -0.890291292591447
1.31339055034027e-07 -0.945145646295724
-0.379223668226125 -0.424369445861224
-0.337087559157606 -0.427379114427447
-0.294951450089086 -0.430388782993671
-0.252815341020567 -0.433398451559894
-0.210679231952047 -0.436408120126118
-0.168543122883528 -0.439417788692342
-0.126407013815008 -0.442427457258565
-0.0842709047464886 -0.445437125824789
-0.0421347956779691 -0.448446794391012
1.19157877733515e-06 0.506313190291785
1.05918113540902e-06 0.561167280259364
9.26783493482896e-07 0.616021370226944
7.94385851556768e-07 0.670875460194523
6.6198820963064e-07 0.725729550162103
5.29590567704512e-07 0.780583640129682
3.97192925778384e-07 0.835437730097262
2.64795283852256e-07 0.890291820064841
1.32397641926128e-07 0.945145910032421
0.379225810685088 0.424371588320187
0.337089756606347 0.427381311876189
0.294953702527606 0.430391035432191
0.252817648448865 0.433400758988193
0.210681594370124 0.436410482544195
0.168545540291383 0.439420206100197
0.126409486212642 0.442429929656199
0.0842734321339011 0.445439653212201
0.0421373780551602 0.448449376768203
-0.945145634124872 1.43509877021872e-07
-0.890291268249744 2.87019754043744e-07
-0.835436902374617 4.30529631065615e-07
-0.780582536499489 5.74039508087487e-07
-0.725728170624361 7.17549385109359e-07
-0.670873804749233 8.61059262131231e-07
-0.616019438874105 1.0045691391531e-06
-0.561165072998977 1.14807901617497e-06
-0.50631070712385 1.29158889319685e-06
-0.448446684853314 -0.0421346861406068
-0.445437028457906 -0.0842708073799839
-0.442427372062498 -0.126406928619361
-0.439417715667091 -0.168543049858738
-0.436408059271683 -0.210679171098115
-0.433398402876275 -0.252815292337492
-0.430388746480868 -0.294951413576869
-0.42737909008546 -0.337087534816246
-0.424369433690052 -0.379223656055623
0.945145922203272 1.44568522759264e-07
0.890291844406544 2.89137045518528e-07
0.835437766609816 4.33705568277792e-07
0.780583688813088 5.78274091037057e-07
0.72572961101636 7.22842613796321e-07
0.670875533219632 8.67411136555585e-07
0.616021455422904 1.01197965931485e-06
0.561167377626176 1.15654818207411e-06
0.506313299829448 1.30111670483338e-06
0.44844948630583 0.0421374875931233
0.445439750578941 0.084273529501019
0.442430014852052 0.126409571408915
0.439420279125163 0.16854561331681
0.436410543398274 0.210681655224706
0.433400807671385 0.252817697132602
0.430391071944496 0.294953739040497
0.427381336217607 0.337089780948393
0.424371600490718 0.379225822856289
0.424371588131089 -0.37922326506226
0.42738132523127 -0.337087186090317
0.430391062331452 -0.294951107118374
0.433400799431633 -0.252815028146431
0.436410536531814 -0.210678949174488
0.439420273631995 -0.168542870202544
0.442430010732176 -0.126406791230602
0.445439747832357 -0.0842707122586585
0.448449484932538 -0.0421346332867154
-0.424369043755975 0.379225809437374
-0.427378743477391 0.337089767844196
-0.430388443198807 0.294953726251018
-0.433398142920224 0.252817684657839
-0.43640784264164 0.210681643064661
-0.439417542363056 0.168545601471483
-0.442427242084473 0.126409559878305
-0.445436941805889 0.0842735182851267
-0.448446641527305 0.0421374766919484
0.0421373671545861 -0.448446751064932
0.0842734209186219 -0.445437039172629
0.126409474682658 -0.442427327280326
0.168545528446693 -0.439417615388023
0.210681582210729 -0.436407903495719
0.252817635974765 -0.433398191603416
0.294953689738801 -0.430388479711113
0.337089743502837 -0.427378767818809
0.379225797266872 -0.424369055926506
-0.0421347428246785 0.44844937539484
-0.0842708096257763 0.445439650465475
-0.126406876426874 0.442429925536109
-0.168542943227972 0.439420200606744
-0.21067901002907 0.436410475677379
-0.252815076830167 0.433400750748014
-0.294951143631265 0.430391025818648
-0.337087210432363 0.427381300889283
-0.379223277233461 0.424371575959918
1.60258456705995e-06 -0.0451441750502116
1.57045189853554e-06 -0.0902899848176587
1.53831923001113e-06 -0.135435794585106
1.50618656148672e-06 -0.180581604352553
1.47405389296232e-06 -0.22572741412
1.44192122443791e-06 -0.270873223887447
1.4097885559135e-06 -0.316019033654894
1.37765588738909e-06 -0.361164843422342
1.34552321886468e-06 -0.406310653189789
-0.406310543652126 1.45506061675071e-06
-0.36116474605553 1.47502246328271e-06
-0.316018948458935 1.49498430981471e-06
-0.270873150862339 1.5149461563467e-06
-0.225727353265743 1.5349080028787e-06
-0.180581555669147 1.5548698494107e-06
-0.135435758072552 1.57483169594269e-06
-0.0902899604759558 1.59479354247469e-06
-0.0451441628793601 1.61475538900668e-06
1.60364315395205e-06 0.0451473812779325
1.57256907231974e-06 0.0902931278386295
1.54149499068744e-06 0.135438874399327
1.51042090905513e-06 0.180584620960024
1.47934682742282e-06 0.225730367520721
1.44827274579051e-06 0.270876114081417
1.4171986641582e-06 0.316021860642114
1.38612458252589e-06 0.361167607202811
1.35505050089359e-06 0.406313353763508
0.406313463301171 1.46458842838724e-06
0.361167704569623 1.48349162918185e-06
0.316021945838074 1.50239482997645e-06
0.270876187106526 1.52129803077106e-06
0.225730428374978 1.54020123156566e-06
0.180584669643429 1.55910443236026e-06
0.135438910911881 1.57800763315487e-06
0.0902931521803324 1.59691083394947e-06
0.045147393448784 1.61581403474408e-06
-0.794204002698828 -0.536775010153291
-0.479405292467782 -0.478644717493223
-0.540236549851058 -0.797620197456979
-0.749737312417584 -0.528910867631925
-0.705268904891379 -0.521045158714787
-0.660788500069669 -0.513168707302446
-0.616252310460996 -0.505242904162613
-0.571518021061878 -0.497143310791707
-0.526202319176138 -0.488536780377173
-0.491671230529644 -0.527221138062659
-0.502666068217282 -0.574891018265236
-0.512434595471882 -0.621594347080063
-0.521024382549519 -0.667273275290767
-0.528485678971927 -0.711872241104021
-0.534871307002965 -0.75533809126528
-0.58379972916763 -0.768079628528737
-0.624352452677014 -0.734927631833502
-0.662564198689825 -0.699157314369972
-0.698664023937859 -0.661250766582499
-0.732677589145152 -0.621454393525182
-0.764550308794337 -0.579921099722812
-0.720081342367511 -0.572054681055864
-0.540195301895253 -0.538748368451717
-0.578344730486423 -0.725394464049946
-0.675594328027986 -0.564170997278952
-0.631017551545444 -0.556203519399432
-0.586108361611747 -0.547930948441596
-0.552335603379415 -0.58762878209589
-0.562691492287025 -0.635087434709849
-0.571335595443983 -0.681037169403542
-0.617639463118096 -0.690802916903843
-0.654086056184093 -0.653269369441399
-0.688190647858554 -0.613569368044913
-0.643600585430797 -0.605582636179764
-0.598604750002664 -0.597206001266369
-0.609086836722496 -0.644863578630653
0.794204211445746 0.53677521890021
0.47940696244313 0.47864638746857
0.540236758597976 0.797620406203897
0.749737729911421 0.528911285125762
0.705269531132134 0.521045784955542
0.660789335057342 0.513169542290119
0.616253354195588 0.505243947897205
0.571519273543388 0.497144563273217
0.526203780404567 0.488538241605601
0.491672691758072 0.527222599291088
0.502667320698792 0.574892270746746
0.512435639206474 0.621595390814655
0.521025217537192 0.66727411027844
0.528486305212682 0.711872867344777
0.534871724496802 0.755338508759117
0.583799937914548 0.768079837275655
0.624352661423932 0.73492784058042
0.662564407436743 0.69915752311689
0.698664232684777 0.661250975329417
0.73267779789207 0.6214546022721
0.764550517541255 0.57992130846973
0.720081759861348 0.572055098549701
0.540196554376764 0.538749620933228
0.57834514798026 0.725394881543783
0.675594954268741 0.564171623519707
0.631018386533118 0.556204354387106
0.586109405346339 0.547931992176188
0.552336647114007 0.587629825830482
0.562692327274698 0.635088269697523
0.571336221684738 0.681037795644297
0.617639880611933 0.690803334397679
0.654086473677929 0.653269786935235
0.688191065352391 0.61356978553875
0.643601211671552 0.605583262420519
0.598605584990337 0.597206836254043
0.609087462963251 0.644864204871408
-0.473690017983558 0.473692023556807
-0.788489031283795 0.531820864447466
-0.531820613514034 0.788489281577158
-0.518156751537805 0.481555958666534
-0.562625202337116 0.489421460172105
-0.607105650432421 0.497297704173226
-0.651641883318304 0.505223299904408
-0.696376216007315 0.513322685875678
-0.741691961211584 0.521929008910882
-0.754433541711818 0.570857223574112
-0.71943169321053 0.609189044578092
-0.683526052108529 0.646762493540915
-0.646762242883785 0.683526302635639
-0.609188793793714 0.719431943610808
-0.570856972679863 0.754433792009011
-0.521928507243955 0.741692462159528
-0.513321933544021 0.696376967706747
-0.505222296924482 0.651642885792409
-0.497296450546668 0.607106903683497
-0.489419955897862 0.562626706363737
-0.481554203744027 0.518158506338952
-0.526023213443855 0.526024717594259
-0.705909427029263 0.559330200566442
-0.559329699007042 0.705909928077902
-0.570510271056483 0.533908193959599
-0.615087090812594 0.541875464427862
-0.659996324023367 0.550147827976865
-0.669762114760021 0.596451488149189
-0.633269112016989 0.633269613321227
-0.596450986716095 0.669762615935068
-0.550147075769087 0.65999707584672
-0.541874461573416 0.615088093412925
-0.53390694045746 0.570511524432362
-0.578497046158313 0.578498048885921
-0.623492924859962 0.586874476387959
-0.58687372430808 0.623493676812012
0.473692023580638 -0.473690017959727
0.78848928198343 -0.531820613747831
0.531820864213668 -0.788489030877525
0.51815850643525 -0.481554203769089
0.562626706534925 -0.489419955974296
0.607106903930596 -0.497296450675052
0.651642886116843 -0.505222297105869
0.69637696810622 -0.513321933776773
0.741692462610853 -0.521928507511613
0.754433792411452 -0.570856972874478
0.719431943910164 -0.609188793878458
0.683526302808163 -0.646762242841281
0.646762493583419 -0.683526051936005
0.609189044493348 -0.719431692911175
0.570857223379497 -0.754433541309378
0.521929008643223 -0.741691960760259
0.513322685642925 -0.696376215607843
0.505223299723021 -0.65164188299387
0.497297704044842 -0.607105650185323
0.489421460095671 -0.562625202165928
0.481555958641471 -0.518156751441507
0.526024717641664 -0.52602321339645
0.705909928428533 -0.559329699167173
0.559330200406311 -0.705909426678633
0.570511524554657 -0.533906940461425
0.615088093611133 -0.541874461629323
0.659997076122271 -0.55014707587796
0.66976261615929 -0.59645098674992
0.633269613416258 -0.633269111921958
0.596451488115364 -0.669762114535799
0.55014782786799 -0.659996323747816
0.541875464371955 -0.615087090614386
0.533908193955634 -0.570510270934187
0.578498048956853 -0.578497046087382
0.623493676958866 -0.586873724289055
0.586874476406985 -0.623492924713108
-0.0431549117344995 -0.503465068426928
-0.0513158401864318 -0.943611260718521
-0.446513816586703 -0.844342816356648
-0.38670035137738 -0.471033153694031
-0.044175027791001 -0.558483342463387
-0.0451951438474996 -0.613501616499842
-0.0462152599040008 -0.668519890536302
-0.0472353759605047 -0.723538164572767
-0.048255492017011 -0.778556438609236
-0.0492756080735163 -0.833574712645706
-0.0502957241300046 -0.888592986682155
-0.102502707415316 -0.93961341841423
-0.15343171991733 -0.933162252261812
-0.203974834023779 -0.924274619530046
-0.254005063786701 -0.912974055673259
-0.303396829038549 -0.899290709822239
-0.352026299598546 -0.883261262147619
-0.399771734682664 -0.864928823322015
-0.439037133435626 -0.797679108523871
-0.431560450284481 -0.751015400691043
-0.424083767133312 -0.704351692858203
-0.416607083982132 -0.657687985025366
-0.409130400830947 -0.611024277192533
-0.401653717679754 -0.5643605693597
-0.394177034528558 -0.517696861526862
-0.344052467549332 -0.475995748748996
-0.301293100034636 -0.480707947343963
-0.258435506355929 -0.485164258033228
-0.215493213267045 -0.489359890742117
-0.172479979676911 -0.493290769896069
-0.129409758937521 -0.496953545591725
-0.0862966605985783 -0.500345602778565
-0.0883224164506808 -0.555254079733033
-0.100476951563292 -0.884704941459851
-0.392806826291082 -0.816312189000442
-0.35101737594101 -0.524612383070628
-0.0903481723027832 -0.610162556687498
-0.0923739281548873 -0.665071033641966
-0.0943996840069929 -0.719979510596439
-0.0964254398590998 -0.774887987550915
-0.0984511957112046 -0.829796464505393
-0.150428974794925 -0.878636163928126
-0.200037977230493 -0.87040163832587
-0.24919108247182 -0.860022285056934
-0.297776663703301 -0.847524903348675
-0.345684649653139 -0.832942097797221
-0.385841917899435 -0.767695554678813
-0.378877009507763 -0.719078920357172
-0.371912101116082 -0.670462286035533
-0.364947192724397 -0.621845651713899
-0.357982284332705 -0.573229017392265
-0.307634749980137 -0.531027111694425
-0.264055671691268 -0.53693006450686
-0.220307194582013 -0.542311661358517
-0.17641683647028 -0.547163751100324
-0.132412504060008 -0.551479633925494
-0.135415249182497 -0.606005722259262
-0.147426229672456 -0.824110075594364
-0.339342999707667 -0.782622933446762
-0.31397639992565 -0.581346276044892
-0.138417994304987 -0.660531810593032
-0.141420739427478 -0.715057898926807
-0.144423484549969 -0.769583987260585
-0.196101120437145 -0.816528657121622
-0.244377101156875 -0.80707051444054
-0.292156498367988 -0.795759096875048
-0.333001349762172 -0.732303769096291
-0.326659699816669 -0.681984604745821
-0.320318049871162 -0.631665440395356
-0.269675837026618 -0.588695870980496
-0.225121175896989 -0.595263431974918
-0.180353693263654 -0.601036732304579
-0.184290550057029 -0.654909713508835
-0.192164263643776 -0.762655675917358
-0.286536333032653 -0.743993290401406
-0.275296002361966 -0.64046167745413
-0.188227406850403 -0.708782694713094
-0.239563119841909 -0.754118743824131
-0.280916167697311 -0.692227483927766
-0.229935157211965 -0.648215202591319
-0.234749138526938 -0.701166973207723
0.0431572358739715 0.503467392566399
0.0513160984241509 0.94361151895624
0.446514030832599 0.844343030602545
0.386702279590447 0.471035081907097
0.0441770936927538 0.55848540836514
0.0451969515115334 0.613503424163876
0.0462168093303155 0.668521439962616
0.0472366671491003 0.723539455761362
0.0482565249678875 0.778557471560113
0.0492763827866736 0.833575487358863
0.0502962406054428 0.888593503157593
0.102502960154058 0.939613671152971
0.153431967157094 0.933162499501575
0.203975075764564 0.924274861270831
0.254005300028509 0.912974291915067
0.303397059781379 0.899290940565069
0.352026524842397 0.883261487391471
0.399771954427538 0.864929043066889
0.439037561927418 0.797679537015664
0.43156109302217 0.751016043428732
0.424084624116897 0.704352549841788
0.416608155211614 0.657689056254847
0.409131686306325 0.611025562667911
0.401655217401028 0.564362069080974
0.394178748495728 0.517698575494032
0.344054445253199 0.475997726452863
0.301295127229304 0.480709974538631
0.258437583041398 0.485166334718696
0.215495339443314 0.489362016918386
0.172482155343981 0.493292945563139
0.129411984095392 0.496955770749596
0.0862989352472495 0.500347877427237
0.0883244383606108 0.555256101642963
0.100477457040774 0.884705446937334
0.392807265780831 0.81631262849019
0.351019133900003 0.524614141029621
0.090349941473972 0.610164325858686
0.0923754445873348 0.665072550074413
0.0944009477006992 0.719980774290145
0.0964264508140648 0.77488899850588
0.0984519539274283 0.829797222721617
0.150429469274451 0.878636658407653
0.200038460712064 0.870402121807441
0.249191554955436 0.860022757540549
0.297777125188961 0.847525364834335
0.345685100140843 0.832942548284925
0.385842577134057 0.767696213913436
0.378877888487259 0.719079799336669
0.371913199840453 0.670463384759904
0.364948511193641 0.621846970183144
0.357983822546824 0.573230555606384
0.307636551930953 0.531028913645241
0.264057517633907 0.536931910449499
0.220309084516474 0.542313551292978
0.176418770396564 0.547165685026609
0.132414481978115 0.551481611843601
0.135416979860841 0.606007452937606
0.147426971391746 0.824110817313655
0.339343675439223 0.782623609178318
0.313977976632614 0.581347852751856
0.138419477743568 0.660533294031613
0.141421975626295 0.715059135125624
0.144424473509022 0.769584976219639
0.196101845659501 0.816529382343979
0.244377809882298 0.807071223165963
0.292157190596477 0.795759789103538
0.333002250737579 0.732304670071699
0.326660826035929 0.681985730965081
0.320319401334274 0.631666791858468
0.269677452226427 0.588697486180305
0.225122829589643 0.595265085667572
0.180355385449153 0.601038424490078
0.184292000501743 0.654911163953548
0.192165230606918 0.7626566428805
0.286537256003972 0.743994213372726
0.275297386818945 0.640463061911109
0.188228615554331 0.708783903417022
0.23956406480914 0.754119688791361
0.28091732141146 0.692228637641915
0.229936574662811 0.648216620042165
0.234750319735976 0.701168154416761
-0.844342815138436 -0.446513815370111
-0.943611249764583 -0.0513158292325958
-0.503464969843183 -0.0431548131507936
-0.47103314273974 -0.38670034042383
-0.864928820886775 -0.399771732248912
-0.883261258495455 -0.352026295947639
-0.899290704953161 -0.303396824170529
-0.91297404958726 -0.254005057701529
-0.924274612227118 -0.203974826721423
-0.93316224374192 -0.153431711397849
-0.939613408677351 -0.102502697678691
-0.888592964774404 -0.0502957022223665
-0.833574679784229 -0.0492755752121388
-0.778556394794069 -0.048255448201918
-0.723538109803917 -0.0472353211916998
-0.668519824813774 -0.0462151941814876
-0.613501539823638 -0.045195067171275
-0.558483254833469 -0.0441749401610526
-0.500345515148681 -0.0862965729687013
-0.496953468915489 -0.12940968226138
-0.493290704173487 -0.172479913954547
-0.489359835973156 -0.215493158498441
-0.485164214217922 -0.258435462541104
-0.480707914482295 -0.301293067173557
-0.475995726841001 -0.344052445642029
-0.517696851789653 -0.394177024792165
-0.564360560839468 -0.401653709160454
-0.61102426988926 -0.40913039352874
-0.657687978939038 -0.416607077897006
-0.704351687988816 -0.424083762265279
-0.751015397038591 -0.431560446633527
-0.79767910608843 -0.439037131001803
-0.816312184130904 -0.392806821423031
-0.884704921986242 -0.100476932089936
-0.555254001839872 -0.0883223385574858
-0.524612363596803 -0.351017356467937
-0.832942090493682 -0.345684642350861
-0.847524893611149 -0.297776653966835
-0.860022272885411 -0.24919107030113
-0.870401623720348 -0.200037962625553
-0.878636146888572 -0.150428957755782
-0.829796435295159 -0.098451166501186
-0.774887948604096 -0.0964254009124458
-0.71997946191304 -0.0943996353237049
-0.665070975221992 -0.0923738697349701
-0.610162488530947 -0.0903481041462324
-0.551479565768896 -0.132412435903477
-0.547163692680288 -0.176416778050446
-0.542311612675013 -0.220307145898869
-0.536930025559916 -0.264055632744825
-0.531027082484025 -0.307634720770363
-0.573229000352505 -0.357982267293801
-0.621845637108182 -0.36494717811966
-0.670462273863848 -0.371912088945502
-0.719078910619516 -0.378876999771351
-0.767695547375182 -0.385841910597179
-0.782622922492036 -0.339342988754107
-0.824110050035268 -0.147426204113724
-0.606005662622189 -0.135415189545534
-0.581346250485651 -0.313976374367126
-0.795759082269243 -0.292156483763162
-0.807070496183647 -0.244377082900747
-0.816528635213644 -0.196101098529695
-0.76958395318199 -0.144423450471678
-0.715057856328718 -0.141420696829627
-0.660531759475453 -0.138417943187583
-0.60103668118698 -0.180353642146305
-0.595263389376761 -0.225121133299255
-0.588695836901805 -0.269675802948505
-0.631665418487253 -0.320318027963883
-0.681984586488846 -0.326659681560626
-0.732303754490441 -0.333001335157375
-0.743993270927382 -0.286536313559508
-0.762655646706973 -0.192164234433852
-0.654909669693643 -0.184290506242157
-0.640461648243667 -0.275295973152179
-0.754118719481923 -0.239563095500382
-0.708782658200305 -0.188227370338001
-0.648215166078483 -0.229935120699635
-0.692227459585523 -0.28091614335584
-0.7011669427802 -0.234749108100005
0.844343031818503 0.446514032050178
0.943611529909834 0.0513161093778475
0.503467491150448 0.0431573344580584
0.471035092860339 0.386702290544429
0.86492904549999 0.399771956862127
0.883261491041817 0.352026528494002
0.899290945432671 0.30339706465004
0.912974297999919 0.254005306114189
0.924274868572926 0.203975083067231
0.933162508020876 0.153431975676804
0.939613680889454 0.102502969890794
0.888593525064907 0.0502962625128697
0.833575520219984 0.0492764156478937
0.778557515375076 0.0482565687829246
0.723539510530175 0.0472367219179581
0.668521505685284 0.0462168750529975
0.613503500840399 0.0451970281880365
0.558485495995482 0.0441771813230657
0.500347965057613 0.0862990228776329
0.496955847426088 0.129412060771979
0.493293011285752 0.172482221066812
0.489362071687088 0.215495394212373
0.485166378533521 0.258437626856702
0.480710007399561 0.301295160090823
0.475997748359934 0.344054467160961
0.517698585230185 0.394178758232697
0.564362077599934 0.40165522592092
0.611025569969659 0.409131693609139
0.657689062339371 0.416608161297339
0.704352554709082 0.424084628985545
0.751016047078791 0.431561096673727
0.797679539448563 0.439037564361937
0.816312633357334 0.392807270649461
0.88470546641045 0.100477476514143
0.5552561795367 0.0883245162543138
0.524614160502521 0.351019153373655
0.832942555586407 0.345685107443586
0.84752537457017 0.297777134925857
0.860022769710729 0.249191567126448
0.870402136411963 0.200038475317167
0.878636675446482 0.150429486313692
0.82979725193147 0.0984519831374965
0.77488903745251 0.0964264897608599
0.719980822973557 0.0944009963842224
0.665072608494613 0.0923755030075911
0.610164394015672 0.090350009630957
0.551481680000539 0.13241455013512
0.547165743446746 0.176418828816904
0.542313599976286 0.220309133200142
0.536931949396004 0.264057556580913
0.531028942854927 0.307636581141266
0.573230572645008 0.357983839586303
0.62184698478747 0.364948525798948
0.670463396929922 0.371913212011575
0.719079809072374 0.378877898224209
0.767696221214826 0.385842584436823
0.782623620131124 0.339343686393196
0.824110842872134 0.14742699695059
0.606007512574877 0.135417039498222
0.581347878310191 0.313978002191666
0.795759803707776 0.292157205201695
0.807071241421625 0.244377828138725
0.816529404251066 0.196101867567117
0.769585010297811 0.144424507587499
0.715059177723495 0.141422018224404
0.660533345149186 0.138419528861316
0.60103847560763 0.180355436566956
0.595265128265375 0.225122872187869
0.588697520258382 0.269677486305082
0.63166681376543 0.32031942324206
0.68198574922066 0.32666084429244
0.732304684675892 0.333002265342827
0.743994232845426 0.286537275477552
0.762656672090202 0.192165259817081
0.654911207768487 0.184292044317001
0.640463091120733 0.275297416029245
0.754119713132559 0.239564089151018
0.708783939929341 0.188228652067038
0.648216656554437 0.22993661117559
0.692228661983078 0.280917345753395
0.701168184843496 0.234750350163301
0.503467489914301 -0.0431547655823712
0.943611529772673 -0.0513158239473065
0.844343030583635 -0.446513776270317
0.47103508173691 -0.386699988529901
0.558485494896608 -0.044174897877998
0.61350349987891 -0.0451950301736221
0.668521504861218 -0.0462151624692486
0.72353950984353 -0.0472352947648779
0.778557514825847 -0.0482554270605095
0.833575519808164 -0.0492755593561402
0.88859352479046 -0.0502956916517539
0.939613680614987 -0.102502688166533
0.933162507609173 -0.15343169765889
0.924274868024011 -0.20397480875568
0.912974297313829 -0.254005035508945
0.899290944609413 -0.303396797751136
0.883261490081398 -0.352026265301474
0.864929044402398 -0.399771697375935
0.797679536977844 -0.439037052802853
0.751016043372003 -0.431560329335322
0.704352549766149 -0.424083605867766
0.657689056160298 -0.4166068824002
0.611025562554453 -0.409130158932628
0.564362068948606 -0.401653435465049
0.517698575342754 -0.394176711997466
0.475997738472437 -0.344052131788772
0.480709998747966 -0.301292791360995
0.485166371117792 -0.258435224769207
0.489362065507244 -0.215492958767241
0.493293006341757 -0.172479752264026
0.496955843717975 -0.129409558611555
0.500347962585377 -0.0862964873595311
0.555256177339088 -0.0883222624604167
0.884705465861365 -0.100476913065725
0.816312631161207 -0.392806751677625
0.524614151713686 -0.351017077487179
0.610164392092796 -0.0903480375613021
0.665072606846507 -0.0923738126621892
0.719980821600223 -0.0943995877630778
0.774889036353943 -0.0964253628639677
0.829797251107664 -0.0984511379648555
0.878636674622848 -0.150428930278043
0.870402135313801 -0.200037926694297
0.860022768338073 -0.249191025916308
0.847525372923023 -0.297776601128474
0.832942553664777 -0.345684581058997
0.76769621791996 -0.385841805979248
0.719079804678702 -0.378876860280847
0.670463391437445 -0.371911914582438
0.621846978196193 -0.364946968884023
0.573230564954942 -0.357982023185603
0.53102893516465 -0.307634475603567
0.536931942804251 -0.264055421391959
0.542313594483074 -0.220306968359965
0.547165739052047 -0.176416634325494
0.551481676704383 -0.132412325992483
0.60600750969079 -0.135415093373413
0.824110841636448 -0.147426162897134
0.782623617248097 -0.339342896816453
0.581347871581339 -0.313976159846152
0.660533342677199 -0.138417860754343
0.715059175663612 -0.141420628135275
0.76958500865003 -0.144423395516206
0.816529402603518 -0.19610104463285
0.807071239362249 -0.244377016323607
0.79575980123657 -0.292156404505747
0.732304680831404 -0.333001212573887
0.681985744414712 -0.326659528331313
0.631666807998025 -0.320317844088735
0.588697514490713 -0.269675618014723
0.595265123458905 -0.225120977952697
0.601038471762336 -0.180353516386966
0.654911204472627 -0.18429039844844
0.762656669893219 -0.192164162571383
0.743994229550102 -0.286536207882998
0.640463086177173 -0.275295814637485
0.708783937182921 -0.188227280509912
0.754119710386409 -0.239563006730885
0.692228657863635 -0.280916011260243
0.648216652434737 -0.229934987545429
0.701168181410571 -0.234748997138158
-0.503464930849591 0.0431573246470809
-0.94361124543215 0.0513161082878298
-0.844342776146123 0.446514030707828
-0.471032791799307 0.386702278467504
-0.558483220172422 0.0441771726021844
-0.613501509495247 0.0451970205572852
-0.668519798818078 0.0462168685123884
-0.723538088140913 0.0472367164674944
-0.778556377463753 0.0482565644226028
-0.833574666786594 0.0492764123777101
-0.888592956109414 0.0502962603328005
-0.93961340001234 0.10250296876918
-0.933162230744403 0.15343197452366
-0.924274594897117 0.203975081882574
-0.912974027924811 0.254005304897962
-0.899290678958272 0.303397063402277
-0.883261228168133 0.352026527214739
-0.86492878622701 0.399771955551323
-0.797679028102822 0.439037561677876
-0.751015280059468 0.431561092647856
-0.704351532016103 0.424084623617811
-0.657687783972741 0.416608154587757
-0.611024035929384 0.409131685557697
-0.564360287886026 0.401655216527629
-0.517696539842662 0.394178747497557
-0.475995414893945 0.344054455367263
-0.480707641528586 0.301295148580375
-0.485163980257524 0.258437615629475
-0.489359641006087 0.215495383268397
-0.493290548199713 0.172482210406071
-0.496953351935042 0.129412050394488
-0.500345437161556 0.0862990127833525
-0.555253932517913 0.0883245072815912
-0.884704904656071 0.100477474271019
-0.816312114810431 0.392807268028401
-0.524612086310583 0.351019142890283
-0.610162427874268 0.0903500017798298
-0.665070923230626 0.0923754962780701
-0.719979418586989 0.0944009907763119
-0.774887913943355 0.096426485274555
-0.829796409299723 0.098451979772796
-0.878636120893308 0.150429484007584
-0.870401589060013 0.200038472948084
-0.860022229560038 0.249191564694343
-0.847524841620741 0.297777132430756
-0.832942029838248 0.345685104885526
-0.767695443393797 0.385842580505412
-0.71907877197715 0.378877892982399
-0.670462100560505 0.371913205459377
-0.621845429143865 0.364948517936351
-0.573228757727226 0.357983830413318
-0.531026839858535 0.307636570909682
-0.536929817595124 0.264057546601087
-0.542311439370934 0.220309123472104
-0.547163554036896 0.176418819340644
-0.55147946178622 0.132414540910645
-0.606005571637398 0.135417031426805
-0.824110011042137 0.147426993491445
-0.782622831508303 0.339343682556246
-0.581346038188488 0.313977993239002
-0.660531681488577 0.138419521942965
-0.715057791339761 0.141422012459126
-0.769583901190948 0.144424502975287
-0.816528583222837 0.196101864013531
-0.807070431195197 0.24437782449066
-0.795759004283147 0.29215720145917
-0.732303633178346 0.333002260226944
-0.68198443484839 0.326660837897635
-0.631665236518438 0.320319415568321
-0.588695654932726 0.269677477572709
-0.595263237735783 0.225122863675819
-0.601036559874079 0.180355428275223
-0.654909565711264 0.184292037209803
-0.762655577385644 0.192165255078958
-0.743993166945538 0.286537270487562
-0.640461492270328 0.27529740854433
-0.708782571548451 0.188228646144381
-0.754118632830339 0.239564084286955
-0.69222732960793 0.280917339515947
-0.648215036100632 0.229936603879533
-0.701166834465484 0.234750344083245
0.446514029491236 -0.844342777362081
0.0513160973339937 -0.943611256385745
0.0431572260633749 -0.50346502943364
0.386702267513954 -0.471032802752549
0.399771953117571 -0.86492878866011
0.352026523563833 -0.883261231818479
0.303397058534256 -0.899290683825875
0.254005298812791 -0.912974034009664
0.203975074580219 -0.924274602199212
0.153431966004179 -0.933162239263703
0.102502959032554 -0.939613409748823
0.0502962384251623 -0.888592978016728
0.0492763795163326 -0.833574699647715
0.0482565206075097 -0.778556421278717
0.0472366616986895 -0.723538142909726
0.0462168027898752 -0.668519864540746
0.0451969438810605 -0.613501586171771
0.044177084972236 -0.558483307802764
0.0862989251534756 -0.500345524791932
0.129411973718347 -0.496953428611534
0.172482144683707 -0.493290613922325
0.215495328499794 -0.489359695774789
0.258437571814649 -0.485164024072349
0.301295115719296 -0.480707674389516
0.34405443345996 -0.475995436801016
0.394178737761164 -0.517696549578816
0.401655208008328 -0.564360296404985
0.409131678255489 -0.611024043231132
0.41660814850263 -0.657687790057265
0.424084618749778 -0.704351536883397
0.431561088996902 -0.751015283709527
0.439037559244053 -0.797679030535721
0.392807263160349 -0.816312119677574
0.100477454797663 -0.884704924129187
0.0883244293883962 -0.55525401041165
0.351019123417209 -0.524612105783482
0.345685097583247 -0.832942037139731
0.29777712269429 -0.847524851356577
0.249191552523653 -0.860022241730218
0.200038458343144 -0.870401603664535
0.150429466968441 -0.878636137932137
0.0984519505627774 -0.829796438509576
0.096426446327901 -0.774887952889985
0.0944009420930239 -0.719979467270401
0.0923754378581529 -0.665070981650826
0.0903499336232791 -0.610162496031253
0.132414472754114 -0.551479529943158
0.17641876092081 -0.547163612457034
0.22030907478896 -0.542311488054242
0.264057507654644 -0.536929856541629
0.307636541699909 -0.531026869068221
0.357983813374414 -0.573228774765849
0.364948503331614 -0.621845443748192
0.371913193288797 -0.670462112730523
0.378877883245987 -0.719078781712855
0.385842573203156 -0.767695450695186
0.339343671602687 -0.782622842461109
0.147426967932713 -0.824110036600616
0.135416971789842 -0.606005631274668
0.313977967680478 -0.581346063746823
0.292157186854344 -0.795759018887385
0.244377806234532 -0.807070449450858
0.196101842106082 -0.816528605129924
0.144424468896996 -0.769583935269121
0.141421969861276 -0.715057833937632
0.138419470825561 -0.66053173260615
0.180355377157874 -0.601036610991632
0.225122821078085 -0.595263280333587
0.269677443494596 -0.588695689010803
0.320319393661042 -0.6316652584254
0.326660819641592 -0.681984453103968
0.333002245622148 -0.732303647782539
0.286537251014417 -0.743993186418239
0.192165225869034 -0.762655606595345
0.18429199339493 -0.654909609526202
0.275297379334543 -0.640461521479952
0.239564059945427 -0.754118657171537
0.188228609631979 -0.708782608060771
0.229936567367204 -0.648215072612904
0.280917315174477 -0.692227353949093
0.234750313656312 -0.701166864892218
-0.446513777487895 0.844343029365422
-0.051315834901003 0.943611518818735
-0.0431548641664581 0.503467391330557
-0.386699999483884 0.471035070782619
-0.399771699810524 0.864929041967157
-0.352026268953079 0.883261486429233
-0.303396802619796 0.899290939740334
-0.254005041594625 0.91297429122783
-0.203974816058347 0.924274860721084
-0.1534317061786 0.933162499089281
-0.10250269790327 0.939613670878108
-0.0502957135591808 0.88859350288271
-0.0492755922173603 0.833575486946687
-0.0482554708755467 0.77855747101068
-0.0472353495337357 0.72353945507468
-0.0462152281919306 0.66852143913869
-0.0451951068501252 0.613503423202706
-0.0441749855083099 0.55848540726669
-0.0862965749899145 0.500347874955493
-0.129409635288142 0.496955767041739
-0.172479817986857 0.493292940619175
-0.2154930135363 0.489362010738282
-0.258435268584511 0.485166327302487
-0.301292824222514 0.480709965886298
-0.344052153696534 0.475997716564442
-0.394176721734435 0.517698565605545
-0.40165344398494 0.564362060428374
-0.409130166235442 0.611025555251179
-0.416606888485924 0.657689050073971
-0.424083610736413 0.704352544896762
-0.431560332986879 0.751016039719551
-0.439037055237371 0.797679534542403
-0.392806756546255 0.816312626291669
-0.100476932539094 0.884705446387756
-0.0883223403541197 0.555256099445927
-0.35101709696083 0.524614132239861
-0.34568458836174 0.832942546361238
-0.29777661086537 0.847525363185496
-0.249191038087321 0.86002275616655
-0.2000379412994 0.870402120708279
-0.150428947317284 0.878636657583294
-0.0984511671749237 0.82979722189743
-0.0964254018107628 0.774888997407123
-0.0943996364466011 0.719980772916824
-0.0923738710824455 0.665072548426533
-0.0903481057182871 0.610164323936245
-0.132412394149487 0.551481608547784
-0.176416692745833 0.547165680632011
-0.220307017043632 0.542313545799569
-0.264055460338965 0.536931903857307
-0.30763450481388 0.531028905954249
-0.357982040225082 0.573230547915181
-0.36494698348933 0.621846963590476
-0.37191192675356 0.67046337926576
-0.378876870017797 0.719079794941045
-0.385841813282014 0.767696210616329
-0.339342907770426 0.78262360629337
-0.147426188455978 0.824110816077351
-0.135415153010793 0.606007450053717
-0.313976185405203 0.581347846022098
-0.292156419110964 0.795759786630765
-0.244377034580034 0.807071221105356
-0.196101066540465 0.81652938069554
-0.144423429594683 0.769584974571434
-0.141420670733384 0.715059133065523
-0.138417911872091 0.66053329155962
-0.180353567504769 0.601038420644737
-0.225121020550924 0.595265080860749
-0.269675652093378 0.588697480412022
-0.320317865996521 0.631666786089922
-0.326659546587824 0.681985726157736
-0.333001227179134 0.732304666225553
-0.286536227356578 0.743994210076078
-0.192164191781546 0.762656640682834
-0.184290442263698 0.654911160657435
-0.275295843847784 0.64046305696671
-0.239563031072763 0.754119686044201
-0.188227317022618 0.708783900670132
-0.229935024058208 0.6482166159219
-0.280916035602178 0.692228633521392
-0.234749027565482 0.701168150983048
-0.044843226159267 -0.0448432261590904
-0.0424357323982797 -0.403601953476504
-0.381932355769029 -0.381932355769082
-0.403601856109632 -0.0424356350315897
-0.0445422894391527 -0.0896880670737717
-0.0442413527190358 -0.134532907988451
-0.0439404159989214 -0.179377748903131
-0.0436394792788097 -0.224222589817813
-0.0433385425587004 -0.269067430732496
-0.0430376058385902 -0.313912271647179
-0.0427366691184639 -0.358757112561856
-0.0848728103196201 -0.400893253763077
-0.127309888240965 -0.398184554049652
-0.169746966162308 -0.395475854336227
-0.212184044083657 -0.392767154622805
-0.254621122005007 -0.390058454909384
-0.297058199926361 -0.387349755195967
-0.339495277847708 -0.384641055482541
-0.384641043311687 -0.339495265676913
-0.387349730854282 -0.297058175584727
-0.390058418396854 -0.254621085492538
-0.392767105939416 -0.212183995400348
-0.395475793481973 -0.16974690530816
-0.398184481024522 -0.127309815215971
-0.400893168567068 -0.0848727251237793
-0.358757027365826 -0.0427365839225124
-0.313912198622037 -0.0430375328134399
-0.269067369878225 -0.043338481704349
-0.224222541134436 -0.04363943059528
-0.17937771239063 -0.0439403794861975
-0.134532883646846 -0.0442413283771438
-0.0896880549030237 -0.0445422772680773
-0.0890861493301076 -0.0890861493299566
-0.0854747158926092 -0.356349381701229
-0.341902996537553 -0.341902996537557
-0.356349308676073 -0.0854746428675194
-0.0884842437571916 -0.133630021391834
-0.0878823381842773 -0.178173893453713
-0.0872804326113645 -0.222717765515592
-0.086678527038453 -0.267261637577473
-0.0860766214655395 -0.311805509639354
-0.128212762666767 -0.353941650840614
-0.170950809440918 -0.351533919979997
-0.213688856215076 -0.349126189119387
-0.256426902989234 -0.346718458258776
-0.299164949763399 -0.344310727398172
-0.344310715227336 -0.299164937592554
-0.346718433917095 -0.256426878647547
-0.349126152606847 -0.21368881970254
-0.351533871296594 -0.170950760757534
-0.353941589986335 -0.128212701812528
-0.311805448785089 -0.0860765606112593
-0.267261588894083 -0.086678478354982
-0.222717729003099 -0.0872803960987244
-0.1781738691121 -0.0878823138424551
-0.13363000922112 -0.0884842315862115
-0.132727134795398 -0.132727134795278
-0.129115637092509 -0.309698747631551
-0.301271699600373 -0.301271699600356
-0.309698698948153 -0.12911558840908
-0.131824260369676 -0.176970038004345
-0.130921385943954 -0.221212941213413
-0.130018511518233 -0.265455844422482
-0.172154652719467 -0.307591985623744
-0.215193668346435 -0.305485223615947
-0.258232683973399 -0.303378461608147
-0.303378449437327 -0.258232671802537
-0.305485199274273 -0.215193644004717
-0.307591949111215 -0.172154616206898
-0.265455807909951 -0.130018475005615
-0.221212916871769 -0.130921361602169
-0.176970025833575 -0.131824248198712
-0.17576618255505 -0.175766182554969
-0.173358495997997 -0.263650051267485
-0.260038464957544 -0.260038464957514
-0.263650026925819 -0.173358471656248
-0.174562339276524 -0.219708116911227
-0.216698480477773 -0.261844258112502
-0.261844245941683 -0.21669846830688
-0.219708104740439 -0.174562327105613
-0.218203292609107 -0.218203292609057
0.0448463919094676 0.0448463919092909
0.0424383795946941 0.403604600672918
0.381934575947 0.381934575947053
0.403604698039669 0.0424384769616265
0.0445453903701299 0.0896911680047489
0.0442443888307898 0.134535944100205
0.0439433872914521 0.179380720195662
0.0436423857521172 0.22422549629112
0.0433413842127846 0.26907027238658
0.0430403826734511 0.31391504848204
0.0427393811341015 0.358759824577493
0.084875404138729 0.400895847582186
0.127312428682768 0.398187094491455
0.169749453226806 0.395478341400725
0.21218647777085 0.392769588309998
0.254623502314894 0.390060835219271
0.297060526858943 0.387352082128549
0.339497551402984 0.384643329037818
0.384643341208667 0.339497563573892
0.38735210647027 0.297060551200715
0.39006087173185 0.254623538827534
0.39276963699342 0.212186526454352
0.395478402254985 0.169749514081172
0.398187167516543 0.127312501707991
0.400895932778097 0.084875489334808
0.358759909773384 0.0427394663300698
0.313915121507115 0.0430404556985177
0.269070333240823 0.0433414450669472
0.224225544974554 0.0436424344353986
0.17938075670827 0.0439434238038366
0.134535968442005 0.0442444131723034
0.0896911801757039 0.0445454025407573
0.0890892081710914 0.0890892081709402
0.0854773761434145 0.356352041952034
0.341905346199365 0.341905346199369
0.356352114977095 0.0854774491685416
0.0884872361664789 0.133633013801121
0.0878852641618682 0.178176819431304
0.087283292157259 0.222720625061487
0.0866813201526511 0.267264430691671
0.0860793481480413 0.311808236321856
0.12821537115274 0.353944259326587
0.170953366162058 0.351536476701138
0.213691361171385 0.349128694075696
0.25642935618071 0.346720911450252
0.299167351190043 0.344313128824816
0.344313140995682 0.299167363360901
0.346720935791977 0.256429380522429
0.349128730588264 0.213691397683957
0.351536525384546 0.170953414845486
0.353944320180822 0.128215432007015
0.311808297176105 0.0860794090022751
0.267264479375093 0.0866813688359913
0.222720661574102 0.0872833286697274
0.178176843773097 0.0878852885034516
0.133633025972111 0.0884872483372016
0.132730083502218 0.132730083502099
0.129118313622651 0.309701424161693
0.301274175521079 0.301274175521062
0.309701472845107 0.129118362306033
0.131827141032327 0.176972918666996
0.130924198562436 0.221215753831894
0.130021256092545 0.265458588996794
0.17215727909725 0.307594612001527
0.215196244571859 0.305487799841371
0.258235210046464 0.303380987681212
0.303380999852094 0.258235222217304
0.305487824183102 0.215196268913547
0.307594648514107 0.17215731560979
0.265458625509372 0.130021292605036
0.221215778173656 0.130924222904056
0.176972930837929 0.131827153203066
0.175769017902761 0.17576901790268
0.173361192032424 0.263652747301911
0.260041063912198 0.260041063912168
0.263652771643651 0.173361216374079
0.174565104967593 0.219710882602295
0.216701127972313 0.261846905607042
0.261846917777926 0.216701140143123
0.219710894773211 0.174565117138384
0.218206011372763 0.218206011372712
-0.381932003875244 0.381934563869698
-0.0424356848301617 0.40360459933087
-0.0448432208738983 0.0448463908190787
-0.403601817010206 0.0424384671504092
-0.33949496399461 0.384643318302341
-0.297057924113976 0.387352072734985
-0.254620884233345 0.39006082716763
-0.212183844352716 0.392769581600276
-0.169746804472088 0.395478336032923
-0.12730976459146 0.39818709046557
-0.0848727247108249 0.400895844898219
-0.0427366268356247 0.358759823266896
-0.0430375688410897 0.313915047202922
-0.043338510846561 0.269070271138955
-0.043639452852035 0.224225495074989
-0.0439403948575145 0.179380719011028
-0.0442413368629937 0.134535942947066
-0.0445422788684635 0.0896911668830939
-0.089688045390958 0.0445454003604508
-0.134532869907997 0.0442444099018483
-0.179377694425029 0.0439434194432597
-0.224222518942062 0.0436424289846807
-0.269067343459096 0.0433414385261101
-0.313912167976131 0.0430404480675463
-0.358756992493166 0.0427394576089829
-0.400893090368382 0.0848754792403625
-0.398184363726516 0.127312491330261
-0.395475637084645 0.16974950342016
-0.392766910442757 0.21218651551004
-0.390058183800874 0.254623527599928
-0.387349457158971 0.297060539689804
-0.384640730517092 0.339497551779728
-0.341902717556909 0.34190533571562
-0.0854746397958352 0.356352039330991
-0.0890861303059755 0.0890892059277132
-0.356349238930891 0.0854774401956948
-0.299164704596728 0.344313119651511
-0.256426691636548 0.346720903587403
-0.213688678676371 0.349128687523297
-0.170950665716194 0.351536471459192
-0.128212652756019 0.35394425539509
-0.0860765548808512 0.311808233763768
-0.0866784699658757 0.267264428196557
-0.0872803850508999 0.222720622629346
-0.0878823001359297 0.17817681706214
-0.088484215220957 0.133633011494931
-0.133629981743465 0.088487244972355
-0.178173833180949 0.0878852840170092
-0.222717684618433 0.0872833230616718
-0.267261536055919 0.0866813621063419
-0.311805387493405 0.0860794011510181
-0.353941485368575 0.128215422782353
-0.351533731806254 0.170953405369011
-0.349125978243917 0.213691387955652
-0.346718224681586 0.256429370542301
-0.344310471119237 0.299167353128939
-0.301271485079504 0.301274166568071
-0.129115540920586 0.309701420324621
-0.132727093578897 0.132730080042816
-0.309698607010638 0.129118354234438
-0.258232499039772 0.303380980007205
-0.215193513000042 0.305487793446341
-0.172154526960314 0.307594606885479
-0.130018429085165 0.26545858525417
-0.13092131724974 0.221215750183717
-0.131824205414321 0.176972915113268
-0.176969971936831 0.131827148590711
-0.221212850294765 0.130924217138614
-0.265455728652701 0.130021285686523
-0.307591826527865 0.172157307317856
-0.305485046045079 0.215196260401259
-0.303378265562299 0.25823521348467
-0.260038306443014 0.26004105642704
-0.173358388204447 0.263652742311789
-0.175766110692706 0.175769013164407
-0.263649921249477 0.173361209266701
-0.216698347323729 0.261846899369413
-0.174562249448574 0.219710877738095
-0.219708015971091 0.174565111215551
-0.261844113846243 0.216701132846867
-0.218203181647407 0.218206005292479
0.381934563870219 -0.381932003874722
0.0424383697840209 -0.403601914377011
0.0448463908193705 -0.0448432208736065
0.403604696697688 -0.0424355874629275
0.339497539609446 -0.384640742687506
0.297060515348673 -0.387349481500289
0.254623491087902 -0.390058220313074
0.212186466827133 -0.392766959125859
0.169749442566366 -0.395475697938645
0.127312418305598 -0.398184436751432
0.0848753940448237 -0.400893175564221
0.0427393724134356 -0.358757077689085
0.0430403750428522 -0.313912241001159
0.0433413776722751 -0.269067404313241
0.0436423803017007 -0.224222567625323
0.0439433829311318 -0.17937773093741
0.0442443855605627 -0.134532894249497
0.0445453881899841 -0.0896880575615734
0.0896911790541815 -0.0445422666972275
0.134535967288971 -0.0442413125208737
0.179380755523755 -0.0439403583445339
0.224225543758539 -0.0436394041682037
0.269070331993325 -0.043338449991882
0.313915120228111 -0.0430374958155669
0.358759908462896 -0.0427365416392523
0.400895930094301 -0.084872639514444
0.398187163490871 -0.127309691565906
0.395478396887437 -0.169746743617368
0.392769630283986 -0.212183795668811
0.39006086368054 -0.254620847720263
0.387352097077073 -0.297057899771702
0.38464333047363 -0.339494951823189
0.341905335716107 -0.341902717556422
0.0854773671709871 -0.356349311955839
0.0890892059280459 -0.089086130305643
0.35635211235626 -0.085474566770326
0.299167340958584 -0.344310483289654
0.256429346201064 -0.346718249022888
0.213691351443545 -0.349126014756122
0.170953356686028 -0.351533780489359
0.128215361928511 -0.353941546222597
0.0860793402971561 -0.311805448347463
0.0866813134233337 -0.267261584739099
0.087283286549511 -0.222717721130735
0.0878852596756938 -0.178173857522376
0.0884872328018743 -0.133629993914014
0.133633023666086 -0.088484203049735
0.178176841404119 -0.0878822757938394
0.222720659142153 -0.0872803485379523
0.267264476880188 -0.0866784212820727
0.311808294618224 -0.0860764940261991
0.353944316249582 -0.128212591901346
0.351536520142898 -0.170950617032366
0.3491287240362 -0.213688642163369
0.346720927929507 -0.25642666729438
0.344313131822796 -0.299164692425379
0.301274166568521 -0.301271485079054
0.129118305551434 -0.309698655693774
0.132730080043163 -0.13272709357855
0.309701469008297 -0.129115492236779
0.258235201314247 -0.30337827773273
0.215196236059975 -0.305485070386409
0.172157270805704 -0.30759186304009
0.130021249174367 -0.265455765164968
0.130924192797297 -0.22121287463616
0.131827136420232 -0.176969984107358
0.176972927284445 -0.131824193243097
0.221215774525727 -0.130921292907652
0.265458621767012 -0.130018392572213
0.307594643398363 -0.172154490447357
0.305487817788417 -0.215193488657921
0.303380992178476 -0.258232486868492
0.260041056427447 -0.260038306442606
0.173361184925393 -0.263649945590843
0.175769013164764 -0.175766110692349
0.263652766653829 -0.17335836386235
0.216701120676419 -0.261844126016723
0.174565099045075 -0.219708028141593
0.219710889909295 -0.174562237277347
0.261846911540635 -0.216698335152475
0.218206005292854 -0.218203181647032

t	p10 7 13 6 129 130 131 132 133 134 135 136 137 138 139 140 141 142 143 144 145 146 57 58 59 60 61 62 63 64 65 345 348 349 350 351 352 353 346 365 366 369 370 371 367 354 364 377 378 379 372 355 363 376 380 373 356 362 375 374 357 361 368 358 360 359 347
t	p10 11 14 10 147 148 149 150 151 152 153 154 155 156 157 158 159 160 161 162 163 164 111 112 113 114 115 116 117 118 119 381 384 385 386 387 388 389 382 401 402 405 406 407 403 390 400 413 414 415 408 391 399 412 416 409 392 398 411 410 393 397 404 394 396 395 383
t	p10 15 8 9 165 166 167 168 169 170 171 172 173 84 85 86 87 88 89 90 91 92 174 175 176 177 178 179 180 181 182 417 420 421 422 423 424 425 418 437 438 441 442 443 439 426 436 449 450 451 444 427 435 448 452 445 428 434 447 446 429 433 440 430 432 431 419
t	p10 16 4 5 183 184 185 186 187 188 189 190 191 30 31 32 33 34 35 36 37 38 192 193 194 195 196 197 198 199 200 453 456 457 458 459 460 461 454 473 474 477 478 479 475 462 472 485 486 487 480 463 471 484 488 481 464 470 483 482 465 469 476 466 468 467 455
q	p10 20 1 6 13 201 202 203 204 205 206 207 208 209 48 49 50 51 52 53 54 55 56 146 145 144 143 142 141 140 139 138 210 211 212 213 214 215 216 217 218 489 493 494 495 496 497 498 499 490 520 521 525 526 527 528 529 522 500 519 544 545 549 550 551 546 530 501 518 543 560 561 565 562 552 531 502 517 542 559 568 569 566 553 532 503 516 541 558 564 567 563 554 533 504 515 540 548 557 556 555 547 534 505 514 524 539 538 537 536 535 523 506 492 513 512 511 510 509 508 507 491
q	p10 19 3 10 14 219 220 221 222 223 224 225 226 227 102 103 104 105 106 107 108 109 110 164 163 162 161 160 159 158 157 156 228 229 230 231 232 233 234 235 236 570 574 575 576 577 578 579 580 571 601 602 606 607 608 609 610 603 581 600 625 626 630 631 632 627 611 582 599 624 641 642 646 643 633 612 583 598 623 640 649 650 647 634 613 584 597 622 639 645 648 644 635 614 585 596 621 629 638 637 636 628 615 586 595 605 620 619 618 617 616 604 587 573 594 593 592 591 590 589 588 572
q	p10 7 2 18 13 66 67 68 69 70 71 72 73 74 237 238 239 240 241 242 243 244 245 246 247 248 249 250 251 252 253 254 137 136 135 134 133 132 131 130 129 651 655 656 657 658 659 660 661 652 682 683 687 688 689 690 691 684 662 681 706 707 711 712 713 708 692 663 680 705 722 723 727 724 714 693 664 679 704 721 730 731 728 715 694 665 678 703 720 726 729 725 716 695 666 677 702 710 719 718 717 709 696 667 676 686 701 700 699 698 697 685 668 654 675 674 673 672 671 670 669 653
q	p10 11 0 17 14 120 121 122 123 124 125 126 127 128 255 256 257 258 259 260 261 262 263 264 265 266 267 268 269 270 271 272 155 154 153 152 151 150 149 148 147 732 736 737 738 739 740 741 742 733 763 764 768 769 770 771 772 765 743 762 787 788 792 793 794 789 773 744 761 786 803 804 808 805 795 774 745 760 785 802 811 812 809 796 775 746 759 784 801 807 810 806 797 776 747 758 783 791 800 799 798 790 777 748 757 767 782 781 780 779 778 766 749 735 756 755 754 753 752 751 750 734
q	p10 17 0 4 16 263 262 261 260 259 258 257 256 255 21 22 23 24 25 26 27 28 29 191 190 189 188 187 186 185 184 183 273 274 275 276 277 278 279 280 281 813 817 818 819 820 821 822 823 814 844 845 849 850 851 852 853 846 824 843 868 869 873 874 875 870 854 825 842 867 884 885 889 886 876 855 826 841 866 883 892 893 890 877 856 827 840 865 882 888 891 887 878 857 828 839 864 872 881 880 879 871 858 829 838 848 863 862 861 860 859 847 830 816 837 836 835 834 833 832 831 815
q	p10 18 2 8 15 245 244 243 242 241 240 239 238 237 75 76 77 78 79 80 81 82 83 173 172 171 170 169 168 167 166 165 282 283 284 285 286 287 288 289 290 894 898 899 900 901 902 903 904 895 925 926 930 931 932 933 934 927 905 924 949 950 954 955 956 951 935 906 923 948 965 966 970 967 957 936 907 922 947 964 973 974 971 958 937 908 921 946 963 969 972 968 959 938 909 920 945 953 962 961 960 952 939 910 919 929 944 943 942 941 940 928 911 897 918 917 916 915 914 913 912 896
q	p10 5 1 20 16 39 40 41 42 43 44 45 46 47 209 208 207 206 205 204 203 202 201 291 292 293 294 295 296 297 298 299 200 199 198 197 196 195 194 193 192 975 979 980 981 982 983 984 985 976 1006 1007 1011 1012 1013 1014 1015 1008 986 1005 1030 1031 1035 1036 1037 1032 1016 987 1004 1029 1046 1047 1051 1048 1038 1017 988 1003 1028 1045 1054 1055 1052 1039 1018 989 1002 1027 1044 1050 1053 1049 1040 1019 990 1001 1026 1034 1043 1042 1041 1033 1020 991 1000 1010 1025 1024 1023 1022 1021 1009 992 978 999 998 997 996 995 994 993 977
q	p10 9 3 19 15 93 94 95 96 97 98 99 100 101 227 226 225 224 223 222 221 220 219 300 301 302 303 304 305 306 307 308 182 181 180 179 178 177 176 175 174 1056 1060 1061 1062 1063 1064 1065 1066 1057 1087 1088 1092 1093 1094 1095 1096 1089 1067 1086 1111 1112 1116 1117 1118 1113 1097 1068 1085 1110 1127 1128 1132 1129 1119 1098 1069 1084 1109 1126 1135 1136 1133 1120 1099 1070 1083 1108 1125 1131 1134 1130 1121 1100 1071 1082 1107 1115 1124 1123 1122 1114 1101 1072 1081 1091 1106 1105 1104 1103 1102 1090 1073 1059 1080 1079 1078 1077 1076 1075 1074 1058
q	p10 12 20 13 18 309 310 311 312 313 314 315 316 317 218 217 216 215 214 213 212 211 210 254 253 252 251 250 249 248 247 246 318 319 320 321 322 323 324 325 326 1137 1141 1142 1143 1144 1145 1146 1147 1138 1168 1169 1173 1174 1175 1176 1177 1170 1148 1167 1192 1193 1197 1198 1199 1194 1178 1149 1166 1191 1208 1209 1213 1210 1200 1179 1150 1165 1190 1207 1216 1217 1214 1201 1180 1151 1164 1189 1206 1212 1215 1211 1202 1181 1152 1163 1188 1196 1205 1204 1203 1195 1182 1153 1162 1172 1187 1186 1185 1184 1183 1171 1154 1140 1161 1160 1159 1158 1157 1156 1155 1139
q	p10 12 19 14 17 327 328 329 330 331 332 333 334 335 236 235 234 233 232 231 230 229 228 272 271 270 269 268 267 266 265 264 336 337 338 339 340 341 342 343 344 1218 1222 1223 1224 1225 1226 1227 1228 1219 1249 1250 1254 1255 1256 1257 1258 1251 1229 1248 1273 1274 1278 1279 1280 1275 1259 1230 1247 1272 1289 1290 1294 1291 1281 1260 1231 1246 1271 1288 1297 1298 1295 1282 1261 1232 1245 1270 1287 1293 1296 1292 1283 1262 1233 1244 1269 1277 1286 1285 1284 1276 1263 1234 1243 1253 1268 1267 1266 1265 1264 1252 1235 1221 1242 1241 1240 1239 1238 1237 1236 1220
q	p10 15 19 12 18 308 307 306 305 304 303 302 301 300 335 334 333 332 331 330 329 328 327 326 325 324 323 322 321 320 319 318 290 289 288 287 286 285 284 283 282 1299 1303 1304 1305 1306 1307 1308 1309 1300 1330 1331 1335 1336 1337 1338 1339 1332 1310 1329 1354 1355 1359 1360 1361 1356 1340 1311 1328 1353 1370 1371 1375 1372 1362 1341 1312 1327 1352 1369 1378 1379 1376 1363 1342 1313 1326 1351 1368 1374 1377 1373 1364 1343 1314 1325 1350 1358 1367 1366 1365 1357 1344 1315 1324 1334 1349 1348 1347 1346 1345 1333 1316 1302 1323 1322 1321 1320 1319 1318 1317 1301
q	p10 16 20 12 17 299 298 297 296 295 294 293 292 291 317 316 315 314 313 312 311 310 309 344 343 342 341 340 339 338 337 336 281 280 279 278 277 276 275 274 273 1380 1384 1385 1386 1387 1388 1389 1390 1381 1411 1412 1416 1417 1418 1419 1420 1413 1391 1410 1435 1436 1440 1441 1442 1437 1421 1392 1409 1434 1451 1452 1456 1453 1443 1422 1393 1408 1433 1450 1459 1460 1457 1444 1423 1394 1407 1432 1449 1455 1458 1454 1445 1424 1395 1406 1431 1439 1448 1447 1446 1438 1425 1396 1405 1415 1430 1429 1428 1427 1426 1414 1397 1383 1404 1403 1402 1401 1400 1399 1398 1382

domain
boundary
1 1 12
e	p10 0 4 21 22 23 24 25 26 27 28 29 
e	p10 4 5 30 31 32 33 34 35 36 37 38 
e	p10 5 1 39 40 41 42 43 44 45 46 47 
e	p10 1 6 48 49 50 51 52 53 54 55 56 
e	p10 6 7 57 58 59 60 61 62 63 64 65 
e	p10 7 2 66 67 68 69 70 71 72 73 74 
e	p10 2 8 75 76 77 78 79 80 81 82 83 
e	p10 8 9 84 85 86 87 88 89 90 91 92 
e	p10 9 3 93 94 95 96 97 98 99 100 101 
e	p10 3 10 102 103 104 105 106 107 108 109 110 
e	p10 10 11 111 112 113 114 115 116 117 118 119 
e	p10 11 0 120 121 122 123 124 125 126 127 128 

