#!geo

mesh
4
header
 dimension 2
 order     3
 nodes	744
 edges	248
end header

1 0
0 -1
-1 0
0 1
0.999679075296436 -0.0253327143129639
0.998716507171076 -0.0506491688382651
0.997112913447698 -0.075933114224576
0.994869323391986 -0.10116832198654
0.991987177050885 -0.126338594921018
0.988468324328315 -0.151427777503248
0.984315023797811 -0.176419766256264
0.979529941252855 -0.201298520086904
0.974116147995843 -0.22604807058177
0.968077118866766 -0.250652532256551
0.961416730012891 -0.275096112752108
0.954139256400854 -0.299363122970792
0.946249369072779 -0.323437987146481
0.93775213214817 -0.347305252841878
0.928652999573509 -0.370949600866646
0.918957811621565 -0.394355855110208
0.908672791142964 -0.417508992282149
0.897804539572075 -0.440394151554915
0.886360032689728 -0.462996644102594
0.874346616145879 -0.485301962528744
0.861772000744815 -0.507295790177958
0.848644257495976 -0.528964010324996
0.834971812433584 -0.550292715235606
0.820763441208397 -0.571268215093183
0.80602826345506 -0.59187704678558
0.790775736938681 -0.612105982546394
0.775015651484361 -0.631942038445198
0.758758122693605 -0.651372482721274
0.742013585451629 -0.670384843955484
0.724792787229735 -0.688966919075039
0.707106781187053 -0.707106781186042
0.688966919076061 -0.724792787228764
0.670384843956515 -0.742013585450698
0.651372482722313 -0.758758122692713
0.631942038446242 -0.775015651483509
0.612105982547443 -0.790775736937869
0.591877046786633 -0.806028263454287
0.571268215094238 -0.820763441207662
0.550292715236662 -0.834971812432888
0.528964010326052 -0.848644257495318
0.507295790179012 -0.861772000744194
0.485301962529796 -0.874346616145295
0.462996644103642 -0.886360032689181
0.440394151555958 -0.897804539571564
0.417508992283186 -0.908672791142487
0.394355855111238 -0.918957811621124
0.370949600867644 -0.928652999573111
0.347305252842818 -0.937752132147822
0.323437987147362 -0.946249369072478
0.299363122971612 -0.954139256400597
0.275096112752865 -0.961416730012674
0.250652532257244 -0.968077118866587
0.226048070582398 -0.974116147995697
0.201298520087465 -0.97952994125274
0.176419766256758 -0.984315023797723
0.151427777503672 -0.98846832432825
0.126338594921373 -0.991987177050839
0.101168321986825 -0.994869323391957
0.0759331142247901 -0.997112913447682
0.0506491688384081 -0.998716507171068
0.0253327143130354 -0.999679075296434
-0.0253327143129639 -0.999679075296436
-0.0506491688382651 -0.998716507171076
-0.075933114224576 -0.997112913447698
-0.10116832198654 -0.994869323391986
-0.126338594921018 -0.991987177050885
-0.151427777503248 -0.988468324328315
-0.176419766256264 -0.984315023797811
-0.201298520086904 -0.979529941252855
-0.22604807058177 -0.974116147995843
-0.250652532256551 -0.968077118866766
-0.275096112752108 -0.961416730012891
-0.299363122970792 -0.954139256400854
-0.323437987146481 -0.946249369072779
-0.347305252841878 -0.93775213214817
-0.370949600866646 -0.928652999573509
-0.394355855110208 -0.918957811621565
-0.417508992282149 -0.908672791142964
-0.440394151554915 -0.897804539572075
-0.462996644102594 -0.886360032689728
-0.485301962528744 -0.874346616145879
-0.507295790177958 -0.861772000744815
-0.528964010324996 -0.848644257495976
-0.550292715235606 -0.834971812433584
-0.571268215093183 -0.820763441208397
-0.59187704678558 -0.80602826345506
-0.612105982546394 -0.790775736938681
-0.631942038445198 -0.775015651484361
-0.651372482721274 -0.758758122693605
-0.670384843955484 -0.742013585451629
-0.688966919075039 -0.724792787229735
-0.707106781186042 -0.707106781187053
-0.724792787228764 -0.688966919076061
-0.742013585450698 -0.670384843956515
-0.758758122692713 -0.651372482722313
-0.775015651483509 -0.631942038446242
-0.790775736937869 -0.612105982547443
-0.806028263454287 -0.591877046786633
-0.820763441207662 -0.571268215094238
-0.834971812432888 -0.550292715236662
-0.848644257495318 -0.528964010326052
-0.861772000744194 -0.507295790179012
-0.874346616145295 -0.485301962529796
-0.886360032689181 -0.462996644103642
-0.897804539571564 -0.440394151555958
-0.908672791142487 -0.417508992283186
-0.918957811621124 -0.394355855111238
-0.928652999573111 -0.370949600867644
-0.937752132147822 -0.347305252842818
-0.946249369072478 -0.323437987147362
-0.954139256400597 -0.299363122971612
-0.961416730012674 -0.275096112752865
-0.968077118866587 -0.250652532257244
-0.974116147995697 -0.226048070582398
-0.97952994125274 -0.201298520087465
-0.984315023797723 -0.176419766256758
-0.98846832432825 -0.151427777503672
-0.991987177050839 -0.126338594921373
-0.994869323391957 -0.101168321986825
-0.997112913447682 -0.0759331142247901
-0.998716507171068 -0.0506491688384081
-0.999679075296434 -0.0253327143130354
-0.999679075296436 0.0253327143129639
-0.998716507171076 0.0506491688382651
-0.997112913447698 0.075933114224576
-0.994869323391986 0.10116832198654
-0.991987177050885 0.126338594921018
-0.988468324328315 0.151427777503248
-0.984315023797811 0.176419766256264
-0.979529941252855 0.201298520086904
-0.974116147995843 0.22604807058177
-0.968077118866766 0.250652532256551
-0.961416730012891 0.275096112752108
-0.954139256400854 0.299363122970792
-0.946249369072779 0.323437987146481
-0.93775213214817 0.347305252841878
-0.928652999573509 0.370949600866646
-0.918957811621565 0.394355855110208
-0.908672791142964 0.417508992282149
-0.897804539572075 0.440394151554915
-0.886360032689728 0.462996644102594
-0.874346616145879 0.485301962528744
-0.861772000744815 0.507295790177958
-0.848644257495976 0.528964010324996
-0.834971812433584 0.550292715235606
-0.820763441208397 0.571268215093183
-0.80602826345506 0.59187704678558
-0.790775736938681 0.612105982546394
-0.775015651484361 0.631942038445198
-0.758758122693605 0.651372482721274
-0.742013585451629 0.670384843955484
-0.724792787229735 0.688966919075039
-0.707106781187053 0.707106781186042
-0.688966919076061 0.724792787228764
-0.670384843956515 0.742013585450698
-0.651372482722313 0.758758122692713
-0.631942038446242 0.775015651483509
-0.612105982547443 0.790775736937869
-0.591877046786633 0.806028263454287
-0.571268215094238 0.820763441207662
-0.550292715236662 0.834971812432888
-0.528964010326052 0.848644257495318
-0.507295790179012 0.861772000744194
-0.485301962529796 0.874346616145295
-0.462996644103642 0.886360032689181
-0.440394151555958 0.897804539571564
-0.417508992283186 0.908672791142487
-0.394355855111238 0.918957811621124
-0.370949600867644 0.928652999573111
-0.347305252842818 0.937752132147822
-0.323437987147362 0.946249369072478
-0.299363122971612 0.954139256400597
-0.275096112752865 0.961416730012674
-0.250652532257244 0.968077118866587
-0.226048070582398 0.974116147995697
-0.201298520087465 0.97952994125274
-0.176419766256758 0.984315023797723
-0.151427777503672 0.98846832432825
-0.126338594921373 0.991987177050839
-0.101168321986825 0.994869323391957
-0.0759331142247901 0.997112913447682
-0.0506491688384081 0.998716507171068
-0.0253327143130354 0.999679075296434
0.0253327143129639 0.999679075296436
0.0506491688382651 0.998716507171076
0.075933114224576 0.997112913447698
0.10116832198654 0.994869323391986
0.126338594921018 0.991987177050885
0.151427777503248 0.988468324328315
0.176419766256264 0.984315023797811
0.201298520086904 0.979529941252855
0.22604807058177 0.974116147995843
0.250652532256551 0.968077118866766
0.275096112752108 0.961416730012891
0.299363122970792 0.954139256400854
0.323437987146481 0.946249369072779
0.347305252841878 0.93775213214817
0.370949600866646 0.928652999573509
0.394355855110208 0.918957811621565
0.417508992282149 0.908672791142964
0.440394151554915 0.897804539572075
0.462996644102594 0.886360032689728
0.485301962528744 0.874346616145879
0.507295790177958 0.861772000744815
0.528964010324996 0.848644257495976
0.550292715235606 0.834971812433584
0.571268215093183 0.820763441208397
0.59187704678558 0.80602826345506
0.612105982546394 0.790775736938681
0.631942038445198 0.775015651484361
0.651372482721274 0.758758122693605
0.670384843955484 0.742013585451629
0.688966919075039 0.724792787229735
0.707106781186042 0.707106781187053
0.724792787228764 0.688966919076061
0.742013585450698 0.670384843956515
0.758758122692713 0.651372482722313
0.775015651483509 0.631942038446242
0.790775736937869 0.612105982547443
0.806028263454287 0.591877046786633
0.820763441207662 0.571268215094238
0.834971812432888 0.550292715236662
0.848644257495318 0.528964010326052
0.861772000744194 0.507295790179012
0.874346616145295 0.485301962529796
0.886360032689181 0.462996644103642
0.897804539571564 0.440394151555958
0.908672791142487 0.417508992283186
0.918957811621124 0.394355855111238
0.928652999573111 0.370949600867644
0.937752132147822 0.347305252842818
0.946249369072478 0.323437987147362
0.954139256400597 0.299363122971612
0.961416730012674 0.275096112752865
0.968077118866587 0.250652532257244
0.974116147995697 0.226048070582398
0.97952994125274 0.201298520087465
0.984315023797723 0.176419766256758
0.98846832432825 0.151427777503672
0.991987177050839 0.126338594921373
0.994869323391957 0.101168321986825
0.997112913447682 0.0759331142247901
0.998716507171068 0.0506491688384081
0.999679075296434 0.0253327143130354
0.999964341699695 -0.00844484038310866
0.999857359168604 -0.0168896807662173
0.999429497710916 -0.0337739412166414
0.999108618784319 -0.0422133612839569
0.998253170491567 -0.059081364266028
0.997718601125411 -0.0675099471807836
0.996436115066574 -0.084350865976788
0.995688198373891 -0.0927632018580368
0.993979497711885 -0.10956622713423
0.99301871374256 -0.117956916529175
0.990884895205892 -0.134711263273745
0.989711860638548 -0.143074920623372
0.98715429381738 -0.159769835068794
0.985769761563557 -0.168101092164591
0.982790088030638 -0.184725858689927
0.981194946751542 -0.193019368119467
0.977795079008562 -0.20956331612818
0.975990352544678 -0.217813754707352
0.972172472794733 -0.234266265476219
0.970159319508671 -0.242468337665914
0.965925878255614 -0.258818851160653
0.963705590288619 -0.266967292465698
0.959059304764208 -0.283205314118916
0.956633307206793 -0.29129489446709
0.951577159626639 -0.307410001914216
0.948947009603899 -0.315435529013168
0.943484245253327 -0.331417378782042
0.940651630925495 -0.339373701451963
0.934785756076565 -0.355212035601786
0.931752495555468 -0.363094047081687
0.925487275216449 -0.378778699787136
0.922255315398527 -0.386581341012683
0.915594770897347 -0.402102245088777
0.912166186214088 -0.409820507939324
0.905114592617306 -0.42516770130292
0.901491583703782 -0.432796631815969
0.894053467072592 -0.447960263880043
0.890238359354926 -0.455494965431067
0.882418493840079 -0.470465303427368
0.878413736042898 -0.477900939872645
0.870217140820439 -0.492668375098606
0.866025303395161 -0.50000017387929
0.857457239444873 -0.514555227865365
0.853081012919864 -0.521778483070756
0.844146979648515 -0.536111813664174
0.839589172902175 -0.543221889052201
0.830294904613723 -0.557324296413218
0.825558443071611 -0.564316628386208
0.815909905286648 -0.578179060893019
0.810997829043796 -0.585049161426841
0.801001214670577 -0.598662721485362
0.79591667654021 -0.605406181010061
0.785578401899746 -0.618762130764837
0.780324665389649 -0.625374620994915
0.769651366097387 -0.638464387937515
0.764231803315223 -0.644941664650038
0.753230330021988 -0.657756847121311
0.747648419510916 -0.664094752880061
0.736325833505818 -0.676627125462734
0.730585158011791 -0.682821592286657
0.718948726689945 -0.695063111084818
0.713052970862125 -0.701110163059057
0.701110163060071 -0.713052970861128
0.695063111085837 -0.718948726688961
0.682821592287682 -0.730585158010834
0.676627125463762 -0.736325833504874
0.664094752881094 -0.747648419509998
0.657756847122347 -0.753230330021083
0.644941664651078 -0.764231803314345
0.638464387938558 -0.769651366096522
0.625374620995961 -0.78032466538881
0.618762130765885 -0.785578401898921
0.605406181011111 -0.795916676539411
0.598662721486413 -0.801001214669791
0.585049161427895 -0.810997829043036
0.578179060894074 -0.8159099052859
0.564316628387263 -0.82555844307089
0.557324296414274 -0.830294904613014
0.543221889053257 -0.839589172901492
0.53611181366523 -0.844146979647844
0.521778483071812 -0.853081012919218
0.51455522786642 -0.85745723944424
0.500000173880343 -0.866025303394552
0.492668375099658 -0.870217140819843
0.477900939873695 -0.878413736042327
0.470465303428418 -0.88241849383952
0.455494965432114 -0.890238359354391
0.447960263881087 -0.894053467072069
0.43279663181701 -0.901491583703282
0.425167701303959 -0.905114592616818
0.409820507940358 -0.912166186213623
0.402102245089809 -0.915594770896893
0.386581341013702 -0.922255315398099
0.378778699788144 -0.925487275216036
0.363094047082666 -0.931752495555086
0.355212035602745 -0.934785756076201
0.339373701452884 -0.940651630925163
0.331417378782943 -0.943484245253011
0.315435529014029 -0.948947009603613
0.307410001915056 -0.951577159626367
0.291294894467889 -0.95663330720655
0.283205314119694 -0.959059304763978
0.266967292466433 -0.963705590288415
0.258818851161367 -0.965925878255423
0.242468337666585 -0.970159319508504
0.234266265476869 -0.972172472794576
0.217813754707958 -0.975990352544543
0.209563316128763 -0.977795079008437
0.193019368120006 -0.981194946751436
0.184725858690444 -0.982790088030541
0.168101092165062 -0.985769761563477
0.159769835069242 -0.987154293817308
0.143074920623773 -0.98971186063849
0.134711263274124 -0.990884895205841
0.117956916529506 -0.993018713742521
0.109566227134538 -0.993979497711851
0.0927632018582982 -0.995688198373867
0.0843508659770258 -0.996436115066553
0.067509947180974 -0.997718601125399
0.0590813642661948 -0.998253170491557
0.0422133612840761 -0.999108618784314
0.0337739412167368 -0.999429497710913
0.016889680766265 -0.999857359168604
0.0084448403831325 -0.999964341699695
-0.00844484038310866 -0.999964341699695
-0.0168896807662173 -0.999857359168604
-0.0337739412166414 -0.999429497710916
-0.0422133612839569 -0.999108618784319
-0.059081364266028 -0.998253170491567
-0.0675099471807836 -0.997718601125411
-0.084350865976788 -0.996436115066574
-0.0927632018580368 -0.995688198373891
-0.10956622713423 -0.993979497711885
-0.117956916529175 -0.99301871374256
-0.134711263273745 -0.990884895205892
-0.143074920623372 -0.989711860638548
-0.159769835068794 -0.98715429381738
-0.168101092164591 -0.985769761563557
-0.184725858689927 -0.982790088030638
-0.193019368119467 -0.981194946751542
-0.20956331612818 -0.977795079008562
-0.217813754707352 -0.975990352544678
-0.234266265476219 -0.972172472794733
-0.242468337665914 -0.970159319508671
-0.258818851160653 -0.965925878255614
-0.266967292465698 -0.963705590288619
-0.283205314118916 -0.959059304764208
-0.29129489446709 -0.956633307206793
-0.307410001914216 -0.951577159626639
-0.315435529013168 -0.948947009603899
-0.331417378782042 -0.943484245253327
-0.339373701451963 -0.940651630925495
-0.355212035601786 -0.934785756076565
-0.363094047081687 -0.931752495555468
-0.378778699787136 -0.925487275216449
-0.386581341012683 -0.922255315398527
-0.402102245088777 -0.915594770897347
-0.409820507939324 -0.912166186214088
-0.42516770130292 -0.905114592617306
-0.432796631815969 -0.901491583703782
-0.447960263880043 -0.894053467072592
-0.455494965431067 -0.890238359354926
-0.470465303427368 -0.882418493840079
-0.477900939872645 -0.878413736042898
-0.492668375098606 -0.870217140820439
-0.50000017387929 -0.866025303395161
-0.514555227865365 -0.857457239444873
-0.521778483070756 -0.853081012919864
-0.536111813664174 -0.844146979648515
-0.543221889052201 -0.839589172902175
-0.557324296413218 -0.830294904613723
-0.564316628386208 -0.825558443071611
-0.578179060893019 -0.815909905286648
-0.585049161426841 -0.810997829043796
-0.598662721485362 -0.801001214670577
-0.605406181010061 -0.79591667654021
-0.618762130764837 -0.785578401899746
-0.625374620994915 -0.780324665389649
-0.638464387937515 -0.769651366097387
-0.644941664650038 -0.764231803315223
-0.657756847121311 -0.753230330021988
-0.664094752880061 -0.747648419510916
-0.676627125462734 -0.736325833505818
-0.682821592286657 -0.730585158011791
-0.695063111084819 -0.718948726689945
-0.701110163059057 -0.713052970862125
-0.713052970861128 -0.701110163060071
-0.718948726688961 -0.695063111085837
-0.730585158010834 -0.682821592287682
-0.736325833504874 -0.676627125463762
-0.747648419509998 -0.664094752881094
-0.753230330021083 -0.657756847122347
-0.764231803314345 -0.644941664651078
-0.769651366096522 -0.638464387938558
-0.78032466538881 -0.625374620995961
-0.785578401898921 -0.618762130765885
-0.795916676539411 -0.605406181011111
-0.801001214669791 -0.598662721486413
-0.810997829043036 -0.585049161427895
-0.8159099052859 -0.578179060894074
-0.82555844307089 -0.564316628387263
-0.830294904613014 -0.557324296414274
-0.839589172901492 -0.543221889053257
-0.844146979647844 -0.53611181366523
-0.853081012919218 -0.521778483071812
-0.85745723944424 -0.51455522786642
-0.866025303394552 -0.500000173880343
-0.870217140819843 -0.492668375099658
-0.878413736042327 -0.477900939873695
-0.88241849383952 -0.470465303428418
-0.890238359354391 -0.455494965432114
-0.894053467072069 -0.447960263881087
-0.901491583703282 -0.43279663181701
-0.905114592616818 -0.425167701303959
-0.912166186213623 -0.409820507940358
-0.915594770896893 -0.402102245089809
-0.922255315398099 -0.386581341013702
-0.925487275216036 -0.378778699788144
-0.931752495555086 -0.363094047082666
-0.934785756076201 -0.355212035602745
-0.940651630925163 -0.339373701452884
-0.943484245253011 -0.331417378782943
-0.948947009603613 -0.315435529014029
-0.951577159626367 -0.307410001915056
-0.95663330720655 -0.291294894467889
-0.959059304763978 -0.283205314119694
-0.963705590288415 -0.266967292466433
-0.965925878255423 -0.258818851161367
-0.970159319508504 -0.242468337666585
-0.972172472794576 -0.234266265476869
-0.975990352544543 -0.217813754707958
-0.977795079008437 -0.209563316128763
-0.981194946751436 -0.193019368120006
-0.982790088030541 -0.184725858690444
-0.985769761563477 -0.168101092165062
-0.987154293817308 -0.159769835069242
-0.98971186063849 -0.143074920623773
-0.990884895205841 -0.134711263274124
-0.993018713742521 -0.117956916529506
-0.993979497711851 -0.109566227134538
-0.995688198373867 -0.0927632018582982
-0.996436115066553 -0.0843508659770258
-0.997718601125399 -0.067509947180974
-0.998253170491557 -0.0590813642661948
-0.999108618784314 -0.0422133612840761
-0.999429497710913 -0.0337739412167368
-0.999857359168603 -0.016889680766265
-0.999964341699695 -0.0084448403831325
-0.999964341699695 0.00844484038310866
-0.999857359168604 0.0168896807662173
-0.999429497710916 0.0337739412166414
-0.999108618784319 0.0422133612839569
-0.998253170491567 0.059081364266028
-0.997718601125411 0.0675099471807836
-0.996436115066574 0.084350865976788
-0.995688198373891 0.0927632018580368
-0.993979497711885 0.10956622713423
-0.99301871374256 0.117956916529175
-0.990884895205892 0.134711263273745
-0.989711860638548 0.143074920623372
-0.98715429381738 0.159769835068794
-0.985769761563557 0.168101092164591
-0.982790088030638 0.184725858689927
-0.981194946751542 0.193019368119467
-0.977795079008562 0.20956331612818
-0.975990352544678 0.217813754707352
-0.972172472794733 0.234266265476219
-0.970159319508671 0.242468337665914
-0.965925878255614 0.258818851160653
-0.963705590288619 0.266967292465698
-0.959059304764208 0.283205314118916
-0.956633307206793 0.29129489446709
-0.951577159626639 0.307410001914216
-0.948947009603899 0.315435529013168
-0.943484245253327 0.331417378782042
-0.940651630925495 0.339373701451963
-0.934785756076565 0.355212035601786
-0.931752495555468 0.363094047081687
-0.925487275216449 0.378778699787136
-0.922255315398527 0.386581341012683
-0.915594770897347 0.402102245088777
-0.912166186214088 0.409820507939324
-0.905114592617306 0.42516770130292
-0.901491583703782 0.432796631815969
-0.894053467072592 0.447960263880043
-0.890238359354926 0.455494965431067
-0.882418493840079 0.470465303427368
-0.878413736042898 0.477900939872645
-0.870217140820439 0.492668375098606
-0.866025303395161 0.50000017387929
-0.857457239444873 0.514555227865365
-0.853081012919864 0.521778483070756
-0.844146979648515 0.536111813664174
-0.839589172902175 0.543221889052201
-0.830294904613723 0.557324296413218
-0.825558443071611 0.564316628386208
-0.815909905286648 0.578179060893019
-0.810997829043796 0.585049161426841
-0.801001214670577 0.598662721485362
-0.79591667654021 0.605406181010061
-0.785578401899746 0.618762130764837
-0.780324665389649 0.625374620994915
-0.769651366097387 0.638464387937515
-0.764231803315223 0.644941664650038
-0.753230330021988 0.657756847121311
-0.747648419510916 0.664094752880061
-0.736325833505818 0.676627125462734
-0.730585158011791 0.682821592286657
-0.718948726689945 0.695063111084818
-0.713052970862125 0.701110163059057
-0.701110163060071 0.713052970861128
-0.695063111085837 0.718948726688961
-0.682821592287682 0.730585158010834
-0.676627125463762 0.736325833504874
-0.664094752881094 0.747648419509998
-0.657756847122347 0.753230330021083
-0.644941664651078 0.764231803314345
-0.638464387938558 0.769651366096522
-0.625374620995961 0.78032466538881
-0.618762130765885 0.785578401898921
-0.605406181011111 0.795916676539411
-0.598662721486413 0.801001214669791
-0.585049161427895 0.810997829043036
-0.578179060894074 0.8159099052859
-0.564316628387263 0.82555844307089
-0.557324296414274 0.830294904613014
-0.543221889053257 0.839589172901492
-0.53611181366523 0.844146979647844
-0.521778483071812 0.853081012919218
-0.51455522786642 0.85745723944424
-0.500000173880343 0.866025303394552
-0.492668375099658 0.870217140819843
-0.477900939873695 0.878413736042327
-0.470465303428418 0.88241849383952
-0.455494965432114 0.890238359354391
-0.447960263881087 0.894053467072069
-0.43279663181701 0.901491583703282
-0.425167701303959 0.905114592616818
-0.409820507940358 0.912166186213623
-0.402102245089809 0.915594770896893
-0.386581341013702 0.922255315398099
-0.378778699788144 0.925487275216036
-0.363094047082666 0.931752495555086
-0.355212035602745 0.934785756076201
-0.339373701452884 0.940651630925163
-0.331417378782943 0.943484245253011
-0.315435529014029 0.948947009603613
-0.307410001915056 0.951577159626367
-0.291294894467889 0.95663330720655
-0.283205314119694 0.959059304763978
-0.266967292466433 0.963705590288415
-0.258818851161367 0.965925878255423
-0.242468337666585 0.970159319508504
-0.234266265476869 0.972172472794576
-0.217813754707958 0.975990352544543
-0.209563316128763 0.977795079008437
-0.193019368120006 0.981194946751436
-0.184725858690444 0.982790088030541
-0.168101092165062 0.985769761563477
-0.159769835069242 0.987154293817308
-0.143074920623773 0.98971186063849
-0.134711263274124 0.990884895205841
-0.117956916529506 0.993018713742521
-0.109566227134538 0.993979497711851
-0.0927632018582982 0.995688198373867
-0.0843508659770258 0.996436115066553
-0.067509947180974 0.997718601125399
-0.0590813642661948 0.998253170491557
-0.0422133612840761 0.999108618784314
-0.0337739412167368 0.999429497710913
-0.016889680766265 0.999857359168604
-0.0084448403831325 0.999964341699695
0.00844484038310866 0.999964341699695
0.0168896807662173 0.999857359168604
0.0337739412166414 0.999429497710916
0.0422133612839569 0.999108618784319
0.059081364266028 0.998253170491567
0.0675099471807836 0.997718601125411
0.084350865976788 0.996436115066574
0.0927632018580368 0.995688198373891
0.10956622713423 0.993979497711885
0.117956916529175 0.99301871374256
0.134711263273745 0.990884895205892
0.143074920623372 0.989711860638548
0.159769835068794 0.98715429381738
0.168101092164591 0.985769761563557
0.184725858689927 0.982790088030638
0.193019368119467 0.981194946751542
0.20956331612818 0.977795079008562
0.217813754707352 0.975990352544678
0.234266265476219 0.972172472794733
0.242468337665914 0.970159319508671
0.258818851160653 0.965925878255614
0.266967292465698 0.963705590288619
0.283205314118916 0.959059304764208
0.29129489446709 0.956633307206793
0.307410001914216 0.951577159626639
0.315435529013168 0.948947009603899
0.331417378782042 0.943484245253327
0.339373701451963 0.940651630925495
0.355212035601786 0.934785756076565
0.363094047081687 0.931752495555468
0.378778699787136 0.925487275216449
0.386581341012683 0.922255315398527
0.402102245088777 0.915594770897347
0.409820507939324 0.912166186214088
0.42516770130292 0.905114592617306
0.432796631815969 0.901491583703782
0.447960263880043 0.894053467072592
0.455494965431067 0.890238359354926
0.470465303427368 0.882418493840079
0.477900939872645 0.878413736042898
0.492668375098606 0.870217140820439
0.50000017387929 0.866025303395161
0.514555227865365 0.857457239444873
0.521778483070756 0.853081012919864
0.536111813664174 0.844146979648515
0.543221889052201 0.839589172902175
0.557324296413218 0.830294904613723
0.564316628386208 0.825558443071611
0.578179060893019 0.815909905286648
0.585049161426841 0.810997829043796
0.598662721485362 0.801001214670577
0.605406181010061 0.79591667654021
0.618762130764837 0.785578401899746
0.625374620994915 0.780324665389649
0.638464387937515 0.769651366097387
0.644941664650038 0.764231803315223
0.657756847121311 0.753230330021988
0.664094752880061 0.747648419510916
0.676627125462734 0.736325833505818
0.682821592286657 0.730585158011791
0.695063111084819 0.718948726689945
0.701110163059057 0.713052970862125
0.713052970861128 0.701110163060071
0.718948726688961 0.695063111085837
0.730585158010834 0.682821592287682
0.736325833504874 0.676627125463762
0.747648419509998 0.664094752881094
0.753230330021083 0.657756847122347
0.764231803314345 0.644941664651078
0.769651366096522 0.638464387938558
0.78032466538881 0.625374620995961
0.785578401898921 0.618762130765885
0.795916676539411 0.605406181011111
0.801001214669791 0.598662721486413
0.810997829043036 0.585049161427895
0.8159099052859 0.578179060894074
0.82555844307089 0.564316628387263
0.830294904613014 0.557324296414274
0.839589172901492 0.543221889053257
0.844146979647844 0.53611181366523
0.853081012919218 0.521778483071812
0.85745723944424 0.51455522786642
0.866025303394552 0.500000173880343
0.870217140819843 0.492668375099658
0.878413736042327 0.477900939873695
0.88241849383952 0.470465303428418
0.890238359354391 0.455494965432114
0.894053467072069 0.447960263881087
0.901491583703282 0.43279663181701
0.905114592616818 0.425167701303959
0.912166186213623 0.409820507940358
0.915594770896893 0.402102245089809
0.922255315398099 0.386581341013702
0.925487275216036 0.378778699788144
0.931752495555086 0.363094047082666
0.934785756076201 0.355212035602745
0.940651630925163 0.339373701452884
0.943484245253011 0.331417378782943
0.948947009603613 0.315435529014029
0.951577159626367 0.307410001915056
0.95663330720655 0.291294894467889
0.959059304763978 0.283205314119694
0.963705590288415 0.266967292466433
0.965925878255423 0.258818851161367
0.970159319508504 0.242468337666585
0.972172472794576 0.234266265476869
0.975990352544543 0.217813754707958
0.977795079008437 0.209563316128763
0.981194946751436 0.193019368120006
0.982790088030541 0.184725858690444
0.985769761563477 0.168101092165062
0.987154293817308 0.159769835069242
0.98971186063849 0.143074920623773
0.990884895205841 0.134711263274124
0.993018713742521 0.117956916529506
0.993979497711851 0.109566227134538
0.995688198373867 0.0927632018582982
0.996436115066553 0.0843508659770258
0.997718601125399 0.067509947180974
0.998253170491557 0.0590813642661948
0.999108618784314 0.0422133612840761
0.999429497710913 0.0337739412167368
0.999857359168603 0.016889680766265
0.999964341699695 0.0084448403831325

e	0 4
e	4 5
e	5 6
e	6 7
e	7 8
e	8 9
e	9 10
e	10 11
e	11 12
e	12 13
e	13 14
e	14 15
e	15 16
e	16 17
e	17 18
e	18 19
e	19 20
e	20 21
e	21 22
e	22 23
e	23 24
e	24 25
e	25 26
e	26 27
e	27 28
e	28 29
e	29 30
e	30 31
e	31 32
e	32 33
e	33 34
e	34 35
e	35 36
e	36 37
e	37 38
e	38 39
e	39 40
e	40 41
e	41 42
e	42 43
e	43 44
e	44 45
e	45 46
e	46 47
e	47 48
e	48 49
e	49 50
e	50 51
e	51 52
e	52 53
e	53 54
e	54 55
e	55 56
e	56 57
e	57 58
e	58 59
e	59 60
e	60 61
e	61 62
e	62 63
e	63 64
e	64 1
e	1 65
e	65 66
e	66 67
e	67 68
e	68 69
e	69 70
e	70 71
e	71 72
e	72 73
e	73 74
e	74 75
e	75 76
e	76 77
e	77 78
e	78 79
e	79 80
e	80 81
e	81 82
e	82 83
e	83 84
e	84 85
e	85 86
e	86 87
e	87 88
e	88 89
e	89 90
e	90 91
e	91 92
e	92 93
e	93 94
e	94 95
e	95 96
e	96 97
e	97 98
e	98 99
e	99 100
e	100 101
e	101 102
e	102 103
e	103 104
e	104 105
e	105 106
e	106 107
e	107 108
e	108 109
e	109 110
e	110 111
e	111 112
e	112 113
e	113 114
e	114 115
e	115 116
e	116 117
e	117 118
e	118 119
e	119 120
e	120 121
e	121 122
e	122 123
e	123 124
e	124 125
e	125 2
e	2 126
e	126 127
e	127 128
e	128 129
e	129 130
e	130 131
e	131 132
e	132 133
e	133 134
e	134 135
e	135 136
e	136 137
e	137 138
e	138 139
e	139 140
e	140 141
e	141 142
e	142 143
e	143 144
e	144 145
e	145 146
e	146 147
e	147 148
e	148 149
e	149 150
e	150 151
e	151 152
e	152 153
e	153 154
e	154 155
e	155 156
e	156 157
e	157 158
e	158 159
e	159 160
e	160 161
e	161 162
e	162 163
e	163 164
e	164 165
e	165 166
e	166 167
e	167 168
e	168 169
e	169 170
e	170 171
e	171 172
e	172 173
e	173 174
e	174 175
e	175 176
e	176 177
e	177 178
e	178 179
e	179 180
e	180 181
e	181 182
e	182 183
e	183 184
e	184 185
e	185 186
e	186 3
e	3 187
e	187 188
e	188 189
e	189 190
e	190 191
e	191 192
e	192 193
e	193 194
e	194 195
e	195 196
e	196 197
e	197 198
e	198 199
e	199 200
e	200 201
e	201 202
e	202 203
e	203 204
e	204 205
e	205 206
e	206 207
e	207 208
e	208 209
e	209 210
e	210 211
e	211 212
e	212 213
e	213 214
e	214 215
e	215 216
e	216 217
e	217 218
e	218 219
e	219 220
e	220 221
e	221 222
e	222 223
e	223 224
e	224 225
e	225 226
e	226 227
e	227 228
e	228 229
e	229 230
e	230 231
e	231 232
e	232 233
e	233 234
e	234 235
e	235 236
e	236 237
e	237 238
e	238 239
e	239 240
e	240 241
e	241 242
e	242 243
e	243 244
e	244 245
e	245 246
e	246 247
e	247 0

