#!geo

mesh
4
header
 dimension 2
 order     3
 nodes	895
 quadrangles	94
 edges	204
end header

1 0
0 1
-1 0
0 -1
0.98078528040354 0.195090322014572
0.923879532512616 0.382683432361881
0.831469612303739 0.555570233017816
0.707106781187053 0.707106781186042
0.555570233018998 0.831469612302949
0.382683432362906 0.923879532512191
0.195090322014999 0.980785280403455
-0.195090322014572 0.98078528040354
-0.382683432361881 0.923879532512616
-0.555570233017816 0.831469612303739
-0.707106781186042 0.707106781187053
-0.831469612302949 0.555570233018998
-0.923879532512191 0.382683432362906
-0.980785280403455 0.195090322014999
-0.98078528040354 -0.195090322014572
-0.923879532512616 -0.382683432361881
-0.831469612303739 -0.555570233017816
-0.707106781187053 -0.707106781186042
-0.555570233018998 -0.831469612302949
-0.382683432362906 -0.923879532512191
-0.195090322014999 -0.980785280403455
0.195090322014572 -0.98078528040354
0.382683432361881 -0.923879532512616
0.555570233017816 -0.831469612303739
0.707106781186042 -0.707106781187053
0.831469612302949 -0.555570233018998
0.923879532512191 -0.382683432362906
0.980785280403455 -0.195090322014999
-0.175120117762143 -0.0745258943315811
0.0145861577939603 0.612661969742188
0.294949032253068 0.119980299449862
0.442159218821007 -0.426428339734194
-0.378486518600973 0.448829654878041
-0.526363163633309 0.125797541762775
-0.0565813385260722 0.274355354897325
-0.283764734219609 -0.463979384769101
-0.249057006363453 0.661833511232655
0.680749136832303 -0.0735566377492667
0.047762132200722 -0.588944690228612
0.290185172099104 -0.647599648380007
-0.667586148945164 -0.277212292434328
0.153155441777216 -0.238933604772907
0.431634306155775 0.53205291176425
0.79248367118947 -0.256503912114811
0.859714724532054 -0.0293615016149098
0.58852231479197 0.627742857746943
0.381112629352544 0.741471263298118
0.6454785549512 0.417835048101672
0.751186881625551 0.158587646077745
-0.660581303617495 -0.514278159300864
-0.810680287168379 -0.33605491281944
-0.830232309272602 -0.104125457456827
-0.714773052783708 0.247397040459362
-0.455268374732216 0.296332537497122
-0.536655301127831 0.564984929027879
-0.63432481778117 0.416474562333734
-0.301794347508175 0.764909063326397
-0.141903818384216 0.643587920346969
0.0154615236212492 0.794510984200056
-0.154605920786696 0.797233099779142
-0.114023986088197 0.103487622640116
-0.220258809665539 0.354329022061625
-0.347600826000908 0.0189308957550397
-0.28352148376863 0.193462941076
-0.303356769963759 0.57702993662539
-0.42631501010146 0.685448266402193
-0.00955190350729178 0.441546582284657
-0.167330553120334 0.502157334050137
0.543942440851174 -0.267739003901775
0.571865396002904 -0.552926535021171
0.685072453870284 -0.403770760334605
0.0186176239885149 -0.78185514150483
-0.113715977863382 -0.535130815007646
-0.331215546759795 -0.68215529640715
-0.155193391993263 -0.745004910007222
0.352957378221924 -0.559202924267573
0.32648723539278 -0.756288902520742
0.453392470583196 -0.675165142851801
-0.591152731148379 -0.0603286636655516
-0.460156919159516 -0.376932924669532
-0.232036581626301 -0.262448213388258
-0.408053950690551 -0.170532527410401
-0.00754380690509194 -0.1583597361822
0.223162693349827 -0.062979354195202
0.116111196385991 0.198592620067041
0.0550988765777884 0.020408142709015
0.477650897317471 0.0324892614134566
0.303880513051981 -0.324108653279606
0.388509952214982 -0.154738941174265
0.19140790716507 -0.627063945452607
0.182125885497602 -0.788740868836685
0.0928190522244793 -0.411672257832762
-0.0648290404208623 -0.341759173951733
0.234250934848893 -0.478297183378878
0.362923398997068 0.311832352179413
0.198230378232096 0.572128092300109
0.168405877398617 0.381671570141659
0.200613138201584 0.769973028557487
-0.504189636572543 -0.598060024812406
-0.778089275428331 0.0655986433450041
0.566282476183403 0.232950962029352
0.8720900411072 -0.157807401720122
0.507295728089008 0.728462419390353
0.687565474934698 0.535577067005565
0.863286597259666 0.105863358765963
-0.766083800001984 -0.463578018257476
-0.867515566380023 -0.214459710060385
-0.751777986148139 0.659416302151417
-0.793410412210323 0.608687044215864
-0.765754680795689 0.509205009457243
-0.70003974928843 0.462839785895489
-0.601768312230057 0.465978017898449
-0.569211806678944 0.515481473463164
-0.593472461147235 0.612358879747604
-0.650289621166638 0.659732830467328
-0.865978521675436 0.500081193404458
-0.896914205078358 0.442204600528599
-0.854177372602697 0.337587968395058
-0.784475212693202 0.29249250442721
-0.687956974449529 0.303756214417486
-0.661140896115349 0.36011538837561
-0.651969756400242 0.206863874227166
-0.589166460016775 0.166330707994971
-0.502664900666278 0.182642540340891
-0.478966637699247 0.239487538919006
-0.514953855748534 0.336379879109326
-0.574639336764852 0.37642722072153
-0.429674422688468 0.347164909957428
-0.404080470644721 0.397997282417735
-0.431209446109926 0.487548079594654
-0.483932373618878 0.526266504311266
-0.355720404077312 0.87088937611721
-0.328757375792744 0.817899219721803
-0.252731538601015 0.775683742143979
-0.203668729693856 0.78645842096156
-0.168100721195988 0.858417159987275
-0.18159552160528 0.919601220195407
-0.258728482035085 0.965950088039657
-0.321528244843368 0.94689998826061
-0.284215233793268 0.730550545961816
-0.26663612007836 0.696192028597236
-0.213339277037041 0.655751647604093
-0.177621547710628 0.649669783975531
-0.146137852518376 0.694802980157693
-0.150371886652536 0.746018039968418
-0.0897404929914906 0.633279270145375
-0.0375771675987651 0.622970619943782
0.0148779464030566 0.673278307894811
0.0151697350121529 0.733894646047433
-0.0412276245147325 0.795418356059751
-0.0979167726507143 0.796325727919447
0.0103076824141661 0.863007322800037
0.00515384120708307 0.931503661400019
-0.0653095730756013 0.997865050828359
-0.130619146151203 0.991432619323538
-0.154754740537494 -0.0151880553410154
-0.134389363312846 0.0441497836495503
-0.170523151981675 0.133479395452077
-0.227022317875152 0.163471168264039
-0.304881264512723 0.13528559263568
-0.326241045256815 0.0771082441953598
-0.290107256587986 -0.0122213676071672
-0.232613687175065 -0.0433736309693742
-0.0948764369008221 0.160443533392519
-0.0757288877134471 0.217399444144922
-0.111140495572561 0.301013243952092
-0.16569965261905 0.327671133006858
-0.241346367699903 0.300706995066417
-0.262433925734266 0.247084968071208
-0.273001379310684 0.38582923300043
-0.325743948955828 0.417329443939236
-0.398019411077687 0.262042672023415
-0.340770447423159 0.227752806549707
-0.466775717755842 0.0901753264268632
-0.407188271878375 0.0545531110909515
-0.442204600527511 0.896914205078894
-0.500081193403316 0.865978521676095
-0.512485158712364 0.782795830336557
-0.469400084406912 0.734122048369375
-0.384808122570365 0.711935198710261
-0.34330123503927 0.738422131018329
-0.608687044214734 0.79341041221119
-0.659416302150344 0.75177798614908
-0.499875204119041 0.605139374819317
-0.46309510711025 0.645293820610755
-0.353443269055235 0.491563082127157
-0.328400019509497 0.534296509376274
-0.344342850009659 0.613169379884324
-0.38532893005556 0.649308823143259
-0.285256848763657 0.605297794827812
-0.267156927563555 0.633565653030233
-0.150379396629589 0.596444391581358
-0.158854974874961 0.549300862815748
-0.114737669915987 0.48195375012831
-0.0621447867116392 0.461750166206484
-0.00150588307354109 0.498585044770501
0.0065401373602096 0.555623507256344
-0.258014697682617 0.552072402433639
-0.212672625401476 0.527114868241888
-0.202616057483804 0.403605126057796
-0.184973305302069 0.452881230053966
-0.0409048601864787 0.330085764026436
-0.0252283818468853 0.385816173155546
0.751777986148139 -0.659416302151417
0.793410412210323 -0.608687044215864
0.782670559492061 -0.504970408790867
0.733871506681172 -0.454370584562736
0.647336767914491 -0.453489351896794
0.609601081958697 -0.503207943458982
0.616945857730617 -0.604319950409798
0.662026319458329 -0.655713365798426
0.865978521675436 -0.500081193404458
0.896914205078358 -0.442204600528599
0.880080912071284 -0.340623592280208
0.836282291630377 -0.298563752197509
0.756679932083075 -0.305592861521409
0.720876192976679 -0.354681810928007
0.755238826403748 -0.195521487326296
0.717993981618025 -0.134539062537781
0.635146904838593 -0.138284093133436
0.589544672844884 -0.203011548517606
0.590985778524211 -0.313082922712718
0.638029116197247 -0.358426841523662
0.510014700174452 -0.320635449179248
0.476086959497729 -0.373531894456721
0.485394611214973 -0.468594404829853
0.528630003608938 -0.510760469925512
0.0062058746628383 -0.927285047168277
0.0124117493256766 -0.854570094336553
-0.0393193813387444 -0.769571731005627
-0.0972563866660037 -0.757288320506425
-0.168492368667175 -0.823598366805966
-0.181791345341087 -0.902191823604711
-0.130619146151491 -0.9914326193235
-0.0653095730757455 -0.997865050828349
0.0283324600592506 -0.717551657746091
0.0380472961299863 -0.653248173987351
-0.00606390448731266 -0.571006731821623
-0.0598899411753473 -0.553068773414635
-0.127541782573342 -0.605088846674171
-0.141367587283303 -0.675046878340697
-0.170398896648791 -0.511413671594798
-0.2270818154342 -0.487696528181949
-0.299581671733004 -0.536704688648451
-0.3153986092464 -0.6094299925278
-0.272541495170951 -0.703105167607174
-0.213867443582107 -0.724055038807198
-0.348371508627499 -0.762730041775497
-0.365527470495202 -0.843304787143844
-0.321528244844207 -0.946899988260325
-0.258728482035721 -0.965950088039486
0.442204600527511 -0.896914205078894
0.500081193403316 -0.865978521676095
0.521510978872943 -0.779368122486426
0.487451724728069 -0.727266632669114
0.411090725519724 -0.702206396074781
0.368788980456252 -0.729247649297762
0.345219301049147 -0.812152445851367
0.363951366705514 -0.868015989181991
0.608687044214734 -0.79341041221119
0.659416302150344 -0.75177798614908
0.532374420863001 -0.593672737631381
0.492883445723099 -0.634418940241591
0.412425271954646 -0.470686534578654
0.382691325088285 -0.514944729423113
0.386435742342348 -0.597856997128982
0.419914106462772 -0.636511069990392
0.332033309514317 -0.588668498971718
0.311109240806711 -0.618134073675862
0.302285859863663 -0.683829399760252
0.314386547628221 -0.720059151140497
-0.547959686138332 0.0637554732866661
-0.569556208643356 0.00171340481055728
-0.530119804329103 -0.0970632849138347
-0.469086877509827 -0.133797906162118
-0.387902909127337 -0.107378053021921
-0.367751867564122 -0.0442235786334405
-0.616630537080641 -0.132623206588477
-0.642108343012902 -0.204917749511403
-0.598443072349948 -0.310452503179396
-0.529299995754732 -0.343692713924464
-0.442789263003194 -0.308132792249822
-0.425421606846873 -0.239332659830111
-0.401359524179547 -0.405948411369388
-0.342562129199578 -0.434963898069245
-0.266522016688506 -0.396802327642153
-0.249279299157404 -0.329625270515206
-0.290709037981051 -0.231809651395639
-0.349381494335801 -0.20117108940302
-0.213064427004915 -0.199807440369366
-0.194092272383529 -0.137166667350473
-0.0576496985328685 0.0757944626630823
-0.00127541097754008 0.0481013026860487
0.0754363165138559 0.0798029684950237
0.0957737564499235 0.139197794281032
0.0585470180819699 0.223846865010469
0.000982839777948871 0.249101109953897
-0.119261347476459 -0.102470508281787
-0.0634025771907756 -0.130415122231994
0.0133370875892015 -0.0987704432184617
0.0342179820834949 -0.0391811502547233
0.046022609322344 -0.185217692379102
0.09958902554978 -0.212075648576005
0.17649119230142 -0.180282187913672
0.199826942825623 -0.121630771054437
0.167141421092481 -0.0351835218937963
0.111120148835135 -0.00738768959239067
0.247091472984241 -0.00199280298018066
0.271020252618654 0.0589937482348407
0.235336420297376 0.146184406322255
0.175723808341683 0.172388513194648
0.613049723660692 -0.0382080046950256
0.545350310489082 -0.00285937164078449
0.447937248949975 -0.0299201394491173
0.418223600582478 -0.0923295403116911
0.440320781760379 -0.192405628750102
0.492131611305777 -0.230072316325938
0.416750275629337 0.0616529407589251
0.355849653941202 0.0908166201043935
0.278278446304879 -0.093565883188223
0.33339419925993 -0.124152412181244
0.203397132202138 -0.267325287608473
0.253638822627059 -0.29571697044404
0.332090326106315 -0.267652082577826
0.360300139160648 -0.211195511876045
0.34997341497499 -0.358215215431135
0.396066316897998 -0.392321777582665
0.278366785427721 -0.767106224626056
0.230246335462661 -0.777923546731371
0.186447364336592 -0.852755672692303
0.190768843175582 -0.916770476547922
0.258728482035085 -0.965950088039657
0.321528244843368 -0.94689998826061
0.257259417121093 -0.640754414070874
0.224333662143081 -0.63390917976174
0.188313899942581 -0.6809562532473
0.185219892720091 -0.734848561041992
0.143525982176954 -0.614357527044609
0.095644057188838 -0.60165110863661
0.0731203778248773 -0.784150383948782
0.12762313166124 -0.786445626392733
0.0653095730756013 -0.997865050828359
0.130619146151203 -0.991432619323538
-0.176300734557821 -0.28888520024275
-0.120564887489342 -0.315322187097241
-0.0457339625822722 -0.280626028028555
-0.0266388847436821 -0.219492882105378
-0.0974203320492088 -0.470673601322342
-0.0811246862350355 -0.406216387637037
0.0627811055419744 -0.529853879429995
0.0778000788832269 -0.470763068631379
0.0402696880093654 -0.388367896539086
-0.0122796762057484 -0.365063535245409
0.112931182075392 -0.35409270681281
0.133043311926304 -0.296513155792859
0.280670653650952 -0.375504829979363
0.257460794249922 -0.426901006679121
0.27381974930657 -0.50526576367511
0.313388563764247 -0.532234343971341
0.139963013099284 -0.433880566348134
0.187106973974088 -0.456088874863506
0.205688916393011 -0.577475024761364
0.219969925620952 -0.527886104070121
0.133542756723533 0.25961893675858
0.150974317061075 0.32064525345012
0.109086617096647 0.401629907522658
0.0497673567946778 0.421588244903658
0.317607154501068 0.183930983693046
0.340265276749068 0.247881667936229
0.298084225130918 0.335112091500162
0.233245051264767 0.35839183082091
0.385827034716637 0.385239205374359
0.408730670436206 0.458646058569304
0.353832996847882 0.545411305276203
0.276031687539989 0.558769698788156
0.18828887795427 0.508642584913959
0.178347377676443 0.445157077527809
0.137015638086051 0.585639384780802
0.0758008979400055 0.599150677261495
0.0771787284813608 0.786331665652533
0.138895933341472 0.77815234710501
0.198772199472722 0.84024377917281
0.196931260743861 0.910514529788132
0.130619146151491 0.9914326193235
0.0653095730757455 0.997865050828349
0.199024631555259 0.638076404385902
0.199818884878421 0.704024716471694
0.414793747221365 0.601859028942206
0.397953188286954 0.671665146120162
0.320946132302224 0.750971851717908
0.260779635251904 0.760472440137697
0.381636230355998 0.802274019702809
0.382159831359452 0.8630767761075
0.321528244844207 0.946899988260325
0.258728482035721 0.965950088039486
-0.388873576697378 -0.654123539208902
-0.44653160663496 -0.626091782010654
-0.521316502054695 -0.675863220642587
-0.538443367536846 -0.753666416472768
-0.500081193404458 -0.865978521675436
-0.442204600528599 -0.896914205078358
-0.474834491630525 -0.45064195805049
-0.489512064101534 -0.524350991431448
-0.665251200502608 -0.356234248056507
-0.662916252060051 -0.435256203678685
-0.608450747935844 -0.542205447804711
-0.556320192254194 -0.570132736308559
-0.676089796140681 -0.578554366595923
-0.691598288663867 -0.642830573890983
-0.659416302151417 -0.751777986148139
-0.608687044215864 -0.793410412210323
-0.946899988260325 0.321528244844207
-0.965950088039486 0.258728482035721
-0.913219945411747 0.151926429125001
-0.845654610420039 0.108762536235002
-0.756983867880123 0.12619810904979
-0.735878460331916 0.186797574754576
-0.9914326193235 0.130619146151491
-0.997865050828349 0.0653095730757455
-0.943410769757534 -0.0347084858189423
-0.886821539515068 -0.0694169716378847
-0.812851297991178 -0.04755075718955
-0.795470286709755 0.00902394307772705
-0.776016922496789 -0.161821069115994
-0.721801535720977 -0.219516680775161
-0.65346491257503 -0.018352894662033
-0.71577709400168 0.0236228743414855
0.831079206658811 0.394400637608478
0.738278880805005 0.406117842855075
0.619079862028601 0.356207019410899
0.592681169106002 0.294578990720125
0.627917277997452 0.208163190045483
0.689552079811502 0.183375418061614
0.808751098587906 0.23328624150579
0.866315315550261 0.307984836933836
0.574197138686058 0.455907669322531
0.502915722420917 0.493980290543391
0.43070975805918 0.285538555462726
0.498496117121291 0.259244758746039
0.507194756939448 0.0993098282854217
0.536738616561426 0.166130395157387
0.704228385096719 0.00382479019307053
0.727707633361135 0.0812062181354078
0.819019127828713 -0.223605075316581
0.845554584467957 -0.190706238518352
0.867964935582151 -0.114992101685051
0.863839830057103 -0.0721768016499805
0.800059528632137 -0.0440932136596954
0.74040433273222 -0.0588249257044811
0.946899988260325 -0.321528244844207
0.965950088039486 -0.258728482035721
0.94455353397137 -0.182662681916707
0.908321787539285 -0.170235041818414
0.9914326193235 -0.130619146151491
0.997865050828349 -0.0653095730757455
0.953238241510685 -0.00978716720496993
0.906476483021369 -0.0195743344099399
0.483930309034507 0.563949560425148
0.536226311913238 0.595846209086045
0.561446785890983 0.661316044961413
0.534371256989995 0.694889232175883
0.465234695176853 0.732798700692941
0.423173662264699 0.73713498199553
0.628050470256998 0.654197498893309
0.667578625722025 0.680652140039676
0.659416302151417 0.751777986148139
0.608687044215864 0.793410412210323
0.539478731375668 0.797133881332084
0.523387229732338 0.762798150361218
0.500081193404458 0.865978521675436
0.442204600528599 0.896914205078358
0.896914205078894 0.442204600527511
0.865978521676095 0.500081193403316
0.783501566514058 0.548905844347066
0.735533520724378 0.542241455676315
0.673536501606865 0.496329727370934
0.659507528279033 0.457082387736303
0.79341041221119 0.608687044214734
0.75177798614908 0.659416302150344
0.621536701506213 0.597020927499817
0.654551088220455 0.566298997252691
0.788553453503589 0.141012883640484
0.825920025381628 0.123438121203224
0.902452824974291 0.135605679848833
0.941619052688915 0.165348000931702
0.965950088039657 0.258728482035085
0.94689998826061 0.321528244843368
0.860905348774591 0.0157134518453811
0.862095973017129 0.0607884053056721
0.997865050828359 0.0653095730756013
0.991432619323538 0.130619146151203
-0.896914205078894 -0.442204600527511
-0.865978521676095 -0.500081193403316
-0.809674341536487 -0.524906161431036
-0.787879070769236 -0.494242089844256
-0.780949295724116 -0.421070316444797
-0.795814791446247 -0.378562614632119
-0.848413368949791 -0.35159775266692
-0.886146450731204 -0.367140592514401
-0.79341041221119 -0.608687044214734
-0.75177798614908 -0.659416302150344
-0.695748802412325 -0.497378112286401
-0.730916301207154 -0.480478065271939
-0.715284195019569 -0.296826499229365
-0.762982241093974 -0.316440706024403
-0.842660061641742 -0.140903541658013
-0.855087814010883 -0.177681625859199
-0.848570473309475 -0.254991444313403
-0.829625380238927 -0.295523178566422
-0.997865050828359 -0.0653095730756013
-0.991432619323538 -0.130619146151203
-0.943028709062368 -0.20154678469651
-0.905272137721195 -0.208003247378447
-0.965950088039657 -0.258728482035085
-0.94689998826061 -0.321528244843368
-0.690922592991741 0.611438025921999
-0.729529712216901 0.561117368776726
-0.630067199835343 0.563459749692582
-0.665649012223479 0.513547693337587
-0.797699313155407 0.453425925061508
-0.827261794868748 0.396055138491561
-0.729420104635378 0.406770656718559
-0.757609384659138 0.349905676454524
-0.600416143309982 0.319906105223409
-0.626192949855112 0.263384989725288
-0.539691390504614 0.279696822071208
-0.564428925260695 0.223013765033089
-0.51416802800087 0.476320076448021
-0.544403682382861 0.426373648584775
-0.459124249322795 0.437158679432878
-0.487039052535665 0.386769279271102
-0.29859600942925 0.889827906221733
-0.275663774015133 0.832755824182856
-0.240375231254675 0.906119532346958
-0.222021980474265 0.846288976654259
-0.239600784746357 0.73570637729735
-0.226470030891699 0.695729012450722
-0.194986335699447 0.740862208632884
-0.186303941705037 0.695265996304208
-0.0951913460976397 0.741976908661423
-0.0924659195445651 0.687628089403399
-0.0400108055427434 0.737935777354428
-0.0387939865707543 0.680453198649105
-0.119718354984373 0.926396988855507
-0.108817563817544 0.861361358387477
-0.0572822568886451 0.930382819238823
-0.0492549407016888 0.862900587649287
-0.211916842110601 0.0155773778377763
-0.191219997046138 0.0745283866449268
-0.269078943683708 0.0463428110165681
-0.24805063077943 0.104906989640303
-0.150728933178637 0.189324011618749
-0.130934714375599 0.24516862778542
-0.206581429456452 0.218204489844979
-0.186140541037751 0.272937811425918
-0.318180758052334 0.280444948699948
-0.295591068681509 0.333137090850189
-0.373927590370401 0.313804929328688
-0.349835769663115 0.365567186633962
-0.38504899705997 0.112286342910537
-0.362909722241564 0.170019574730122
-0.443856948863124 0.147464441625714
-0.420938179970406 0.204753556824564
-0.409236812031431 0.844083513725372
-0.461656836458999 0.814630747354151
-0.37626902353535 0.791252822371851
-0.423232479514682 0.763282973032206
-0.56015639851324 0.744038215011045
-0.60623593613991 0.702898449039159
-0.511625752811745 0.6946660178109
-0.553055570129475 0.654018911929238
-0.418196744576666 0.608294716865928
-0.451064559097772 0.567280610588597
-0.373298382043081 0.571295613121101
-0.402253914076504 0.529421846357877
-0.317919799214032 0.703469971688964
-0.351624364634796 0.676389397416111
-0.292538363388793 0.668517812359599
-0.318440606699226 0.640843596121961
-0.0457663739697232 0.569230468698016
-0.0980728852996559 0.582837430139687
-0.0539555803406812 0.51549031745225
-0.106405277607821 0.532395590133999
-0.189305240274244 0.60881814539765
-0.2282310839189 0.621191899213942
-0.20098893283786 0.567966506819769
-0.243122890800758 0.58663215082379
-0.232782210037878 0.480019656494735
-0.280591114773688 0.507158082935505
-0.252891794674281 0.432924444747583
-0.303167531864758 0.46224376343737
-0.0784766896652798 0.408171192121686
-0.131724997483674 0.430526211087826
-0.0948085926189205 0.354592218036889
-0.148712325051362 0.379098672047342
0.704385684751658 -0.607346849253939
0.744719197445045 -0.556954480109507
0.656993383355178 -0.555277396356461
0.696027982679768 -0.50522191600315
0.81761107877585 -0.451614732578974
0.850169447413263 -0.396667354192869
0.769243635876265 -0.403148271753491
0.803424689748169 -0.351130107857139
0.677099019599414 -0.304125056791206
0.716168923001581 -0.249823272058751
0.633321846222149 -0.253568302654406
0.675657913920087 -0.194053682596094
0.565096374471708 -0.459982593791562
0.601562745334478 -0.409204717657612
0.520591666984719 -0.416757244124141
0.555788722754465 -0.36492008341843
-0.0566461758300785 -0.921767277554109
-0.0479827785844115 -0.845669504279868
-0.119498226322995 -0.913384519717808
-0.1083773064945 -0.835336420112116
-0.0282342223882672 -0.703383397944293
-0.0171490634377899 -0.637195064882958
-0.0848009048357849 -0.689215138142495
-0.0723454230055661 -0.621141955778565
-0.199377927937668 -0.653174583069731
-0.18488841229323 -0.582294127332264
-0.257388268592034 -0.631302287798766
-0.242235042013117 -0.559499407990358
-0.243774802551183 -0.885318404962057
-0.228821123066645 -0.804686721884627
-0.305199328286455 -0.865635048042608
-0.288870411728703 -0.784370107824891
0.417732727170425 -0.84102535315185
0.470417704108785 -0.811387813142324
0.393260853813338 -0.785136501224805
0.440754214814255 -0.756797104608552
0.570085844717522 -0.74041325488799
0.617069008387897 -0.69907623664318
0.531484645220311 -0.68741609756479
0.574721714625449 -0.646374487137281
0.456152738844827 -0.594594203302098
0.492391371226883 -0.552677336613805
0.419422031966556 -0.554769466362606
0.452408321590764 -0.511681935596229
0.349562400573072 -0.692209790757129
0.384738253517922 -0.66436043037376
0.330335820689891 -0.655171932216496
0.35838578151612 -0.626514464672739
-0.487890413280262 0.0277624559799639
-0.509005108804683 -0.0346504144669354
-0.427821140422192 -0.00823056132673831
-0.44845400896601 -0.0710142337444281
-0.552894227002718 -0.168193024335689
-0.575668649676333 -0.239322763757542
-0.489157916924795 -0.2037628420829
-0.509228956339764 -0.273727778003682
-0.366707504283716 -0.269430196725143
-0.384033514231632 -0.337689304047266
-0.30799340172056 -0.299527733620174
-0.325277765460069 -0.367245815844709
-0.309865335837258 -0.0752046082057848
-0.329623415086529 -0.138187848804402
-0.251978804110393 -0.106185637778129
-0.271343921045722 -0.168997644586884
-0.0185613396589903 0.191332227523625
-0.0381055190959294 0.133563345093354
0.0386062083954666 0.165265010902329
0.0186653987089633 0.106683156794189
-0.0781869148473988 0.0163728056814591
-0.098724131161929 -0.0430488513001641
-0.0219844663819519 -0.0114041722866321
-0.0426935217863638 -0.0709096472593129
0.0894209689975377 -0.0666643571879612
0.0677217891599409 -0.125941024783532
0.144623955911581 -0.0941475641211991
0.12210649073068 -0.153111606348602
0.154189255172834 0.112463112265635
0.132654702003984 0.0525377113366222
0.212604753895744 0.0857284302502379
0.189873087494112 0.0252724541782208
0.572743686209054 -0.102162775238663
0.510340467579514 -0.0660414573438902
0.532437648757415 -0.166117545782301
0.475330624669947 -0.129223543046996
0.388964916839535 -0.000282176887797955
0.329992584729094 0.0293557856735213
0.361179558049732 -0.062217294534521
0.304135515516987 -0.0321050487573508
0.30680907371564 -0.181340598268843
0.253318008270632 -0.15148568466164
0.28022394817135 -0.238528784356441
0.228357570236385 -0.209405486135057
0.460109846503184 -0.28415547007818
0.410204992831916 -0.247675490977113
0.428088081700591 -0.338238623830423
0.380089203903453 -0.302945353204124
0.307141091704819 -0.886968733715759
0.29275393856627 -0.827037479170907
0.24923443317761 -0.903274574270228
0.239740384320136 -0.840599060500799
0.271330995992178 -0.724988954440995
0.264295206556635 -0.682871684255935
0.228275444356135 -0.729918757741494
0.226304553249608 -0.681913968751617
0.132924081833144 -0.729082926610025
0.138225032005049 -0.671720226827317
0.0806282709461975 -0.723317292178058
0.0881361640675178 -0.662484200407334
0.129620474654548 -0.923103621679936
0.128621803157894 -0.854774624036335
0.0679131746586933 -0.926626828535166
0.0705167762417853 -0.855388606241974
-0.13827447650358 -0.164608738935441
-0.157287605530701 -0.226746969589096
-0.082456680623631 -0.19205081052041
-0.101510784056486 -0.253686498808825
-0.193227761516614 -0.35515564288915
-0.210154788475407 -0.421426085535549
-0.137176223875825 -0.380686015263093
-0.153787560262308 -0.446049843428945
-0.0281497645289481 -0.427731947968484
-0.0440198528521477 -0.49040036069156
0.0248251571771394 -0.449247508299932
0.00938062634491337 -0.510127120060777
0.0265885141463132 -0.245166306667871
0.0071544189702824 -0.30511492095664
0.0798159130363085 -0.270839731230365
0.060042800522837 -0.329603813884725
0.368507065853415 -0.438959299712224
0.324588859752183 -0.407232064845793
0.340947814808831 -0.485596821841782
0.299204304529377 -0.456248914260452
0.231461539742736 -0.349174271917195
0.18225242583452 -0.322843713855027
0.209284256858412 -0.402631573390351
0.161107719466902 -0.37836214010158
0.172579976708377 -0.508845092257207
0.125190027795802 -0.489804080444293
0.158052979442665 -0.561601309650908
0.11041704249232 -0.545727594540451
0.294678848216529 -0.568407700671185
0.25732438691874 -0.548146902370653
0.275969132668811 -0.60458105737103
0.240829024530911 -0.591028041066197
0.0172443454501919 0.306596821603817
0.0753935510868624 0.283107879181199
0.0335058511224348 0.364092533253737
0.0922400840917549 0.342368893351929
0.194897555982711 0.234389619070069
0.25625235524189 0.209160301381557
0.214071303623739 0.29639072494549
0.277168290186404 0.272136196440859
0.247507263356508 0.425184453476659
0.316667149036572 0.405211829425509
0.261769475448248 0.491977076132407
0.335250072942227 0.475311567350856
0.0584452038431204 0.48077572235627
0.118396290759782 0.46296639994204
0.067123050891563 0.539963199808883
0.127705964422916 0.524302892361421
0.0692659582109506 0.927353922436411
0.0732223433461557 0.856842794044471
0.133378075214818 0.92033919525067
0.136137004278145 0.84924577117784
0.0767194516342424 0.72393800285552
0.0762601747871239 0.661544340058508
0.138269168256332 0.713981359663607
0.137642403171191 0.649810372222205
0.265863652681266 0.693238193021184
0.270947670110627 0.62600394590467
0.33190842048411 0.682451669570673
0.342870708665996 0.613931487423438
0.259412199774449 0.89745753873889
0.260095917513177 0.828964989438294
0.321334207330213 0.881590609412853
0.321140169816218 0.81628123056538
-0.424427592584858 -0.815983983121872
-0.406650584641118 -0.735053761165387
-0.482231331147959 -0.786016275120508
-0.464381468891459 -0.706054028565582
-0.373436427531444 -0.581070325495683
-0.357999278365511 -0.508017111782464
-0.431474245816489 -0.552710658463565
-0.416416884998018 -0.479329534916477
-0.547313460087706 -0.494652728847194
-0.538306727921219 -0.419172721385829
-0.605114856073879 -0.46495446626294
-0.601778964211913 -0.387703484721168
-0.591231426895307 -0.718984520243068
-0.57377580957475 -0.644558628275813
-0.64242778407956 -0.681920473366997
-0.625439266007702 -0.612062960585854
-0.876559478950855 0.276618021480997
-0.896294681319699 0.214551691040411
-0.806218969641386 0.231707798117786
-0.826639274599911 0.170374900045101
-0.926111841785584 0.0900874117935697
-0.936193799882626 0.0276894629873137
-0.86079106424767 0.0495556774356484
-0.874522548936902 -0.0099306471011181
-0.735857036833383 -0.0381917734776743
-0.755936979665086 -0.100006421296834
-0.676243786957012 -0.0854074900330757
-0.699022661338994 -0.152462085404118
-0.673238868934054 0.145783540931939
-0.694507981467867 0.0847032076367125
-0.610599277536193 0.104769507109303
-0.632032095055611 0.0432083062236349
0.783903497709708 0.324058897759523
0.701491679869154 0.340132958585211
0.736727788760605 0.253717157910569
0.664704478933303 0.274148074315347
0.548963464831136 0.390353365797034
0.478847067633671 0.424499712183169
0.523729790976214 0.324799062271536
0.454778412846425 0.355019133822948
0.47124750329064 0.193380819417001
0.405756390019854 0.220631243676615
0.443998889459988 0.127516880087963
0.380803021980528 0.155723931890504
0.664051294427899 0.109514277142734
0.600394955494662 0.137822336150061
0.638550509044295 0.0356531362238543
0.572872632991872 0.067481482254638
0.766609264431051 -0.113751642241848
0.792814196129882 -0.168678358779215
0.815224547244077 -0.0929642219459142
0.830389565856017 -0.141835230232133
0.861646081305917 -0.25624613182579
0.904273034783121 -0.288887188334998
0.8856864189918 -0.213380319690808
0.925818253515643 -0.236054400863265
0.908514903647518 -0.0698877254585689
0.909120830162601 -0.120201116507198
0.953189977237933 -0.0675986492671572
0.95027672474305 -0.125410131329344
0.463678093444571 0.621678034281942
0.512562439667777 0.641497039621677
0.443425877854635 0.679406508138736
0.488898567422315 0.687147870157309
0.594103291311128 0.691470025356989
0.626759796731272 0.721624005752564
0.559143186065285 0.727729625520696
0.583915115140575 0.76057001886551
0.429517308352666 0.790394723023139
0.476850194586055 0.777191974353773
0.435860954440632 0.843654464050748
0.488465693995256 0.821585248014605
0.817778646145607 0.447163862930442
0.801831181653019 0.498830704725855
0.73864308721232 0.452123125333372
0.737683841629942 0.497580216048395
0.747123970880945 0.594557695227387
0.708364224601457 0.638617843933502
0.7008375295507 0.580428346240039
0.664950463053835 0.61781938571666
0.600981788530857 0.492704778632585
0.627766438375656 0.529501887942638
0.542456048782682 0.528327169528866
0.581996375144447 0.562674048514342
0.89411781000827 0.26135645777574
0.84133563175593 0.201184670708112
0.919273400486981 0.213631695091131
0.872596712934304 0.168534908147177
0.7725037465798 0.0744002805254959
0.75645403965601 0.00778767741050741
0.817299859798464 0.067594342915584
0.808679694215301 0.0117505646279443
0.948320403888068 0.107342232536026
0.905208188452598 0.0840653189208489
0.952211816810436 0.0487775326655279
0.906558582792513 0.0322454922554545
-0.863214400534678 -0.420990605229047
-0.837635446358768 -0.473744234417143
-0.829514595990463 -0.399776609930583
-0.809292371041442 -0.44740727543097
-0.772579041876511 -0.565950717900469
-0.733101591570162 -0.605403572195697
-0.751747671541833 -0.523214391586204
-0.714425196991243 -0.551390842241049
-0.752293594465034 -0.371119825773581
-0.741604947836094 -0.42579894552276
-0.708772397483821 -0.363677036915044
-0.702260599948073 -0.430527574600723
-0.75774281722696 -0.244852180038915
-0.800201439434351 -0.192877860848464
-0.793684098732944 -0.270187679302668
-0.824385956371913 -0.223934652580934
-0.894395058037281 -0.115705552130542
-0.94613005443282 -0.0905075626030719
-0.900536082448435 -0.1619941326232
-0.945984350885986 -0.146306639387201
-0.868716916246154 -0.30419153399207
-0.887697011552869 -0.256237123553964
-0.907808452253382 -0.312859889417719
-0.926823549796263 -0.257482802794524

q	14 15 59 58
q	15 16 56 59
q	59 56 37 57
q	58 59 57 36
q	12 60 63 11
q	60 40 61 63
q	63 61 33 62
q	11 63 62 1
q	32 64 67 66
q	64 38 65 67
q	67 65 36 57
q	66 67 57 37
q	12 13 69 60
q	13 14 58 69
q	69 58 36 68
q	60 69 68 40
q	33 61 71 70
q	61 40 68 71
q	71 68 36 65
q	70 71 65 38
q	28 29 74 73
q	29 30 47 74
q	74 47 41 72
q	73 74 72 35
q	3 75 78 24
q	75 42 76 78
q	78 76 39 77
q	24 78 77 23
q	26 27 81 80
q	27 28 73 81
q	81 73 35 79
q	80 81 79 43
q	37 82 85 66
q	82 44 83 85
q	85 83 39 84
q	66 85 84 32
q	38 64 89 88
q	64 32 86 89
q	89 86 45 87
q	88 89 87 34
q	41 90 92 72
q	90 34 87 92
q	92 87 45 91
q	72 92 91 35
q	26 80 94 25
q	80 43 93 94
q	94 93 42 75
q	25 94 75 3
q	32 84 96 86
q	84 39 76 96
q	96 76 42 95
q	86 96 95 45
q	35 91 97 79
q	91 45 95 97
q	97 95 42 93
q	79 97 93 43
q	38 88 100 70
q	88 34 98 100
q	100 98 46 99
q	70 100 99 33
q	1 62 101 10
q	62 33 99 101
q	101 99 46 50
q	10 101 50 9
q	23 77 102 22
q	77 39 83 102
q	102 83 44 53
q	22 102 53 21
q	16 17 103 56
q	17 2 55 103
q	103 55 44 82
q	56 103 82 37
q	5 51 104 52
q	51 46 98 104
q	104 98 34 90
q	52 104 90 41
q	41 47 105 48
q	47 30 31 105
q	48 105 31 0
q	46 49 106 50
q	49 7 8 106
q	50 106 8 9
q	5 6 107 51
q	6 7 49 107
q	51 107 49 46
q	5 52 108 4
q	52 41 48 108
q	4 108 48 0
q	19 20 109 54
q	20 21 53 109
q	54 109 53 44
q	44 55 110 54
q	55 2 18 110
q	54 110 18 19

e	14 15
e	15 59
e	59 58
e	58 14
e	15 16
e	16 56
e	56 59
e	56 37
e	37 57
e	57 59
e	57 36
e	36 58
e	12 60
e	60 63
e	63 11
e	11 12
e	60 40
e	40 61
e	61 63
e	61 33
e	33 62
e	62 63
e	62 1
e	1 11
e	32 64
e	64 67
e	67 66
e	66 32
e	64 38
e	38 65
e	65 67
e	65 36
e	57 67
e	37 66
e	12 13
e	13 69
e	69 60
e	13 14
e	58 69
e	36 68
e	68 69
e	68 40
e	61 71
e	71 70
e	70 33
e	68 71
e	65 71
e	38 70
e	28 29
e	29 74
e	74 73
e	73 28
e	29 30
e	30 47
e	47 74
e	47 41
e	41 72
e	72 74
e	72 35
e	35 73
e	3 75
e	75 78
e	78 24
e	24 3
e	75 42
e	42 76
e	76 78
e	76 39
e	39 77
e	77 78
e	77 23
e	23 24
e	26 27
e	27 81
e	81 80
e	80 26
e	27 28
e	73 81
e	35 79
e	79 81
e	79 43
e	43 80
e	37 82
e	82 85
e	85 66
e	82 44
e	44 83
e	83 85
e	83 39
e	39 84
e	84 85
e	84 32
e	64 89
e	89 88
e	88 38
e	32 86
e	86 89
e	86 45
e	45 87
e	87 89
e	87 34
e	34 88
e	41 90
e	90 92
e	92 72
e	90 34
e	87 92
e	45 91
e	91 92
e	91 35
e	80 94
e	94 25
e	25 26
e	43 93
e	93 94
e	93 42
e	75 94
e	3 25
e	84 96
e	96 86
e	76 96
e	42 95
e	95 96
e	95 45
e	91 97
e	97 79
e	95 97
e	93 97
e	88 100
e	100 70
e	34 98
e	98 100
e	98 46
e	46 99
e	99 100
e	99 33
e	62 101
e	101 10
e	10 1
e	99 101
e	46 50
e	50 101
e	50 9
e	9 10
e	77 102
e	102 22
e	22 23
e	83 102
e	44 53
e	53 102
e	53 21
e	21 22
e	16 17
e	17 103
e	103 56
e	17 2
e	2 55
e	55 103
e	55 44
e	82 103
e	5 51
e	51 104
e	104 52
e	52 5
e	51 46
e	98 104
e	90 104
e	41 52
e	47 105
e	105 48
e	48 41
e	30 31
e	31 105
e	31 0
e	0 48
e	46 49
e	49 106
e	106 50
e	49 7
e	7 8
e	8 106
e	8 9
e	5 6
e	6 107
e	107 51
e	6 7
e	49 107
e	52 108
e	108 4
e	4 5
e	48 108
e	0 4
e	19 20
e	20 109
e	109 54
e	54 19
e	20 21
e	53 109
e	44 54
e	55 110
e	110 54
e	2 18
e	18 110
e	18 19

domain
boundary
2 1 32
191
189
182
185
179
181
143
138
23
15
34
37
0
4
152
155
201
203
192
196
151
146
71
63
117
112
72
76
48
52
171
173
