#!geo

mesh
4
header
 dimension 2
 order     2
 nodes	409
 quadrangles	94
 edges	204
end header

1 0
0 1
-1 0
0 -1
0.98078528040354 0.195090322014572
0.923879532512616 0.382683432361881
0.831469612303739 0.555570233017816
0.707106781187053 0.707106781186042
0.555570233018998 0.831469612302949
0.382683432362906 0.923879532512191
0.195090322014999 0.980785280403455
-0.195090322014572 0.98078528040354
-0.382683432361881 0.923879532512616
-0.555570233017816 0.831469612303739
-0.707106781186042 0.707106781187053
-0.831469612302949 0.555570233018998
-0.923879532512191 0.382683432362906
-0.980785280403455 0.195090322014999
-0.98078528040354 -0.195090322014572
-0.923879532512616 -0.382683432361881
-0.831469612303739 -0.555570233017816
-0.707106781187053 -0.707106781186042
-0.555570233018998 -0.831469612302949
-0.382683432362906 -0.923879532512191
-0.195090322014999 -0.980785280403455
0.195090322014572 -0.98078528040354
0.382683432361881 -0.923879532512616
0.555570233017816 -0.831469612303739
0.707106781186042 -0.707106781187053
0.831469612302949 -0.555570233018998
0.923879532512191 -0.382683432362906
0.980785280403455 -0.195090322014999
-0.175120117762143 -0.0745258943315811
0.0145861577939603 0.612661969742188
0.294949032253068 0.119980299449862
0.442159218821007 -0.426428339734194
-0.378486518600973 0.448829654878041
-0.526363163633309 0.125797541762775
-0.0565813385260722 0.274355354897325
-0.283764734219609 -0.463979384769101
-0.249057006363453 0.661833511232655
0.680749136832303 -0.0735566377492667
0.047762132200722 -0.588944690228612
0.290185172099104 -0.647599648380007
-0.667586148945164 -0.277212292434328
0.153155441777216 -0.238933604772907
0.431634306155775 0.53205291176425
0.79248367118947 -0.256503912114811
0.859714724532054 -0.0293615016149098
0.58852231479197 0.627742857746943
0.381112629352544 0.741471263298118
0.6454785549512 0.417835048101672
0.751186881625551 0.158587646077745
-0.660581303617495 -0.514278159300864
-0.810680287168379 -0.33605491281944
-0.830232309272602 -0.104125457456827
-0.714773052783708 0.247397040459362
-0.455268374732216 0.296332537497122
-0.536655301127831 0.564984929027879
-0.63432481778117 0.416474562333734
-0.301794347508175 0.764909063326397
-0.141903818384216 0.643587920346969
0.0154615236212492 0.794510984200056
-0.154605920786696 0.797233099779142
-0.114023986088197 0.103487622640116
-0.220258809665539 0.354329022061625
-0.347600826000908 0.0189308957550397
-0.28352148376863 0.193462941076
-0.303356769963759 0.57702993662539
-0.42631501010146 0.685448266402193
-0.00955190350729178 0.441546582284657
-0.167330553120334 0.502157334050137
0.543942440851174 -0.267739003901775
0.571865396002904 -0.552926535021171
0.685072453870284 -0.403770760334605
0.0186176239885149 -0.78185514150483
-0.113715977863382 -0.535130815007646
-0.331215546759795 -0.68215529640715
-0.155193391993263 -0.745004910007222
0.352957378221924 -0.559202924267573
0.32648723539278 -0.756288902520742
0.453392470583196 -0.675165142851801
-0.591152731148379 -0.0603286636655516
-0.460156919159516 -0.376932924669532
-0.232036581626301 -0.262448213388258
-0.408053950690551 -0.170532527410401
-0.00754380690509194 -0.1583597361822
0.223162693349827 -0.062979354195202
0.116111196385991 0.198592620067041
0.0550988765777884 0.020408142709015
0.477650897317471 0.0324892614134566
0.303880513051981 -0.324108653279606
0.388509952214982 -0.154738941174265
0.19140790716507 -0.627063945452607
0.182125885497602 -0.788740868836685
0.0928190522244793 -0.411672257832762
-0.0648290404208623 -0.341759173951733
0.234250934848893 -0.478297183378878
0.362923398997068 0.311832352179413
0.198230378232096 0.572128092300109
0.168405877398617 0.381671570141659
0.200613138201584 0.769973028557487
-0.504189636572543 -0.598060024812406
-0.778089275428331 0.0655986433450041
0.566282476183403 0.232950962029352
0.8720900411072 -0.157807401720122
0.507295728089008 0.728462419390353
0.687565474934698 0.535577067005565
0.863286597259666 0.105863358765963
-0.766083800001984 -0.463578018257476
-0.867515566380023 -0.214459710060385
-0.773010453362741 0.634393284163641
-0.73289721504206 0.486022397676366
-0.5854900594545 0.490729745680807
-0.621881041156936 0.636045855107466
-0.881921264349083 0.471396736824635
-0.81932629264795 0.315040236411134
-0.674548935282439 0.331935801396548
-0.620568108208508 0.186597291111068
-0.490815769182762 0.211065039629948
-0.544796596256693 0.356403549915428
-0.416877446666594 0.372581096187582
-0.457570909864402 0.50690729195296
-0.342238889935028 0.844394297919506
-0.228200134147436 0.781071081552769
-0.174848121400634 0.889009190091341
-0.290284677252041 0.956940335732943
-0.275425676935814 0.713371287279526
-0.195480412373835 0.652710715789812
-0.148254869585456 0.720410510063056
-0.0636588302951279 0.628124945044578
0.0150238407076047 0.703586476971122
-0.0695721985827234 0.795872041989599
0.0077307618106246 0.897255492100028
-0.098017140328771 0.995184726672275
-0.14457205192517 0.0144808641542674
-0.198772734928414 0.148475281858058
-0.315561154884769 0.10619691841552
-0.261360471881526 -0.0277974992882707
-0.0853026623071346 0.188921488768721
-0.138420074095806 0.314342188479475
-0.251890146717085 0.273895981568813
-0.299372664133256 0.401579338469833
-0.369394929250423 0.244897739286561
-0.436981994817109 0.0723642187589073
-0.471396736823519 0.88192126434968
-0.490942621559638 0.758458939352966
-0.364054678804818 0.725178664864295
-0.634393284162539 0.773010453363645
-0.481485155614645 0.625216597715036
-0.340921644282366 0.512929795751715
-0.36483589003261 0.631239101513791
-0.276206888163606 0.619431723929023
-0.154617185752275 0.572872627198553
-0.0884412283138129 0.471851958167397
0.00251712714333426 0.527104276013422
-0.235343661542047 0.539593635337763
-0.193794681392937 0.428243178055881
-0.033066621016682 0.357950968590991
0.773010453362741 -0.634393284163641
0.758271033086616 -0.479670496676802
0.628468924936594 -0.478348647677888
0.639486088594473 -0.630016658104112
0.881921264349083 -0.471396736824635
0.858181601850831 -0.319593672238859
0.738778062529877 -0.330137336224708
0.736616404010886 -0.165030274932039
0.612345788841739 -0.170647820825521
0.614507447360729 -0.33575488211819
0.49305082983609 -0.347083671817984
0.507012307411955 -0.489677437377682
0.00930881199425745 -0.890927570752415
-0.0682878840023741 -0.763430025756026
-0.175141857004131 -0.862895095205338
-0.0980171403289877 -0.995184726672253
0.0331898780946185 -0.685399915866721
-0.03297692283133 -0.562037752618129
-0.134454684928323 -0.640067862507434
-0.198740356041496 -0.499555099888374
-0.307490140489702 -0.573067340588125
-0.243204469376529 -0.713580103207186
-0.356949489561351 -0.803017414459671
-0.290284677252781 -0.956940335732719
0.471396736823519 -0.88192126434968
0.504481351800506 -0.75331737757777
0.389939852987988 -0.715727022686272
0.35458533387733 -0.840084217516679
0.634393284162539 -0.773010453363645
0.51262893329305 -0.614045838936486
0.397558298521466 -0.492815632000884
0.40317492440256 -0.617184033559687
0.321571275160514 -0.60340128632379
0.308336203745942 -0.701944275450375
-0.558757947390844 0.0327344390486117
-0.499603340919465 -0.115430595537976
-0.377827388345729 -0.0758008158276807
-0.629369440046772 -0.16877047804994
-0.56387153405234 -0.32707260855193
-0.434105434925034 -0.273732726039967
-0.371960826689563 -0.420456154719317
-0.257900657922955 -0.36321379907868
-0.320045266158426 -0.21649037039933
-0.203578349694222 -0.16848705385992
-0.0294625547552043 0.0619478826745655
0.0856050364818897 0.109500381388028
0.0297649289299594 0.236473987482183
-0.0913319623336175 -0.116442815256891
0.0237775348363482 -0.0689757967365925
0.072805817436062 -0.198646670477554
0.188159067563521 -0.150956479484054
0.139130784963808 -0.0212856057430935
0.259055862801447 0.02850047262733
0.205530114319529 0.159286459758452
0.579200017074887 -0.020533688167905
0.433080424766227 -0.0611248398804042
0.466226196533078 -0.21123897253802
0.38629996478527 0.0762347804316593
0.305836322782405 -0.108859147684734
0.228517977414599 -0.281521129026256
0.346195232633482 -0.239423797226935
0.373019865936494 -0.3752684965069
0.254306560445191 -0.772514885678714
0.188608103756087 -0.884763074620112
0.290284677252041 -0.956940335732943
0.240796539632087 -0.637331796916307
0.186766896331336 -0.707902407144646
0.119585019682896 -0.608004317840609
0.100371754743058 -0.785298005170758
0.098017140328771 -0.995184726672275
-0.148432811023582 -0.302103693669996
-0.0361864236629771 -0.250059455066966
-0.0892725091421221 -0.43844499447969
0.0702905922126006 -0.500308474030687
0.0139950059018085 -0.376715715892248
0.122987247000848 -0.325302931302834
0.269065723950437 -0.401202918329242
0.293604156535409 -0.518750053823225
0.163534993536686 -0.44498472060582
0.212829421006981 -0.552680564415743
0.142258536892304 0.29013209510435
0.0794269869456626 0.411609076213158
0.328936215625068 0.215906325814638
0.265664638197842 0.346751961160536
0.397278852576421 0.421942631971831
0.314932342193936 0.552090502032179
0.183318127815357 0.476899831220884
0.106408268013028 0.592395031021149
0.108037330911417 0.782242006378771
0.197851730108291 0.875379154480471
0.0980171403289877 0.995184726672253
0.19942175821684 0.671050560428798
0.40637346775416 0.636762087531184
0.290862883777064 0.755722145927803
0.381898030857725 0.832675397905155
0.290284677252781 0.956940335732719
-0.417702591666169 -0.640107660609778
-0.529879934795771 -0.714764818557678
-0.471396736824635 -0.881921264349083
-0.482173277866029 -0.487496474740969
-0.66408372628133 -0.395745225867596
-0.582385470095019 -0.556169092056635
-0.683844042402274 -0.610692470243453
-0.634393284163641 -0.773010453362741
-0.956940335732719 0.290284677252781
-0.879437277915893 0.130344482680002
-0.74643116410602 0.156497841902183
-0.995184726672253 0.0980171403289877
-0.915116154636301 -0.0520627287284135
-0.804160792350467 -0.0192634070559115
-0.748909229108883 -0.190668874945577
-0.684621003288355 0.00263498983972626
0.784679043731908 0.400259240231777
0.605880515567301 0.325393005065512
0.658734678904477 0.195769304053549
0.837533207069084 0.270635539219813
0.538556430553488 0.474943979932961
0.464602937590236 0.272391657104383
0.521966686750437 0.132720111721404
0.715968009228927 0.0425155041642391
0.832286856148335 -0.207155656917467
0.865902382819627 -0.0935844516675159
0.770231930682179 -0.0514590696820882
0.956940335732719 -0.290284677252781
0.926437660755328 -0.176448861867561
0.995184726672253 -0.0980171403289877
0.929857362266027 -0.0146807508074549
0.510078310473873 0.579897884755596
0.547909021440489 0.678102638568648
0.444204178720776 0.734966841344236
0.647814547989512 0.667424819466493
0.634393284163641 0.773010453362741
0.531432980554003 0.779966015846651
0.471396736824635 0.881921264349083
0.88192126434968 0.471396736823519
0.759517543619218 0.54557365001169
0.666522014942949 0.476706057553619
0.773010453363645 0.634393284162539
0.638043894863334 0.581659962376254
0.807236739442609 0.132225502421854
0.922035938831603 0.150476840390267
0.956940335732943 0.290284677252041
0.86150066089586 0.0382509285755266
0.995184726672275 0.098017140328771
-0.88192126434968 -0.471396736823519
-0.798776706152861 -0.509574125637646
-0.788382043585181 -0.399816465538458
-0.867279909840498 -0.35936917259066
-0.773010453363645 -0.634393284162539
-0.71333255180974 -0.48892808877917
-0.739133218056772 -0.306633602626884
-0.848873937826313 -0.159292583758606
-0.839097926774201 -0.275257311439912
-0.995184726672275 -0.098017140328771
-0.924150423391781 -0.204775016037478
-0.956940335732943 -0.290284677252041
-0.67925025640862 0.562561514922224
-0.778235099815761 0.401666269110591
-0.582682352232601 0.271500420513248
-0.501183753060548 0.431655420934194
-0.259242405699738 0.869005708642857
-0.211840273260635 0.716890898671291
-0.0666155144389256 0.711998493517089
-0.0837946694557472 0.895528384330937
-0.23006660340497 0.0603388912848937
-0.16859640451211 0.231408735168767
-0.334383796691839 0.323238538878197
-0.403188462033766 0.158630979022734
-0.417725707814168 0.803549964606988
-0.557939219888592 0.699113525539341
-0.411203399948506 0.569073196733376
-0.320130783484212 0.672305194396659
-0.0760500293044704 0.549988451605988
-0.21541203695794 0.596152175563788
-0.267358162837651 0.470586486903798
-0.113430651204809 0.393097073323436
0.700739689149667 -0.556370965920765
0.81034966343948 -0.400767036524672
0.675561925685808 -0.250392578525114
0.560759877386342 -0.412716159747936
-0.0831525121656809 -0.879307376214139
-0.050632403416852 -0.662733889187078
-0.220972412709012 -0.60656760154778
-0.266744573314655 -0.835260219469952
0.430668294905753 -0.798824143517976
0.573511108727795 -0.693528146150066
0.455093615907258 -0.553430735468685
0.355755564074251 -0.659564154505031
-0.468292667868287 -0.0215331883895345
-0.531737437485903 -0.221251602044953
-0.346003046423994 -0.318473262559323
-0.290702869019976 -0.1221439348438
0.00015118708737755 0.149210935078374
-0.0603972585444109 -0.0272474662911625
0.105968301199935 -0.109966138110324
0.172330449641669 0.069000427007679
0.522713106803983 -0.115886330352963
0.346068143783837 -0.0163121836265371
0.267177150098502 -0.195190138355495
0.419623031234786 -0.29325373452246
0.272295618848616 -0.864727610705829
0.247551550038639 -0.70492334129751
0.109978387212977 -0.696651161505684
0.0991944475359148 -0.890241365921516
-0.1198823866786 -0.209273254463443
-0.173586583532539 -0.400829396779184
-0.00949095846476075 -0.469376734255188
0.0434004116689353 -0.2876811931849
0.333312011235951 -0.447009275165063
0.196026485475642 -0.363252924816038
0.141560006609791 -0.526494519223215
0.267200348083748 -0.578040925369766
0.054595957937811 0.32404153184767
0.235597376258686 0.253019210459494
0.290298490195889 0.449421231596358
0.0929176274793454 0.502002053617153
0.103027235620202 0.888713366525512
0.107222799462222 0.68731851869996
0.3028976129855 0.653906323979991
0.290573780514922 0.856331240830261
-0.444549664245402 -0.761014462479431
-0.394831709177866 -0.530281907664547
-0.573128502073679 -0.441620850304283
-0.60838937712933 -0.664589772709688
-0.851685749919369 0.223391259577482
-0.89967275951136 0.0393768666365381
-0.716765116198619 -0.0940169425529256
-0.652594555748432 0.0946161404753974
0.721706861318193 0.298014272142663
0.501579684071861 0.373667818518672
0.425451451187753 0.174313218768021
0.618967347989682 0.0876178079428217
0.801259393415257 -0.129307363299777
0.894613595940527 -0.248720167085124
0.93054355474594 -0.0958007959982518
0.477141244597324 0.657432363049916
0.591151152802065 0.725556545965694
0.457800457772705 0.808444052846659
0.774221639646315 0.474051397188569
0.705527174113489 0.608026623269396
0.588300162708411 0.528301971154608
0.882088537587776 0.211255089836948
0.788734335062394 0.0403832163698829
0.928342693784067 0.0681340344521488
-0.835151653967431 -0.435606601180988
-0.743171502586692 -0.561660686470854
-0.726232884933256 -0.397780845703027
-0.794003577941542 -0.232963093192745
-0.922029332249294 -0.128654862043689
-0.898019131253572 -0.282770994345977

q	14 15 59 58
q	15 16 56 59
q	59 56 37 57
q	58 59 57 36
q	12 60 63 11
q	60 40 61 63
q	63 61 33 62
q	11 63 62 1
q	32 64 67 66
q	64 38 65 67
q	67 65 36 57
q	66 67 57 37
q	12 13 69 60
q	13 14 58 69
q	69 58 36 68
q	60 69 68 40
q	33 61 71 70
q	61 40 68 71
q	71 68 36 65
q	70 71 65 38
q	28 29 74 73
q	29 30 47 74
q	74 47 41 72
q	73 74 72 35
q	3 75 78 24
q	75 42 76 78
q	78 76 39 77
q	24 78 77 23
q	26 27 81 80
q	27 28 73 81
q	81 73 35 79
q	80 81 79 43
q	37 82 85 66
q	82 44 83 85
q	85 83 39 84
q	66 85 84 32
q	38 64 89 88
q	64 32 86 89
q	89 86 45 87
q	88 89 87 34
q	41 90 92 72
q	90 34 87 92
q	92 87 45 91
q	72 92 91 35
q	26 80 94 25
q	80 43 93 94
q	94 93 42 75
q	25 94 75 3
q	32 84 96 86
q	84 39 76 96
q	96 76 42 95
q	86 96 95 45
q	35 91 97 79
q	91 45 95 97
q	97 95 42 93
q	79 97 93 43
q	38 88 100 70
q	88 34 98 100
q	100 98 46 99
q	70 100 99 33
q	1 62 101 10
q	62 33 99 101
q	101 99 46 50
q	10 101 50 9
q	23 77 102 22
q	77 39 83 102
q	102 83 44 53
q	22 102 53 21
q	16 17 103 56
q	17 2 55 103
q	103 55 44 82
q	56 103 82 37
q	5 51 104 52
q	51 46 98 104
q	104 98 34 90
q	52 104 90 41
q	41 47 105 48
q	47 30 31 105
q	48 105 31 0
q	46 49 106 50
q	49 7 8 106
q	50 106 8 9
q	5 6 107 51
q	6 7 49 107
q	51 107 49 46
q	5 52 108 4
q	52 41 48 108
q	4 108 48 0
q	19 20 109 54
q	20 21 53 109
q	54 109 53 44
q	44 55 110 54
q	55 2 18 110
q	54 110 18 19

e	14 15
e	15 59
e	59 58
e	58 14
e	15 16
e	16 56
e	56 59
e	56 37
e	37 57
e	57 59
e	57 36
e	36 58
e	12 60
e	60 63
e	63 11
e	11 12
e	60 40
e	40 61
e	61 63
e	61 33
e	33 62
e	62 63
e	62 1
e	1 11
e	32 64
e	64 67
e	67 66
e	66 32
e	64 38
e	38 65
e	65 67
e	65 36
e	57 67
e	37 66
e	12 13
e	13 69
e	69 60
e	13 14
e	58 69
e	36 68
e	68 69
e	68 40
e	61 71
e	71 70
e	70 33
e	68 71
e	65 71
e	38 70
e	28 29
e	29 74
e	74 73
e	73 28
e	29 30
e	30 47
e	47 74
e	47 41
e	41 72
e	72 74
e	72 35
e	35 73
e	3 75
e	75 78
e	78 24
e	24 3
e	75 42
e	42 76
e	76 78
e	76 39
e	39 77
e	77 78
e	77 23
e	23 24
e	26 27
e	27 81
e	81 80
e	80 26
e	27 28
e	73 81
e	35 79
e	79 81
e	79 43
e	43 80
e	37 82
e	82 85
e	85 66
e	82 44
e	44 83
e	83 85
e	83 39
e	39 84
e	84 85
e	84 32
e	64 89
e	89 88
e	88 38
e	32 86
e	86 89
e	86 45
e	45 87
e	87 89
e	87 34
e	34 88
e	41 90
e	90 92
e	92 72
e	90 34
e	87 92
e	45 91
e	91 92
e	91 35
e	80 94
e	94 25
e	25 26
e	43 93
e	93 94
e	93 42
e	75 94
e	3 25
e	84 96
e	96 86
e	76 96
e	42 95
e	95 96
e	95 45
e	91 97
e	97 79
e	95 97
e	93 97
e	88 100
e	100 70
e	34 98
e	98 100
e	98 46
e	46 99
e	99 100
e	99 33
e	62 101
e	101 10
e	10 1
e	99 101
e	46 50
e	50 101
e	50 9
e	9 10
e	77 102
e	102 22
e	22 23
e	83 102
e	44 53
e	53 102
e	53 21
e	21 22
e	16 17
e	17 103
e	103 56
e	17 2
e	2 55
e	55 103
e	55 44
e	82 103
e	5 51
e	51 104
e	104 52
e	52 5
e	51 46
e	98 104
e	90 104
e	41 52
e	47 105
e	105 48
e	48 41
e	30 31
e	31 105
e	31 0
e	0 48
e	46 49
e	49 106
e	106 50
e	49 7
e	7 8
e	8 106
e	8 9
e	5 6
e	6 107
e	107 51
e	6 7
e	49 107
e	52 108
e	108 4
e	4 5
e	48 108
e	0 4
e	19 20
e	20 109
e	109 54
e	54 19
e	20 21
e	53 109
e	44 54
e	55 110
e	110 54
e	2 18
e	18 110
e	18 19

domain
boundary
2 1 32
191
189
182
185
179
181
143
138
23
15
34
37
0
4
152
155
201
203
192
196
151
146
71
63
117
112
72
76
48
52
171
173
