#!geo

mesh
4
header
 dimension 2
 nodes	41
 triangles	64
 edges	104
end header

1 0
0 1
-1 0
0 -1
0.923879532512616 0.382683432361881
0.707106781187053 0.707106781186042
0.382683432362906 0.923879532512191
-0.382683432361881 0.923879532512616
-0.707106781186042 0.707106781187053
-0.923879532512191 0.382683432362906
-0.923879532512616 -0.382683432361881
-0.707106781187053 -0.707106781186042
-0.382683432362906 -0.923879532512191
0.382683432361881 -0.923879532512616
0.707106781186042 -0.707106781187053
0.923879532512191 -0.382683432362906
3.98670173841024e-19 -5.58815869735237e-18
-0.483637695214964 -0.104742625756417
0.0980227186570841 -0.477153544330395
0.477252129982405 0.104934301690635
-0.104742625756417 0.483637695214964
-0.508374834333097 0.331204197222061
-0.332178530241152 -0.501464821203262
0.500741128878453 -0.330376728257483
0.330596048152293 0.508393089183975
-0.634628976676307 -0.374326192055646
0.633566570366785 0.37527551791097
0.728541394202321 -0.0999808625452546
0.100035661989125 0.730413064274065
-0.730410630293948 0.100116748531761
-0.101142647214217 -0.728624741758694
0.373333712132427 -0.633524182960542
-0.375247527139624 0.634499065607095
-0.216441168233749 0.124242335876581
0.215519821457507 -0.111990992434026
-0.117514179344433 -0.216497269420686
0.116021663870218 0.217435688747808
0.151480122937197 -0.758623616899203
-0.759873594650614 -0.152645227697864
0.758631300299453 0.152815479401337
-0.152778883914746 0.759856597705402

t	11 12 22
t	5 6 24
t	8 9 21
t	14 15 23
t	34 19 36
t	17 35 33
t	20 33 36
t	34 35 18
t	18 23 34
t	20 21 33
t	17 22 35
t	19 24 36
t	12 30 22
t	6 28 24
t	9 29 21
t	15 27 23
t	8 21 32
t	14 23 31
t	11 22 25
t	5 24 26
t	19 23 27
t	17 21 29
t	20 32 21
t	20 24 28
t	18 22 30
t	17 25 22
t	19 26 24
t	18 31 23
t	16 33 35
t	16 34 36
t	16 35 34
t	16 36 33
t	17 33 21
t	19 34 23
t	18 35 22
t	20 36 24
t	7 8 32
t	13 14 31
t	10 11 25
t	4 5 26
t	2 29 9
t	0 27 15
t	3 30 12
t	1 28 6
t	3 13 37
t	0 4 39
t	2 10 38
t	1 7 40
t	4 26 39
t	10 25 38
t	0 39 27
t	1 40 28
t	3 37 30
t	2 38 29
t	13 31 37
t	7 32 40
t	17 29 38
t	19 27 39
t	19 39 26
t	17 38 25
t	18 37 31
t	20 40 32
t	18 30 37
t	20 28 40

e	11 12
e	12 22
e	22 11
e	5 6
e	6 24
e	24 5
e	8 9
e	9 21
e	21 8
e	14 15
e	15 23
e	23 14
e	34 19
e	19 36
e	36 34
e	17 35
e	35 33
e	33 17
e	20 33
e	33 36
e	36 20
e	34 35
e	35 18
e	18 34
e	18 23
e	23 34
e	20 21
e	21 33
e	17 22
e	22 35
e	19 24
e	24 36
e	12 30
e	30 22
e	6 28
e	28 24
e	9 29
e	29 21
e	15 27
e	27 23
e	21 32
e	32 8
e	23 31
e	31 14
e	22 25
e	25 11
e	24 26
e	26 5
e	19 23
e	27 19
e	17 21
e	29 17
e	20 32
e	20 24
e	28 20
e	18 22
e	30 18
e	17 25
e	19 26
e	18 31
e	16 33
e	35 16
e	16 34
e	36 16
e	7 8
e	32 7
e	13 14
e	31 13
e	10 11
e	25 10
e	4 5
e	26 4
e	2 29
e	9 2
e	0 27
e	15 0
e	3 30
e	12 3
e	1 28
e	6 1
e	3 13
e	13 37
e	37 3
e	0 4
e	4 39
e	39 0
e	2 10
e	10 38
e	38 2
e	1 7
e	7 40
e	40 1
e	26 39
e	25 38
e	39 27
e	40 28
e	37 30
e	38 29
e	31 37
e	32 40
e	38 17
e	39 19
e	18 37
e	20 40

domain
boundary
2 1 16
83
70
3
79
89
64
6
73
86
68
0
77
80
66
9
75
