#!geo

mesh
4
header
 dimension 2
 nodes	60
 edges	60
end header

1 0
0 -1
-1 0
0 1
0.99452189536837 -0.104528463266732
0.978147600734191 -0.207911690815947
0.951056516296012 -0.309016994372305
0.913545457643939 -0.406736643072795
0.866025403785716 -0.499999999997788
0.809016994376016 -0.587785252291002
0.743144825478119 -0.669130606358053
0.669130606359085 -0.74314482547719
0.587785252292055 -0.809016994375251
0.499999999998842 -0.866025403785107
0.406736643073829 -0.913545457643479
0.309016994373149 -0.951056516295738
0.207911690816526 -0.978147600734068
0.104528463267027 -0.994521895368339
-0.104528463266732 -0.99452189536837
-0.207911690815947 -0.978147600734191
-0.309016994372305 -0.951056516296012
-0.406736643072795 -0.913545457643939
-0.499999999997788 -0.866025403785716
-0.587785252291002 -0.809016994376016
-0.669130606358053 -0.743144825478119
-0.74314482547719 -0.669130606359085
-0.809016994375251 -0.587785252292055
-0.866025403785107 -0.499999999998842
-0.913545457643479 -0.406736643073829
-0.951056516295738 -0.309016994373149
-0.978147600734068 -0.207911690816526
-0.994521895368339 -0.104528463267027
-0.99452189536837 0.104528463266732
-0.978147600734191 0.207911690815947
-0.951056516296012 0.309016994372305
-0.913545457643939 0.406736643072795
-0.866025403785716 0.499999999997788
-0.809016994376016 0.587785252291002
-0.743144825478119 0.669130606358053
-0.669130606359085 0.74314482547719
-0.587785252292055 0.809016994375251
-0.499999999998842 0.866025403785107
-0.406736643073829 0.913545457643479
-0.309016994373149 0.951056516295738
-0.207911690816526 0.978147600734068
-0.104528463267027 0.994521895368339
0.104528463266732 0.99452189536837
0.207911690815947 0.978147600734191
0.309016994372305 0.951056516296012
0.406736643072795 0.913545457643939
0.499999999997788 0.866025403785716
0.587785252291002 0.809016994376016
0.669130606358053 0.743144825478119
0.74314482547719 0.669130606359085
0.809016994375251 0.587785252292055
0.866025403785107 0.499999999998842
0.913545457643479 0.406736643073829
0.951056516295738 0.309016994373149
0.978147600734068 0.207911690816526
0.994521895368339 0.104528463267027

e	0 4
e	4 5
e	5 6
e	6 7
e	7 8
e	8 9
e	9 10
e	10 11
e	11 12
e	12 13
e	13 14
e	14 15
e	15 16
e	16 17
e	17 1
e	1 18
e	18 19
e	19 20
e	20 21
e	21 22
e	22 23
e	23 24
e	24 25
e	25 26
e	26 27
e	27 28
e	28 29
e	29 30
e	30 31
e	31 2
e	2 32
e	32 33
e	33 34
e	34 35
e	35 36
e	36 37
e	37 38
e	38 39
e	39 40
e	40 41
e	41 42
e	42 43
e	43 44
e	44 45
e	45 3
e	3 46
e	46 47
e	47 48
e	48 49
e	49 50
e	50 51
e	51 52
e	52 53
e	53 54
e	54 55
e	55 56
e	56 57
e	57 58
e	58 59
e	59 0

