#!geo

mesh
4
header
 dimension 2
 order     2
 nodes	145
 triangles	64
 edges	104
end header

1 0
0 1
-1 0
0 -1
0.923879532512616 0.382683432361881
0.707106781187053 0.707106781186042
0.382683432362906 0.923879532512191
-0.382683432361881 0.923879532512616
-0.707106781186042 0.707106781187053
-0.923879532512191 0.382683432362906
-0.923879532512616 -0.382683432361881
-0.707106781187053 -0.707106781186042
-0.382683432362906 -0.923879532512191
0.382683432361881 -0.923879532512616
0.707106781186042 -0.707106781187053
0.923879532512191 -0.382683432362906
3.98670173841024e-19 -5.58815869735237e-18
-0.483637695214964 -0.104742625756417
0.0980227186570841 -0.477153544330395
0.477252129982405 0.104934301690635
-0.104742625756417 0.483637695214964
-0.508374834333097 0.331204197222061
-0.332178530241152 -0.501464821203262
0.500741128878453 -0.330376728257483
0.330596048152293 0.508393089183975
-0.634628976676307 -0.374326192055646
0.633566570366785 0.37527551791097
0.728541394202321 -0.0999808625452546
0.100035661989125 0.730413064274065
-0.730410630293948 0.100116748531761
-0.101142647214217 -0.728624741758694
0.373333712132427 -0.633524182960542
-0.375247527139624 0.634499065607095
-0.216441168233749 0.124242335876581
0.215519821457507 -0.111990992434026
-0.117514179344433 -0.216497269420686
0.116021663870218 0.217435688747808
0.151480122937197 -0.758623616899203
-0.759873594650614 -0.152645227697864
0.758631300299453 0.152815479401337
-0.152778883914746 0.759856597705402
-0.555570233018998 -0.831469612302949
-0.357430981302029 -0.712672176857727
-0.519642655714103 -0.604285801194652
0.555570233018998 0.831469612302949
0.3566397402576 0.716136310848083
0.518851414669673 0.607749935185008
-0.831469612302949 0.555570233018998
-0.716127183422644 0.356943814792483
-0.607740807759569 0.519155489204557
0.831469612302949 -0.555570233018998
0.712310330695322 -0.356530080310194
0.603923955032247 -0.518741754722268
0.346385975719956 -0.00352834537169568
0.296636896926312 0.161184995219221
0.165770742663862 0.0527223481568909
-0.300575937279698 -0.160619947588552
-0.166977673789091 -0.0461274667720525
-0.350039431724357 0.00974985506008187
-0.160591896995083 0.303940015545773
-0.0502097521817655 0.170839012312194
0.00563951905690051 0.350536691981386
0.0490028210565371 -0.164244130927356
-0.00974573034367417 -0.34682540687554
0.156771270057295 -0.294572268382211
0.299381923767768 -0.403765136293939
0.35813047516798 -0.221183860345754
-0.306558730044757 0.407420946218512
-0.362408001283423 0.227723266549321
-0.407908112728058 -0.30310372347984
-0.224846354792792 -0.358981045311974
0.403924089067349 0.306663695437305
0.223308856011256 0.362914388965891
-0.241913039788562 -0.826252137135443
-0.216660588727685 -0.615044781480978
0.241359547176015 0.827146298393128
0.215315855070709 0.61940307672902
-0.82714508140307 0.241400090447333
-0.619392732313522 0.215660472876911
0.826210463357256 -0.24133214745408
0.614641261540387 -0.215178795401369
-0.441811180736361 0.482851631414578
-0.541177154162833 0.670802923397074
0.43703742050544 -0.481950455609012
0.540220246659235 -0.670315482073798
-0.483403753458729 -0.437895506629454
-0.67086787893168 -0.540716486620844
0.482081309259539 0.441834303547473
0.670336675776919 0.541191149548506
0.488996629430429 -0.112721213283424
0.602896762092363 0.00247671957269003
-0.496006264774031 0.113230785732822
-0.607024162754456 -0.00231293861232829
-0.239995076448021 0.55906838041103
0.112926711197938 0.49601539219947
-0.00235348188364615 0.607025379744515
-0.117077905792034 -0.489309182766829
-0.00155996427856652 -0.602889143044544
-0.559133335945636 -0.239534408906032
0.555409350174595 0.240104909800803
0.235678215394756 -0.555338863645469
-0.108220584116875 0.0621211679382905
-0.0587570896722162 -0.108248634710343
0.107759910728753 -0.055995496217013
0.0580108319351091 0.108717844373904
-0.555570233017816 0.831469612303739
-0.378965479750753 0.779189299059855
0.555570233017816 -0.831469612303739
0.378008572247154 -0.778701857736579
-0.831469612303739 -0.555570233017816
-0.779254254594462 -0.378504812208763
0.831469612303739 0.555570233017816
0.7787230514397 0.378979475136426
-0.865205315146974 0.0500583742658803
-0.980785280403455 0.195090322014999
0.86427069710116 -0.0499904312726273
0.980785280403455 -0.195090322014999
-0.0505713236071086 -0.864312370879347
-0.195090322014999 -0.980785280403455
0.0500178309945625 0.865206532137032
0.195090322014999 0.980785280403455
0.195090322014572 -0.98078528040354
0.267081777649539 -0.841251574705909
0.0757400614685983 -0.879311808449601
0.98078528040354 0.195090322014572
0.841255416406035 0.267749455881609
0.879315650149727 0.0764077397006687
-0.98078528040354 -0.195090322014572
-0.841876563581615 -0.267664330029873
-0.879936797325307 -0.0763226138489322
-0.195090322014572 0.98078528040354
-0.267731158138313 0.841868065109009
-0.0763894419573731 0.879928298852701
0.696098935333119 0.264045498656154
-0.697251285663461 -0.263485709876755
0.743586347250887 0.0264173084280414
-0.0263716109628106 0.745134830989733
0.0251687378614897 -0.743624179328948
-0.745142112472281 -0.0262642395830518
0.262406917534812 -0.696073899929872
-0.264013205527185 0.697177831656248
-0.621755644932789 -0.128693926727141
0.617941715140929 0.128874890545986
0.12475142079714 -0.617888580614799
-0.128760754835582 0.621747146460183

t	11 12 22
t	5 6 24
t	8 9 21
t	14 15 23
t	34 19 36
t	17 35 33
t	20 33 36
t	34 35 18
t	18 23 34
t	20 21 33
t	17 22 35
t	19 24 36
t	12 30 22
t	6 28 24
t	9 29 21
t	15 27 23
t	8 21 32
t	14 23 31
t	11 22 25
t	5 24 26
t	19 23 27
t	17 21 29
t	20 32 21
t	20 24 28
t	18 22 30
t	17 25 22
t	19 26 24
t	18 31 23
t	16 33 35
t	16 34 36
t	16 35 34
t	16 36 33
t	17 33 21
t	19 34 23
t	18 35 22
t	20 36 24
t	7 8 32
t	13 14 31
t	10 11 25
t	4 5 26
t	2 29 9
t	0 27 15
t	3 30 12
t	1 28 6
t	3 13 37
t	0 4 39
t	2 10 38
t	1 7 40
t	4 26 39
t	10 25 38
t	0 39 27
t	1 40 28
t	3 37 30
t	2 38 29
t	13 31 37
t	7 32 40
t	17 29 38
t	19 27 39
t	19 39 26
t	17 38 25
t	18 37 31
t	20 40 32
t	18 30 37
t	20 28 40

e	11 12
e	12 22
e	22 11
e	5 6
e	6 24
e	24 5
e	8 9
e	9 21
e	21 8
e	14 15
e	15 23
e	23 14
e	34 19
e	19 36
e	36 34
e	17 35
e	35 33
e	33 17
e	20 33
e	33 36
e	36 20
e	34 35
e	35 18
e	18 34
e	18 23
e	23 34
e	20 21
e	21 33
e	17 22
e	22 35
e	19 24
e	24 36
e	12 30
e	30 22
e	6 28
e	28 24
e	9 29
e	29 21
e	15 27
e	27 23
e	21 32
e	32 8
e	23 31
e	31 14
e	22 25
e	25 11
e	24 26
e	26 5
e	19 23
e	27 19
e	17 21
e	29 17
e	20 32
e	20 24
e	28 20
e	18 22
e	30 18
e	17 25
e	19 26
e	18 31
e	16 33
e	35 16
e	16 34
e	36 16
e	7 8
e	32 7
e	13 14
e	31 13
e	10 11
e	25 10
e	4 5
e	26 4
e	2 29
e	9 2
e	0 27
e	15 0
e	3 30
e	12 3
e	1 28
e	6 1
e	3 13
e	13 37
e	37 3
e	0 4
e	4 39
e	39 0
e	2 10
e	10 38
e	38 2
e	1 7
e	7 40
e	40 1
e	26 39
e	25 38
e	39 27
e	40 28
e	37 30
e	38 29
e	31 37
e	32 40
e	38 17
e	39 19
e	18 37
e	20 40

domain
boundary
2 1 16
83
70
3
79
89
64
6
73
86
68
0
77
80
66
9
75
