$MeshFormat
2.2 0 8
$EndMeshFormat
$PhysicalNames
2
1 1 "boundary"
2 2 "interior"
$EndPhysicalNames
$Nodes
313
1 1 0 0
2 0 1 0
3 -1 0 0
4 0 -1 0
5 0.923879532512616 0.3826834323618807 0
6 0.7071067811870533 0.7071067811860418 0
7 0.3826834323629061 0.9238795325121912 0
8 0.9914448613739546 0.1305261922189566 0
9 0.9659258262896411 0.2588190451003831 0
10 0.8660254037856709 0.4999999999978655 0
11 0.7933533402921675 0.6087614290075055 0
12 0.6087614290084913 0.7933533402914111 0
13 0.4999999999988907 0.8660254037850791 0
14 0.2588190451009323 0.9659258262894939 0
15 0.1305261922192279 0.9914448613739189 0
16 -0.3826834323618807 0.923879532512616 0
17 -0.7071067811860418 0.7071067811870533 0
18 -0.9238795325121912 0.3826834323629061 0
19 -0.1305261922189566 0.9914448613739546 0
20 -0.2588190451003831 0.9659258262896411 0
21 -0.4999999999978655 0.8660254037856709 0
22 -0.6087614290075055 0.7933533402921675 0
23 -0.7933533402914111 0.6087614290084913 0
24 -0.8660254037850791 0.4999999999988907 0
25 -0.9659258262894939 0.2588190451009323 0
26 -0.9914448613739189 0.1305261922192279 0
27 -0.923879532512616 -0.3826834323618807 0
28 -0.7071067811870533 -0.7071067811860418 0
29 -0.3826834323629061 -0.9238795325121912 0
30 -0.9914448613739546 -0.1305261922189566 0
31 -0.9659258262896411 -0.2588190451003831 0
32 -0.8660254037856709 -0.4999999999978655 0
33 -0.7933533402921675 -0.6087614290075055 0
34 -0.6087614290084913 -0.7933533402914111 0
35 -0.4999999999988907 -0.8660254037850791 0
36 -0.2588190451009323 -0.9659258262894939 0
37 -0.1305261922192279 -0.9914448613739189 0
38 0.3826834323618807 -0.923879532512616 0
39 0.7071067811860418 -0.7071067811870533 0
40 0.9238795325121912 -0.3826834323629061 0
41 0.1305261922189566 -0.9914448613739546 0
42 0.2588190451003831 -0.9659258262896411 0
43 0.4999999999978655 -0.8660254037856709 0
44 0.6087614290075055 -0.7933533402921675 0
45 0.7933533402914111 -0.6087614290084913 0
46 0.8660254037850791 -0.4999999999988907 0
47 0.9659258262894939 -0.2588190451009323 0
48 0.9914448613739189 -0.1305261922192279 0
49 3.98670173841024e-19 -5.588158697352371e-18 0
50 -0.4836376952149641 -0.1047426257564172 0
51 0.09802271865708415 -0.477153544330395 0
52 0.4772521299824048 0.1049343016906347 0
53 -0.1047426257564172 0.4836376952149643 0
54 -0.508374834333097 0.3312041972220608 0
55 -0.3321785302411518 -0.5014648212032624 0
56 0.5007411288784527 -0.3303767282574828 0
57 0.3305960481522932 0.508393089183975 0
58 -0.6346289766763071 -0.3743261920556464 0
59 0.6335665703667848 0.3752755179109704 0
60 0.7285413942023207 -0.0999808625452546 0
61 0.1000356619891249 0.7304130642740649 0
62 -0.7304106302939478 0.1001167485317607 0
63 -0.1011426472142172 -0.728624741758694 0
64 0.3733337121324273 -0.633524182960542 0
65 -0.3752475271396243 0.634499065607095 0
66 -0.2164411682337493 0.124242335876581 0
67 0.2155198214575066 -0.111990992434026 0
68 -0.1175141793444325 -0.216497269420686 0
69 0.1160216638702183 0.2174356887478078 0
70 0.1514801229371965 -0.7586236168992027 0
71 -0.7598735946506143 -0.1526452276978643 0
72 0.7586313002994532 0.1528154794013374 0
73 -0.1527788839147462 0.7598565977054018 0
74 -0.365848464988988 -0.7830746287425483 0
75 -0.3490134976150699 -0.6422697249729054 0
76 -0.4571546138897857 -0.5700121411975222 0
77 -0.5821306975384195 -0.638559461191782 0
78 -0.4806234761169541 -0.7200739485674422 0
79 0.3653209709593684 0.7853840514027858 0
80 0.3479585095558308 0.6468885702933804 0
81 0.4560996258305465 0.5746309865179973 0
82 0.5816032035087999 0.6408688838520195 0
83 0.4800959820873345 0.7223833712276797 0
84 -0.7853779664524931 0.3655236873159576 0
85 -0.6468764003927951 0.3483639422690092 0
86 -0.574618816617412 0.456505058543725 0
87 -0.6408627989017268 0.5818059198653891 0
88 -0.7223772862773871 0.4802986984439237 0
89 0.7828333979676118 -0.365247864327765 0
90 0.6417872634230322 -0.3478122962926239 0
91 0.569529679647649 -0.4559534125673396 0
92 0.6383182304168454 -0.5815300968771965 0
93 0.7198327177925057 -0.480022875455731 0
94 0.3027639242991394 -0.03968256105913912 0
95 0.3900080271407721 0.03262587031574776 0
96 0.356841974611676 0.1424347640430257 0
97 0.2364318192409471 0.1799352263954168 0
98 0.1491877163993144 0.1076267950205299 0
99 0.1823537689284105 -0.002182098706748049 0
100 0.2695978717700434 0.07012633266813877 0
101 -0.3615965232581203 -0.1419941736445068 0
102 -0.2395553513012764 -0.1792457215325964 0
103 -0.1504898423075381 -0.1029174009882637 0
104 -0.1834655052706437 0.01066246744415863 0
105 -0.3055066772274876 0.04791401533224825 0
106 -0.3945721862212259 -0.02841430521208449 0
107 -0.2725310142643822 -0.06566585310017417 0
108 -0.1419754732488613 0.3638392421021699 0
109 -0.1792083207413053 0.2440407889893754 0
110 -0.1056202241990934 0.1553067868336566 0
111 0.005200719835562396 0.1863712377907322 0
112 0.04243356732800643 0.3061696909035266 0
113 -0.0311545292142054 0.3949036930592454 0
114 -0.0683873767066495 0.2751052399464513 0
115 0.1045084878568603 -0.146826418096246 0
116 -0.006502845743786092 -0.181661843758466 0
117 -0.04566854667726027 -0.303382694390589 0
118 0.02617708598991193 -0.390268119360492 0
119 0.1371884195905583 -0.355432693698272 0
120 0.1763541205240325 -0.233711843066149 0
121 0.06534278692338619 -0.2685472687283691 0
122 0.2322621887308736 -0.4282279389727576 0
123 0.3665016588046632 -0.3793023336151202 0
124 0.4056673597381373 -0.2575814829829972 0
125 0.310593590597822 -0.1847862377085116 0
126 0.2714278896643479 -0.3065070883406348 0
127 -0.2392866952819772 0.4328265292173298 0
128 -0.3738307648075371 0.3820153632196953 0
129 -0.4110636122999811 0.2622169101069008 0
130 -0.3137523902668652 0.1932296229917409 0
131 -0.2765195427744213 0.3130280761045356 0
132 -0.43315130689036 -0.2369833575720323 0
133 -0.382664918565756 -0.3692240893876473 0
134 -0.2606237466089121 -0.4064756372757369 0
135 -0.1890689629766723 -0.3114864533482115 0
136 -0.3111101349335164 -0.274234905460122 0
137 0.4283667693723676 0.2394205641884148 0
138 0.3794814087623304 0.3739068266861948 0
139 0.2590712533916015 0.4114072890385859 0
140 0.1875464586309099 0.3144214888931969 0
141 0.307956614001639 0.2769210265408059 0
142 -0.2888365039800098 -0.8587946022610254 0
143 -0.1949895755971135 -0.7937096720098598 0
144 -0.1781546082231954 -0.6529047682402168 0
145 -0.2551665692321736 -0.5771847947217396 0
146 -0.2720015366060919 -0.7179896984913831 0
147 0.288467508904979 0.8593907097661492 0
148 0.194251585447052 0.794901887020107 0
149 0.1768891240435143 0.6564064059107017 0
150 0.2537425860979037 0.5823997475473383 0
151 0.2711050475014415 0.7208952286567443 0
152 -0.8593898984394435 0.2884945377525243 0
153 -0.7949002643666956 0.1943056431421425 0
154 -0.6563986983069976 0.177145898095194 0
155 -0.5823867663200473 0.2541750476586274 0
156 -0.7208883323797459 0.271334792705576 0
157 0.8587668197422343 -0.2884492424236889 0
158 0.7936541069722776 -0.1942150524844718 0
159 0.652607972427698 -0.1767794844493306 0
160 0.5766745506530754 -0.2535781063534067 0
161 0.7177206851976554 -0.271013674388548 0
162 -0.4639990652686061 0.4323024866837389 0
163 -0.4196232962041152 0.5334007761454169 0
164 -0.4858672784884301 0.6587016374670811 0
165 -0.5964870298372359 0.6829042093270672 0
166 -0.5302430475529213 0.5576033480054033 0
167 0.4582719899631109 -0.4314258798251692 0
168 0.4158028510477691 -0.5324750313928556 0
169 0.4845914018169654 -0.6580517157027125 0
170 0.5958490915015036 -0.6825792484448828 0
171 0.5270605407323076 -0.5570025641350264 0
172 -0.432995345719537 -0.4590852781540571 0
173 -0.5338121611979221 -0.4167057351048517 0
174 -0.6587882448465558 -0.4852530550991115 0
175 -0.6829475130168046 -0.5961799181425766 0
176 -0.5579714293681711 -0.5276325981483172 0
177 0.4315862222237903 0.4640205654263068 0
178 0.5325763962952875 0.4196480416686386 0
179 0.6580799739735409 0.4858859390026609 0
180 0.6825933775802971 0.5964963600943513 0
181 0.5570897999020441 0.5302584627603293 0
182 0.4850817962810874 -0.04016937495873781 0
183 0.4929114625797701 -0.1852730516081103 0
184 0.6447783061290154 -0.03167580779995818 0
185 0.5610152180557101 0.03662924694533823 0
186 0.568844884354393 -0.1084744297040343 0
187 -0.4918834082543418 0.04057298190307543 0
188 -0.5001291212937194 0.1858885895625681 0
189 -0.6481529852676199 0.03183029043570137 0
190 -0.5658953402412921 -0.03645616766035793 0
191 -0.57414105328067 0.1088594399991347 0
192 -0.1949109262174862 0.5339248186790079 0
193 -0.2850792266785552 0.5842119421430514 0
194 -0.3294549957430463 0.4831136526813736 0
195 0.04037026554648622 0.4918894932046345 0
196 0.1854831568493897 0.5001412911943047 0
197 0.03177623274061089 0.6481546079210314 0
198 -0.03648319650790317 0.5658961515679979 0
199 0.1086296947950003 0.5741479495576683 0
200 -0.04537769764232785 -0.4852573032880175 0
201 -0.1887781139417398 -0.49336106224564 0
202 -0.03475419192378341 -0.6448010092825943 0
203 0.03163426336665036 -0.5609772768064947 0
204 -0.1117661529327616 -0.5690810357641174 0
205 -0.5339681223687451 -0.1946038145228269 0
206 -0.5842985495225261 -0.2844650032892366 0
207 -0.4834817340441414 -0.3268445463384421 0
208 0.5293569434438649 0.1950480404307466 0
209 0.5814617569053248 0.2851617791708585 0
210 0.4804715828338279 0.3295343029285268 0
211 0.1897930498155319 -0.529277090540444 0
212 0.2815633809739795 -0.581400636750493 0
213 0.3240325198893214 -0.4803514851828069 0
214 -0.07214705607791642 0.04141411195886032 0
215 -0.1442941121558328 0.08282822391772066 0
216 -0.07834278622962165 -0.144331512947124 0
217 -0.03917139311481083 -0.07216575647356202 0
218 -0.1113184491927273 -0.03075164451470166 0
219 0.07183994048583554 -0.037330330811342 0
220 0.1436798809716711 -0.074660661622684 0
221 0.07734777591347884 0.1449571258318719 0
222 0.03867388795673942 0.07247856291593595 0
223 0.110513828442575 0.03514823210459393 0
224 0.03266854737102468 -0.1094960872849041 0
225 -0.03347316812117698 0.1138926748747963 0
226 -0.4028178992606037 0.1169013024474081 0
227 0.3978376934394549 -0.1124778063336247 0
228 -0.1172233303095 -0.3983718783181147 0
229 0.113958362088698 0.4031554910489158 0
230 -0.3777261622137097 0.7309592212422686 0
231 -0.3802047972877953 0.8274193768774424 0
232 -0.4943594956808722 0.764833176420803 0
233 0.3764502855422451 -0.7303092994779 0
234 0.3795668589520629 -0.827094415995258 0
235 0.4937215573451399 -0.7645082155386186 0
236 -0.7310458286217434 -0.3771119388243911 0
237 -0.8274626805671798 -0.379897685593136 0
238 -0.7648764801105403 -0.4940523839862129 0
239 0.7303375577487285 0.3777448227279405 0
240 0.8271085451306722 0.3802141275449106 0
241 0.7645223446740328 0.4943688259379875 0
242 -0.9101368767646493 0.03337224951058688 0
243 -0.8202737535292985 0.06674449902117377 0
244 -0.8959998789466984 0.1627881409036058 0
245 0.9095137980674403 -0.03332695418175153 0
246 0.8190275961348804 -0.06665390836350306 0
247 0.8953768002494894 -0.1627428455747704 0
248 -0.03371421573807239 -0.9095415805862314 0
249 -0.06742843147614479 -0.8190831611724626 0
250 -0.1631301071310913 -0.8954045827682805 0
251 0.03334522066304164 0.910137688091355 0
252 0.06669044132608329 0.82027537618271 0
253 0.1627611120560605 0.8960006902734041 0
254 0.3056156625536527 -0.8687942273081449 0
255 0.2285478927454246 -0.8137089221036737 0
256 0.1009867486247977 -0.8390824112661351 0
257 0.05049337431239885 -0.9195412056330675 0
258 0.1799092657051124 -0.9054042078151927 0
259 0.8687967884415617 0.306060781375033 0
260 0.8137140443705075 0.2294381303881852 0
261 0.8390875335329688 0.1018769862675582 0
262 0.9195437667664844 0.05093849313377912 0
263 0.9054067689486096 0.1803543845264927 0
264 -0.8692108865586154 -0.3060040308072086 0
265 -0.8145422406046149 -0.2293246292525365 0
266 -0.8399157297670762 -0.1017634851319096 0
267 -0.9199578648835381 -0.05088174256595478 0
268 -0.9058208670656633 -0.1802976339586683 0
269 -0.3060485828795025 0.8692052209102112 0
270 -0.2294137333971244 0.8145309093078066 0
271 -0.1018525892764975 0.8399043984702679 0
272 -0.05092629463824874 0.9199521992351339 0
273 -0.1803421860309622 0.9058152014172591 0
274 0.6752548136776743 0.3011221717410927 0
275 0.7169430569885638 0.2269688255712151 0
276 0.7720258010596184 0.3035914765580631 0
277 -0.6763771826677428 -0.300432537269719 0
278 -0.7181253886591786 -0.2265388824837917 0
279 -0.7727940346131796 -0.3032182840384641 0
280 0.7486013316004091 0.06855003208580671 0
281 0.7385713629013648 -0.01571541522972393 0
282 0.8290575648339251 0.01761153895202762 0
283 -0.06850736861345583 0.7500420865616229 0
284 0.01576414668783456 0.7402275754178439 0
285 -0.01758107397520712 0.8300898873264895 0
286 0.0672725328867253 -0.7486239918523664 0
287 -0.01693505716374594 -0.7386243668055302 0
288 0.01677915857432648 -0.8290827862192993 0
289 -0.7500526065317255 -0.06839123562132268 0
290 -0.7402316184128367 0.01586275645521899 0
291 -0.8300947416481879 -0.01750949305536793 0
292 0.299382515734017 -0.6752239942734289 0
293 0.2254313193356068 -0.7169238055863157 0
294 0.3024990891438351 -0.7720091107907874 0
295 -0.3010913127313316 0.676284909639864 0
296 -0.2269350983230389 0.7180707536726328 0
297 -0.3035699478054173 0.7727450652750381 0
298 -0.6677949615053976 -0.136677693717382 0
299 -0.5757163283601808 -0.1207101597368996 0
300 -0.657973973386509 -0.05242370164084033 0
301 0.6648382435271037 0.1368550868311031 0
302 0.5710451867547544 0.1208946942608689 0
303 0.6548082748280598 0.0525896395155725 0
304 0.6231500002162146 0.2110084330009808 0
305 -0.626046755513962 -0.2105713485033094 0
306 0.1158418534171216 -0.5709769018533309 0
307 0.1336609881771591 -0.6648002593762667 0
308 0.2076121845755694 -0.6231004480633803 0
309 -0.1207547118091936 0.5757106627117768 0
310 -0.1367667978619699 0.6677836302085893 0
311 -0.2109230122702626 0.6259977861758207 0
312 0.04945339812668786 -0.6548006343294308 0
313 -0.05249528256067953 0.6579691190648106 0
$EndNodes
$Elements
80
1 26 2 1 21 1 5 8 9
2 26 2 1 21 5 6 10 11
3 26 2 1 21 6 7 12 13
4 26 2 1 21 7 2 14 15
5 26 2 1 22 2 16 19 20
6 26 2 1 22 16 17 21 22
7 26 2 1 22 17 18 23 24
8 26 2 1 22 18 3 25 26
9 26 2 1 23 3 27 30 31
10 26 2 1 23 27 28 32 33
11 26 2 1 23 28 29 34 35
12 26 2 1 23 29 4 36 37
13 26 2 1 24 4 38 41 42
14 26 2 1 24 38 39 43 44
15 26 2 1 24 39 40 45 46
16 26 2 1 24 40 1 47 48
17 21 2 2 61 28 29 55 34 35 74 75 76 77 78
18 21 2 2 61 6 7 57 12 13 79 80 81 82 83
19 21 2 2 61 17 18 54 23 24 84 85 86 87 88
20 21 2 2 61 39 40 56 45 46 89 90 91 92 93
21 21 2 2 61 67 52 69 94 95 96 97 98 99 100
22 21 2 2 61 50 68 66 101 102 103 104 105 106 107
23 21 2 2 61 53 66 69 108 109 110 111 112 113 114
24 21 2 2 61 67 68 51 115 116 117 118 119 120 121
25 21 2 2 61 51 56 67 122 123 124 125 120 119 126
26 21 2 2 61 53 54 66 127 128 129 130 109 108 131
27 21 2 2 61 50 55 68 132 133 134 135 102 101 136
28 21 2 2 61 52 57 69 137 138 139 140 97 96 141
29 21 2 2 61 29 63 55 142 143 144 145 75 74 146
30 21 2 2 61 7 61 57 147 148 149 150 80 79 151
31 21 2 2 61 18 62 54 152 153 154 155 85 84 156
32 21 2 2 61 40 60 56 157 158 159 160 90 89 161
33 21 2 2 61 17 54 65 87 86 162 163 164 165 166
34 21 2 2 61 39 56 64 92 91 167 168 169 170 171
35 21 2 2 61 28 55 58 77 76 172 173 174 175 176
36 21 2 2 61 6 57 59 82 81 177 178 179 180 181
37 21 2 2 61 52 56 60 182 183 160 159 184 185 186
38 21 2 2 61 50 54 62 187 188 155 154 189 190 191
39 21 2 2 61 53 65 54 192 193 163 162 128 127 194
40 21 2 2 61 53 57 61 195 196 150 149 197 198 199
41 21 2 2 61 51 55 63 200 201 145 144 202 203 204
42 21 2 2 61 50 58 55 205 206 173 172 133 132 207
43 21 2 2 61 52 59 57 208 209 178 177 138 137 210
44 21 2 2 61 51 64 56 211 212 168 167 123 122 213
45 21 2 2 61 49 66 68 214 215 104 103 216 217 218
46 21 2 2 61 49 67 69 219 220 99 98 221 222 223
47 21 2 2 61 49 68 67 217 216 116 115 220 219 224
48 21 2 2 61 49 69 66 222 221 111 110 215 214 225
49 21 2 2 61 50 66 54 106 105 130 129 188 187 226
50 21 2 2 61 52 67 56 95 94 125 124 183 182 227
51 21 2 2 61 51 68 55 118 117 135 134 201 200 228
52 21 2 2 61 53 69 57 113 112 140 139 196 195 229
53 21 2 2 61 16 17 65 21 22 165 164 230 231 232
54 21 2 2 61 38 39 64 43 44 170 169 233 234 235
55 21 2 2 61 27 28 58 32 33 175 174 236 237 238
56 21 2 2 61 5 6 59 10 11 180 179 239 240 241
57 21 2 2 61 3 62 18 242 243 153 152 25 26 244
58 21 2 2 61 1 60 40 245 246 158 157 47 48 247
59 21 2 2 61 4 63 29 248 249 143 142 36 37 250
60 21 2 2 61 2 61 7 251 252 148 147 14 15 253
61 21 2 2 61 4 38 70 41 42 254 255 256 257 258
62 21 2 2 61 1 5 72 8 9 259 260 261 262 263
63 21 2 2 61 3 27 71 30 31 264 265 266 267 268
64 21 2 2 61 2 16 73 19 20 269 270 271 272 273
65 21 2 2 61 5 59 72 240 239 274 275 260 259 276
66 21 2 2 61 27 58 71 237 236 277 278 265 264 279
67 21 2 2 61 1 72 60 262 261 280 281 246 245 282
68 21 2 2 61 2 73 61 272 271 283 284 252 251 285
69 21 2 2 61 4 70 63 257 256 286 287 249 248 288
70 21 2 2 61 3 71 62 267 266 289 290 243 242 291
71 21 2 2 61 38 64 70 234 233 292 293 255 254 294
72 21 2 2 61 16 65 73 231 230 295 296 270 269 297
73 21 2 2 61 50 62 71 190 189 290 289 298 299 300
74 21 2 2 61 52 60 72 185 184 281 280 301 302 303
75 21 2 2 61 52 72 59 302 301 275 274 209 208 304
76 21 2 2 61 50 71 58 299 298 278 277 206 205 305
77 21 2 2 61 51 70 64 306 307 293 292 212 211 308
78 21 2 2 61 53 73 65 309 310 296 295 193 192 311
79 21 2 2 61 51 63 70 203 202 287 286 307 306 312
80 21 2 2 61 53 61 73 198 197 284 283 310 309 313
$EndElements
