#!geo

mesh
4
header
 dimension	2
 order		2
 nodes		120
 edges	60
end header

1 0
0 -1
-1 0
0 1
0.99452189536837 -0.104528463266732
0.978147600734191 -0.207911690815947
0.951056516296012 -0.309016994372305
0.913545457643939 -0.406736643072795
0.866025403785716 -0.499999999997788
0.809016994376016 -0.587785252291002
0.743144825478119 -0.669130606358053
0.669130606359085 -0.74314482547719
0.587785252292055 -0.809016994375251
0.499999999998842 -0.866025403785107
0.406736643073829 -0.913545457643479
0.309016994373149 -0.951056516295738
0.207911690816526 -0.978147600734068
0.104528463267027 -0.994521895368339
-0.104528463266732 -0.99452189536837
-0.207911690815947 -0.978147600734191
-0.309016994372305 -0.951056516296012
-0.406736643072795 -0.913545457643939
-0.499999999997788 -0.866025403785716
-0.587785252291002 -0.809016994376016
-0.669130606358053 -0.743144825478119
-0.74314482547719 -0.669130606359085
-0.809016994375251 -0.587785252292055
-0.866025403785107 -0.499999999998842
-0.913545457643479 -0.406736643073829
-0.951056516295738 -0.309016994373149
-0.978147600734068 -0.207911690816526
-0.994521895368339 -0.104528463267027
-0.99452189536837 0.104528463266732
-0.978147600734191 0.207911690815947
-0.951056516296012 0.309016994372305
-0.913545457643939 0.406736643072795
-0.866025403785716 0.499999999997788
-0.809016994376016 0.587785252291002
-0.743144825478119 0.669130606358053
-0.669130606359085 0.74314482547719
-0.587785252292055 0.809016994375251
-0.499999999998842 0.866025403785107
-0.406736643073829 0.913545457643479
-0.309016994373149 0.951056516295738
-0.207911690816526 0.978147600734068
-0.104528463267027 0.994521895368339
0.104528463266732 0.99452189536837
0.207911690815947 0.978147600734191
0.309016994372305 0.951056516296012
0.406736643072795 0.913545457643939
0.499999999997788 0.866025403785716
0.587785252291002 0.809016994376016
0.669130606358053 0.743144825478119
0.74314482547719 0.669130606359085
0.809016994375251 0.587785252292055
0.866025403785107 0.499999999998842
0.913545457643479 0.406736643073829
0.951056516295738 0.309016994373149
0.978147600734068 0.207911690816526
0.994521895368339 0.104528463267027
0.998629534754598 -0.052335956242487
0.987688340595354 -0.156434465038864
0.965925826289664 -0.258819045100299
0.933580426498292 -0.35836794954246
0.891006524189701 -0.45399049973693
0.83867056794661 -0.544639035013201
0.777145961457883 -0.629320391048711
0.707106781187156 -0.707106781185939
0.629320391049774 -0.777145961457022
0.544639035014242 -0.838670567945934
0.453990499738005 -0.891006524189153
0.358367949543429 -0.93358042649792
0.258819045100993 -0.965925826289478
0.156434465039282 -0.987688340595288
0.0523359562426165 -0.998629534754591
-0.052335956242487 -0.998629534754598
-0.156434465038864 -0.987688340595354
-0.258819045100299 -0.965925826289664
-0.35836794954246 -0.933580426498292
-0.45399049973693 -0.891006524189701
-0.544639035013201 -0.83867056794661
-0.629320391048711 -0.777145961457883
-0.707106781185939 -0.707106781187156
-0.777145961457022 -0.629320391049774
-0.838670567945934 -0.544639035014242
-0.891006524189153 -0.453990499738005
-0.93358042649792 -0.358367949543429
-0.965925826289478 -0.258819045100993
-0.987688340595288 -0.156434465039282
-0.998629534754591 -0.0523359562426165
-0.998629534754598 0.052335956242487
-0.987688340595354 0.156434465038864
-0.965925826289664 0.258819045100299
-0.933580426498292 0.35836794954246
-0.891006524189701 0.45399049973693
-0.83867056794661 0.544639035013201
-0.777145961457883 0.629320391048711
-0.707106781187156 0.707106781185939
-0.629320391049774 0.777145961457022
-0.544639035014242 0.838670567945934
-0.453990499738005 0.891006524189153
-0.358367949543429 0.93358042649792
-0.258819045100993 0.965925826289478
-0.156434465039282 0.987688340595288
-0.0523359562426165 0.998629534754591
0.052335956242487 0.998629534754598
0.156434465038864 0.987688340595354
0.258819045100299 0.965925826289664
0.35836794954246 0.933580426498292
0.45399049973693 0.891006524189701
0.544639035013201 0.83867056794661
0.629320391048711 0.777145961457883
0.707106781185939 0.707106781187156
0.777145961457022 0.629320391049774
0.838670567945934 0.544639035014242
0.891006524189153 0.453990499738005
0.93358042649792 0.358367949543429
0.965925826289478 0.258819045100993
0.987688340595288 0.156434465039282
0.998629534754591 0.0523359562426165

e	p2 0 4 60
e	p2 4 5 61
e	p2 5 6 62
e	p2 6 7 63
e	p2 7 8 64
e	p2 8 9 65
e	p2 9 10 66
e	p2 10 11 67
e	p2 11 12 68
e	p2 12 13 69
e	p2 13 14 70
e	p2 14 15 71
e	p2 15 16 72
e	p2 16 17 73
e	p2 17 1 74
e	p2 1 18 75
e	p2 18 19 76
e	p2 19 20 77
e	p2 20 21 78
e	p2 21 22 79
e	p2 22 23 80
e	p2 23 24 81
e	p2 24 25 82
e	p2 25 26 83
e	p2 26 27 84
e	p2 27 28 85
e	p2 28 29 86
e	p2 29 30 87
e	p2 30 31 88
e	p2 31 2 89
e	p2 2 32 90
e	p2 32 33 91
e	p2 33 34 92
e	p2 34 35 93
e	p2 35 36 94
e	p2 36 37 95
e	p2 37 38 96
e	p2 38 39 97
e	p2 39 40 98
e	p2 40 41 99
e	p2 41 42 100
e	p2 42 43 101
e	p2 43 44 102
e	p2 44 45 103
e	p2 45 3 104
e	p2 3 46 105
e	p2 46 47 106
e	p2 47 48 107
e	p2 48 49 108
e	p2 49 50 109
e	p2 50 51 110
e	p2 51 52 111
e	p2 52 53 112
e	p2 53 54 113
e	p2 54 55 114
e	p2 55 56 115
e	p2 56 57 116
e	p2 57 58 117
e	p2 58 59 118
e	p2 59 0 119

