#!geo

mesh
4
header
 dimension	2
 order		3
 nodes		313
 triangles	64
end header

1 0
0 1
-1 0
0 -1
0.923879532512616 0.382683432361881
0.707106781187053 0.707106781186042
0.382683432362906 0.923879532512191
-0.382683432361881 0.923879532512616
-0.707106781186042 0.707106781187053
-0.923879532512191 0.382683432362906
-0.923879532512616 -0.382683432361881
-0.707106781187053 -0.707106781186042
-0.382683432362906 -0.923879532512191
0.382683432361881 -0.923879532512616
0.707106781186042 -0.707106781187053
0.923879532512191 -0.382683432362906
3.98670173841024e-19 -5.58815869735237e-18
-0.483637695214964 -0.104742625756417
0.0980227186570841 -0.477153544330395
0.477252129982405 0.104934301690635
-0.104742625756417 0.483637695214964
-0.508374834333097 0.331204197222061
-0.332178530241152 -0.501464821203262
0.500741128878453 -0.330376728257483
0.330596048152293 0.508393089183975
-0.634628976676307 -0.374326192055646
0.633566570366785 0.37527551791097
0.728541394202321 -0.0999808625452546
0.100035661989125 0.730413064274065
-0.730410630293948 0.100116748531761
-0.101142647214217 -0.728624741758694
0.373333712132427 -0.633524182960542
-0.375247527139624 0.634499065607095
-0.216441168233749 0.124242335876581
0.215519821457507 -0.111990992434026
-0.117514179344433 -0.216497269420686
0.116021663870218 0.217435688747808
0.151480122937197 -0.758623616899203
-0.759873594650614 -0.152645227697864
0.758631300299453 0.152815479401337
-0.152778883914746 0.759856597705402
0.991444861373955 0.130526192218957
0.965925826289641 0.258819045100383
0.866025403785671 0.499999999997865
0.793353340292168 0.608761429007506
0.608761429008491 0.793353340291411
0.499999999998891 0.866025403785079
0.258819045100932 0.965925826289494
0.130526192219228 0.991444861373919
-0.130526192218957 0.991444861373955
-0.258819045100383 0.965925826289641
-0.499999999997865 0.866025403785671
-0.608761429007506 0.793353340292168
-0.793353340291411 0.608761429008491
-0.866025403785079 0.499999999998891
-0.965925826289494 0.258819045100932
-0.991444861373919 0.130526192219228
-0.991444861373955 -0.130526192218957
-0.965925826289641 -0.258819045100383
-0.866025403785671 -0.499999999997865
-0.793353340292168 -0.608761429007506
-0.608761429008491 -0.793353340291411
-0.499999999998891 -0.866025403785079
-0.258819045100932 -0.965925826289494
-0.130526192219228 -0.991444861373919
0.130526192218957 -0.991444861373955
0.258819045100383 -0.965925826289641
0.499999999997865 -0.866025403785671
0.608761429007506 -0.793353340292168
0.793353340291411 -0.608761429008491
0.866025403785079 -0.499999999998891
0.965925826289494 -0.258819045100932
0.991444861373919 -0.130526192219228
-0.365848464988988 -0.783074628742548
-0.34901349761507 -0.642269724972905
-0.457154613889786 -0.570012141197522
-0.58213069753842 -0.638559461191782
0.365320970959368 0.785384051402786
0.347958509555831 0.64688857029338
0.456099625830546 0.574630986517997
0.5816032035088 0.640868883852019
-0.785377966452493 0.365523687315958
-0.646876400392795 0.348363942269009
-0.574618816617412 0.456505058543725
-0.640862798901727 0.581805919865389
0.782833397967612 -0.365247864327765
0.641787263423032 -0.347812296292624
0.569529679647649 -0.45595341256734
0.638318230416845 -0.581530096877196
0.302763924299139 -0.0396825610591391
0.390008027140772 0.0326258703157478
0.356841974611676 0.142434764043026
0.236431819240947 0.179935226395417
0.149187716399314 0.10762679502053
0.18235376892841 -0.00218209870674805
-0.36159652325812 -0.141994173644507
-0.239555351301276 -0.179245721532596
-0.150489842307538 -0.102917400988264
-0.183465505270644 0.0106624674441586
-0.305506677227488 0.0479140153322482
-0.394572186221226 -0.0284143052120845
-0.141975473248861 0.36383924210217
-0.179208320741305 0.244040788989375
-0.105620224199093 0.155306786833657
0.0052007198355624 0.186371237790732
0.0424335673280064 0.306169690903527
-0.0311545292142054 0.394903693059245
0.10450848785686 -0.146826418096246
-0.00650284574378609 -0.181661843758466
-0.0456685466772603 -0.303382694390589
0.0261770859899119 -0.390268119360492
0.137188419590558 -0.355432693698272
0.176354120524032 -0.233711843066149
0.232262188730874 -0.428227938972758
0.366501658804663 -0.37930233361512
0.405667359738137 -0.257581482982997
0.310593590597822 -0.184786237708512
-0.239286695281977 0.43282652921733
-0.373830764807537 0.382015363219695
-0.411063612299981 0.262216910106901
-0.313752390266865 0.193229622991741
-0.43315130689036 -0.236983357572032
-0.382664918565756 -0.369224089387647
-0.260623746608912 -0.406475637275737
-0.189068962976672 -0.311486453348212
0.428366769372368 0.239420564188415
0.37948140876233 0.373906826686195
0.259071253391601 0.411407289038586
0.18754645863091 0.314421488893197
-0.28883650398001 -0.858794602261025
-0.194989575597113 -0.79370967200986
-0.178154608223195 -0.652904768240217
-0.255166569232174 -0.57718479472174
0.288467508904979 0.859390709766149
0.194251585447052 0.794901887020107
0.176889124043514 0.656406405910702
0.253742586097904 0.582399747547338
-0.859389898439443 0.288494537752524
-0.794900264366696 0.194305643142142
-0.656398698306998 0.177145898095194
-0.582386766320047 0.254175047658627
0.858766819742234 -0.288449242423689
0.793654106972278 -0.194215052484472
0.652607972427698 -0.176779484449331
0.576674550653075 -0.253578106353407
-0.463999065268606 0.432302486683739
-0.419623296204115 0.533400776145417
-0.48586727848843 0.658701637467081
-0.596487029837236 0.682904209327067
0.458271989963111 -0.431425879825169
0.415802851047769 -0.532475031392856
0.484591401816965 -0.658051715702712
0.595849091501504 -0.682579248444883
-0.432995345719537 -0.459085278154057
-0.533812161197922 -0.416705735104852
-0.658788244846556 -0.485253055099111
-0.682947513016805 -0.596179918142577
0.43158622222379 0.464020565426307
0.532576396295288 0.419648041668639
0.658079973973541 0.485885939002661
0.682593377580297 0.596496360094351
0.485081796281087 -0.0401693749587378
0.49291146257977 -0.18527305160811
0.644778306129015 -0.0316758077999582
0.56101521805571 0.0366292469453382
-0.491883408254342 0.0405729819030754
-0.500129121293719 0.185888589562568
-0.64815298526762 0.0318302904357014
-0.565895340241292 -0.0364561676603579
-0.194910926217486 0.533924818679008
-0.285079226678555 0.584211942143051
0.0403702655464862 0.491889493204634
0.18548315684939 0.500141291194305
0.0317762327406109 0.648154607921031
-0.0364831965079032 0.565896151567998
-0.0453776976423279 -0.485257303288018
-0.18877811394174 -0.49336106224564
-0.0347541919237834 -0.644801009282594
0.0316342633666504 -0.560977276806495
-0.533968122368745 -0.194603814522827
-0.584298549522526 -0.284465003289237
0.529356943443865 0.195048040430747
0.581461756905325 0.285161779170858
0.189793049815532 -0.529277090540444
0.281563380973979 -0.581400636750493
-0.0721470560779164 0.0414141119588603
-0.144294112155833 0.0828282239177207
-0.0783427862296217 -0.144331512947124
-0.0391713931148108 -0.072165756473562
0.0718399404858355 -0.037330330811342
0.143679880971671 -0.074660661622684
0.0773477759134788 0.144957125831872
0.0386738879567394 0.0724785629159359
-0.37772616221371 0.730959221242269
-0.380204797287795 0.827419376877442
0.376450285542245 -0.7303092994779
0.379566858952063 -0.827094415995258
-0.731045828621743 -0.377111938824391
-0.82746268056718 -0.379897685593136
0.730337557748729 0.377744822727941
0.827108545130672 0.380214127544911
-0.910136876764649 0.0333722495105869
-0.820273753529299 0.0667444990211738
0.90951379806744 -0.0333269541817515
0.81902759613488 -0.0666539083635031
-0.0337142157380724 -0.909541580586231
-0.0674284314761448 -0.819083161172463
0.0333452206630416 0.910137688091355
0.0666904413260833 0.82027537618271
0.305615662553653 -0.868794227308145
0.228547892745425 -0.813708922103674
0.100986748624798 -0.839082411266135
0.0504933743123989 -0.919541205633068
0.868796788441562 0.306060781375033
0.813714044370508 0.229438130388185
0.839087533532969 0.101876986267558
0.919543766766484 0.0509384931337791
-0.869210886558615 -0.306004030807209
-0.814542240604615 -0.229324629252536
-0.839915729767076 -0.10176348513191
-0.919957864883538 -0.0508817425659548
-0.306048582879502 0.869205220910211
-0.229413733397124 0.814530909307807
-0.101852589276497 0.839904398470268
-0.0509262946382487 0.919952199235134
0.675254813677674 0.301122171741093
0.716943056988564 0.226968825571215
-0.676377182667743 -0.300432537269719
-0.718125388659179 -0.226538882483792
0.748601331600409 0.0685500320858067
0.738571362901365 -0.0157154152297239
-0.0685073686134558 0.750042086561623
0.0157641466878346 0.740227575417844
0.0672725328867253 -0.748623991852366
-0.0169350571637459 -0.73862436680553
-0.750052606531725 -0.0683912356213227
-0.740231618412837 0.015862756455219
0.299382515734017 -0.675223994273429
0.225431319335607 -0.716923805586316
-0.301091312731332 0.676284909639864
-0.226935098323039 0.718070753672633
-0.667794961505398 -0.136677693717382
-0.575716328360181 -0.1207101597369
0.664838243527104 0.136855086831103
0.571045186754754 0.120894694260869
0.115841853417122 -0.570976901853331
0.133660988177159 -0.664800259376267
-0.120754711809194 0.575710662711777
-0.13676679786197 0.667783630208589
-0.480623476116954 -0.720073948567442
0.480095982087335 0.72238337122768
-0.722377286277387 0.480298698443924
0.719832717792506 -0.480022875455731
0.269597871770043 0.0701263326681388
-0.272531014264382 -0.0656658531001742
-0.0683873767066495 0.275105239946451
0.0653427869233862 -0.268547268728369
0.271427889664348 -0.306507088340635
-0.276519542774421 0.313028076104536
-0.311110134933516 -0.274234905460122
0.307956614001639 0.276921026540806
-0.272001536606092 -0.717989698491383
0.271105047501441 0.720895228656744
-0.720888332379746 0.271334792705576
0.717720685197655 -0.271013674388548
-0.530243047552921 0.557603348005403
0.527060540732308 -0.557002564135026
-0.557971429368171 -0.527632598148317
0.557089799902044 0.530258462760329
0.568844884354393 -0.108474429704034
-0.57414105328067 0.108859439999135
-0.329454995743046 0.483113652681374
0.108629694795 0.574147949557668
-0.111766152932762 -0.569081035764117
-0.483481734044141 -0.326844546338442
0.480471582833828 0.329534302928527
0.324032519889321 -0.480351485182807
-0.111318449192727 -0.0307516445147017
0.110513828442575 0.0351482321045939
0.0326685473710247 -0.109496087284904
-0.033473168121177 0.113892674874796
-0.402817899260604 0.116901302447408
0.397837693439455 -0.112477806333625
-0.1172233303095 -0.398371878318115
0.113958362088698 0.403155491048916
-0.494359495680872 0.764833176420803
0.49372155734514 -0.764508215538619
-0.76487648011054 -0.494052383986213
0.764522344674033 0.494368825937987
-0.895999878946698 0.162788140903606
0.895376800249489 -0.16274284557477
-0.163130107131091 -0.89540458276828
0.162761112056061 0.896000690273404
0.179909265705112 -0.905404207815193
0.90540676894861 0.180354384526493
-0.905820867065663 -0.180297633958668
-0.180342186030962 0.905815201417259
0.772025801059618 0.303591476558063
-0.77279403461318 -0.303218284038464
0.829057564833925 0.0176115389520276
-0.0175810739752071 0.830089887326489
0.0167791585743265 -0.829082786219299
-0.830094741648188 -0.0175094930553679
0.302499089143835 -0.772009110790787
-0.303569947805417 0.772745065275038
-0.657973973386509 -0.0524237016408403
0.65480827482806 0.0525896395155725
0.623150000216215 0.211008433000981
-0.626046755513962 -0.210571348503309
0.207612184575569 -0.62310044806338
-0.210923012270263 0.625997786175821
0.0494533981266879 -0.654800634329431
-0.0524952825606795 0.657969119064811

t	p3 11 12 22 61 62 73 74 75 76 249
t	p3 5 6 24 45 46 77 78 79 80 250
t	p3 8 9 21 53 54 81 82 83 84 251
t	p3 14 15 23 69 70 85 86 87 88 252
t	p3 34 19 36 89 90 91 92 93 94 253
t	p3 17 35 33 95 96 97 98 99 100 254
t	p3 20 33 36 101 102 103 104 105 106 255
t	p3 34 35 18 107 108 109 110 111 112 256
t	p3 18 23 34 113 114 115 116 112 111 257
t	p3 20 21 33 117 118 119 120 102 101 258
t	p3 17 22 35 121 122 123 124 96 95 259
t	p3 19 24 36 125 126 127 128 92 91 260
t	p3 12 30 22 129 130 131 132 74 73 261
t	p3 6 28 24 133 134 135 136 78 77 262
t	p3 9 29 21 137 138 139 140 82 81 263
t	p3 15 27 23 141 142 143 144 86 85 264
t	p3 8 21 32 84 83 145 146 147 148 265
t	p3 14 23 31 88 87 149 150 151 152 266
t	p3 11 22 25 76 75 153 154 155 156 267
t	p3 5 24 26 80 79 157 158 159 160 268
t	p3 19 23 27 161 162 144 143 163 164 269
t	p3 17 21 29 165 166 140 139 167 168 270
t	p3 20 32 21 169 170 146 145 118 117 271
t	p3 20 24 28 171 172 136 135 173 174 272
t	p3 18 22 30 175 176 132 131 177 178 273
t	p3 17 25 22 179 180 154 153 122 121 274
t	p3 19 26 24 181 182 158 157 126 125 275
t	p3 18 31 23 183 184 150 149 114 113 276
t	p3 16 33 35 185 186 98 97 187 188 277
t	p3 16 34 36 189 190 94 93 191 192 278
t	p3 16 35 34 188 187 108 107 190 189 279
t	p3 16 36 33 192 191 104 103 186 185 280
t	p3 17 33 21 100 99 120 119 166 165 281
t	p3 19 34 23 90 89 116 115 162 161 282
t	p3 18 35 22 110 109 124 123 176 175 283
t	p3 20 36 24 106 105 128 127 172 171 284
t	p3 7 8 32 51 52 148 147 193 194 285
t	p3 13 14 31 67 68 152 151 195 196 286
t	p3 10 11 25 59 60 156 155 197 198 287
t	p3 4 5 26 43 44 160 159 199 200 288
t	p3 2 29 9 201 202 138 137 55 56 289
t	p3 0 27 15 203 204 142 141 71 72 290
t	p3 3 30 12 205 206 130 129 63 64 291
t	p3 1 28 6 207 208 134 133 47 48 292
t	p3 3 13 37 65 66 209 210 211 212 293
t	p3 0 4 39 41 42 213 214 215 216 294
t	p3 2 10 38 57 58 217 218 219 220 295
t	p3 1 7 40 49 50 221 222 223 224 296
t	p3 4 26 39 200 199 225 226 214 213 297
t	p3 10 25 38 198 197 227 228 218 217 298
t	p3 0 39 27 216 215 229 230 204 203 299
t	p3 1 40 28 224 223 231 232 208 207 300
t	p3 3 37 30 212 211 233 234 206 205 301
t	p3 2 38 29 220 219 235 236 202 201 302
t	p3 13 31 37 196 195 237 238 210 209 303
t	p3 7 32 40 194 193 239 240 222 221 304
t	p3 17 29 38 168 167 236 235 241 242 305
t	p3 19 27 39 164 163 230 229 243 244 306
t	p3 19 39 26 244 243 226 225 182 181 307
t	p3 17 38 25 242 241 228 227 180 179 308
t	p3 18 37 31 245 246 238 237 184 183 309
t	p3 20 40 32 247 248 240 239 170 169 310
t	p3 18 30 37 178 177 234 233 246 245 311
t	p3 20 28 40 174 173 232 231 248 247 312

domain
boundary
1 1 16
e	p3 0 4 41 42 
e	p3 4 5 43 44 
e	p3 5 6 45 46 
e	p3 6 1 47 48 
e	p3 1 7 49 50 
e	p3 7 8 51 52 
e	p3 8 9 53 54 
e	p3 9 2 55 56 
e	p3 2 10 57 58 
e	p3 10 11 59 60 
e	p3 11 12 61 62 
e	p3 12 3 63 64 
e	p3 3 13 65 66 
e	p3 13 14 67 68 
e	p3 14 15 69 70 
e	p3 15 0 71 72 

