#!geo

mesh
4
header
 dimension 2
 nodes	115
 triangles	196
 edges	310
end header

1 0
0 1
-1 0
0 -1
0.980785280403569 0.195090322014425
0.923879532512616 0.382683432361881
0.831469612303709 0.555570233017861
0.707106781187053 0.707106781186042
0.555570233018917 0.831469612303003
0.382683432362906 0.923879532512191
0.195090322014969 0.980785280403461
-0.195090322014425 0.980785280403569
-0.382683432361881 0.923879532512616
-0.555570233017861 0.831469612303709
-0.707106781186042 0.707106781187053
-0.831469612303003 0.555570233018917
-0.923879532512191 0.382683432362906
-0.980785280403461 0.195090322014969
-0.980785280403569 -0.195090322014425
-0.923879532512616 -0.382683432361881
-0.831469612303709 -0.555570233017861
-0.707106781187053 -0.707106781186042
-0.555570233018917 -0.831469612303003
-0.382683432362906 -0.923879532512191
-0.195090322014969 -0.980785280403461
0.195090322014425 -0.980785280403569
0.382683432361881 -0.923879532512616
0.555570233017861 -0.831469612303709
0.707106781186042 -0.707106781187053
0.831469612303003 -0.555570233018917
0.923879532512191 -0.382683432362906
0.980785280403461 -0.195090322014969
0 0
-0.461370424881335 0.220990358047375
0.461370424881335 -0.220990358047375
0.350009859570077 0.126340690999522
-0.350009859570077 -0.126340690999522
-0.120980482836047 0.339090762231227
0.120980482836047 -0.339090762231227
0.0062938373830326 -0.197126649090751
-0.0062938373830326 0.197126649090751
-0.145598449220739 0.118947217114709
0.145598449220739 -0.118947217114709
-0.763476654527997 0.166459048845276
0.763476654527997 -0.166459048845276
-0.0295183705814131 -0.712514566823229
0.0295183705814131 0.712514566823229
0.705962090060214 -0.000878249716532266
-0.705962090060214 0.000878249716532266
-0.411963173963975 0.386780531825645
0.411963173963975 -0.386780531825645
-0.278003016479977 0.256645705833556
0.278003016479977 -0.256645705833556
-0.28793048747505 -0.314399215686225
0.28793048747505 0.314399215686225
-0.52790609378635 -0.0806390412138818
0.52790609378635 0.0806390412138818
-0.468592638738865 -0.259690701349093
0.468592638738865 0.259690701349093
0.542928616958003 -0.385316994271607
-0.542928616958003 0.385316994271607
-0.442648426177078 0.0224594405652961
0.442648426177078 -0.0224594405652961
-0.064029680353047 0.531494454397286
0.064029680353047 -0.531494454397286
-0.166686966801327 -0.120364028016494
0.166686966801327 0.120364028016494
-0.444859371286399 -0.469860334609434
0.444859371286399 0.469860334609434
0.401213414390721 -0.552716690460293
-0.401213414390721 0.552716690460293
-0.203216651446144 -0.549449331948732
0.203216651446144 0.549449331948732
0.651698016444902 0.189898992968776
-0.651698016444902 -0.189898992968776
0.184531449453036 -0.650479343627689
-0.184531449453036 0.650479343627689
0.587068938070183 -0.0901777681600627
-0.587068938070183 0.0901777681600627
-0.641156555820452 0.281150308427
0.641156555820452 -0.281150308427
0.243453536246134 -0.452867914729283
-0.243453536246134 0.452867914729283
-0.0777550175250658 -0.341987406895119
0.0777550175250658 0.341987406895119
-0.833350122666112 -0.114469021359031
0.833350122666112 0.114469021359031
-0.307386190521755 0.062056333757487
0.307386190521755 -0.062056333757487
0.0877417336508788 -0.830951847620552
-0.0877417336508788 0.830951847620552
0.654026455507679 0.508065455228955
-0.654026455507679 -0.508065455228955
-0.466295013535464 0.715415169750847
0.466295013535464 -0.715415169750847
-0.286259227567734 0.775704644062594
0.286259227567734 -0.775704644062594
-0.0964684282118877 -0.862320500279038
0.0964684282118877 0.862320500279038
0.650747751407358 -0.527664370141966
-0.650747751407358 0.527664370141966
0.792009154934292 -0.310609496358423
-0.792009154934292 0.310609496358423
-0.552204625423728 -0.637041818584883
0.552204625423728 0.637041818584883
-0.862509739241488 0.0487126167480768
0.862509739241488 -0.0487126167480768
-0.215273300522099 -0.789258116248013
0.215273300522099 0.789258116248013
-0.393826071690151 -0.697655754175727
0.393826071690151 0.697655754175727
-0.600277776284809 -0.351128995471904
0.600277776284809 0.351128995471904
0.782212399446199 0.328129493203262
-0.782212399446199 -0.328129493203262

t	41 32 40
t	37 41 40
t	42 32 39
t	38 42 39
t	51 41 37
t	51 49 33
t	52 42 38
t	52 50 34
t	36 55 57
t	35 56 58
t	34 50 59
t	33 49 60
t	61 55 36
t	62 56 35
t	36 53 65
t	35 54 66
t	73 56 47
t	74 55 48
t	75 64 45
t	76 63 46
t	47 56 77
t	77 44 47
t	48 55 78
t	78 43 48
t	33 60 79
t	43 78 79
t	79 78 33
t	34 59 80
t	44 77 80
t	80 77 34
t	38 64 81
t	37 63 82
t	87 61 36
t	88 62 35
t	53 36 57
t	54 35 58
t	51 37 82
t	51 82 49
t	49 70 60
t	52 38 81
t	52 81 50
t	50 69 59
t	83 39 65
t	53 83 65
t	84 40 66
t	54 84 66
t	61 33 78
t	61 78 55
t	55 74 57
t	62 34 77
t	62 77 56
t	56 73 58
t	72 46 63
t	71 45 64
t	76 82 63
t	75 81 64
t	85 2 18
t	74 48 85
t	86 0 4
t	73 47 86
t	89 3 25
t	45 89 75
t	90 1 11
t	46 90 76
t	12 13 93
t	26 27 94
t	66 40 32
t	32 42 66
t	35 66 88
t	88 66 42
t	65 39 32
t	32 41 65
t	36 65 87
t	87 65 41
t	38 39 83
t	38 83 64
t	83 71 64
t	37 40 84
t	37 84 63
t	84 72 63
t	95 12 93
t	95 76 90
t	96 26 94
t	96 75 89
t	24 3 97
t	10 1 98
t	101 44 80
t	102 43 79
t	105 17 2
t	43 17 105
t	2 85 105
t	106 31 0
t	44 31 106
t	0 86 106
t	21 22 103
t	7 8 104
t	14 15 100
t	28 29 99
t	101 30 31
t	44 101 31
t	102 16 17
t	43 102 17
t	48 43 105
t	48 105 85
t	47 44 106
t	47 106 86
t	25 26 96
t	25 96 89
t	11 12 95
t	11 95 90
t	97 3 89
t	45 97 89
t	98 1 90
t	46 98 90
t	79 60 100
t	79 100 102
t	80 59 99
t	80 99 101
t	9 10 108
t	98 108 10
t	72 108 46
t	46 108 98
t	23 24 107
t	97 107 24
t	71 107 45
t	45 107 97
t	69 50 81
t	75 69 81
t	69 75 96
t	69 96 94
t	70 49 82
t	76 70 82
t	70 76 95
t	70 95 93
t	70 100 60
t	70 93 100
t	69 99 59
t	69 94 99
t	68 91 104
t	67 92 103
t	87 51 33
t	33 61 87
t	41 51 87
t	88 52 34
t	34 62 88
t	42 52 88
t	15 16 102
t	15 102 100
t	29 30 101
t	29 101 99
t	93 13 14
t	100 93 14
t	94 27 28
t	99 94 28
t	91 6 7
t	104 91 7
t	92 20 21
t	103 92 21
t	109 22 23
t	23 107 109
t	103 22 109
t	110 8 9
t	9 108 110
t	104 8 110
t	107 71 109
t	67 103 109
t	108 72 110
t	68 104 110
t	54 58 68
t	53 57 67
t	83 53 71
t	53 67 71
t	71 67 109
t	84 54 72
t	54 68 72
t	72 68 110
t	67 57 111
t	111 57 74
t	111 92 67
t	68 58 112
t	112 58 73
t	112 91 68
t	73 86 113
t	74 85 114
t	18 19 114
t	18 114 85
t	114 19 20
t	92 114 20
t	4 5 113
t	4 113 86
t	113 5 6
t	91 113 6
t	112 73 113
t	112 113 91
t	111 74 114
t	111 114 92

e	41 32
e	32 40
e	40 41
e	37 41
e	40 37
e	42 32
e	32 39
e	39 42
e	38 42
e	39 38
e	51 41
e	37 51
e	51 49
e	49 33
e	33 51
e	52 42
e	38 52
e	52 50
e	50 34
e	34 52
e	36 55
e	55 57
e	57 36
e	35 56
e	56 58
e	58 35
e	50 59
e	59 34
e	49 60
e	60 33
e	61 55
e	36 61
e	62 56
e	35 62
e	36 53
e	53 65
e	65 36
e	35 54
e	54 66
e	66 35
e	73 56
e	56 47
e	47 73
e	74 55
e	55 48
e	48 74
e	75 64
e	64 45
e	45 75
e	76 63
e	63 46
e	46 76
e	56 77
e	77 47
e	77 44
e	44 47
e	55 78
e	78 48
e	78 43
e	43 48
e	60 79
e	79 33
e	78 79
e	79 43
e	78 33
e	59 80
e	80 34
e	77 80
e	80 44
e	77 34
e	38 64
e	64 81
e	81 38
e	37 63
e	63 82
e	82 37
e	87 61
e	36 87
e	88 62
e	35 88
e	57 53
e	58 54
e	82 51
e	82 49
e	49 70
e	70 60
e	81 52
e	81 50
e	50 69
e	69 59
e	83 39
e	39 65
e	65 83
e	53 83
e	84 40
e	40 66
e	66 84
e	54 84
e	61 33
e	78 61
e	74 57
e	62 34
e	77 62
e	73 58
e	72 46
e	63 72
e	71 45
e	64 71
e	76 82
e	75 81
e	85 2
e	2 18
e	18 85
e	48 85
e	85 74
e	86 0
e	0 4
e	4 86
e	47 86
e	86 73
e	89 3
e	3 25
e	25 89
e	45 89
e	89 75
e	90 1
e	1 11
e	11 90
e	46 90
e	90 76
e	12 13
e	13 93
e	93 12
e	26 27
e	27 94
e	94 26
e	32 66
e	42 66
e	66 88
e	42 88
e	32 65
e	41 65
e	65 87
e	41 87
e	83 38
e	83 64
e	83 71
e	84 37
e	84 63
e	84 72
e	95 12
e	93 95
e	95 76
e	90 95
e	96 26
e	94 96
e	96 75
e	89 96
e	24 3
e	3 97
e	97 24
e	10 1
e	1 98
e	98 10
e	101 44
e	80 101
e	102 43
e	79 102
e	105 17
e	17 2
e	2 105
e	43 17
e	105 43
e	85 105
e	106 31
e	31 0
e	0 106
e	44 31
e	106 44
e	86 106
e	21 22
e	22 103
e	103 21
e	7 8
e	8 104
e	104 7
e	14 15
e	15 100
e	100 14
e	28 29
e	29 99
e	99 28
e	101 30
e	30 31
e	31 101
e	102 16
e	16 17
e	17 102
e	105 48
e	106 47
e	25 26
e	96 25
e	11 12
e	95 11
e	89 97
e	45 97
e	90 98
e	46 98
e	60 100
e	100 79
e	100 102
e	59 99
e	99 80
e	99 101
e	9 10
e	10 108
e	108 9
e	98 108
e	72 108
e	108 46
e	23 24
e	24 107
e	107 23
e	97 107
e	71 107
e	107 45
e	81 69
e	75 69
e	96 69
e	94 69
e	82 70
e	76 70
e	95 70
e	93 70
e	70 100
e	93 100
e	69 99
e	94 99
e	68 91
e	91 104
e	104 68
e	67 92
e	92 103
e	103 67
e	87 51
e	33 87
e	88 52
e	34 88
e	15 16
e	102 15
e	29 30
e	101 29
e	13 14
e	14 93
e	27 28
e	28 94
e	91 6
e	6 7
e	7 91
e	92 20
e	20 21
e	21 92
e	109 22
e	22 23
e	23 109
e	107 109
e	109 103
e	110 8
e	8 9
e	9 110
e	108 110
e	110 104
e	71 109
e	109 67
e	72 110
e	110 68
e	58 68
e	68 54
e	57 67
e	67 53
e	53 71
e	67 71
e	54 72
e	68 72
e	57 111
e	111 67
e	74 111
e	111 92
e	58 112
e	112 68
e	73 112
e	112 91
e	86 113
e	113 73
e	85 114
e	114 74
e	18 19
e	19 114
e	114 18
e	19 20
e	20 114
e	92 114
e	4 5
e	5 113
e	113 4
e	5 6
e	6 113
e	91 113
e	113 112
e	114 111

domain
boundary
2 1 32
116
302
305
257
183
268
214
161
126
202
130
252
186
248
196
169
111
296
299
260
180
263
220
158
121
200
133
254
189
250
193
175
