#!geo

mesh
4
header
 dimension	2
 nodes		33
 quadrangles	24
end header

1 0
0 1
-1 0
0 -1
0.923879532511309 0.382683432365036
0.707106781187053 0.707106781186042
0.382683432364887 0.923879532511371
-0.380862804754285 0.919484148641447
-0.707106781186042 0.707106781187053
-0.919484148641474 0.380862804754177
-0.923879532511309 -0.382683432365036
-0.707106781187053 -0.707106781186042
-0.382683432364887 -0.923879532511371
0.380862804754285 -0.919484148641447
0.707106781186042 -0.707106781187053
0.919484148641474 -0.380862804754177
0.310574479174823 -0.314581762604223
-0.00099749891406353 -0.000554094288333438
-0.313668381227968 0.312505193837261
-0.576101201106556 0.185049783224966
-0.329040968710476 -0.328578160321025
-0.184998671242392 0.183287544378793
-0.505149777797869 -0.0912311104301228
0.326267508007121 0.326463504439937
0.181746067915542 -0.18531305416417
0.573276987096299 -0.186907073097425
0.503750504839915 0.0907257330134568
0.183082373157147 -0.577099710472871
0.512453923767492 -0.514543783445991
-0.186250185033332 0.57493692424376
0.0913408251611613 0.504847666000606
-0.0939655385352088 -0.506053231819021
-0.514013080335729 0.513374844085577

q	18 19 22 21
q	19 2 10 22
q	22 10 11 20
q	21 22 20 17
q	5 23 26 4
q	23 17 24 26
q	26 24 16 25
q	4 26 25 0
q	3 13 28 27
q	13 14 15 28
q	28 15 0 25
q	27 28 25 16
q	18 21 30 29
q	21 17 23 30
q	30 23 5 6
q	29 30 6 1
q	16 24 31 27
q	24 17 20 31
q	31 20 11 12
q	27 31 12 3
q	1 7 32 29
q	7 8 9 32
q	32 9 2 19
q	29 32 19 18

domain
boundary
1 1 16
e	0 4 
e	4 5 
e	5 6 
e	6 1 
e	1 7 
e	7 8 
e	8 9 
e	9 2 
e	2 10 
e	10 11 
e	11 12 
e	12 3 
e	3 13 
e	13 14 
e	14 15 
e	15 0 

