#!geo

mesh
4
header
 dimension 3
 nodes	216
 prisms	250
 triangles	300
 quadrangles	425
 edges	690
end header

0 0 0
0.2 0 0
0.4 0 0
0.6 0 0
0.8 0 0
1 0 0
0 0.2 0
0.2 0.2 0
0.4 0.2 0
0.6 0.2 0
0.8 0.2 0
1 0.2 0
0 0.4 0
0.2 0.4 0
0.4 0.4 0
0.6 0.4 0
0.8 0.4 0
1 0.4 0
0 0.6 0
0.2 0.6 0
0.4 0.6 0
0.6 0.6 0
0.8 0.6 0
1 0.6 0
0 0.8 0
0.2 0.8 0
0.4 0.8 0
0.6 0.8 0
0.8 0.8 0
1 0.8 0
0 1 0
0.2 1 0
0.4 1 0
0.6 1 0
0.8 1 0
1 1 0
0 0 0.2
0.2 0 0.2
0.4 0 0.2
0.6 0 0.2
0.8 0 0.2
1 0 0.2
0 0.2 0.2
0.2 0.2 0.2
0.4 0.2 0.2
0.6 0.2 0.2
0.8 0.2 0.2
1 0.2 0.2
0 0.4 0.2
0.2 0.4 0.2
0.4 0.4 0.2
0.6 0.4 0.2
0.8 0.4 0.2
1 0.4 0.2
0 0.6 0.2
0.2 0.6 0.2
0.4 0.6 0.2
0.6 0.6 0.2
0.8 0.6 0.2
1 0.6 0.2
0 0.8 0.2
0.2 0.8 0.2
0.4 0.8 0.2
0.6 0.8 0.2
0.8 0.8 0.2
1 0.8 0.2
0 1 0.2
0.2 1 0.2
0.4 1 0.2
0.6 1 0.2
0.8 1 0.2
1 1 0.2
0 0 0.4
0.2 0 0.4
0.4 0 0.4
0.6 0 0.4
0.8 0 0.4
1 0 0.4
0 0.2 0.4
0.2 0.2 0.4
0.4 0.2 0.4
0.6 0.2 0.4
0.8 0.2 0.4
1 0.2 0.4
0 0.4 0.4
0.2 0.4 0.4
0.4 0.4 0.4
0.6 0.4 0.4
0.8 0.4 0.4
1 0.4 0.4
0 0.6 0.4
0.2 0.6 0.4
0.4 0.6 0.4
0.6 0.6 0.4
0.8 0.6 0.4
1 0.6 0.4
0 0.8 0.4
0.2 0.8 0.4
0.4 0.8 0.4
0.6 0.8 0.4
0.8 0.8 0.4
1 0.8 0.4
0 1 0.4
0.2 1 0.4
0.4 1 0.4
0.6 1 0.4
0.8 1 0.4
1 1 0.4
0 0 0.6
0.2 0 0.6
0.4 0 0.6
0.6 0 0.6
0.8 0 0.6
1 0 0.6
0 0.2 0.6
0.2 0.2 0.6
0.4 0.2 0.6
0.6 0.2 0.6
0.8 0.2 0.6
1 0.2 0.6
0 0.4 0.6
0.2 0.4 0.6
0.4 0.4 0.6
0.6 0.4 0.6
0.8 0.4 0.6
1 0.4 0.6
0 0.6 0.6
0.2 0.6 0.6
0.4 0.6 0.6
0.6 0.6 0.6
0.8 0.6 0.6
1 0.6 0.6
0 0.8 0.6
0.2 0.8 0.6
0.4 0.8 0.6
0.6 0.8 0.6
0.8 0.8 0.6
1 0.8 0.6
0 1 0.6
0.2 1 0.6
0.4 1 0.6
0.6 1 0.6
0.8 1 0.6
1 1 0.6
0 0 0.8
0.2 0 0.8
0.4 0 0.8
0.6 0 0.8
0.8 0 0.8
1 0 0.8
0 0.2 0.8
0.2 0.2 0.8
0.4 0.2 0.8
0.6 0.2 0.8
0.8 0.2 0.8
1 0.2 0.8
0 0.4 0.8
0.2 0.4 0.8
0.4 0.4 0.8
0.6 0.4 0.8
0.8 0.4 0.8
1 0.4 0.8
0 0.6 0.8
0.2 0.6 0.8
0.4 0.6 0.8
0.6 0.6 0.8
0.8 0.6 0.8
1 0.6 0.8
0 0.8 0.8
0.2 0.8 0.8
0.4 0.8 0.8
0.6 0.8 0.8
0.8 0.8 0.8
1 0.8 0.8
0 1 0.8
0.2 1 0.8
0.4 1 0.8
0.6 1 0.8
0.8 1 0.8
1 1 0.8
0 0 1
0.2 0 1
0.4 0 1
0.6 0 1
0.8 0 1
1 0 1
0 0.2 1
0.2 0.2 1
0.4 0.2 1
0.6 0.2 1
0.8 0.2 1
1 0.2 1
0 0.4 1
0.2 0.4 1
0.4 0.4 1
0.6 0.4 1
0.8 0.4 1
1 0.4 1
0 0.6 1
0.2 0.6 1
0.4 0.6 1
0.6 0.6 1
0.8 0.6 1
1 0.6 1
0 0.8 1
0.2 0.8 1
0.4 0.8 1
0.6 0.8 1
0.8 0.8 1
1 0.8 1
0 1 1
0.2 1 1
0.4 1 1
0.6 1 1
0.8 1 1
1 1 1

P	0 1 7 36 37 43
P	42 43 36 6 7 0
P	36 37 43 72 73 79
P	78 79 72 42 43 36
P	72 73 79 108 109 115
P	114 115 108 78 79 72
P	108 109 115 144 145 151
P	150 151 144 114 115 108
P	144 145 151 180 181 187
P	186 187 180 150 151 144
P	6 7 13 42 43 49
P	48 49 42 12 13 6
P	42 43 49 78 79 85
P	84 85 78 48 49 42
P	78 79 85 114 115 121
P	120 121 114 84 85 78
P	114 115 121 150 151 157
P	156 157 150 120 121 114
P	150 151 157 186 187 193
P	192 193 186 156 157 150
P	12 13 19 48 49 55
P	54 55 48 18 19 12
P	48 49 55 84 85 91
P	90 91 84 54 55 48
P	84 85 91 120 121 127
P	126 127 120 90 91 84
P	120 121 127 156 157 163
P	162 163 156 126 127 120
P	156 157 163 192 193 199
P	198 199 192 162 163 156
P	18 19 25 54 55 61
P	60 61 54 24 25 18
P	54 55 61 90 91 97
P	96 97 90 60 61 54
P	90 91 97 126 127 133
P	132 133 126 96 97 90
P	126 127 133 162 163 169
P	168 169 162 132 133 126
P	162 163 169 198 199 205
P	204 205 198 168 169 162
P	24 25 31 60 61 67
P	66 67 60 30 31 24
P	60 61 67 96 97 103
P	102 103 96 66 67 60
P	96 97 103 132 133 139
P	138 139 132 102 103 96
P	132 133 139 168 169 175
P	174 175 168 138 139 132
P	168 169 175 204 205 211
P	210 211 204 174 175 168
P	1 2 8 37 38 44
P	43 44 37 7 8 1
P	37 38 44 73 74 80
P	79 80 73 43 44 37
P	73 74 80 109 110 116
P	115 116 109 79 80 73
P	109 110 116 145 146 152
P	151 152 145 115 116 109
P	145 146 152 181 182 188
P	187 188 181 151 152 145
P	7 8 14 43 44 50
P	49 50 43 13 14 7
P	43 44 50 79 80 86
P	85 86 79 49 50 43
P	79 80 86 115 116 122
P	121 122 115 85 86 79
P	115 116 122 151 152 158
P	157 158 151 121 122 115
P	151 152 158 187 188 194
P	193 194 187 157 158 151
P	13 14 20 49 50 56
P	55 56 49 19 20 13
P	49 50 56 85 86 92
P	91 92 85 55 56 49
P	85 86 92 121 122 128
P	127 128 121 91 92 85
P	121 122 128 157 158 164
P	163 164 157 127 128 121
P	157 158 164 193 194 200
P	199 200 193 163 164 157
P	19 20 26 55 56 62
P	61 62 55 25 26 19
P	55 56 62 91 92 98
P	97 98 91 61 62 55
P	91 92 98 127 128 134
P	133 134 127 97 98 91
P	127 128 134 163 164 170
P	169 170 163 133 134 127
P	163 164 170 199 200 206
P	205 206 199 169 170 163
P	25 26 32 61 62 68
P	67 68 61 31 32 25
P	61 62 68 97 98 104
P	103 104 97 67 68 61
P	97 98 104 133 134 140
P	139 140 133 103 104 97
P	133 134 140 169 170 176
P	175 176 169 139 140 133
P	169 170 176 205 206 212
P	211 212 205 175 176 169
P	2 3 9 38 39 45
P	44 45 38 8 9 2
P	38 39 45 74 75 81
P	80 81 74 44 45 38
P	74 75 81 110 111 117
P	116 117 110 80 81 74
P	110 111 117 146 147 153
P	152 153 146 116 117 110
P	146 147 153 182 183 189
P	188 189 182 152 153 146
P	8 9 15 44 45 51
P	50 51 44 14 15 8
P	44 45 51 80 81 87
P	86 87 80 50 51 44
P	80 81 87 116 117 123
P	122 123 116 86 87 80
P	116 117 123 152 153 159
P	158 159 152 122 123 116
P	152 153 159 188 189 195
P	194 195 188 158 159 152
P	14 15 21 50 51 57
P	56 57 50 20 21 14
P	50 51 57 86 87 93
P	92 93 86 56 57 50
P	86 87 93 122 123 129
P	128 129 122 92 93 86
P	122 123 129 158 159 165
P	164 165 158 128 129 122
P	158 159 165 194 195 201
P	200 201 194 164 165 158
P	20 21 27 56 57 63
P	62 63 56 26 27 20
P	56 57 63 92 93 99
P	98 99 92 62 63 56
P	92 93 99 128 129 135
P	134 135 128 98 99 92
P	128 129 135 164 165 171
P	170 171 164 134 135 128
P	164 165 171 200 201 207
P	206 207 200 170 171 164
P	26 27 33 62 63 69
P	68 69 62 32 33 26
P	62 63 69 98 99 105
P	104 105 98 68 69 62
P	98 99 105 134 135 141
P	140 141 134 104 105 98
P	134 135 141 170 171 177
P	176 177 170 140 141 134
P	170 171 177 206 207 213
P	212 213 206 176 177 170
P	3 4 10 39 40 46
P	45 46 39 9 10 3
P	39 40 46 75 76 82
P	81 82 75 45 46 39
P	75 76 82 111 112 118
P	117 118 111 81 82 75
P	111 112 118 147 148 154
P	153 154 147 117 118 111
P	147 148 154 183 184 190
P	189 190 183 153 154 147
P	9 10 16 45 46 52
P	51 52 45 15 16 9
P	45 46 52 81 82 88
P	87 88 81 51 52 45
P	81 82 88 117 118 124
P	123 124 117 87 88 81
P	117 118 124 153 154 160
P	159 160 153 123 124 117
P	153 154 160 189 190 196
P	195 196 189 159 160 153
P	15 16 22 51 52 58
P	57 58 51 21 22 15
P	51 52 58 87 88 94
P	93 94 87 57 58 51
P	87 88 94 123 124 130
P	129 130 123 93 94 87
P	123 124 130 159 160 166
P	165 166 159 129 130 123
P	159 160 166 195 196 202
P	201 202 195 165 166 159
P	21 22 28 57 58 64
P	63 64 57 27 28 21
P	57 58 64 93 94 100
P	99 100 93 63 64 57
P	93 94 100 129 130 136
P	135 136 129 99 100 93
P	129 130 136 165 166 172
P	171 172 165 135 136 129
P	165 166 172 201 202 208
P	207 208 201 171 172 165
P	27 28 34 63 64 70
P	69 70 63 33 34 27
P	63 64 70 99 100 106
P	105 106 99 69 70 63
P	99 100 106 135 136 142
P	141 142 135 105 106 99
P	135 136 142 171 172 178
P	177 178 171 141 142 135
P	171 172 178 207 208 214
P	213 214 207 177 178 171
P	4 5 11 40 41 47
P	46 47 40 10 11 4
P	40 41 47 76 77 83
P	82 83 76 46 47 40
P	76 77 83 112 113 119
P	118 119 112 82 83 76
P	112 113 119 148 149 155
P	154 155 148 118 119 112
P	148 149 155 184 185 191
P	190 191 184 154 155 148
P	10 11 17 46 47 53
P	52 53 46 16 17 10
P	46 47 53 82 83 89
P	88 89 82 52 53 46
P	82 83 89 118 119 125
P	124 125 118 88 89 82
P	118 119 125 154 155 161
P	160 161 154 124 125 118
P	154 155 161 190 191 197
P	196 197 190 160 161 154
P	16 17 23 52 53 59
P	58 59 52 22 23 16
P	52 53 59 88 89 95
P	94 95 88 58 59 52
P	88 89 95 124 125 131
P	130 131 124 94 95 88
P	124 125 131 160 161 167
P	166 167 160 130 131 124
P	160 161 167 196 197 203
P	202 203 196 166 167 160
P	22 23 29 58 59 65
P	64 65 58 28 29 22
P	58 59 65 94 95 101
P	100 101 94 64 65 58
P	94 95 101 130 131 137
P	136 137 130 100 101 94
P	130 131 137 166 167 173
P	172 173 166 136 137 130
P	166 167 173 202 203 209
P	208 209 202 172 173 166
P	28 29 35 64 65 71
P	70 71 64 34 35 28
P	64 65 71 100 101 107
P	106 107 100 70 71 64
P	100 101 107 136 137 143
P	142 143 136 106 107 100
P	136 137 143 172 173 179
P	178 179 172 142 143 136
P	172 173 179 208 209 215
P	214 215 208 178 179 172

t	0 7 1
t	36 37 43
t	42 36 43
t	6 7 0
t	72 73 79
t	78 72 79
t	108 109 115
t	114 108 115
t	144 145 151
t	150 144 151
t	180 181 187
t	186 180 187
t	6 13 7
t	42 43 49
t	48 42 49
t	12 13 6
t	78 79 85
t	84 78 85
t	114 115 121
t	120 114 121
t	150 151 157
t	156 150 157
t	186 187 193
t	192 186 193
t	12 19 13
t	48 49 55
t	54 48 55
t	18 19 12
t	84 85 91
t	90 84 91
t	120 121 127
t	126 120 127
t	156 157 163
t	162 156 163
t	192 193 199
t	198 192 199
t	18 25 19
t	54 55 61
t	60 54 61
t	24 25 18
t	90 91 97
t	96 90 97
t	126 127 133
t	132 126 133
t	162 163 169
t	168 162 169
t	198 199 205
t	204 198 205
t	24 31 25
t	60 61 67
t	66 60 67
t	30 31 24
t	96 97 103
t	102 96 103
t	132 133 139
t	138 132 139
t	168 169 175
t	174 168 175
t	204 205 211
t	210 204 211
t	1 8 2
t	37 38 44
t	43 37 44
t	7 8 1
t	73 74 80
t	79 73 80
t	109 110 116
t	115 109 116
t	145 146 152
t	151 145 152
t	181 182 188
t	187 181 188
t	7 14 8
t	43 44 50
t	49 43 50
t	13 14 7
t	79 80 86
t	85 79 86
t	115 116 122
t	121 115 122
t	151 152 158
t	157 151 158
t	187 188 194
t	193 187 194
t	13 20 14
t	49 50 56
t	55 49 56
t	19 20 13
t	85 86 92
t	91 85 92
t	121 122 128
t	127 121 128
t	157 158 164
t	163 157 164
t	193 194 200
t	199 193 200
t	19 26 20
t	55 56 62
t	61 55 62
t	25 26 19
t	91 92 98
t	97 91 98
t	127 128 134
t	133 127 134
t	163 164 170
t	169 163 170
t	199 200 206
t	205 199 206
t	25 32 26
t	61 62 68
t	67 61 68
t	31 32 25
t	97 98 104
t	103 97 104
t	133 134 140
t	139 133 140
t	169 170 176
t	175 169 176
t	205 206 212
t	211 205 212
t	2 9 3
t	38 39 45
t	44 38 45
t	8 9 2
t	74 75 81
t	80 74 81
t	110 111 117
t	116 110 117
t	146 147 153
t	152 146 153
t	182 183 189
t	188 182 189
t	8 15 9
t	44 45 51
t	50 44 51
t	14 15 8
t	80 81 87
t	86 80 87
t	116 117 123
t	122 116 123
t	152 153 159
t	158 152 159
t	188 189 195
t	194 188 195
t	14 21 15
t	50 51 57
t	56 50 57
t	20 21 14
t	86 87 93
t	92 86 93
t	122 123 129
t	128 122 129
t	158 159 165
t	164 158 165
t	194 195 201
t	200 194 201
t	20 27 21
t	56 57 63
t	62 56 63
t	26 27 20
t	92 93 99
t	98 92 99
t	128 129 135
t	134 128 135
t	164 165 171
t	170 164 171
t	200 201 207
t	206 200 207
t	26 33 27
t	62 63 69
t	68 62 69
t	32 33 26
t	98 99 105
t	104 98 105
t	134 135 141
t	140 134 141
t	170 171 177
t	176 170 177
t	206 207 213
t	212 206 213
t	3 10 4
t	39 40 46
t	45 39 46
t	9 10 3
t	75 76 82
t	81 75 82
t	111 112 118
t	117 111 118
t	147 148 154
t	153 147 154
t	183 184 190
t	189 183 190
t	9 16 10
t	45 46 52
t	51 45 52
t	15 16 9
t	81 82 88
t	87 81 88
t	117 118 124
t	123 117 124
t	153 154 160
t	159 153 160
t	189 190 196
t	195 189 196
t	15 22 16
t	51 52 58
t	57 51 58
t	21 22 15
t	87 88 94
t	93 87 94
t	123 124 130
t	129 123 130
t	159 160 166
t	165 159 166
t	195 196 202
t	201 195 202
t	21 28 22
t	57 58 64
t	63 57 64
t	27 28 21
t	93 94 100
t	99 93 100
t	129 130 136
t	135 129 136
t	165 166 172
t	171 165 172
t	201 202 208
t	207 201 208
t	27 34 28
t	63 64 70
t	69 63 70
t	33 34 27
t	99 100 106
t	105 99 106
t	135 136 142
t	141 135 142
t	171 172 178
t	177 171 178
t	207 208 214
t	213 207 214
t	4 11 5
t	40 41 47
t	46 40 47
t	10 11 4
t	76 77 83
t	82 76 83
t	112 113 119
t	118 112 119
t	148 149 155
t	154 148 155
t	184 185 191
t	190 184 191
t	10 17 11
t	46 47 53
t	52 46 53
t	16 17 10
t	82 83 89
t	88 82 89
t	118 119 125
t	124 118 125
t	154 155 161
t	160 154 161
t	190 191 197
t	196 190 197
t	16 23 17
t	52 53 59
t	58 52 59
t	22 23 16
t	88 89 95
t	94 88 95
t	124 125 131
t	130 124 131
t	160 161 167
t	166 160 167
t	196 197 203
t	202 196 203
t	22 29 23
t	58 59 65
t	64 58 65
t	28 29 22
t	94 95 101
t	100 94 101
t	130 131 137
t	136 130 137
t	166 167 173
t	172 166 173
t	202 203 209
t	208 202 209
t	28 35 29
t	64 65 71
t	70 64 71
t	34 35 28
t	100 101 107
t	106 100 107
t	136 137 143
t	142 136 143
t	172 173 179
t	178 172 179
t	208 209 215
t	214 208 215
q	0 1 37 36
q	1 7 43 37
q	0 36 43 7
q	42 43 7 6
q	42 6 0 36
q	36 37 73 72
q	37 43 79 73
q	36 72 79 43
q	78 79 43 42
q	78 42 36 72
q	72 73 109 108
q	73 79 115 109
q	72 108 115 79
q	114 115 79 78
q	114 78 72 108
q	108 109 145 144
q	109 115 151 145
q	108 144 151 115
q	150 151 115 114
q	150 114 108 144
q	144 145 181 180
q	145 151 187 181
q	144 180 187 151
q	186 187 151 150
q	186 150 144 180
q	7 13 49 43
q	6 42 49 13
q	48 49 13 12
q	48 12 6 42
q	43 49 85 79
q	42 78 85 49
q	84 85 49 48
q	84 48 42 78
q	79 85 121 115
q	78 114 121 85
q	120 121 85 84
q	120 84 78 114
q	115 121 157 151
q	114 150 157 121
q	156 157 121 120
q	156 120 114 150
q	151 157 193 187
q	150 186 193 157
q	192 193 157 156
q	192 156 150 186
q	13 19 55 49
q	12 48 55 19
q	54 55 19 18
q	54 18 12 48
q	49 55 91 85
q	48 84 91 55
q	90 91 55 54
q	90 54 48 84
q	85 91 127 121
q	84 120 127 91
q	126 127 91 90
q	126 90 84 120
q	121 127 163 157
q	120 156 163 127
q	162 163 127 126
q	162 126 120 156
q	157 163 199 193
q	156 192 199 163
q	198 199 163 162
q	198 162 156 192
q	19 25 61 55
q	18 54 61 25
q	60 61 25 24
q	60 24 18 54
q	55 61 97 91
q	54 90 97 61
q	96 97 61 60
q	96 60 54 90
q	91 97 133 127
q	90 126 133 97
q	132 133 97 96
q	132 96 90 126
q	127 133 169 163
q	126 162 169 133
q	168 169 133 132
q	168 132 126 162
q	163 169 205 199
q	162 198 205 169
q	204 205 169 168
q	204 168 162 198
q	25 31 67 61
q	24 60 67 31
q	66 67 31 30
q	66 30 24 60
q	61 67 103 97
q	60 96 103 67
q	102 103 67 66
q	102 66 60 96
q	97 103 139 133
q	96 132 139 103
q	138 139 103 102
q	138 102 96 132
q	133 139 175 169
q	132 168 175 139
q	174 175 139 138
q	174 138 132 168
q	169 175 211 205
q	168 204 211 175
q	210 211 175 174
q	210 174 168 204
q	1 2 38 37
q	2 8 44 38
q	1 37 44 8
q	43 44 8 7
q	37 38 74 73
q	38 44 80 74
q	37 73 80 44
q	79 80 44 43
q	73 74 110 109
q	74 80 116 110
q	73 109 116 80
q	115 116 80 79
q	109 110 146 145
q	110 116 152 146
q	109 145 152 116
q	151 152 116 115
q	145 146 182 181
q	146 152 188 182
q	145 181 188 152
q	187 188 152 151
q	8 14 50 44
q	7 43 50 14
q	49 50 14 13
q	44 50 86 80
q	43 79 86 50
q	85 86 50 49
q	80 86 122 116
q	79 115 122 86
q	121 122 86 85
q	116 122 158 152
q	115 151 158 122
q	157 158 122 121
q	152 158 194 188
q	151 187 194 158
q	193 194 158 157
q	14 20 56 50
q	13 49 56 20
q	55 56 20 19
q	50 56 92 86
q	49 85 92 56
q	91 92 56 55
q	86 92 128 122
q	85 121 128 92
q	127 128 92 91
q	122 128 164 158
q	121 157 164 128
q	163 164 128 127
q	158 164 200 194
q	157 193 200 164
q	199 200 164 163
q	20 26 62 56
q	19 55 62 26
q	61 62 26 25
q	56 62 98 92
q	55 91 98 62
q	97 98 62 61
q	92 98 134 128
q	91 127 134 98
q	133 134 98 97
q	128 134 170 164
q	127 163 170 134
q	169 170 134 133
q	164 170 206 200
q	163 199 206 170
q	205 206 170 169
q	26 32 68 62
q	25 61 68 32
q	67 68 32 31
q	62 68 104 98
q	61 97 104 68
q	103 104 68 67
q	98 104 140 134
q	97 133 140 104
q	139 140 104 103
q	134 140 176 170
q	133 169 176 140
q	175 176 140 139
q	170 176 212 206
q	169 205 212 176
q	211 212 176 175
q	2 3 39 38
q	3 9 45 39
q	2 38 45 9
q	44 45 9 8
q	38 39 75 74
q	39 45 81 75
q	38 74 81 45
q	80 81 45 44
q	74 75 111 110
q	75 81 117 111
q	74 110 117 81
q	116 117 81 80
q	110 111 147 146
q	111 117 153 147
q	110 146 153 117
q	152 153 117 116
q	146 147 183 182
q	147 153 189 183
q	146 182 189 153
q	188 189 153 152
q	9 15 51 45
q	8 44 51 15
q	50 51 15 14
q	45 51 87 81
q	44 80 87 51
q	86 87 51 50
q	81 87 123 117
q	80 116 123 87
q	122 123 87 86
q	117 123 159 153
q	116 152 159 123
q	158 159 123 122
q	153 159 195 189
q	152 188 195 159
q	194 195 159 158
q	15 21 57 51
q	14 50 57 21
q	56 57 21 20
q	51 57 93 87
q	50 86 93 57
q	92 93 57 56
q	87 93 129 123
q	86 122 129 93
q	128 129 93 92
q	123 129 165 159
q	122 158 165 129
q	164 165 129 128
q	159 165 201 195
q	158 194 201 165
q	200 201 165 164
q	21 27 63 57
q	20 56 63 27
q	62 63 27 26
q	57 63 99 93
q	56 92 99 63
q	98 99 63 62
q	93 99 135 129
q	92 128 135 99
q	134 135 99 98
q	129 135 171 165
q	128 164 171 135
q	170 171 135 134
q	165 171 207 201
q	164 200 207 171
q	206 207 171 170
q	27 33 69 63
q	26 62 69 33
q	68 69 33 32
q	63 69 105 99
q	62 98 105 69
q	104 105 69 68
q	99 105 141 135
q	98 134 141 105
q	140 141 105 104
q	135 141 177 171
q	134 170 177 141
q	176 177 141 140
q	171 177 213 207
q	170 206 213 177
q	212 213 177 176
q	3 4 40 39
q	4 10 46 40
q	3 39 46 10
q	45 46 10 9
q	39 40 76 75
q	40 46 82 76
q	39 75 82 46
q	81 82 46 45
q	75 76 112 111
q	76 82 118 112
q	75 111 118 82
q	117 118 82 81
q	111 112 148 147
q	112 118 154 148
q	111 147 154 118
q	153 154 118 117
q	147 148 184 183
q	148 154 190 184
q	147 183 190 154
q	189 190 154 153
q	10 16 52 46
q	9 45 52 16
q	51 52 16 15
q	46 52 88 82
q	45 81 88 52
q	87 88 52 51
q	82 88 124 118
q	81 117 124 88
q	123 124 88 87
q	118 124 160 154
q	117 153 160 124
q	159 160 124 123
q	154 160 196 190
q	153 189 196 160
q	195 196 160 159
q	16 22 58 52
q	15 51 58 22
q	57 58 22 21
q	52 58 94 88
q	51 87 94 58
q	93 94 58 57
q	88 94 130 124
q	87 123 130 94
q	129 130 94 93
q	124 130 166 160
q	123 159 166 130
q	165 166 130 129
q	160 166 202 196
q	159 195 202 166
q	201 202 166 165
q	22 28 64 58
q	21 57 64 28
q	63 64 28 27
q	58 64 100 94
q	57 93 100 64
q	99 100 64 63
q	94 100 136 130
q	93 129 136 100
q	135 136 100 99
q	130 136 172 166
q	129 165 172 136
q	171 172 136 135
q	166 172 208 202
q	165 201 208 172
q	207 208 172 171
q	28 34 70 64
q	27 63 70 34
q	69 70 34 33
q	64 70 106 100
q	63 99 106 70
q	105 106 70 69
q	100 106 142 136
q	99 135 142 106
q	141 142 106 105
q	136 142 178 172
q	135 171 178 142
q	177 178 142 141
q	172 178 214 208
q	171 207 214 178
q	213 214 178 177
q	4 5 41 40
q	5 11 47 41
q	4 40 47 11
q	46 47 11 10
q	40 41 77 76
q	41 47 83 77
q	40 76 83 47
q	82 83 47 46
q	76 77 113 112
q	77 83 119 113
q	76 112 119 83
q	118 119 83 82
q	112 113 149 148
q	113 119 155 149
q	112 148 155 119
q	154 155 119 118
q	148 149 185 184
q	149 155 191 185
q	148 184 191 155
q	190 191 155 154
q	11 17 53 47
q	10 46 53 17
q	52 53 17 16
q	47 53 89 83
q	46 82 89 53
q	88 89 53 52
q	83 89 125 119
q	82 118 125 89
q	124 125 89 88
q	119 125 161 155
q	118 154 161 125
q	160 161 125 124
q	155 161 197 191
q	154 190 197 161
q	196 197 161 160
q	17 23 59 53
q	16 52 59 23
q	58 59 23 22
q	53 59 95 89
q	52 88 95 59
q	94 95 59 58
q	89 95 131 125
q	88 124 131 95
q	130 131 95 94
q	125 131 167 161
q	124 160 167 131
q	166 167 131 130
q	161 167 203 197
q	160 196 203 167
q	202 203 167 166
q	23 29 65 59
q	22 58 65 29
q	64 65 29 28
q	59 65 101 95
q	58 94 101 65
q	100 101 65 64
q	95 101 137 131
q	94 130 137 101
q	136 137 101 100
q	131 137 173 167
q	130 166 173 137
q	172 173 137 136
q	167 173 209 203
q	166 202 209 173
q	208 209 173 172
q	29 35 71 65
q	28 64 71 35
q	70 71 35 34
q	65 71 107 101
q	64 100 107 71
q	106 107 71 70
q	101 107 143 137
q	100 136 143 107
q	142 143 107 106
q	137 143 179 173
q	136 172 179 143
q	178 179 143 142
q	173 179 215 209
q	172 208 215 179
q	214 215 179 178
e	0 1
e	1 7
e	7 0
e	0 36
e	1 37
e	7 43
e	36 37
e	37 43
e	43 36
e	42 43
e	36 42
e	42 6
e	6 7
e	0 6
e	36 72
e	37 73
e	43 79
e	72 73
e	73 79
e	79 72
e	78 79
e	72 78
e	78 42
e	72 108
e	73 109
e	79 115
e	108 109
e	109 115
e	115 108
e	114 115
e	108 114
e	114 78
e	108 144
e	109 145
e	115 151
e	144 145
e	145 151
e	151 144
e	150 151
e	144 150
e	150 114
e	144 180
e	145 181
e	151 187
e	180 181
e	181 187
e	187 180
e	186 187
e	180 186
e	186 150
e	7 13
e	13 6
e	13 49
e	43 49
e	49 42
e	48 49
e	42 48
e	48 12
e	12 13
e	6 12
e	49 85
e	79 85
e	85 78
e	84 85
e	78 84
e	84 48
e	85 121
e	115 121
e	121 114
e	120 121
e	114 120
e	120 84
e	121 157
e	151 157
e	157 150
e	156 157
e	150 156
e	156 120
e	157 193
e	187 193
e	193 186
e	192 193
e	186 192
e	192 156
e	13 19
e	19 12
e	19 55
e	49 55
e	55 48
e	54 55
e	48 54
e	54 18
e	18 19
e	12 18
e	55 91
e	85 91
e	91 84
e	90 91
e	84 90
e	90 54
e	91 127
e	121 127
e	127 120
e	126 127
e	120 126
e	126 90
e	127 163
e	157 163
e	163 156
e	162 163
e	156 162
e	162 126
e	163 199
e	193 199
e	199 192
e	198 199
e	192 198
e	198 162
e	19 25
e	25 18
e	25 61
e	55 61
e	61 54
e	60 61
e	54 60
e	60 24
e	24 25
e	18 24
e	61 97
e	91 97
e	97 90
e	96 97
e	90 96
e	96 60
e	97 133
e	127 133
e	133 126
e	132 133
e	126 132
e	132 96
e	133 169
e	163 169
e	169 162
e	168 169
e	162 168
e	168 132
e	169 205
e	199 205
e	205 198
e	204 205
e	198 204
e	204 168
e	25 31
e	31 24
e	31 67
e	61 67
e	67 60
e	66 67
e	60 66
e	66 30
e	30 31
e	24 30
e	67 103
e	97 103
e	103 96
e	102 103
e	96 102
e	102 66
e	103 139
e	133 139
e	139 132
e	138 139
e	132 138
e	138 102
e	139 175
e	169 175
e	175 168
e	174 175
e	168 174
e	174 138
e	175 211
e	205 211
e	211 204
e	210 211
e	204 210
e	210 174
e	1 2
e	2 8
e	8 1
e	2 38
e	8 44
e	37 38
e	38 44
e	44 37
e	43 44
e	7 8
e	38 74
e	44 80
e	73 74
e	74 80
e	80 73
e	79 80
e	74 110
e	80 116
e	109 110
e	110 116
e	116 109
e	115 116
e	110 146
e	116 152
e	145 146
e	146 152
e	152 145
e	151 152
e	146 182
e	152 188
e	181 182
e	182 188
e	188 181
e	187 188
e	8 14
e	14 7
e	14 50
e	44 50
e	50 43
e	49 50
e	13 14
e	50 86
e	80 86
e	86 79
e	85 86
e	86 122
e	116 122
e	122 115
e	121 122
e	122 158
e	152 158
e	158 151
e	157 158
e	158 194
e	188 194
e	194 187
e	193 194
e	14 20
e	20 13
e	20 56
e	50 56
e	56 49
e	55 56
e	19 20
e	56 92
e	86 92
e	92 85
e	91 92
e	92 128
e	122 128
e	128 121
e	127 128
e	128 164
e	158 164
e	164 157
e	163 164
e	164 200
e	194 200
e	200 193
e	199 200
e	20 26
e	26 19
e	26 62
e	56 62
e	62 55
e	61 62
e	25 26
e	62 98
e	92 98
e	98 91
e	97 98
e	98 134
e	128 134
e	134 127
e	133 134
e	134 170
e	164 170
e	170 163
e	169 170
e	170 206
e	200 206
e	206 199
e	205 206
e	26 32
e	32 25
e	32 68
e	62 68
e	68 61
e	67 68
e	31 32
e	68 104
e	98 104
e	104 97
e	103 104
e	104 140
e	134 140
e	140 133
e	139 140
e	140 176
e	170 176
e	176 169
e	175 176
e	176 212
e	206 212
e	212 205
e	211 212
e	2 3
e	3 9
e	9 2
e	3 39
e	9 45
e	38 39
e	39 45
e	45 38
e	44 45
e	8 9
e	39 75
e	45 81
e	74 75
e	75 81
e	81 74
e	80 81
e	75 111
e	81 117
e	110 111
e	111 117
e	117 110
e	116 117
e	111 147
e	117 153
e	146 147
e	147 153
e	153 146
e	152 153
e	147 183
e	153 189
e	182 183
e	183 189
e	189 182
e	188 189
e	9 15
e	15 8
e	15 51
e	45 51
e	51 44
e	50 51
e	14 15
e	51 87
e	81 87
e	87 80
e	86 87
e	87 123
e	117 123
e	123 116
e	122 123
e	123 159
e	153 159
e	159 152
e	158 159
e	159 195
e	189 195
e	195 188
e	194 195
e	15 21
e	21 14
e	21 57
e	51 57
e	57 50
e	56 57
e	20 21
e	57 93
e	87 93
e	93 86
e	92 93
e	93 129
e	123 129
e	129 122
e	128 129
e	129 165
e	159 165
e	165 158
e	164 165
e	165 201
e	195 201
e	201 194
e	200 201
e	21 27
e	27 20
e	27 63
e	57 63
e	63 56
e	62 63
e	26 27
e	63 99
e	93 99
e	99 92
e	98 99
e	99 135
e	129 135
e	135 128
e	134 135
e	135 171
e	165 171
e	171 164
e	170 171
e	171 207
e	201 207
e	207 200
e	206 207
e	27 33
e	33 26
e	33 69
e	63 69
e	69 62
e	68 69
e	32 33
e	69 105
e	99 105
e	105 98
e	104 105
e	105 141
e	135 141
e	141 134
e	140 141
e	141 177
e	171 177
e	177 170
e	176 177
e	177 213
e	207 213
e	213 206
e	212 213
e	3 4
e	4 10
e	10 3
e	4 40
e	10 46
e	39 40
e	40 46
e	46 39
e	45 46
e	9 10
e	40 76
e	46 82
e	75 76
e	76 82
e	82 75
e	81 82
e	76 112
e	82 118
e	111 112
e	112 118
e	118 111
e	117 118
e	112 148
e	118 154
e	147 148
e	148 154
e	154 147
e	153 154
e	148 184
e	154 190
e	183 184
e	184 190
e	190 183
e	189 190
e	10 16
e	16 9
e	16 52
e	46 52
e	52 45
e	51 52
e	15 16
e	52 88
e	82 88
e	88 81
e	87 88
e	88 124
e	118 124
e	124 117
e	123 124
e	124 160
e	154 160
e	160 153
e	159 160
e	160 196
e	190 196
e	196 189
e	195 196
e	16 22
e	22 15
e	22 58
e	52 58
e	58 51
e	57 58
e	21 22
e	58 94
e	88 94
e	94 87
e	93 94
e	94 130
e	124 130
e	130 123
e	129 130
e	130 166
e	160 166
e	166 159
e	165 166
e	166 202
e	196 202
e	202 195
e	201 202
e	22 28
e	28 21
e	28 64
e	58 64
e	64 57
e	63 64
e	27 28
e	64 100
e	94 100
e	100 93
e	99 100
e	100 136
e	130 136
e	136 129
e	135 136
e	136 172
e	166 172
e	172 165
e	171 172
e	172 208
e	202 208
e	208 201
e	207 208
e	28 34
e	34 27
e	34 70
e	64 70
e	70 63
e	69 70
e	33 34
e	70 106
e	100 106
e	106 99
e	105 106
e	106 142
e	136 142
e	142 135
e	141 142
e	142 178
e	172 178
e	178 171
e	177 178
e	178 214
e	208 214
e	214 207
e	213 214
e	4 5
e	5 11
e	11 4
e	5 41
e	11 47
e	40 41
e	41 47
e	47 40
e	46 47
e	10 11
e	41 77
e	47 83
e	76 77
e	77 83
e	83 76
e	82 83
e	77 113
e	83 119
e	112 113
e	113 119
e	119 112
e	118 119
e	113 149
e	119 155
e	148 149
e	149 155
e	155 148
e	154 155
e	149 185
e	155 191
e	184 185
e	185 191
e	191 184
e	190 191
e	11 17
e	17 10
e	17 53
e	47 53
e	53 46
e	52 53
e	16 17
e	53 89
e	83 89
e	89 82
e	88 89
e	89 125
e	119 125
e	125 118
e	124 125
e	125 161
e	155 161
e	161 154
e	160 161
e	161 197
e	191 197
e	197 190
e	196 197
e	17 23
e	23 16
e	23 59
e	53 59
e	59 52
e	58 59
e	22 23
e	59 95
e	89 95
e	95 88
e	94 95
e	95 131
e	125 131
e	131 124
e	130 131
e	131 167
e	161 167
e	167 160
e	166 167
e	167 203
e	197 203
e	203 196
e	202 203
e	23 29
e	29 22
e	29 65
e	59 65
e	65 58
e	64 65
e	28 29
e	65 101
e	95 101
e	101 94
e	100 101
e	101 137
e	131 137
e	137 130
e	136 137
e	137 173
e	167 173
e	173 166
e	172 173
e	173 209
e	203 209
e	209 202
e	208 209
e	29 35
e	35 28
e	35 71
e	65 71
e	71 64
e	70 71
e	34 35
e	71 107
e	101 107
e	107 100
e	106 107
e	107 143
e	137 143
e	143 136
e	142 143
e	143 179
e	173 179
e	179 172
e	178 179
e	179 215
e	209 215
e	215 208
e	214 215

domain
bottom
2 2 50
0
3
12
15
24
27
36
39
48
51
60
63
72
75
84
87
96
99
108
111
120
123
132
135
144
147
156
159
168
171
180
183
192
195
204
207
216
219
228
231
240
243
252
255
264
267
276
279
288
291

domain
top
2 2 50
10
11
22
23
34
35
46
47
58
59
70
71
82
83
94
95
106
107
118
119
130
131
142
143
154
155
166
167
178
179
190
191
202
203
214
215
226
227
238
239
250
251
262
263
274
275
286
287
298
299

domain
left
2 2 25
300
305
310
315
320
405
409
413
417
421
485
489
493
497
501
565
569
573
577
581
645
649
653
657
661

domain
front
2 2 25
646
650
654
658
662
665
668
671
674
677
680
683
686
689
692
695
698
701
704
707
710
713
716
719
722

domain
right
2 2 25
387
391
395
399
403
472
475
478
481
484
552
555
558
561
564
632
635
638
641
644
712
715
718
721
724

domain
back
2 2 25
304
309
314
319
324
328
332
336
340
344
348
352
356
360
364
368
372
376
380
384
388
392
396
400
404

domain
boundary
2 2 200
0
3
12
15
24
27
36
39
48
51
60
63
72
75
84
87
96
99
108
111
120
123
132
135
144
147
156
159
168
171
180
183
192
195
204
207
216
219
228
231
240
243
252
255
264
267
276
279
288
291
10
11
22
23
34
35
46
47
58
59
70
71
82
83
94
95
106
107
118
119
130
131
142
143
154
155
166
167
178
179
190
191
202
203
214
215
226
227
238
239
250
251
262
263
274
275
286
287
298
299
300
305
310
315
320
405
409
413
417
421
485
489
493
497
501
565
569
573
577
581
645
649
653
657
661
646
650
654
658
662
665
668
671
674
677
680
683
686
689
692
695
698
701
704
707
710
713
716
719
722
387
391
395
399
403
472
475
478
481
484
552
555
558
561
564
632
635
638
641
644
712
715
718
721
724
304
309
314
319
324
328
332
336
340
344
348
352
356
360
364
368
372
376
380
384
388
392
396
400
404
