#!geo
mesh
4
header
 dimension 3
 nodes 216
 prisms 250
end header

0 0 0
0.2 0 0
0.4 0 0
0.6 0 0
0.8 0 0
1 0 0
0 0.2 0
0.2 0.2 0
0.4 0.2 0
0.6 0.2 0
0.8 0.2 0
1 0.2 0
0 0.4 0
0.2 0.4 0
0.4 0.4 0
0.6 0.4 0
0.8 0.4 0
1 0.4 0
0 0.6 0
0.2 0.6 0
0.4 0.6 0
0.6 0.6 0
0.8 0.6 0
1 0.6 0
0 0.8 0
0.2 0.8 0
0.4 0.8 0
0.6 0.8 0
0.8 0.8 0
1 0.8 0
0 1 0
0.2 1 0
0.4 1 0
0.6 1 0
0.8 1 0
1 1 0
0 0 0.2
0.2 0 0.2
0.4 0 0.2
0.6 0 0.2
0.8 0 0.2
1 0 0.2
0 0.2 0.2
0.2 0.2 0.2
0.4 0.2 0.2
0.6 0.2 0.2
0.8 0.2 0.2
1 0.2 0.2
0 0.4 0.2
0.2 0.4 0.2
0.4 0.4 0.2
0.6 0.4 0.2
0.8 0.4 0.2
1 0.4 0.2
0 0.6 0.2
0.2 0.6 0.2
0.4 0.6 0.2
0.6 0.6 0.2
0.8 0.6 0.2
1 0.6 0.2
0 0.8 0.2
0.2 0.8 0.2
0.4 0.8 0.2
0.6 0.8 0.2
0.8 0.8 0.2
1 0.8 0.2
0 1 0.2
0.2 1 0.2
0.4 1 0.2
0.6 1 0.2
0.8 1 0.2
1 1 0.2
0 0 0.4
0.2 0 0.4
0.4 0 0.4
0.6 0 0.4
0.8 0 0.4
1 0 0.4
0 0.2 0.4
0.2 0.2 0.4
0.4 0.2 0.4
0.6 0.2 0.4
0.8 0.2 0.4
1 0.2 0.4
0 0.4 0.4
0.2 0.4 0.4
0.4 0.4 0.4
0.6 0.4 0.4
0.8 0.4 0.4
1 0.4 0.4
0 0.6 0.4
0.2 0.6 0.4
0.4 0.6 0.4
0.6 0.6 0.4
0.8 0.6 0.4
1 0.6 0.4
0 0.8 0.4
0.2 0.8 0.4
0.4 0.8 0.4
0.6 0.8 0.4
0.8 0.8 0.4
1 0.8 0.4
0 1 0.4
0.2 1 0.4
0.4 1 0.4
0.6 1 0.4
0.8 1 0.4
1 1 0.4
0 0 0.6
0.2 0 0.6
0.4 0 0.6
0.6 0 0.6
0.8 0 0.6
1 0 0.6
0 0.2 0.6
0.2 0.2 0.6
0.4 0.2 0.6
0.6 0.2 0.6
0.8 0.2 0.6
1 0.2 0.6
0 0.4 0.6
0.2 0.4 0.6
0.4 0.4 0.6
0.6 0.4 0.6
0.8 0.4 0.6
1 0.4 0.6
0 0.6 0.6
0.2 0.6 0.6
0.4 0.6 0.6
0.6 0.6 0.6
0.8 0.6 0.6
1 0.6 0.6
0 0.8 0.6
0.2 0.8 0.6
0.4 0.8 0.6
0.6 0.8 0.6
0.8 0.8 0.6
1 0.8 0.6
0 1 0.6
0.2 1 0.6
0.4 1 0.6
0.6 1 0.6
0.8 1 0.6
1 1 0.6
0 0 0.8
0.2 0 0.8
0.4 0 0.8
0.6 0 0.8
0.8 0 0.8
1 0 0.8
0 0.2 0.8
0.2 0.2 0.8
0.4 0.2 0.8
0.6 0.2 0.8
0.8 0.2 0.8
1 0.2 0.8
0 0.4 0.8
0.2 0.4 0.8
0.4 0.4 0.8
0.6 0.4 0.8
0.8 0.4 0.8
1 0.4 0.8
0 0.6 0.8
0.2 0.6 0.8
0.4 0.6 0.8
0.6 0.6 0.8
0.8 0.6 0.8
1 0.6 0.8
0 0.8 0.8
0.2 0.8 0.8
0.4 0.8 0.8
0.6 0.8 0.8
0.8 0.8 0.8
1 0.8 0.8
0 1 0.8
0.2 1 0.8
0.4 1 0.8
0.6 1 0.8
0.8 1 0.8
1 1 0.8
0 0 1
0.2 0 1
0.4 0 1
0.6 0 1
0.8 0 1
1 0 1
0 0.2 1
0.2 0.2 1
0.4 0.2 1
0.6 0.2 1
0.8 0.2 1
1 0.2 1
0 0.4 1
0.2 0.4 1
0.4 0.4 1
0.6 0.4 1
0.8 0.4 1
1 0.4 1
0 0.6 1
0.2 0.6 1
0.4 0.6 1
0.6 0.6 1
0.8 0.6 1
1 0.6 1
0 0.8 1
0.2 0.8 1
0.4 0.8 1
0.6 0.8 1
0.8 0.8 1
1 0.8 1
0 1 1
0.2 1 1
0.4 1 1
0.6 1 1
0.8 1 1
1 1 1

P	0 1 7 36 37 43
P	42 43 36 6 7 0
P	36 37 43 72 73 79
P	78 79 72 42 43 36
P	72 73 79 108 109 115
P	114 115 108 78 79 72
P	108 109 115 144 145 151
P	150 151 144 114 115 108
P	144 145 151 180 181 187
P	186 187 180 150 151 144
P	6 7 13 42 43 49
P	48 49 42 12 13 6
P	42 43 49 78 79 85
P	84 85 78 48 49 42
P	78 79 85 114 115 121
P	120 121 114 84 85 78
P	114 115 121 150 151 157
P	156 157 150 120 121 114
P	150 151 157 186 187 193
P	192 193 186 156 157 150
P	12 13 19 48 49 55
P	54 55 48 18 19 12
P	48 49 55 84 85 91
P	90 91 84 54 55 48
P	84 85 91 120 121 127
P	126 127 120 90 91 84
P	120 121 127 156 157 163
P	162 163 156 126 127 120
P	156 157 163 192 193 199
P	198 199 192 162 163 156
P	18 19 25 54 55 61
P	60 61 54 24 25 18
P	54 55 61 90 91 97
P	96 97 90 60 61 54
P	90 91 97 126 127 133
P	132 133 126 96 97 90
P	126 127 133 162 163 169
P	168 169 162 132 133 126
P	162 163 169 198 199 205
P	204 205 198 168 169 162
P	24 25 31 60 61 67
P	66 67 60 30 31 24
P	60 61 67 96 97 103
P	102 103 96 66 67 60
P	96 97 103 132 133 139
P	138 139 132 102 103 96
P	132 133 139 168 169 175
P	174 175 168 138 139 132
P	168 169 175 204 205 211
P	210 211 204 174 175 168
P	1 2 8 37 38 44
P	43 44 37 7 8 1
P	37 38 44 73 74 80
P	79 80 73 43 44 37
P	73 74 80 109 110 116
P	115 116 109 79 80 73
P	109 110 116 145 146 152
P	151 152 145 115 116 109
P	145 146 152 181 182 188
P	187 188 181 151 152 145
P	7 8 14 43 44 50
P	49 50 43 13 14 7
P	43 44 50 79 80 86
P	85 86 79 49 50 43
P	79 80 86 115 116 122
P	121 122 115 85 86 79
P	115 116 122 151 152 158
P	157 158 151 121 122 115
P	151 152 158 187 188 194
P	193 194 187 157 158 151
P	13 14 20 49 50 56
P	55 56 49 19 20 13
P	49 50 56 85 86 92
P	91 92 85 55 56 49
P	85 86 92 121 122 128
P	127 128 121 91 92 85
P	121 122 128 157 158 164
P	163 164 157 127 128 121
P	157 158 164 193 194 200
P	199 200 193 163 164 157
P	19 20 26 55 56 62
P	61 62 55 25 26 19
P	55 56 62 91 92 98
P	97 98 91 61 62 55
P	91 92 98 127 128 134
P	133 134 127 97 98 91
P	127 128 134 163 164 170
P	169 170 163 133 134 127
P	163 164 170 199 200 206
P	205 206 199 169 170 163
P	25 26 32 61 62 68
P	67 68 61 31 32 25
P	61 62 68 97 98 104
P	103 104 97 67 68 61
P	97 98 104 133 134 140
P	139 140 133 103 104 97
P	133 134 140 169 170 176
P	175 176 169 139 140 133
P	169 170 176 205 206 212
P	211 212 205 175 176 169
P	2 3 9 38 39 45
P	44 45 38 8 9 2
P	38 39 45 74 75 81
P	80 81 74 44 45 38
P	74 75 81 110 111 117
P	116 117 110 80 81 74
P	110 111 117 146 147 153
P	152 153 146 116 117 110
P	146 147 153 182 183 189
P	188 189 182 152 153 146
P	8 9 15 44 45 51
P	50 51 44 14 15 8
P	44 45 51 80 81 87
P	86 87 80 50 51 44
P	80 81 87 116 117 123
P	122 123 116 86 87 80
P	116 117 123 152 153 159
P	158 159 152 122 123 116
P	152 153 159 188 189 195
P	194 195 188 158 159 152
P	14 15 21 50 51 57
P	56 57 50 20 21 14
P	50 51 57 86 87 93
P	92 93 86 56 57 50
P	86 87 93 122 123 129
P	128 129 122 92 93 86
P	122 123 129 158 159 165
P	164 165 158 128 129 122
P	158 159 165 194 195 201
P	200 201 194 164 165 158
P	20 21 27 56 57 63
P	62 63 56 26 27 20
P	56 57 63 92 93 99
P	98 99 92 62 63 56
P	92 93 99 128 129 135
P	134 135 128 98 99 92
P	128 129 135 164 165 171
P	170 171 164 134 135 128
P	164 165 171 200 201 207
P	206 207 200 170 171 164
P	26 27 33 62 63 69
P	68 69 62 32 33 26
P	62 63 69 98 99 105
P	104 105 98 68 69 62
P	98 99 105 134 135 141
P	140 141 134 104 105 98
P	134 135 141 170 171 177
P	176 177 170 140 141 134
P	170 171 177 206 207 213
P	212 213 206 176 177 170
P	3 4 10 39 40 46
P	45 46 39 9 10 3
P	39 40 46 75 76 82
P	81 82 75 45 46 39
P	75 76 82 111 112 118
P	117 118 111 81 82 75
P	111 112 118 147 148 154
P	153 154 147 117 118 111
P	147 148 154 183 184 190
P	189 190 183 153 154 147
P	9 10 16 45 46 52
P	51 52 45 15 16 9
P	45 46 52 81 82 88
P	87 88 81 51 52 45
P	81 82 88 117 118 124
P	123 124 117 87 88 81
P	117 118 124 153 154 160
P	159 160 153 123 124 117
P	153 154 160 189 190 196
P	195 196 189 159 160 153
P	15 16 22 51 52 58
P	57 58 51 21 22 15
P	51 52 58 87 88 94
P	93 94 87 57 58 51
P	87 88 94 123 124 130
P	129 130 123 93 94 87
P	123 124 130 159 160 166
P	165 166 159 129 130 123
P	159 160 166 195 196 202
P	201 202 195 165 166 159
P	21 22 28 57 58 64
P	63 64 57 27 28 21
P	57 58 64 93 94 100
P	99 100 93 63 64 57
P	93 94 100 129 130 136
P	135 136 129 99 100 93
P	129 130 136 165 166 172
P	171 172 165 135 136 129
P	165 166 172 201 202 208
P	207 208 201 171 172 165
P	27 28 34 63 64 70
P	69 70 63 33 34 27
P	63 64 70 99 100 106
P	105 106 99 69 70 63
P	99 100 106 135 136 142
P	141 142 135 105 106 99
P	135 136 142 171 172 178
P	177 178 171 141 142 135
P	171 172 178 207 208 214
P	213 214 207 177 178 171
P	4 5 11 40 41 47
P	46 47 40 10 11 4
P	40 41 47 76 77 83
P	82 83 76 46 47 40
P	76 77 83 112 113 119
P	118 119 112 82 83 76
P	112 113 119 148 149 155
P	154 155 148 118 119 112
P	148 149 155 184 185 191
P	190 191 184 154 155 148
P	10 11 17 46 47 53
P	52 53 46 16 17 10
P	46 47 53 82 83 89
P	88 89 82 52 53 46
P	82 83 89 118 119 125
P	124 125 118 88 89 82
P	118 119 125 154 155 161
P	160 161 154 124 125 118
P	154 155 161 190 191 197
P	196 197 190 160 161 154
P	16 17 23 52 53 59
P	58 59 52 22 23 16
P	52 53 59 88 89 95
P	94 95 88 58 59 52
P	88 89 95 124 125 131
P	130 131 124 94 95 88
P	124 125 131 160 161 167
P	166 167 160 130 131 124
P	160 161 167 196 197 203
P	202 203 196 166 167 160
P	22 23 29 58 59 65
P	64 65 58 28 29 22
P	58 59 65 94 95 101
P	100 101 94 64 65 58
P	94 95 101 130 131 137
P	136 137 130 100 101 94
P	130 131 137 166 167 173
P	172 173 166 136 137 130
P	166 167 173 202 203 209
P	208 209 202 172 173 166
P	28 29 35 64 65 71
P	70 71 64 34 35 28
P	64 65 71 100 101 107
P	106 107 100 70 71 64
P	100 101 107 136 137 143
P	142 143 136 106 107 100
P	136 137 143 172 173 179
P	178 179 172 142 143 136
P	172 173 179 208 209 215
P	214 215 208 178 179 172

domain
bottom
1 2 50
t	0 7 1
t	0 6 7
t	6 13 7
t	6 12 13
t	12 19 13
t	12 18 19
t	18 25 19
t	18 24 25
t	24 31 25
t	24 30 31
t	1 8 2
t	1 7 8
t	7 14 8
t	7 13 14
t	13 20 14
t	13 19 20
t	19 26 20
t	19 25 26
t	25 32 26
t	25 31 32
t	2 9 3
t	2 8 9
t	8 15 9
t	8 14 15
t	14 21 15
t	14 20 21
t	20 27 21
t	20 26 27
t	26 33 27
t	26 32 33
t	3 10 4
t	3 9 10
t	9 16 10
t	9 15 16
t	15 22 16
t	15 21 22
t	21 28 22
t	21 27 28
t	27 34 28
t	27 33 34
t	4 11 5
t	4 10 11
t	10 17 11
t	10 16 17
t	16 23 17
t	16 22 23
t	22 29 23
t	22 28 29
t	28 35 29
t	28 34 35

domain
top
1 2 50
t	180 181 187
t	180 187 186
t	186 187 193
t	186 193 192
t	192 193 199
t	192 199 198
t	198 199 205
t	198 205 204
t	204 205 211
t	204 211 210
t	181 182 188
t	181 188 187
t	187 188 194
t	187 194 193
t	193 194 200
t	193 200 199
t	199 200 206
t	199 206 205
t	205 206 212
t	205 212 211
t	182 183 189
t	182 189 188
t	188 189 195
t	188 195 194
t	194 195 201
t	194 201 200
t	200 201 207
t	200 207 206
t	206 207 213
t	206 213 212
t	183 184 190
t	183 190 189
t	189 190 196
t	189 196 195
t	195 196 202
t	195 202 201
t	201 202 208
t	201 208 207
t	207 208 214
t	207 214 213
t	184 185 191
t	184 191 190
t	190 191 197
t	190 197 196
t	196 197 203
t	196 203 202
t	202 203 209
t	202 209 208
t	208 209 215
t	208 215 214

domain
left
1 2 25
q	0 1 37 36
q	36 37 73 72
q	72 73 109 108
q	108 109 145 144
q	144 145 181 180
q	1 2 38 37
q	37 38 74 73
q	73 74 110 109
q	109 110 146 145
q	145 146 182 181
q	2 3 39 38
q	38 39 75 74
q	74 75 111 110
q	110 111 147 146
q	146 147 183 182
q	3 4 40 39
q	39 40 76 75
q	75 76 112 111
q	111 112 148 147
q	147 148 184 183
q	4 5 41 40
q	40 41 77 76
q	76 77 113 112
q	112 113 149 148
q	148 149 185 184

domain
front
1 2 25
q	5 11 47 41
q	41 47 83 77
q	77 83 119 113
q	113 119 155 149
q	149 155 191 185
q	11 17 53 47
q	47 53 89 83
q	83 89 125 119
q	119 125 161 155
q	155 161 197 191
q	17 23 59 53
q	53 59 95 89
q	89 95 131 125
q	125 131 167 161
q	161 167 203 197
q	23 29 65 59
q	59 65 101 95
q	95 101 137 131
q	131 137 173 167
q	167 173 209 203
q	29 35 71 65
q	65 71 107 101
q	101 107 143 137
q	137 143 179 173
q	173 179 215 209

domain
right
1 2 25
q	30 66 67 31
q	66 102 103 67
q	102 138 139 103
q	138 174 175 139
q	174 210 211 175
q	31 67 68 32
q	67 103 104 68
q	103 139 140 104
q	139 175 176 140
q	175 211 212 176
q	32 68 69 33
q	68 104 105 69
q	104 140 141 105
q	140 176 177 141
q	176 212 213 177
q	33 69 70 34
q	69 105 106 70
q	105 141 142 106
q	141 177 178 142
q	177 213 214 178
q	34 70 71 35
q	70 106 107 71
q	106 142 143 107
q	142 178 179 143
q	178 214 215 179

domain
back
1 2 25
q	0 36 42 6
q	36 72 78 42
q	72 108 114 78
q	108 144 150 114
q	144 180 186 150
q	6 42 48 12
q	42 78 84 48
q	78 114 120 84
q	114 150 156 120
q	150 186 192 156
q	12 48 54 18
q	48 84 90 54
q	84 120 126 90
q	120 156 162 126
q	156 192 198 162
q	18 54 60 24
q	54 90 96 60
q	90 126 132 96
q	126 162 168 132
q	162 198 204 168
q	24 60 66 30
q	60 96 102 66
q	96 132 138 102
q	132 168 174 138
q	168 204 210 174

domain
boundary
1 2 200
t	0 7 1
t	0 6 7
t	6 13 7
t	6 12 13
t	12 19 13
t	12 18 19
t	18 25 19
t	18 24 25
t	24 31 25
t	24 30 31
t	1 8 2
t	1 7 8
t	7 14 8
t	7 13 14
t	13 20 14
t	13 19 20
t	19 26 20
t	19 25 26
t	25 32 26
t	25 31 32
t	2 9 3
t	2 8 9
t	8 15 9
t	8 14 15
t	14 21 15
t	14 20 21
t	20 27 21
t	20 26 27
t	26 33 27
t	26 32 33
t	3 10 4
t	3 9 10
t	9 16 10
t	9 15 16
t	15 22 16
t	15 21 22
t	21 28 22
t	21 27 28
t	27 34 28
t	27 33 34
t	4 11 5
t	4 10 11
t	10 17 11
t	10 16 17
t	16 23 17
t	16 22 23
t	22 29 23
t	22 28 29
t	28 35 29
t	28 34 35
t	180 181 187
t	180 187 186
t	186 187 193
t	186 193 192
t	192 193 199
t	192 199 198
t	198 199 205
t	198 205 204
t	204 205 211
t	204 211 210
t	181 182 188
t	181 188 187
t	187 188 194
t	187 194 193
t	193 194 200
t	193 200 199
t	199 200 206
t	199 206 205
t	205 206 212
t	205 212 211
t	182 183 189
t	182 189 188
t	188 189 195
t	188 195 194
t	194 195 201
t	194 201 200
t	200 201 207
t	200 207 206
t	206 207 213
t	206 213 212
t	183 184 190
t	183 190 189
t	189 190 196
t	189 196 195
t	195 196 202
t	195 202 201
t	201 202 208
t	201 208 207
t	207 208 214
t	207 214 213
t	184 185 191
t	184 191 190
t	190 191 197
t	190 197 196
t	196 197 203
t	196 203 202
t	202 203 209
t	202 209 208
t	208 209 215
t	208 215 214
q	0 1 37 36
q	36 37 73 72
q	72 73 109 108
q	108 109 145 144
q	144 145 181 180
q	1 2 38 37
q	37 38 74 73
q	73 74 110 109
q	109 110 146 145
q	145 146 182 181
q	2 3 39 38
q	38 39 75 74
q	74 75 111 110
q	110 111 147 146
q	146 147 183 182
q	3 4 40 39
q	39 40 76 75
q	75 76 112 111
q	111 112 148 147
q	147 148 184 183
q	4 5 41 40
q	40 41 77 76
q	76 77 113 112
q	112 113 149 148
q	148 149 185 184
q	5 11 47 41
q	41 47 83 77
q	77 83 119 113
q	113 119 155 149
q	149 155 191 185
q	11 17 53 47
q	47 53 89 83
q	83 89 125 119
q	119 125 161 155
q	155 161 197 191
q	17 23 59 53
q	53 59 95 89
q	89 95 131 125
q	125 131 167 161
q	161 167 203 197
q	23 29 65 59
q	59 65 101 95
q	95 101 137 131
q	131 137 173 167
q	167 173 209 203
q	29 35 71 65
q	65 71 107 101
q	101 107 143 137
q	137 143 179 173
q	173 179 215 209
q	30 66 67 31
q	66 102 103 67
q	102 138 139 103
q	138 174 175 139
q	174 210 211 175
q	31 67 68 32
q	67 103 104 68
q	103 139 140 104
q	139 175 176 140
q	175 211 212 176
q	32 68 69 33
q	68 104 105 69
q	104 140 141 105
q	140 176 177 141
q	176 212 213 177
q	33 69 70 34
q	69 105 106 70
q	105 141 142 106
q	141 177 178 142
q	177 213 214 178
q	34 70 71 35
q	70 106 107 71
q	106 142 143 107
q	142 178 179 143
q	178 214 215 179
q	0 36 42 6
q	36 72 78 42
q	72 108 114 78
q	108 144 150 114
q	144 180 186 150
q	6 42 48 12
q	42 78 84 48
q	78 114 120 84
q	114 150 156 120
q	150 186 192 156
q	12 48 54 18
q	48 84 90 54
q	84 120 126 90
q	120 156 162 126
q	156 192 198 162
q	18 54 60 24
q	54 90 96 60
q	90 126 132 96
q	126 162 168 132
q	162 198 204 168
q	24 60 66 30
q	60 96 102 66
q	96 132 138 102
q	132 168 174 138
q	168 204 210 174

