#!geo

mesh
4
header
 dimension 3
 nodes	49
 quadrangles	36
 edges	84
end header

0 1 0
0.166666666666667 1 0
0.333333333333333 1 0
0.5 1 0
0.666666666666667 1 0
0.833333333333333 1 0
1 1 0
0 1 0.166666666666667
0.166666666666667 1 0.166666666666667
0.333333333333333 1 0.166666666666667
0.5 1 0.166666666666667
0.666666666666667 1 0.166666666666667
0.833333333333333 1 0.166666666666667
1 1 0.166666666666667
0 1 0.333333333333333
0.166666666666667 1 0.333333333333333
0.333333333333333 1 0.333333333333333
0.5 1 0.333333333333333
0.666666666666667 1 0.333333333333333
0.833333333333333 1 0.333333333333333
1 1 0.333333333333333
0 1 0.5
0.166666666666667 1 0.5
0.333333333333333 1 0.5
0.5 1 0.5
0.666666666666667 1 0.5
0.833333333333333 1 0.5
1 1 0.5
0 1 0.666666666666667
0.166666666666667 1 0.666666666666667
0.333333333333333 1 0.666666666666667
0.5 1 0.666666666666667
0.666666666666667 1 0.666666666666667
0.833333333333333 1 0.666666666666667
1 1 0.666666666666667
0 1 0.833333333333333
0.166666666666667 1 0.833333333333333
0.333333333333333 1 0.833333333333333
0.5 1 0.833333333333333
0.666666666666667 1 0.833333333333333
0.833333333333333 1 0.833333333333333
1 1 0.833333333333333
0 1 1
0.166666666666667 1 1
0.333333333333333 1 1
0.5 1 1
0.666666666666667 1 1
0.833333333333333 1 1
1 1 1

q	1 0 7 8
q	8 7 14 15
q	15 14 21 22
q	22 21 28 29
q	29 28 35 36
q	36 35 42 43
q	2 1 8 9
q	9 8 15 16
q	16 15 22 23
q	23 22 29 30
q	30 29 36 37
q	37 36 43 44
q	3 2 9 10
q	10 9 16 17
q	17 16 23 24
q	24 23 30 31
q	31 30 37 38
q	38 37 44 45
q	4 3 10 11
q	11 10 17 18
q	18 17 24 25
q	25 24 31 32
q	32 31 38 39
q	39 38 45 46
q	5 4 11 12
q	12 11 18 19
q	19 18 25 26
q	26 25 32 33
q	33 32 39 40
q	40 39 46 47
q	6 5 12 13
q	13 12 19 20
q	20 19 26 27
q	27 26 33 34
q	34 33 40 41
q	41 40 47 48

e	1 0
e	1 8
e	0 7
e	8 7
e	8 15
e	7 14
e	15 14
e	15 22
e	14 21
e	22 21
e	22 29
e	21 28
e	29 28
e	29 36
e	28 35
e	36 35
e	36 43
e	35 42
e	43 42
e	2 1
e	2 9
e	9 8
e	9 16
e	16 15
e	16 23
e	23 22
e	23 30
e	30 29
e	30 37
e	37 36
e	37 44
e	44 43
e	3 2
e	3 10
e	10 9
e	10 17
e	17 16
e	17 24
e	24 23
e	24 31
e	31 30
e	31 38
e	38 37
e	38 45
e	45 44
e	4 3
e	4 11
e	11 10
e	11 18
e	18 17
e	18 25
e	25 24
e	25 32
e	32 31
e	32 39
e	39 38
e	39 46
e	46 45
e	5 4
e	5 12
e	12 11
e	12 19
e	19 18
e	19 26
e	26 25
e	26 33
e	33 32
e	33 40
e	40 39
e	40 47
e	47 46
e	6 5
e	6 13
e	13 12
e	13 20
e	20 19
e	20 27
e	27 26
e	27 34
e	34 33
e	34 41
e	41 40
e	41 48
e	48 47

domain
boundary
2 2 36
0
1
2
3
4
5
6
7
8
9
10
11
12
13
14
15
16
17
18
19
20
21
22
23
24
25
26
27
28
29
30
31
32
33
34
35
