#!geo

mesh
4
header
 dimension 3
 nodes	121
 triangles	200
 edges	320
end header

0 1 0
0.1 1 0
0.2 1 0
0.3 1 0
0.4 1 0
0.5 1 0
0.6 1 0
0.7 1 0
0.8 1 0
0.9 1 0
1 1 0
0 1 0.1
0.1 1 0.1
0.2 1 0.1
0.3 1 0.1
0.4 1 0.1
0.5 1 0.1
0.6 1 0.1
0.7 1 0.1
0.8 1 0.1
0.9 1 0.1
1 1 0.1
0 1 0.2
0.1 1 0.2
0.2 1 0.2
0.3 1 0.2
0.4 1 0.2
0.5 1 0.2
0.6 1 0.2
0.7 1 0.2
0.8 1 0.2
0.9 1 0.2
1 1 0.2
0 1 0.3
0.1 1 0.3
0.2 1 0.3
0.3 1 0.3
0.4 1 0.3
0.5 1 0.3
0.6 1 0.3
0.7 1 0.3
0.8 1 0.3
0.9 1 0.3
1 1 0.3
0 1 0.4
0.1 1 0.4
0.2 1 0.4
0.3 1 0.4
0.4 1 0.4
0.5 1 0.4
0.6 1 0.4
0.7 1 0.4
0.8 1 0.4
0.9 1 0.4
1 1 0.4
0 1 0.5
0.1 1 0.5
0.2 1 0.5
0.3 1 0.5
0.4 1 0.5
0.5 1 0.5
0.6 1 0.5
0.7 1 0.5
0.8 1 0.5
0.9 1 0.5
1 1 0.5
0 1 0.6
0.1 1 0.6
0.2 1 0.6
0.3 1 0.6
0.4 1 0.6
0.5 1 0.6
0.6 1 0.6
0.7 1 0.6
0.8 1 0.6
0.9 1 0.6
1 1 0.6
0 1 0.7
0.1 1 0.7
0.2 1 0.7
0.3 1 0.7
0.4 1 0.7
0.5 1 0.7
0.6 1 0.7
0.7 1 0.7
0.8 1 0.7
0.9 1 0.7
1 1 0.7
0 1 0.8
0.1 1 0.8
0.2 1 0.8
0.3 1 0.8
0.4 1 0.8
0.5 1 0.8
0.6 1 0.8
0.7 1 0.8
0.8 1 0.8
0.9 1 0.8
1 1 0.8
0 1 0.9
0.1 1 0.9
0.2 1 0.9
0.3 1 0.9
0.4 1 0.9
0.5 1 0.9
0.6 1 0.9
0.7 1 0.9
0.8 1 0.9
0.9 1 0.9
1 1 0.9
0 1 1
0.1 1 1
0.2 1 1
0.3 1 1
0.4 1 1
0.5 1 1
0.6 1 1
0.7 1 1
0.8 1 1
0.9 1 1
1 1 1

t	12 1 0
t	11 12 0
t	23 12 11
t	22 23 11
t	34 23 22
t	33 34 22
t	45 34 33
t	44 45 33
t	56 45 44
t	55 56 44
t	67 56 55
t	66 67 55
t	78 67 66
t	77 78 66
t	89 78 77
t	88 89 77
t	100 89 88
t	99 100 88
t	111 100 99
t	110 111 99
t	13 2 1
t	12 13 1
t	24 13 12
t	23 24 12
t	35 24 23
t	34 35 23
t	46 35 34
t	45 46 34
t	57 46 45
t	56 57 45
t	68 57 56
t	67 68 56
t	79 68 67
t	78 79 67
t	90 79 78
t	89 90 78
t	101 90 89
t	100 101 89
t	112 101 100
t	111 112 100
t	14 3 2
t	13 14 2
t	25 14 13
t	24 25 13
t	36 25 24
t	35 36 24
t	47 36 35
t	46 47 35
t	58 47 46
t	57 58 46
t	69 58 57
t	68 69 57
t	80 69 68
t	79 80 68
t	91 80 79
t	90 91 79
t	102 91 90
t	101 102 90
t	113 102 101
t	112 113 101
t	15 4 3
t	14 15 3
t	26 15 14
t	25 26 14
t	37 26 25
t	36 37 25
t	48 37 36
t	47 48 36
t	59 48 47
t	58 59 47
t	70 59 58
t	69 70 58
t	81 70 69
t	80 81 69
t	92 81 80
t	91 92 80
t	103 92 91
t	102 103 91
t	114 103 102
t	113 114 102
t	16 5 4
t	15 16 4
t	27 16 15
t	26 27 15
t	38 27 26
t	37 38 26
t	49 38 37
t	48 49 37
t	60 49 48
t	59 60 48
t	71 60 59
t	70 71 59
t	82 71 70
t	81 82 70
t	93 82 81
t	92 93 81
t	104 93 92
t	103 104 92
t	115 104 103
t	114 115 103
t	17 6 5
t	16 17 5
t	28 17 16
t	27 28 16
t	39 28 27
t	38 39 27
t	50 39 38
t	49 50 38
t	61 50 49
t	60 61 49
t	72 61 60
t	71 72 60
t	83 72 71
t	82 83 71
t	94 83 82
t	93 94 82
t	105 94 93
t	104 105 93
t	116 105 104
t	115 116 104
t	18 7 6
t	17 18 6
t	29 18 17
t	28 29 17
t	40 29 28
t	39 40 28
t	51 40 39
t	50 51 39
t	62 51 50
t	61 62 50
t	73 62 61
t	72 73 61
t	84 73 72
t	83 84 72
t	95 84 83
t	94 95 83
t	106 95 94
t	105 106 94
t	117 106 105
t	116 117 105
t	19 8 7
t	18 19 7
t	30 19 18
t	29 30 18
t	41 30 29
t	40 41 29
t	52 41 40
t	51 52 40
t	63 52 51
t	62 63 51
t	74 63 62
t	73 74 62
t	85 74 73
t	84 85 73
t	96 85 84
t	95 96 84
t	107 96 95
t	106 107 95
t	118 107 106
t	117 118 106
t	20 9 8
t	19 20 8
t	31 20 19
t	30 31 19
t	42 31 30
t	41 42 30
t	53 42 41
t	52 53 41
t	64 53 52
t	63 64 52
t	75 64 63
t	74 75 63
t	86 75 74
t	85 86 74
t	97 86 85
t	96 97 85
t	108 97 96
t	107 108 96
t	119 108 107
t	118 119 107
t	21 10 9
t	20 21 9
t	32 21 20
t	31 32 20
t	43 32 31
t	42 43 31
t	54 43 42
t	53 54 42
t	65 54 53
t	64 65 53
t	76 65 64
t	75 76 64
t	87 76 75
t	86 87 75
t	98 87 86
t	97 98 86
t	109 98 97
t	108 109 97
t	120 109 108
t	119 120 108

e	12 1
e	12 11
e	11 0
e	12 0
e	1 0
e	23 12
e	23 22
e	22 11
e	23 11
e	34 23
e	34 33
e	33 22
e	34 22
e	45 34
e	45 44
e	44 33
e	45 33
e	56 45
e	56 55
e	55 44
e	56 44
e	67 56
e	67 66
e	66 55
e	67 55
e	78 67
e	78 77
e	77 66
e	78 66
e	89 78
e	89 88
e	88 77
e	89 77
e	100 89
e	100 99
e	99 88
e	100 88
e	111 100
e	110 111
e	110 99
e	111 99
e	13 2
e	13 12
e	13 1
e	2 1
e	24 13
e	24 23
e	24 12
e	35 24
e	35 34
e	35 23
e	46 35
e	46 45
e	46 34
e	57 46
e	57 56
e	57 45
e	68 57
e	68 67
e	68 56
e	79 68
e	79 78
e	79 67
e	90 79
e	90 89
e	90 78
e	101 90
e	101 100
e	101 89
e	112 101
e	111 112
e	112 100
e	14 3
e	14 13
e	14 2
e	3 2
e	25 14
e	25 24
e	25 13
e	36 25
e	36 35
e	36 24
e	47 36
e	47 46
e	47 35
e	58 47
e	58 57
e	58 46
e	69 58
e	69 68
e	69 57
e	80 69
e	80 79
e	80 68
e	91 80
e	91 90
e	91 79
e	102 91
e	102 101
e	102 90
e	113 102
e	112 113
e	113 101
e	15 4
e	15 14
e	15 3
e	4 3
e	26 15
e	26 25
e	26 14
e	37 26
e	37 36
e	37 25
e	48 37
e	48 47
e	48 36
e	59 48
e	59 58
e	59 47
e	70 59
e	70 69
e	70 58
e	81 70
e	81 80
e	81 69
e	92 81
e	92 91
e	92 80
e	103 92
e	103 102
e	103 91
e	114 103
e	113 114
e	114 102
e	16 5
e	16 15
e	16 4
e	5 4
e	27 16
e	27 26
e	27 15
e	38 27
e	38 37
e	38 26
e	49 38
e	49 48
e	49 37
e	60 49
e	60 59
e	60 48
e	71 60
e	71 70
e	71 59
e	82 71
e	82 81
e	82 70
e	93 82
e	93 92
e	93 81
e	104 93
e	104 103
e	104 92
e	115 104
e	114 115
e	115 103
e	17 6
e	17 16
e	17 5
e	6 5
e	28 17
e	28 27
e	28 16
e	39 28
e	39 38
e	39 27
e	50 39
e	50 49
e	50 38
e	61 50
e	61 60
e	61 49
e	72 61
e	72 71
e	72 60
e	83 72
e	83 82
e	83 71
e	94 83
e	94 93
e	94 82
e	105 94
e	105 104
e	105 93
e	116 105
e	115 116
e	116 104
e	18 7
e	18 17
e	18 6
e	7 6
e	29 18
e	29 28
e	29 17
e	40 29
e	40 39
e	40 28
e	51 40
e	51 50
e	51 39
e	62 51
e	62 61
e	62 50
e	73 62
e	73 72
e	73 61
e	84 73
e	84 83
e	84 72
e	95 84
e	95 94
e	95 83
e	106 95
e	106 105
e	106 94
e	117 106
e	116 117
e	117 105
e	19 8
e	19 18
e	19 7
e	8 7
e	30 19
e	30 29
e	30 18
e	41 30
e	41 40
e	41 29
e	52 41
e	52 51
e	52 40
e	63 52
e	63 62
e	63 51
e	74 63
e	74 73
e	74 62
e	85 74
e	85 84
e	85 73
e	96 85
e	96 95
e	96 84
e	107 96
e	107 106
e	107 95
e	118 107
e	117 118
e	118 106
e	20 9
e	20 19
e	20 8
e	9 8
e	31 20
e	31 30
e	31 19
e	42 31
e	42 41
e	42 30
e	53 42
e	53 52
e	53 41
e	64 53
e	64 63
e	64 52
e	75 64
e	75 74
e	75 63
e	86 75
e	86 85
e	86 74
e	97 86
e	97 96
e	97 85
e	108 97
e	108 107
e	108 96
e	119 108
e	118 119
e	119 107
e	21 10
e	21 20
e	21 9
e	10 9
e	32 21
e	32 31
e	32 20
e	43 32
e	43 42
e	43 31
e	54 43
e	54 53
e	54 42
e	65 54
e	65 64
e	65 53
e	76 65
e	76 75
e	76 64
e	87 76
e	87 86
e	87 75
e	98 87
e	98 97
e	98 86
e	109 98
e	109 108
e	109 97
e	120 109
e	119 120
e	120 108

domain
boundary
2 2 200
0
1
2
3
4
5
6
7
8
9
10
11
12
13
14
15
16
17
18
19
20
21
22
23
24
25
26
27
28
29
30
31
32
33
34
35
36
37
38
39
40
41
42
43
44
45
46
47
48
49
50
51
52
53
54
55
56
57
58
59
60
61
62
63
64
65
66
67
68
69
70
71
72
73
74
75
76
77
78
79
80
81
82
83
84
85
86
87
88
89
90
91
92
93
94
95
96
97
98
99
100
101
102
103
104
105
106
107
108
109
110
111
112
113
114
115
116
117
118
119
120
121
122
123
124
125
126
127
128
129
130
131
132
133
134
135
136
137
138
139
140
141
142
143
144
145
146
147
148
149
150
151
152
153
154
155
156
157
158
159
160
161
162
163
164
165
166
167
168
169
170
171
172
173
174
175
176
177
178
179
180
181
182
183
184
185
186
187
188
189
190
191
192
193
194
195
196
197
198
199
