#!geo
mesh
4
header
dimension 3
nodes 343
hexahedra 216
end header

0 0 0
0.166666666666667 0 0
0.333333333333333 0 0
0.5 0 0
0.666666666666667 0 0
0.833333333333333 0 0
1 0 0
0 0.166666666666667 0
0.166666666666667 0.166666666666667 0
0.333333333333333 0.166666666666667 0
0.5 0.166666666666667 0
0.666666666666667 0.166666666666667 0
0.833333333333333 0.166666666666667 0
1 0.166666666666667 0
0 0.333333333333333 0
0.166666666666667 0.333333333333333 0
0.333333333333333 0.333333333333333 0
0.5 0.333333333333333 0
0.666666666666667 0.333333333333333 0
0.833333333333333 0.333333333333333 0
1 0.333333333333333 0
0 0.5 0
0.166666666666667 0.5 0
0.333333333333333 0.5 0
0.5 0.5 0
0.666666666666667 0.5 0
0.833333333333333 0.5 0
1 0.5 0
0 0.666666666666667 0
0.166666666666667 0.666666666666667 0
0.333333333333333 0.666666666666667 0
0.5 0.666666666666667 0
0.666666666666667 0.666666666666667 0
0.833333333333333 0.666666666666667 0
1 0.666666666666667 0
0 0.833333333333333 0
0.166666666666667 0.833333333333333 0
0.333333333333333 0.833333333333333 0
0.5 0.833333333333333 0
0.666666666666667 0.833333333333333 0
0.833333333333333 0.833333333333333 0
1 0.833333333333333 0
0 1 0
0.166666666666667 1 0
0.333333333333333 1 0
0.5 1 0
0.666666666666667 1 0
0.833333333333333 1 0
1 1 0
0 0 0.166666666666667
0.166666666666667 0 0.166666666666667
0.333333333333333 0 0.166666666666667
0.5 0 0.166666666666667
0.666666666666667 0 0.166666666666667
0.833333333333333 0 0.166666666666667
1 0 0.166666666666667
0 0.166666666666667 0.166666666666667
0.166666666666667 0.166666666666667 0.166666666666667
0.333333333333333 0.166666666666667 0.166666666666667
0.5 0.166666666666667 0.166666666666667
0.666666666666667 0.166666666666667 0.166666666666667
0.833333333333333 0.166666666666667 0.166666666666667
1 0.166666666666667 0.166666666666667
0 0.333333333333333 0.166666666666667
0.166666666666667 0.333333333333333 0.166666666666667
0.333333333333333 0.333333333333333 0.166666666666667
0.5 0.333333333333333 0.166666666666667
0.666666666666667 0.333333333333333 0.166666666666667
0.833333333333333 0.333333333333333 0.166666666666667
1 0.333333333333333 0.166666666666667
0 0.5 0.166666666666667
0.166666666666667 0.5 0.166666666666667
0.333333333333333 0.5 0.166666666666667
0.5 0.5 0.166666666666667
0.666666666666667 0.5 0.166666666666667
0.833333333333333 0.5 0.166666666666667
1 0.5 0.166666666666667
0 0.666666666666667 0.166666666666667
0.166666666666667 0.666666666666667 0.166666666666667
0.333333333333333 0.666666666666667 0.166666666666667
0.5 0.666666666666667 0.166666666666667
0.666666666666667 0.666666666666667 0.166666666666667
0.833333333333333 0.666666666666667 0.166666666666667
1 0.666666666666667 0.166666666666667
0 0.833333333333333 0.166666666666667
0.166666666666667 0.833333333333333 0.166666666666667
0.333333333333333 0.833333333333333 0.166666666666667
0.5 0.833333333333333 0.166666666666667
0.666666666666667 0.833333333333333 0.166666666666667
0.833333333333333 0.833333333333333 0.166666666666667
1 0.833333333333333 0.166666666666667
0 1 0.166666666666667
0.166666666666667 1 0.166666666666667
0.333333333333333 1 0.166666666666667
0.5 1 0.166666666666667
0.666666666666667 1 0.166666666666667
0.833333333333333 1 0.166666666666667
1 1 0.166666666666667
0 0 0.333333333333333
0.166666666666667 0 0.333333333333333
0.333333333333333 0 0.333333333333333
0.5 0 0.333333333333333
0.666666666666667 0 0.333333333333333
0.833333333333333 0 0.333333333333333
1 0 0.333333333333333
0 0.166666666666667 0.333333333333333
0.166666666666667 0.166666666666667 0.333333333333333
0.333333333333333 0.166666666666667 0.333333333333333
0.5 0.166666666666667 0.333333333333333
0.666666666666667 0.166666666666667 0.333333333333333
0.833333333333333 0.166666666666667 0.333333333333333
1 0.166666666666667 0.333333333333333
0 0.333333333333333 0.333333333333333
0.166666666666667 0.333333333333333 0.333333333333333
0.333333333333333 0.333333333333333 0.333333333333333
0.5 0.333333333333333 0.333333333333333
0.666666666666667 0.333333333333333 0.333333333333333
0.833333333333333 0.333333333333333 0.333333333333333
1 0.333333333333333 0.333333333333333
0 0.5 0.333333333333333
0.166666666666667 0.5 0.333333333333333
0.333333333333333 0.5 0.333333333333333
0.5 0.5 0.333333333333333
0.666666666666667 0.5 0.333333333333333
0.833333333333333 0.5 0.333333333333333
1 0.5 0.333333333333333
0 0.666666666666667 0.333333333333333
0.166666666666667 0.666666666666667 0.333333333333333
0.333333333333333 0.666666666666667 0.333333333333333
0.5 0.666666666666667 0.333333333333333
0.666666666666667 0.666666666666667 0.333333333333333
0.833333333333333 0.666666666666667 0.333333333333333
1 0.666666666666667 0.333333333333333
0 0.833333333333333 0.333333333333333
0.166666666666667 0.833333333333333 0.333333333333333
0.333333333333333 0.833333333333333 0.333333333333333
0.5 0.833333333333333 0.333333333333333
0.666666666666667 0.833333333333333 0.333333333333333
0.833333333333333 0.833333333333333 0.333333333333333
1 0.833333333333333 0.333333333333333
0 1 0.333333333333333
0.166666666666667 1 0.333333333333333
0.333333333333333 1 0.333333333333333
0.5 1 0.333333333333333
0.666666666666667 1 0.333333333333333
0.833333333333333 1 0.333333333333333
1 1 0.333333333333333
0 0 0.5
0.166666666666667 0 0.5
0.333333333333333 0 0.5
0.5 0 0.5
0.666666666666667 0 0.5
0.833333333333333 0 0.5
1 0 0.5
0 0.166666666666667 0.5
0.166666666666667 0.166666666666667 0.5
0.333333333333333 0.166666666666667 0.5
0.5 0.166666666666667 0.5
0.666666666666667 0.166666666666667 0.5
0.833333333333333 0.166666666666667 0.5
1 0.166666666666667 0.5
0 0.333333333333333 0.5
0.166666666666667 0.333333333333333 0.5
0.333333333333333 0.333333333333333 0.5
0.5 0.333333333333333 0.5
0.666666666666667 0.333333333333333 0.5
0.833333333333333 0.333333333333333 0.5
1 0.333333333333333 0.5
0 0.5 0.5
0.166666666666667 0.5 0.5
0.333333333333333 0.5 0.5
0.5 0.5 0.5
0.666666666666667 0.5 0.5
0.833333333333333 0.5 0.5
1 0.5 0.5
0 0.666666666666667 0.5
0.166666666666667 0.666666666666667 0.5
0.333333333333333 0.666666666666667 0.5
0.5 0.666666666666667 0.5
0.666666666666667 0.666666666666667 0.5
0.833333333333333 0.666666666666667 0.5
1 0.666666666666667 0.5
0 0.833333333333333 0.5
0.166666666666667 0.833333333333333 0.5
0.333333333333333 0.833333333333333 0.5
0.5 0.833333333333333 0.5
0.666666666666667 0.833333333333333 0.5
0.833333333333333 0.833333333333333 0.5
1 0.833333333333333 0.5
0 1 0.5
0.166666666666667 1 0.5
0.333333333333333 1 0.5
0.5 1 0.5
0.666666666666667 1 0.5
0.833333333333333 1 0.5
1 1 0.5
0 0 0.666666666666667
0.166666666666667 0 0.666666666666667
0.333333333333333 0 0.666666666666667
0.5 0 0.666666666666667
0.666666666666667 0 0.666666666666667
0.833333333333333 0 0.666666666666667
1 0 0.666666666666667
0 0.166666666666667 0.666666666666667
0.166666666666667 0.166666666666667 0.666666666666667
0.333333333333333 0.166666666666667 0.666666666666667
0.5 0.166666666666667 0.666666666666667
0.666666666666667 0.166666666666667 0.666666666666667
0.833333333333333 0.166666666666667 0.666666666666667
1 0.166666666666667 0.666666666666667
0 0.333333333333333 0.666666666666667
0.166666666666667 0.333333333333333 0.666666666666667
0.333333333333333 0.333333333333333 0.666666666666667
0.5 0.333333333333333 0.666666666666667
0.666666666666667 0.333333333333333 0.666666666666667
0.833333333333333 0.333333333333333 0.666666666666667
1 0.333333333333333 0.666666666666667
0 0.5 0.666666666666667
0.166666666666667 0.5 0.666666666666667
0.333333333333333 0.5 0.666666666666667
0.5 0.5 0.666666666666667
0.666666666666667 0.5 0.666666666666667
0.833333333333333 0.5 0.666666666666667
1 0.5 0.666666666666667
0 0.666666666666667 0.666666666666667
0.166666666666667 0.666666666666667 0.666666666666667
0.333333333333333 0.666666666666667 0.666666666666667
0.5 0.666666666666667 0.666666666666667
0.666666666666667 0.666666666666667 0.666666666666667
0.833333333333333 0.666666666666667 0.666666666666667
1 0.666666666666667 0.666666666666667
0 0.833333333333333 0.666666666666667
0.166666666666667 0.833333333333333 0.666666666666667
0.333333333333333 0.833333333333333 0.666666666666667
0.5 0.833333333333333 0.666666666666667
0.666666666666667 0.833333333333333 0.666666666666667
0.833333333333333 0.833333333333333 0.666666666666667
1 0.833333333333333 0.666666666666667
0 1 0.666666666666667
0.166666666666667 1 0.666666666666667
0.333333333333333 1 0.666666666666667
0.5 1 0.666666666666667
0.666666666666667 1 0.666666666666667
0.833333333333333 1 0.666666666666667
1 1 0.666666666666667
0 0 0.833333333333333
0.166666666666667 0 0.833333333333333
0.333333333333333 0 0.833333333333333
0.5 0 0.833333333333333
0.666666666666667 0 0.833333333333333
0.833333333333333 0 0.833333333333333
1 0 0.833333333333333
0 0.166666666666667 0.833333333333333
0.166666666666667 0.166666666666667 0.833333333333333
0.333333333333333 0.166666666666667 0.833333333333333
0.5 0.166666666666667 0.833333333333333
0.666666666666667 0.166666666666667 0.833333333333333
0.833333333333333 0.166666666666667 0.833333333333333
1 0.166666666666667 0.833333333333333
0 0.333333333333333 0.833333333333333
0.166666666666667 0.333333333333333 0.833333333333333
0.333333333333333 0.333333333333333 0.833333333333333
0.5 0.333333333333333 0.833333333333333
0.666666666666667 0.333333333333333 0.833333333333333
0.833333333333333 0.333333333333333 0.833333333333333
1 0.333333333333333 0.833333333333333
0 0.5 0.833333333333333
0.166666666666667 0.5 0.833333333333333
0.333333333333333 0.5 0.833333333333333
0.5 0.5 0.833333333333333
0.666666666666667 0.5 0.833333333333333
0.833333333333333 0.5 0.833333333333333
1 0.5 0.833333333333333
0 0.666666666666667 0.833333333333333
0.166666666666667 0.666666666666667 0.833333333333333
0.333333333333333 0.666666666666667 0.833333333333333
0.5 0.666666666666667 0.833333333333333
0.666666666666667 0.666666666666667 0.833333333333333
0.833333333333333 0.666666666666667 0.833333333333333
1 0.666666666666667 0.833333333333333
0 0.833333333333333 0.833333333333333
0.166666666666667 0.833333333333333 0.833333333333333
0.333333333333333 0.833333333333333 0.833333333333333
0.5 0.833333333333333 0.833333333333333
0.666666666666667 0.833333333333333 0.833333333333333
0.833333333333333 0.833333333333333 0.833333333333333
1 0.833333333333333 0.833333333333333
0 1 0.833333333333333
0.166666666666667 1 0.833333333333333
0.333333333333333 1 0.833333333333333
0.5 1 0.833333333333333
0.666666666666667 1 0.833333333333333
0.833333333333333 1 0.833333333333333
1 1 0.833333333333333
0 0 1
0.166666666666667 0 1
0.333333333333333 0 1
0.5 0 1
0.666666666666667 0 1
0.833333333333333 0 1
1 0 1
0 0.166666666666667 1
0.166666666666667 0.166666666666667 1
0.333333333333333 0.166666666666667 1
0.5 0.166666666666667 1
0.666666666666667 0.166666666666667 1
0.833333333333333 0.166666666666667 1
1 0.166666666666667 1
0 0.333333333333333 1
0.166666666666667 0.333333333333333 1
0.333333333333333 0.333333333333333 1
0.5 0.333333333333333 1
0.666666666666667 0.333333333333333 1
0.833333333333333 0.333333333333333 1
1 0.333333333333333 1
0 0.5 1
0.166666666666667 0.5 1
0.333333333333333 0.5 1
0.5 0.5 1
0.666666666666667 0.5 1
0.833333333333333 0.5 1
1 0.5 1
0 0.666666666666667 1
0.166666666666667 0.666666666666667 1
0.333333333333333 0.666666666666667 1
0.5 0.666666666666667 1
0.666666666666667 0.666666666666667 1
0.833333333333333 0.666666666666667 1
1 0.666666666666667 1
0 0.833333333333333 1
0.166666666666667 0.833333333333333 1
0.333333333333333 0.833333333333333 1
0.5 0.833333333333333 1
0.666666666666667 0.833333333333333 1
0.833333333333333 0.833333333333333 1
1 0.833333333333333 1
0 1 1
0.166666666666667 1 1
0.333333333333333 1 1
0.5 1 1
0.666666666666667 1 1
0.833333333333333 1 1
1 1 1

H	0 1 8 7 49 50 57 56
H	49 50 57 56 98 99 106 105
H	98 99 106 105 147 148 155 154
H	147 148 155 154 196 197 204 203
H	196 197 204 203 245 246 253 252
H	245 246 253 252 294 295 302 301
H	7 8 15 14 56 57 64 63
H	56 57 64 63 105 106 113 112
H	105 106 113 112 154 155 162 161
H	154 155 162 161 203 204 211 210
H	203 204 211 210 252 253 260 259
H	252 253 260 259 301 302 309 308
H	14 15 22 21 63 64 71 70
H	63 64 71 70 112 113 120 119
H	112 113 120 119 161 162 169 168
H	161 162 169 168 210 211 218 217
H	210 211 218 217 259 260 267 266
H	259 260 267 266 308 309 316 315
H	21 22 29 28 70 71 78 77
H	70 71 78 77 119 120 127 126
H	119 120 127 126 168 169 176 175
H	168 169 176 175 217 218 225 224
H	217 218 225 224 266 267 274 273
H	266 267 274 273 315 316 323 322
H	28 29 36 35 77 78 85 84
H	77 78 85 84 126 127 134 133
H	126 127 134 133 175 176 183 182
H	175 176 183 182 224 225 232 231
H	224 225 232 231 273 274 281 280
H	273 274 281 280 322 323 330 329
H	35 36 43 42 84 85 92 91
H	84 85 92 91 133 134 141 140
H	133 134 141 140 182 183 190 189
H	182 183 190 189 231 232 239 238
H	231 232 239 238 280 281 288 287
H	280 281 288 287 329 330 337 336
H	1 2 9 8 50 51 58 57
H	50 51 58 57 99 100 107 106
H	99 100 107 106 148 149 156 155
H	148 149 156 155 197 198 205 204
H	197 198 205 204 246 247 254 253
H	246 247 254 253 295 296 303 302
H	8 9 16 15 57 58 65 64
H	57 58 65 64 106 107 114 113
H	106 107 114 113 155 156 163 162
H	155 156 163 162 204 205 212 211
H	204 205 212 211 253 254 261 260
H	253 254 261 260 302 303 310 309
H	15 16 23 22 64 65 72 71
H	64 65 72 71 113 114 121 120
H	113 114 121 120 162 163 170 169
H	162 163 170 169 211 212 219 218
H	211 212 219 218 260 261 268 267
H	260 261 268 267 309 310 317 316
H	22 23 30 29 71 72 79 78
H	71 72 79 78 120 121 128 127
H	120 121 128 127 169 170 177 176
H	169 170 177 176 218 219 226 225
H	218 219 226 225 267 268 275 274
H	267 268 275 274 316 317 324 323
H	29 30 37 36 78 79 86 85
H	78 79 86 85 127 128 135 134
H	127 128 135 134 176 177 184 183
H	176 177 184 183 225 226 233 232
H	225 226 233 232 274 275 282 281
H	274 275 282 281 323 324 331 330
H	36 37 44 43 85 86 93 92
H	85 86 93 92 134 135 142 141
H	134 135 142 141 183 184 191 190
H	183 184 191 190 232 233 240 239
H	232 233 240 239 281 282 289 288
H	281 282 289 288 330 331 338 337
H	2 3 10 9 51 52 59 58
H	51 52 59 58 100 101 108 107
H	100 101 108 107 149 150 157 156
H	149 150 157 156 198 199 206 205
H	198 199 206 205 247 248 255 254
H	247 248 255 254 296 297 304 303
H	9 10 17 16 58 59 66 65
H	58 59 66 65 107 108 115 114
H	107 108 115 114 156 157 164 163
H	156 157 164 163 205 206 213 212
H	205 206 213 212 254 255 262 261
H	254 255 262 261 303 304 311 310
H	16 17 24 23 65 66 73 72
H	65 66 73 72 114 115 122 121
H	114 115 122 121 163 164 171 170
H	163 164 171 170 212 213 220 219
H	212 213 220 219 261 262 269 268
H	261 262 269 268 310 311 318 317
H	23 24 31 30 72 73 80 79
H	72 73 80 79 121 122 129 128
H	121 122 129 128 170 171 178 177
H	170 171 178 177 219 220 227 226
H	219 220 227 226 268 269 276 275
H	268 269 276 275 317 318 325 324
H	30 31 38 37 79 80 87 86
H	79 80 87 86 128 129 136 135
H	128 129 136 135 177 178 185 184
H	177 178 185 184 226 227 234 233
H	226 227 234 233 275 276 283 282
H	275 276 283 282 324 325 332 331
H	37 38 45 44 86 87 94 93
H	86 87 94 93 135 136 143 142
H	135 136 143 142 184 185 192 191
H	184 185 192 191 233 234 241 240
H	233 234 241 240 282 283 290 289
H	282 283 290 289 331 332 339 338
H	3 4 11 10 52 53 60 59
H	52 53 60 59 101 102 109 108
H	101 102 109 108 150 151 158 157
H	150 151 158 157 199 200 207 206
H	199 200 207 206 248 249 256 255
H	248 249 256 255 297 298 305 304
H	10 11 18 17 59 60 67 66
H	59 60 67 66 108 109 116 115
H	108 109 116 115 157 158 165 164
H	157 158 165 164 206 207 214 213
H	206 207 214 213 255 256 263 262
H	255 256 263 262 304 305 312 311
H	17 18 25 24 66 67 74 73
H	66 67 74 73 115 116 123 122
H	115 116 123 122 164 165 172 171
H	164 165 172 171 213 214 221 220
H	213 214 221 220 262 263 270 269
H	262 263 270 269 311 312 319 318
H	24 25 32 31 73 74 81 80
H	73 74 81 80 122 123 130 129
H	122 123 130 129 171 172 179 178
H	171 172 179 178 220 221 228 227
H	220 221 228 227 269 270 277 276
H	269 270 277 276 318 319 326 325
H	31 32 39 38 80 81 88 87
H	80 81 88 87 129 130 137 136
H	129 130 137 136 178 179 186 185
H	178 179 186 185 227 228 235 234
H	227 228 235 234 276 277 284 283
H	276 277 284 283 325 326 333 332
H	38 39 46 45 87 88 95 94
H	87 88 95 94 136 137 144 143
H	136 137 144 143 185 186 193 192
H	185 186 193 192 234 235 242 241
H	234 235 242 241 283 284 291 290
H	283 284 291 290 332 333 340 339
H	4 5 12 11 53 54 61 60
H	53 54 61 60 102 103 110 109
H	102 103 110 109 151 152 159 158
H	151 152 159 158 200 201 208 207
H	200 201 208 207 249 250 257 256
H	249 250 257 256 298 299 306 305
H	11 12 19 18 60 61 68 67
H	60 61 68 67 109 110 117 116
H	109 110 117 116 158 159 166 165
H	158 159 166 165 207 208 215 214
H	207 208 215 214 256 257 264 263
H	256 257 264 263 305 306 313 312
H	18 19 26 25 67 68 75 74
H	67 68 75 74 116 117 124 123
H	116 117 124 123 165 166 173 172
H	165 166 173 172 214 215 222 221
H	214 215 222 221 263 264 271 270
H	263 264 271 270 312 313 320 319
H	25 26 33 32 74 75 82 81
H	74 75 82 81 123 124 131 130
H	123 124 131 130 172 173 180 179
H	172 173 180 179 221 222 229 228
H	221 222 229 228 270 271 278 277
H	270 271 278 277 319 320 327 326
H	32 33 40 39 81 82 89 88
H	81 82 89 88 130 131 138 137
H	130 131 138 137 179 180 187 186
H	179 180 187 186 228 229 236 235
H	228 229 236 235 277 278 285 284
H	277 278 285 284 326 327 334 333
H	39 40 47 46 88 89 96 95
H	88 89 96 95 137 138 145 144
H	137 138 145 144 186 187 194 193
H	186 187 194 193 235 236 243 242
H	235 236 243 242 284 285 292 291
H	284 285 292 291 333 334 341 340
H	5 6 13 12 54 55 62 61
H	54 55 62 61 103 104 111 110
H	103 104 111 110 152 153 160 159
H	152 153 160 159 201 202 209 208
H	201 202 209 208 250 251 258 257
H	250 251 258 257 299 300 307 306
H	12 13 20 19 61 62 69 68
H	61 62 69 68 110 111 118 117
H	110 111 118 117 159 160 167 166
H	159 160 167 166 208 209 216 215
H	208 209 216 215 257 258 265 264
H	257 258 265 264 306 307 314 313
H	19 20 27 26 68 69 76 75
H	68 69 76 75 117 118 125 124
H	117 118 125 124 166 167 174 173
H	166 167 174 173 215 216 223 222
H	215 216 223 222 264 265 272 271
H	264 265 272 271 313 314 321 320
H	26 27 34 33 75 76 83 82
H	75 76 83 82 124 125 132 131
H	124 125 132 131 173 174 181 180
H	173 174 181 180 222 223 230 229
H	222 223 230 229 271 272 279 278
H	271 272 279 278 320 321 328 327
H	33 34 41 40 82 83 90 89
H	82 83 90 89 131 132 139 138
H	131 132 139 138 180 181 188 187
H	180 181 188 187 229 230 237 236
H	229 230 237 236 278 279 286 285
H	278 279 286 285 327 328 335 334
H	40 41 48 47 89 90 97 96
H	89 90 97 96 138 139 146 145
H	138 139 146 145 187 188 195 194
H	187 188 195 194 236 237 244 243
H	236 237 244 243 285 286 293 292
H	285 286 293 292 334 335 342 341


domain
bottom
1 2 36
q	0 7 8 1
q	7 14 15 8
q	14 21 22 15
q	21 28 29 22
q	28 35 36 29
q	35 42 43 36
q	1 8 9 2
q	8 15 16 9
q	15 22 23 16
q	22 29 30 23
q	29 36 37 30
q	36 43 44 37
q	2 9 10 3
q	9 16 17 10
q	16 23 24 17
q	23 30 31 24
q	30 37 38 31
q	37 44 45 38
q	3 10 11 4
q	10 17 18 11
q	17 24 25 18
q	24 31 32 25
q	31 38 39 32
q	38 45 46 39
q	4 11 12 5
q	11 18 19 12
q	18 25 26 19
q	25 32 33 26
q	32 39 40 33
q	39 46 47 40
q	5 12 13 6
q	12 19 20 13
q	19 26 27 20
q	26 33 34 27
q	33 40 41 34
q	40 47 48 41

domain
top
1 2 36
q	294 295 302 301
q	301 302 309 308
q	308 309 316 315
q	315 316 323 322
q	322 323 330 329
q	329 330 337 336
q	295 296 303 302
q	302 303 310 309
q	309 310 317 316
q	316 317 324 323
q	323 324 331 330
q	330 331 338 337
q	296 297 304 303
q	303 304 311 310
q	310 311 318 317
q	317 318 325 324
q	324 325 332 331
q	331 332 339 338
q	297 298 305 304
q	304 305 312 311
q	311 312 319 318
q	318 319 326 325
q	325 326 333 332
q	332 333 340 339
q	298 299 306 305
q	305 306 313 312
q	312 313 320 319
q	319 320 327 326
q	326 327 334 333
q	333 334 341 340
q	299 300 307 306
q	306 307 314 313
q	313 314 321 320
q	320 321 328 327
q	327 328 335 334
q	334 335 342 341

domain
left
1 2 36
q	0 1 50 49
q	49 50 99 98
q	98 99 148 147
q	147 148 197 196
q	196 197 246 245
q	245 246 295 294
q	1 2 51 50
q	50 51 100 99
q	99 100 149 148
q	148 149 198 197
q	197 198 247 246
q	246 247 296 295
q	2 3 52 51
q	51 52 101 100
q	100 101 150 149
q	149 150 199 198
q	198 199 248 247
q	247 248 297 296
q	3 4 53 52
q	52 53 102 101
q	101 102 151 150
q	150 151 200 199
q	199 200 249 248
q	248 249 298 297
q	4 5 54 53
q	53 54 103 102
q	102 103 152 151
q	151 152 201 200
q	200 201 250 249
q	249 250 299 298
q	5 6 55 54
q	54 55 104 103
q	103 104 153 152
q	152 153 202 201
q	201 202 251 250
q	250 251 300 299

domain
front
1 2 36
q	6 13 62 55
q	55 62 111 104
q	104 111 160 153
q	153 160 209 202
q	202 209 258 251
q	251 258 307 300
q	13 20 69 62
q	62 69 118 111
q	111 118 167 160
q	160 167 216 209
q	209 216 265 258
q	258 265 314 307
q	20 27 76 69
q	69 76 125 118
q	118 125 174 167
q	167 174 223 216
q	216 223 272 265
q	265 272 321 314
q	27 34 83 76
q	76 83 132 125
q	125 132 181 174
q	174 181 230 223
q	223 230 279 272
q	272 279 328 321
q	34 41 90 83
q	83 90 139 132
q	132 139 188 181
q	181 188 237 230
q	230 237 286 279
q	279 286 335 328
q	41 48 97 90
q	90 97 146 139
q	139 146 195 188
q	188 195 244 237
q	237 244 293 286
q	286 293 342 335

domain
right
1 2 36
q	42 91 92 43
q	91 140 141 92
q	140 189 190 141
q	189 238 239 190
q	238 287 288 239
q	287 336 337 288
q	43 92 93 44
q	92 141 142 93
q	141 190 191 142
q	190 239 240 191
q	239 288 289 240
q	288 337 338 289
q	44 93 94 45
q	93 142 143 94
q	142 191 192 143
q	191 240 241 192
q	240 289 290 241
q	289 338 339 290
q	45 94 95 46
q	94 143 144 95
q	143 192 193 144
q	192 241 242 193
q	241 290 291 242
q	290 339 340 291
q	46 95 96 47
q	95 144 145 96
q	144 193 194 145
q	193 242 243 194
q	242 291 292 243
q	291 340 341 292
q	47 96 97 48
q	96 145 146 97
q	145 194 195 146
q	194 243 244 195
q	243 292 293 244
q	292 341 342 293

domain
back
1 2 36
q	0 49 56 7
q	49 98 105 56
q	98 147 154 105
q	147 196 203 154
q	196 245 252 203
q	245 294 301 252
q	7 56 63 14
q	56 105 112 63
q	105 154 161 112
q	154 203 210 161
q	203 252 259 210
q	252 301 308 259
q	14 63 70 21
q	63 112 119 70
q	112 161 168 119
q	161 210 217 168
q	210 259 266 217
q	259 308 315 266
q	21 70 77 28
q	70 119 126 77
q	119 168 175 126
q	168 217 224 175
q	217 266 273 224
q	266 315 322 273
q	28 77 84 35
q	77 126 133 84
q	126 175 182 133
q	175 224 231 182
q	224 273 280 231
q	273 322 329 280
q	35 84 91 42
q	84 133 140 91
q	133 182 189 140
q	182 231 238 189
q	231 280 287 238
q	280 329 336 287

domain
boundary
1 2 216
q	0 7 8 1
q	7 14 15 8
q	14 21 22 15
q	21 28 29 22
q	28 35 36 29
q	35 42 43 36
q	1 8 9 2
q	8 15 16 9
q	15 22 23 16
q	22 29 30 23
q	29 36 37 30
q	36 43 44 37
q	2 9 10 3
q	9 16 17 10
q	16 23 24 17
q	23 30 31 24
q	30 37 38 31
q	37 44 45 38
q	3 10 11 4
q	10 17 18 11
q	17 24 25 18
q	24 31 32 25
q	31 38 39 32
q	38 45 46 39
q	4 11 12 5
q	11 18 19 12
q	18 25 26 19
q	25 32 33 26
q	32 39 40 33
q	39 46 47 40
q	5 12 13 6
q	12 19 20 13
q	19 26 27 20
q	26 33 34 27
q	33 40 41 34
q	40 47 48 41
q	294 295 302 301
q	301 302 309 308
q	308 309 316 315
q	315 316 323 322
q	322 323 330 329
q	329 330 337 336
q	295 296 303 302
q	302 303 310 309
q	309 310 317 316
q	316 317 324 323
q	323 324 331 330
q	330 331 338 337
q	296 297 304 303
q	303 304 311 310
q	310 311 318 317
q	317 318 325 324
q	324 325 332 331
q	331 332 339 338
q	297 298 305 304
q	304 305 312 311
q	311 312 319 318
q	318 319 326 325
q	325 326 333 332
q	332 333 340 339
q	298 299 306 305
q	305 306 313 312
q	312 313 320 319
q	319 320 327 326
q	326 327 334 333
q	333 334 341 340
q	299 300 307 306
q	306 307 314 313
q	313 314 321 320
q	320 321 328 327
q	327 328 335 334
q	334 335 342 341
q	0 1 50 49
q	49 50 99 98
q	98 99 148 147
q	147 148 197 196
q	196 197 246 245
q	245 246 295 294
q	1 2 51 50
q	50 51 100 99
q	99 100 149 148
q	148 149 198 197
q	197 198 247 246
q	246 247 296 295
q	2 3 52 51
q	51 52 101 100
q	100 101 150 149
q	149 150 199 198
q	198 199 248 247
q	247 248 297 296
q	3 4 53 52
q	52 53 102 101
q	101 102 151 150
q	150 151 200 199
q	199 200 249 248
q	248 249 298 297
q	4 5 54 53
q	53 54 103 102
q	102 103 152 151
q	151 152 201 200
q	200 201 250 249
q	249 250 299 298
q	5 6 55 54
q	54 55 104 103
q	103 104 153 152
q	152 153 202 201
q	201 202 251 250
q	250 251 300 299
q	6 13 62 55
q	55 62 111 104
q	104 111 160 153
q	153 160 209 202
q	202 209 258 251
q	251 258 307 300
q	13 20 69 62
q	62 69 118 111
q	111 118 167 160
q	160 167 216 209
q	209 216 265 258
q	258 265 314 307
q	20 27 76 69
q	69 76 125 118
q	118 125 174 167
q	167 174 223 216
q	216 223 272 265
q	265 272 321 314
q	27 34 83 76
q	76 83 132 125
q	125 132 181 174
q	174 181 230 223
q	223 230 279 272
q	272 279 328 321
q	34 41 90 83
q	83 90 139 132
q	132 139 188 181
q	181 188 237 230
q	230 237 286 279
q	279 286 335 328
q	41 48 97 90
q	90 97 146 139
q	139 146 195 188
q	188 195 244 237
q	237 244 293 286
q	286 293 342 335
q	42 91 92 43
q	91 140 141 92
q	140 189 190 141
q	189 238 239 190
q	238 287 288 239
q	287 336 337 288
q	43 92 93 44
q	92 141 142 93
q	141 190 191 142
q	190 239 240 191
q	239 288 289 240
q	288 337 338 289
q	44 93 94 45
q	93 142 143 94
q	142 191 192 143
q	191 240 241 192
q	240 289 290 241
q	289 338 339 290
q	45 94 95 46
q	94 143 144 95
q	143 192 193 144
q	192 241 242 193
q	241 290 291 242
q	290 339 340 291
q	46 95 96 47
q	95 144 145 96
q	144 193 194 145
q	193 242 243 194
q	242 291 292 243
q	291 340 341 292
q	47 96 97 48
q	96 145 146 97
q	145 194 195 146
q	194 243 244 195
q	243 292 293 244
q	292 341 342 293
q	0 49 56 7
q	49 98 105 56
q	98 147 154 105
q	147 196 203 154
q	196 245 252 203
q	245 294 301 252
q	7 56 63 14
q	56 105 112 63
q	105 154 161 112
q	154 203 210 161
q	203 252 259 210
q	252 301 308 259
q	14 63 70 21
q	63 112 119 70
q	112 161 168 119
q	161 210 217 168
q	210 259 266 217
q	259 308 315 266
q	21 70 77 28
q	70 119 126 77
q	119 168 175 126
q	168 217 224 175
q	217 266 273 224
q	266 315 322 273
q	28 77 84 35
q	77 126 133 84
q	126 175 182 133
q	175 224 231 182
q	224 273 280 231
q	273 322 329 280
q	35 84 91 42
q	84 133 140 91
q	133 182 189 140
q	182 231 238 189
q	231 280 287 238
q	280 329 336 287

