#!geo

mesh
4
header
 dimension 3
 nodes	343
 hexahedra	216
 quadrangles	756
 edges	882
end header

0 0 0
0.166666666666667 0 0
0.333333333333333 0 0
0.5 0 0
0.666666666666667 0 0
0.833333333333333 0 0
1 0 0
0 0.166666666666667 0
0.166666666666667 0.166666666666667 0
0.333333333333333 0.166666666666667 0
0.5 0.166666666666667 0
0.666666666666667 0.166666666666667 0
0.833333333333333 0.166666666666667 0
1 0.166666666666667 0
0 0.333333333333333 0
0.166666666666667 0.333333333333333 0
0.333333333333333 0.333333333333333 0
0.5 0.333333333333333 0
0.666666666666667 0.333333333333333 0
0.833333333333333 0.333333333333333 0
1 0.333333333333333 0
0 0.5 0
0.166666666666667 0.5 0
0.333333333333333 0.5 0
0.5 0.5 0
0.666666666666667 0.5 0
0.833333333333333 0.5 0
1 0.5 0
0 0.666666666666667 0
0.166666666666667 0.666666666666667 0
0.333333333333333 0.666666666666667 0
0.5 0.666666666666667 0
0.666666666666667 0.666666666666667 0
0.833333333333333 0.666666666666667 0
1 0.666666666666667 0
0 0.833333333333333 0
0.166666666666667 0.833333333333333 0
0.333333333333333 0.833333333333333 0
0.5 0.833333333333333 0
0.666666666666667 0.833333333333333 0
0.833333333333333 0.833333333333333 0
1 0.833333333333333 0
0 1 0
0.166666666666667 1 0
0.333333333333333 1 0
0.5 1 0
0.666666666666667 1 0
0.833333333333333 1 0
1 1 0
0 0 0.166666666666667
0.166666666666667 0 0.166666666666667
0.333333333333333 0 0.166666666666667
0.5 0 0.166666666666667
0.666666666666667 0 0.166666666666667
0.833333333333333 0 0.166666666666667
1 0 0.166666666666667
0 0.166666666666667 0.166666666666667
0.166666666666667 0.166666666666667 0.166666666666667
0.333333333333333 0.166666666666667 0.166666666666667
0.5 0.166666666666667 0.166666666666667
0.666666666666667 0.166666666666667 0.166666666666667
0.833333333333333 0.166666666666667 0.166666666666667
1 0.166666666666667 0.166666666666667
0 0.333333333333333 0.166666666666667
0.166666666666667 0.333333333333333 0.166666666666667
0.333333333333333 0.333333333333333 0.166666666666667
0.5 0.333333333333333 0.166666666666667
0.666666666666667 0.333333333333333 0.166666666666667
0.833333333333333 0.333333333333333 0.166666666666667
1 0.333333333333333 0.166666666666667
0 0.5 0.166666666666667
0.166666666666667 0.5 0.166666666666667
0.333333333333333 0.5 0.166666666666667
0.5 0.5 0.166666666666667
0.666666666666667 0.5 0.166666666666667
0.833333333333333 0.5 0.166666666666667
1 0.5 0.166666666666667
0 0.666666666666667 0.166666666666667
0.166666666666667 0.666666666666667 0.166666666666667
0.333333333333333 0.666666666666667 0.166666666666667
0.5 0.666666666666667 0.166666666666667
0.666666666666667 0.666666666666667 0.166666666666667
0.833333333333333 0.666666666666667 0.166666666666667
1 0.666666666666667 0.166666666666667
0 0.833333333333333 0.166666666666667
0.166666666666667 0.833333333333333 0.166666666666667
0.333333333333333 0.833333333333333 0.166666666666667
0.5 0.833333333333333 0.166666666666667
0.666666666666667 0.833333333333333 0.166666666666667
0.833333333333333 0.833333333333333 0.166666666666667
1 0.833333333333333 0.166666666666667
0 1 0.166666666666667
0.166666666666667 1 0.166666666666667
0.333333333333333 1 0.166666666666667
0.5 1 0.166666666666667
0.666666666666667 1 0.166666666666667
0.833333333333333 1 0.166666666666667
1 1 0.166666666666667
0 0 0.333333333333333
0.166666666666667 0 0.333333333333333
0.333333333333333 0 0.333333333333333
0.5 0 0.333333333333333
0.666666666666667 0 0.333333333333333
0.833333333333333 0 0.333333333333333
1 0 0.333333333333333
0 0.166666666666667 0.333333333333333
0.166666666666667 0.166666666666667 0.333333333333333
0.333333333333333 0.166666666666667 0.333333333333333
0.5 0.166666666666667 0.333333333333333
0.666666666666667 0.166666666666667 0.333333333333333
0.833333333333333 0.166666666666667 0.333333333333333
1 0.166666666666667 0.333333333333333
0 0.333333333333333 0.333333333333333
0.166666666666667 0.333333333333333 0.333333333333333
0.333333333333333 0.333333333333333 0.333333333333333
0.5 0.333333333333333 0.333333333333333
0.666666666666667 0.333333333333333 0.333333333333333
0.833333333333333 0.333333333333333 0.333333333333333
1 0.333333333333333 0.333333333333333
0 0.5 0.333333333333333
0.166666666666667 0.5 0.333333333333333
0.333333333333333 0.5 0.333333333333333
0.5 0.5 0.333333333333333
0.666666666666667 0.5 0.333333333333333
0.833333333333333 0.5 0.333333333333333
1 0.5 0.333333333333333
0 0.666666666666667 0.333333333333333
0.166666666666667 0.666666666666667 0.333333333333333
0.333333333333333 0.666666666666667 0.333333333333333
0.5 0.666666666666667 0.333333333333333
0.666666666666667 0.666666666666667 0.333333333333333
0.833333333333333 0.666666666666667 0.333333333333333
1 0.666666666666667 0.333333333333333
0 0.833333333333333 0.333333333333333
0.166666666666667 0.833333333333333 0.333333333333333
0.333333333333333 0.833333333333333 0.333333333333333
0.5 0.833333333333333 0.333333333333333
0.666666666666667 0.833333333333333 0.333333333333333
0.833333333333333 0.833333333333333 0.333333333333333
1 0.833333333333333 0.333333333333333
0 1 0.333333333333333
0.166666666666667 1 0.333333333333333
0.333333333333333 1 0.333333333333333
0.5 1 0.333333333333333
0.666666666666667 1 0.333333333333333
0.833333333333333 1 0.333333333333333
1 1 0.333333333333333
0 0 0.5
0.166666666666667 0 0.5
0.333333333333333 0 0.5
0.5 0 0.5
0.666666666666667 0 0.5
0.833333333333333 0 0.5
1 0 0.5
0 0.166666666666667 0.5
0.166666666666667 0.166666666666667 0.5
0.333333333333333 0.166666666666667 0.5
0.5 0.166666666666667 0.5
0.666666666666667 0.166666666666667 0.5
0.833333333333333 0.166666666666667 0.5
1 0.166666666666667 0.5
0 0.333333333333333 0.5
0.166666666666667 0.333333333333333 0.5
0.333333333333333 0.333333333333333 0.5
0.5 0.333333333333333 0.5
0.666666666666667 0.333333333333333 0.5
0.833333333333333 0.333333333333333 0.5
1 0.333333333333333 0.5
0 0.5 0.5
0.166666666666667 0.5 0.5
0.333333333333333 0.5 0.5
0.5 0.5 0.5
0.666666666666667 0.5 0.5
0.833333333333333 0.5 0.5
1 0.5 0.5
0 0.666666666666667 0.5
0.166666666666667 0.666666666666667 0.5
0.333333333333333 0.666666666666667 0.5
0.5 0.666666666666667 0.5
0.666666666666667 0.666666666666667 0.5
0.833333333333333 0.666666666666667 0.5
1 0.666666666666667 0.5
0 0.833333333333333 0.5
0.166666666666667 0.833333333333333 0.5
0.333333333333333 0.833333333333333 0.5
0.5 0.833333333333333 0.5
0.666666666666667 0.833333333333333 0.5
0.833333333333333 0.833333333333333 0.5
1 0.833333333333333 0.5
0 1 0.5
0.166666666666667 1 0.5
0.333333333333333 1 0.5
0.5 1 0.5
0.666666666666667 1 0.5
0.833333333333333 1 0.5
1 1 0.5
0 0 0.666666666666667
0.166666666666667 0 0.666666666666667
0.333333333333333 0 0.666666666666667
0.5 0 0.666666666666667
0.666666666666667 0 0.666666666666667
0.833333333333333 0 0.666666666666667
1 0 0.666666666666667
0 0.166666666666667 0.666666666666667
0.166666666666667 0.166666666666667 0.666666666666667
0.333333333333333 0.166666666666667 0.666666666666667
0.5 0.166666666666667 0.666666666666667
0.666666666666667 0.166666666666667 0.666666666666667
0.833333333333333 0.166666666666667 0.666666666666667
1 0.166666666666667 0.666666666666667
0 0.333333333333333 0.666666666666667
0.166666666666667 0.333333333333333 0.666666666666667
0.333333333333333 0.333333333333333 0.666666666666667
0.5 0.333333333333333 0.666666666666667
0.666666666666667 0.333333333333333 0.666666666666667
0.833333333333333 0.333333333333333 0.666666666666667
1 0.333333333333333 0.666666666666667
0 0.5 0.666666666666667
0.166666666666667 0.5 0.666666666666667
0.333333333333333 0.5 0.666666666666667
0.5 0.5 0.666666666666667
0.666666666666667 0.5 0.666666666666667
0.833333333333333 0.5 0.666666666666667
1 0.5 0.666666666666667
0 0.666666666666667 0.666666666666667
0.166666666666667 0.666666666666667 0.666666666666667
0.333333333333333 0.666666666666667 0.666666666666667
0.5 0.666666666666667 0.666666666666667
0.666666666666667 0.666666666666667 0.666666666666667
0.833333333333333 0.666666666666667 0.666666666666667
1 0.666666666666667 0.666666666666667
0 0.833333333333333 0.666666666666667
0.166666666666667 0.833333333333333 0.666666666666667
0.333333333333333 0.833333333333333 0.666666666666667
0.5 0.833333333333333 0.666666666666667
0.666666666666667 0.833333333333333 0.666666666666667
0.833333333333333 0.833333333333333 0.666666666666667
1 0.833333333333333 0.666666666666667
0 1 0.666666666666667
0.166666666666667 1 0.666666666666667
0.333333333333333 1 0.666666666666667
0.5 1 0.666666666666667
0.666666666666667 1 0.666666666666667
0.833333333333333 1 0.666666666666667
1 1 0.666666666666667
0 0 0.833333333333333
0.166666666666667 0 0.833333333333333
0.333333333333333 0 0.833333333333333
0.5 0 0.833333333333333
0.666666666666667 0 0.833333333333333
0.833333333333333 0 0.833333333333333
1 0 0.833333333333333
0 0.166666666666667 0.833333333333333
0.166666666666667 0.166666666666667 0.833333333333333
0.333333333333333 0.166666666666667 0.833333333333333
0.5 0.166666666666667 0.833333333333333
0.666666666666667 0.166666666666667 0.833333333333333
0.833333333333333 0.166666666666667 0.833333333333333
1 0.166666666666667 0.833333333333333
0 0.333333333333333 0.833333333333333
0.166666666666667 0.333333333333333 0.833333333333333
0.333333333333333 0.333333333333333 0.833333333333333
0.5 0.333333333333333 0.833333333333333
0.666666666666667 0.333333333333333 0.833333333333333
0.833333333333333 0.333333333333333 0.833333333333333
1 0.333333333333333 0.833333333333333
0 0.5 0.833333333333333
0.166666666666667 0.5 0.833333333333333
0.333333333333333 0.5 0.833333333333333
0.5 0.5 0.833333333333333
0.666666666666667 0.5 0.833333333333333
0.833333333333333 0.5 0.833333333333333
1 0.5 0.833333333333333
0 0.666666666666667 0.833333333333333
0.166666666666667 0.666666666666667 0.833333333333333
0.333333333333333 0.666666666666667 0.833333333333333
0.5 0.666666666666667 0.833333333333333
0.666666666666667 0.666666666666667 0.833333333333333
0.833333333333333 0.666666666666667 0.833333333333333
1 0.666666666666667 0.833333333333333
0 0.833333333333333 0.833333333333333
0.166666666666667 0.833333333333333 0.833333333333333
0.333333333333333 0.833333333333333 0.833333333333333
0.5 0.833333333333333 0.833333333333333
0.666666666666667 0.833333333333333 0.833333333333333
0.833333333333333 0.833333333333333 0.833333333333333
1 0.833333333333333 0.833333333333333
0 1 0.833333333333333
0.166666666666667 1 0.833333333333333
0.333333333333333 1 0.833333333333333
0.5 1 0.833333333333333
0.666666666666667 1 0.833333333333333
0.833333333333333 1 0.833333333333333
1 1 0.833333333333333
0 0 1
0.166666666666667 0 1
0.333333333333333 0 1
0.5 0 1
0.666666666666667 0 1
0.833333333333333 0 1
1 0 1
0 0.166666666666667 1
0.166666666666667 0.166666666666667 1
0.333333333333333 0.166666666666667 1
0.5 0.166666666666667 1
0.666666666666667 0.166666666666667 1
0.833333333333333 0.166666666666667 1
1 0.166666666666667 1
0 0.333333333333333 1
0.166666666666667 0.333333333333333 1
0.333333333333333 0.333333333333333 1
0.5 0.333333333333333 1
0.666666666666667 0.333333333333333 1
0.833333333333333 0.333333333333333 1
1 0.333333333333333 1
0 0.5 1
0.166666666666667 0.5 1
0.333333333333333 0.5 1
0.5 0.5 1
0.666666666666667 0.5 1
0.833333333333333 0.5 1
1 0.5 1
0 0.666666666666667 1
0.166666666666667 0.666666666666667 1
0.333333333333333 0.666666666666667 1
0.5 0.666666666666667 1
0.666666666666667 0.666666666666667 1
0.833333333333333 0.666666666666667 1
1 0.666666666666667 1
0 0.833333333333333 1
0.166666666666667 0.833333333333333 1
0.333333333333333 0.833333333333333 1
0.5 0.833333333333333 1
0.666666666666667 0.833333333333333 1
0.833333333333333 0.833333333333333 1
1 0.833333333333333 1
0 1 1
0.166666666666667 1 1
0.333333333333333 1 1
0.5 1 1
0.666666666666667 1 1
0.833333333333333 1 1
1 1 1

H	0 1 8 7 49 50 57 56
H	49 50 57 56 98 99 106 105
H	98 99 106 105 147 148 155 154
H	147 148 155 154 196 197 204 203
H	196 197 204 203 245 246 253 252
H	245 246 253 252 294 295 302 301
H	7 8 15 14 56 57 64 63
H	56 57 64 63 105 106 113 112
H	105 106 113 112 154 155 162 161
H	154 155 162 161 203 204 211 210
H	203 204 211 210 252 253 260 259
H	252 253 260 259 301 302 309 308
H	14 15 22 21 63 64 71 70
H	63 64 71 70 112 113 120 119
H	112 113 120 119 161 162 169 168
H	161 162 169 168 210 211 218 217
H	210 211 218 217 259 260 267 266
H	259 260 267 266 308 309 316 315
H	21 22 29 28 70 71 78 77
H	70 71 78 77 119 120 127 126
H	119 120 127 126 168 169 176 175
H	168 169 176 175 217 218 225 224
H	217 218 225 224 266 267 274 273
H	266 267 274 273 315 316 323 322
H	28 29 36 35 77 78 85 84
H	77 78 85 84 126 127 134 133
H	126 127 134 133 175 176 183 182
H	175 176 183 182 224 225 232 231
H	224 225 232 231 273 274 281 280
H	273 274 281 280 322 323 330 329
H	35 36 43 42 84 85 92 91
H	84 85 92 91 133 134 141 140
H	133 134 141 140 182 183 190 189
H	182 183 190 189 231 232 239 238
H	231 232 239 238 280 281 288 287
H	280 281 288 287 329 330 337 336
H	1 2 9 8 50 51 58 57
H	50 51 58 57 99 100 107 106
H	99 100 107 106 148 149 156 155
H	148 149 156 155 197 198 205 204
H	197 198 205 204 246 247 254 253
H	246 247 254 253 295 296 303 302
H	8 9 16 15 57 58 65 64
H	57 58 65 64 106 107 114 113
H	106 107 114 113 155 156 163 162
H	155 156 163 162 204 205 212 211
H	204 205 212 211 253 254 261 260
H	253 254 261 260 302 303 310 309
H	15 16 23 22 64 65 72 71
H	64 65 72 71 113 114 121 120
H	113 114 121 120 162 163 170 169
H	162 163 170 169 211 212 219 218
H	211 212 219 218 260 261 268 267
H	260 261 268 267 309 310 317 316
H	22 23 30 29 71 72 79 78
H	71 72 79 78 120 121 128 127
H	120 121 128 127 169 170 177 176
H	169 170 177 176 218 219 226 225
H	218 219 226 225 267 268 275 274
H	267 268 275 274 316 317 324 323
H	29 30 37 36 78 79 86 85
H	78 79 86 85 127 128 135 134
H	127 128 135 134 176 177 184 183
H	176 177 184 183 225 226 233 232
H	225 226 233 232 274 275 282 281
H	274 275 282 281 323 324 331 330
H	36 37 44 43 85 86 93 92
H	85 86 93 92 134 135 142 141
H	134 135 142 141 183 184 191 190
H	183 184 191 190 232 233 240 239
H	232 233 240 239 281 282 289 288
H	281 282 289 288 330 331 338 337
H	2 3 10 9 51 52 59 58
H	51 52 59 58 100 101 108 107
H	100 101 108 107 149 150 157 156
H	149 150 157 156 198 199 206 205
H	198 199 206 205 247 248 255 254
H	247 248 255 254 296 297 304 303
H	9 10 17 16 58 59 66 65
H	58 59 66 65 107 108 115 114
H	107 108 115 114 156 157 164 163
H	156 157 164 163 205 206 213 212
H	205 206 213 212 254 255 262 261
H	254 255 262 261 303 304 311 310
H	16 17 24 23 65 66 73 72
H	65 66 73 72 114 115 122 121
H	114 115 122 121 163 164 171 170
H	163 164 171 170 212 213 220 219
H	212 213 220 219 261 262 269 268
H	261 262 269 268 310 311 318 317
H	23 24 31 30 72 73 80 79
H	72 73 80 79 121 122 129 128
H	121 122 129 128 170 171 178 177
H	170 171 178 177 219 220 227 226
H	219 220 227 226 268 269 276 275
H	268 269 276 275 317 318 325 324
H	30 31 38 37 79 80 87 86
H	79 80 87 86 128 129 136 135
H	128 129 136 135 177 178 185 184
H	177 178 185 184 226 227 234 233
H	226 227 234 233 275 276 283 282
H	275 276 283 282 324 325 332 331
H	37 38 45 44 86 87 94 93
H	86 87 94 93 135 136 143 142
H	135 136 143 142 184 185 192 191
H	184 185 192 191 233 234 241 240
H	233 234 241 240 282 283 290 289
H	282 283 290 289 331 332 339 338
H	3 4 11 10 52 53 60 59
H	52 53 60 59 101 102 109 108
H	101 102 109 108 150 151 158 157
H	150 151 158 157 199 200 207 206
H	199 200 207 206 248 249 256 255
H	248 249 256 255 297 298 305 304
H	10 11 18 17 59 60 67 66
H	59 60 67 66 108 109 116 115
H	108 109 116 115 157 158 165 164
H	157 158 165 164 206 207 214 213
H	206 207 214 213 255 256 263 262
H	255 256 263 262 304 305 312 311
H	17 18 25 24 66 67 74 73
H	66 67 74 73 115 116 123 122
H	115 116 123 122 164 165 172 171
H	164 165 172 171 213 214 221 220
H	213 214 221 220 262 263 270 269
H	262 263 270 269 311 312 319 318
H	24 25 32 31 73 74 81 80
H	73 74 81 80 122 123 130 129
H	122 123 130 129 171 172 179 178
H	171 172 179 178 220 221 228 227
H	220 221 228 227 269 270 277 276
H	269 270 277 276 318 319 326 325
H	31 32 39 38 80 81 88 87
H	80 81 88 87 129 130 137 136
H	129 130 137 136 178 179 186 185
H	178 179 186 185 227 228 235 234
H	227 228 235 234 276 277 284 283
H	276 277 284 283 325 326 333 332
H	38 39 46 45 87 88 95 94
H	87 88 95 94 136 137 144 143
H	136 137 144 143 185 186 193 192
H	185 186 193 192 234 235 242 241
H	234 235 242 241 283 284 291 290
H	283 284 291 290 332 333 340 339
H	4 5 12 11 53 54 61 60
H	53 54 61 60 102 103 110 109
H	102 103 110 109 151 152 159 158
H	151 152 159 158 200 201 208 207
H	200 201 208 207 249 250 257 256
H	249 250 257 256 298 299 306 305
H	11 12 19 18 60 61 68 67
H	60 61 68 67 109 110 117 116
H	109 110 117 116 158 159 166 165
H	158 159 166 165 207 208 215 214
H	207 208 215 214 256 257 264 263
H	256 257 264 263 305 306 313 312
H	18 19 26 25 67 68 75 74
H	67 68 75 74 116 117 124 123
H	116 117 124 123 165 166 173 172
H	165 166 173 172 214 215 222 221
H	214 215 222 221 263 264 271 270
H	263 264 271 270 312 313 320 319
H	25 26 33 32 74 75 82 81
H	74 75 82 81 123 124 131 130
H	123 124 131 130 172 173 180 179
H	172 173 180 179 221 222 229 228
H	221 222 229 228 270 271 278 277
H	270 271 278 277 319 320 327 326
H	32 33 40 39 81 82 89 88
H	81 82 89 88 130 131 138 137
H	130 131 138 137 179 180 187 186
H	179 180 187 186 228 229 236 235
H	228 229 236 235 277 278 285 284
H	277 278 285 284 326 327 334 333
H	39 40 47 46 88 89 96 95
H	88 89 96 95 137 138 145 144
H	137 138 145 144 186 187 194 193
H	186 187 194 193 235 236 243 242
H	235 236 243 242 284 285 292 291
H	284 285 292 291 333 334 341 340
H	5 6 13 12 54 55 62 61
H	54 55 62 61 103 104 111 110
H	103 104 111 110 152 153 160 159
H	152 153 160 159 201 202 209 208
H	201 202 209 208 250 251 258 257
H	250 251 258 257 299 300 307 306
H	12 13 20 19 61 62 69 68
H	61 62 69 68 110 111 118 117
H	110 111 118 117 159 160 167 166
H	159 160 167 166 208 209 216 215
H	208 209 216 215 257 258 265 264
H	257 258 265 264 306 307 314 313
H	19 20 27 26 68 69 76 75
H	68 69 76 75 117 118 125 124
H	117 118 125 124 166 167 174 173
H	166 167 174 173 215 216 223 222
H	215 216 223 222 264 265 272 271
H	264 265 272 271 313 314 321 320
H	26 27 34 33 75 76 83 82
H	75 76 83 82 124 125 132 131
H	124 125 132 131 173 174 181 180
H	173 174 181 180 222 223 230 229
H	222 223 230 229 271 272 279 278
H	271 272 279 278 320 321 328 327
H	33 34 41 40 82 83 90 89
H	82 83 90 89 131 132 139 138
H	131 132 139 138 180 181 188 187
H	180 181 188 187 229 230 237 236
H	229 230 237 236 278 279 286 285
H	278 279 286 285 327 328 335 334
H	40 41 48 47 89 90 97 96
H	89 90 97 96 138 139 146 145
H	138 139 146 145 187 188 195 194
H	187 188 195 194 236 237 244 243
H	236 237 244 243 285 286 293 292
H	285 286 293 292 334 335 342 341

q	0 7 8 1
q	0 49 56 7
q	0 1 50 49
q	49 50 57 56
q	1 8 57 50
q	8 7 56 57
q	49 98 105 56
q	49 50 99 98
q	98 99 106 105
q	50 57 106 99
q	57 56 105 106
q	98 147 154 105
q	98 99 148 147
q	147 148 155 154
q	99 106 155 148
q	106 105 154 155
q	147 196 203 154
q	147 148 197 196
q	196 197 204 203
q	148 155 204 197
q	155 154 203 204
q	196 245 252 203
q	196 197 246 245
q	245 246 253 252
q	197 204 253 246
q	204 203 252 253
q	245 294 301 252
q	245 246 295 294
q	294 295 302 301
q	246 253 302 295
q	253 252 301 302
q	7 14 15 8
q	7 56 63 14
q	56 57 64 63
q	8 15 64 57
q	15 14 63 64
q	56 105 112 63
q	105 106 113 112
q	57 64 113 106
q	64 63 112 113
q	105 154 161 112
q	154 155 162 161
q	106 113 162 155
q	113 112 161 162
q	154 203 210 161
q	203 204 211 210
q	155 162 211 204
q	162 161 210 211
q	203 252 259 210
q	252 253 260 259
q	204 211 260 253
q	211 210 259 260
q	252 301 308 259
q	301 302 309 308
q	253 260 309 302
q	260 259 308 309
q	14 21 22 15
q	14 63 70 21
q	63 64 71 70
q	15 22 71 64
q	22 21 70 71
q	63 112 119 70
q	112 113 120 119
q	64 71 120 113
q	71 70 119 120
q	112 161 168 119
q	161 162 169 168
q	113 120 169 162
q	120 119 168 169
q	161 210 217 168
q	210 211 218 217
q	162 169 218 211
q	169 168 217 218
q	210 259 266 217
q	259 260 267 266
q	211 218 267 260
q	218 217 266 267
q	259 308 315 266
q	308 309 316 315
q	260 267 316 309
q	267 266 315 316
q	21 28 29 22
q	21 70 77 28
q	70 71 78 77
q	22 29 78 71
q	29 28 77 78
q	70 119 126 77
q	119 120 127 126
q	71 78 127 120
q	78 77 126 127
q	119 168 175 126
q	168 169 176 175
q	120 127 176 169
q	127 126 175 176
q	168 217 224 175
q	217 218 225 224
q	169 176 225 218
q	176 175 224 225
q	217 266 273 224
q	266 267 274 273
q	218 225 274 267
q	225 224 273 274
q	266 315 322 273
q	315 316 323 322
q	267 274 323 316
q	274 273 322 323
q	28 35 36 29
q	28 77 84 35
q	77 78 85 84
q	29 36 85 78
q	36 35 84 85
q	77 126 133 84
q	126 127 134 133
q	78 85 134 127
q	85 84 133 134
q	126 175 182 133
q	175 176 183 182
q	127 134 183 176
q	134 133 182 183
q	175 224 231 182
q	224 225 232 231
q	176 183 232 225
q	183 182 231 232
q	224 273 280 231
q	273 274 281 280
q	225 232 281 274
q	232 231 280 281
q	273 322 329 280
q	322 323 330 329
q	274 281 330 323
q	281 280 329 330
q	35 42 43 36
q	35 84 91 42
q	84 85 92 91
q	36 43 92 85
q	43 42 91 92
q	84 133 140 91
q	133 134 141 140
q	85 92 141 134
q	92 91 140 141
q	133 182 189 140
q	182 183 190 189
q	134 141 190 183
q	141 140 189 190
q	182 231 238 189
q	231 232 239 238
q	183 190 239 232
q	190 189 238 239
q	231 280 287 238
q	280 281 288 287
q	232 239 288 281
q	239 238 287 288
q	280 329 336 287
q	329 330 337 336
q	281 288 337 330
q	288 287 336 337
q	1 8 9 2
q	1 2 51 50
q	50 51 58 57
q	2 9 58 51
q	9 8 57 58
q	50 51 100 99
q	99 100 107 106
q	51 58 107 100
q	58 57 106 107
q	99 100 149 148
q	148 149 156 155
q	100 107 156 149
q	107 106 155 156
q	148 149 198 197
q	197 198 205 204
q	149 156 205 198
q	156 155 204 205
q	197 198 247 246
q	246 247 254 253
q	198 205 254 247
q	205 204 253 254
q	246 247 296 295
q	295 296 303 302
q	247 254 303 296
q	254 253 302 303
q	8 15 16 9
q	57 58 65 64
q	9 16 65 58
q	16 15 64 65
q	106 107 114 113
q	58 65 114 107
q	65 64 113 114
q	155 156 163 162
q	107 114 163 156
q	114 113 162 163
q	204 205 212 211
q	156 163 212 205
q	163 162 211 212
q	253 254 261 260
q	205 212 261 254
q	212 211 260 261
q	302 303 310 309
q	254 261 310 303
q	261 260 309 310
q	15 22 23 16
q	64 65 72 71
q	16 23 72 65
q	23 22 71 72
q	113 114 121 120
q	65 72 121 114
q	72 71 120 121
q	162 163 170 169
q	114 121 170 163
q	121 120 169 170
q	211 212 219 218
q	163 170 219 212
q	170 169 218 219
q	260 261 268 267
q	212 219 268 261
q	219 218 267 268
q	309 310 317 316
q	261 268 317 310
q	268 267 316 317
q	22 29 30 23
q	71 72 79 78
q	23 30 79 72
q	30 29 78 79
q	120 121 128 127
q	72 79 128 121
q	79 78 127 128
q	169 170 177 176
q	121 128 177 170
q	128 127 176 177
q	218 219 226 225
q	170 177 226 219
q	177 176 225 226
q	267 268 275 274
q	219 226 275 268
q	226 225 274 275
q	316 317 324 323
q	268 275 324 317
q	275 274 323 324
q	29 36 37 30
q	78 79 86 85
q	30 37 86 79
q	37 36 85 86
q	127 128 135 134
q	79 86 135 128
q	86 85 134 135
q	176 177 184 183
q	128 135 184 177
q	135 134 183 184
q	225 226 233 232
q	177 184 233 226
q	184 183 232 233
q	274 275 282 281
q	226 233 282 275
q	233 232 281 282
q	323 324 331 330
q	275 282 331 324
q	282 281 330 331
q	36 43 44 37
q	85 86 93 92
q	37 44 93 86
q	44 43 92 93
q	134 135 142 141
q	86 93 142 135
q	93 92 141 142
q	183 184 191 190
q	135 142 191 184
q	142 141 190 191
q	232 233 240 239
q	184 191 240 233
q	191 190 239 240
q	281 282 289 288
q	233 240 289 282
q	240 239 288 289
q	330 331 338 337
q	282 289 338 331
q	289 288 337 338
q	2 9 10 3
q	2 3 52 51
q	51 52 59 58
q	3 10 59 52
q	10 9 58 59
q	51 52 101 100
q	100 101 108 107
q	52 59 108 101
q	59 58 107 108
q	100 101 150 149
q	149 150 157 156
q	101 108 157 150
q	108 107 156 157
q	149 150 199 198
q	198 199 206 205
q	150 157 206 199
q	157 156 205 206
q	198 199 248 247
q	247 248 255 254
q	199 206 255 248
q	206 205 254 255
q	247 248 297 296
q	296 297 304 303
q	248 255 304 297
q	255 254 303 304
q	9 16 17 10
q	58 59 66 65
q	10 17 66 59
q	17 16 65 66
q	107 108 115 114
q	59 66 115 108
q	66 65 114 115
q	156 157 164 163
q	108 115 164 157
q	115 114 163 164
q	205 206 213 212
q	157 164 213 206
q	164 163 212 213
q	254 255 262 261
q	206 213 262 255
q	213 212 261 262
q	303 304 311 310
q	255 262 311 304
q	262 261 310 311
q	16 23 24 17
q	65 66 73 72
q	17 24 73 66
q	24 23 72 73
q	114 115 122 121
q	66 73 122 115
q	73 72 121 122
q	163 164 171 170
q	115 122 171 164
q	122 121 170 171
q	212 213 220 219
q	164 171 220 213
q	171 170 219 220
q	261 262 269 268
q	213 220 269 262
q	220 219 268 269
q	310 311 318 317
q	262 269 318 311
q	269 268 317 318
q	23 30 31 24
q	72 73 80 79
q	24 31 80 73
q	31 30 79 80
q	121 122 129 128
q	73 80 129 122
q	80 79 128 129
q	170 171 178 177
q	122 129 178 171
q	129 128 177 178
q	219 220 227 226
q	171 178 227 220
q	178 177 226 227
q	268 269 276 275
q	220 227 276 269
q	227 226 275 276
q	317 318 325 324
q	269 276 325 318
q	276 275 324 325
q	30 37 38 31
q	79 80 87 86
q	31 38 87 80
q	38 37 86 87
q	128 129 136 135
q	80 87 136 129
q	87 86 135 136
q	177 178 185 184
q	129 136 185 178
q	136 135 184 185
q	226 227 234 233
q	178 185 234 227
q	185 184 233 234
q	275 276 283 282
q	227 234 283 276
q	234 233 282 283
q	324 325 332 331
q	276 283 332 325
q	283 282 331 332
q	37 44 45 38
q	86 87 94 93
q	38 45 94 87
q	45 44 93 94
q	135 136 143 142
q	87 94 143 136
q	94 93 142 143
q	184 185 192 191
q	136 143 192 185
q	143 142 191 192
q	233 234 241 240
q	185 192 241 234
q	192 191 240 241
q	282 283 290 289
q	234 241 290 283
q	241 240 289 290
q	331 332 339 338
q	283 290 339 332
q	290 289 338 339
q	3 10 11 4
q	3 4 53 52
q	52 53 60 59
q	4 11 60 53
q	11 10 59 60
q	52 53 102 101
q	101 102 109 108
q	53 60 109 102
q	60 59 108 109
q	101 102 151 150
q	150 151 158 157
q	102 109 158 151
q	109 108 157 158
q	150 151 200 199
q	199 200 207 206
q	151 158 207 200
q	158 157 206 207
q	199 200 249 248
q	248 249 256 255
q	200 207 256 249
q	207 206 255 256
q	248 249 298 297
q	297 298 305 304
q	249 256 305 298
q	256 255 304 305
q	10 17 18 11
q	59 60 67 66
q	11 18 67 60
q	18 17 66 67
q	108 109 116 115
q	60 67 116 109
q	67 66 115 116
q	157 158 165 164
q	109 116 165 158
q	116 115 164 165
q	206 207 214 213
q	158 165 214 207
q	165 164 213 214
q	255 256 263 262
q	207 214 263 256
q	214 213 262 263
q	304 305 312 311
q	256 263 312 305
q	263 262 311 312
q	17 24 25 18
q	66 67 74 73
q	18 25 74 67
q	25 24 73 74
q	115 116 123 122
q	67 74 123 116
q	74 73 122 123
q	164 165 172 171
q	116 123 172 165
q	123 122 171 172
q	213 214 221 220
q	165 172 221 214
q	172 171 220 221
q	262 263 270 269
q	214 221 270 263
q	221 220 269 270
q	311 312 319 318
q	263 270 319 312
q	270 269 318 319
q	24 31 32 25
q	73 74 81 80
q	25 32 81 74
q	32 31 80 81
q	122 123 130 129
q	74 81 130 123
q	81 80 129 130
q	171 172 179 178
q	123 130 179 172
q	130 129 178 179
q	220 221 228 227
q	172 179 228 221
q	179 178 227 228
q	269 270 277 276
q	221 228 277 270
q	228 227 276 277
q	318 319 326 325
q	270 277 326 319
q	277 276 325 326
q	31 38 39 32
q	80 81 88 87
q	32 39 88 81
q	39 38 87 88
q	129 130 137 136
q	81 88 137 130
q	88 87 136 137
q	178 179 186 185
q	130 137 186 179
q	137 136 185 186
q	227 228 235 234
q	179 186 235 228
q	186 185 234 235
q	276 277 284 283
q	228 235 284 277
q	235 234 283 284
q	325 326 333 332
q	277 284 333 326
q	284 283 332 333
q	38 45 46 39
q	87 88 95 94
q	39 46 95 88
q	46 45 94 95
q	136 137 144 143
q	88 95 144 137
q	95 94 143 144
q	185 186 193 192
q	137 144 193 186
q	144 143 192 193
q	234 235 242 241
q	186 193 242 235
q	193 192 241 242
q	283 284 291 290
q	235 242 291 284
q	242 241 290 291
q	332 333 340 339
q	284 291 340 333
q	291 290 339 340
q	4 11 12 5
q	4 5 54 53
q	53 54 61 60
q	5 12 61 54
q	12 11 60 61
q	53 54 103 102
q	102 103 110 109
q	54 61 110 103
q	61 60 109 110
q	102 103 152 151
q	151 152 159 158
q	103 110 159 152
q	110 109 158 159
q	151 152 201 200
q	200 201 208 207
q	152 159 208 201
q	159 158 207 208
q	200 201 250 249
q	249 250 257 256
q	201 208 257 250
q	208 207 256 257
q	249 250 299 298
q	298 299 306 305
q	250 257 306 299
q	257 256 305 306
q	11 18 19 12
q	60 61 68 67
q	12 19 68 61
q	19 18 67 68
q	109 110 117 116
q	61 68 117 110
q	68 67 116 117
q	158 159 166 165
q	110 117 166 159
q	117 116 165 166
q	207 208 215 214
q	159 166 215 208
q	166 165 214 215
q	256 257 264 263
q	208 215 264 257
q	215 214 263 264
q	305 306 313 312
q	257 264 313 306
q	264 263 312 313
q	18 25 26 19
q	67 68 75 74
q	19 26 75 68
q	26 25 74 75
q	116 117 124 123
q	68 75 124 117
q	75 74 123 124
q	165 166 173 172
q	117 124 173 166
q	124 123 172 173
q	214 215 222 221
q	166 173 222 215
q	173 172 221 222
q	263 264 271 270
q	215 222 271 264
q	222 221 270 271
q	312 313 320 319
q	264 271 320 313
q	271 270 319 320
q	25 32 33 26
q	74 75 82 81
q	26 33 82 75
q	33 32 81 82
q	123 124 131 130
q	75 82 131 124
q	82 81 130 131
q	172 173 180 179
q	124 131 180 173
q	131 130 179 180
q	221 222 229 228
q	173 180 229 222
q	180 179 228 229
q	270 271 278 277
q	222 229 278 271
q	229 228 277 278
q	319 320 327 326
q	271 278 327 320
q	278 277 326 327
q	32 39 40 33
q	81 82 89 88
q	33 40 89 82
q	40 39 88 89
q	130 131 138 137
q	82 89 138 131
q	89 88 137 138
q	179 180 187 186
q	131 138 187 180
q	138 137 186 187
q	228 229 236 235
q	180 187 236 229
q	187 186 235 236
q	277 278 285 284
q	229 236 285 278
q	236 235 284 285
q	326 327 334 333
q	278 285 334 327
q	285 284 333 334
q	39 46 47 40
q	88 89 96 95
q	40 47 96 89
q	47 46 95 96
q	137 138 145 144
q	89 96 145 138
q	96 95 144 145
q	186 187 194 193
q	138 145 194 187
q	145 144 193 194
q	235 236 243 242
q	187 194 243 236
q	194 193 242 243
q	284 285 292 291
q	236 243 292 285
q	243 242 291 292
q	333 334 341 340
q	285 292 341 334
q	292 291 340 341
q	5 12 13 6
q	5 6 55 54
q	54 55 62 61
q	6 13 62 55
q	13 12 61 62
q	54 55 104 103
q	103 104 111 110
q	55 62 111 104
q	62 61 110 111
q	103 104 153 152
q	152 153 160 159
q	104 111 160 153
q	111 110 159 160
q	152 153 202 201
q	201 202 209 208
q	153 160 209 202
q	160 159 208 209
q	201 202 251 250
q	250 251 258 257
q	202 209 258 251
q	209 208 257 258
q	250 251 300 299
q	299 300 307 306
q	251 258 307 300
q	258 257 306 307
q	12 19 20 13
q	61 62 69 68
q	13 20 69 62
q	20 19 68 69
q	110 111 118 117
q	62 69 118 111
q	69 68 117 118
q	159 160 167 166
q	111 118 167 160
q	118 117 166 167
q	208 209 216 215
q	160 167 216 209
q	167 166 215 216
q	257 258 265 264
q	209 216 265 258
q	216 215 264 265
q	306 307 314 313
q	258 265 314 307
q	265 264 313 314
q	19 26 27 20
q	68 69 76 75
q	20 27 76 69
q	27 26 75 76
q	117 118 125 124
q	69 76 125 118
q	76 75 124 125
q	166 167 174 173
q	118 125 174 167
q	125 124 173 174
q	215 216 223 222
q	167 174 223 216
q	174 173 222 223
q	264 265 272 271
q	216 223 272 265
q	223 222 271 272
q	313 314 321 320
q	265 272 321 314
q	272 271 320 321
q	26 33 34 27
q	75 76 83 82
q	27 34 83 76
q	34 33 82 83
q	124 125 132 131
q	76 83 132 125
q	83 82 131 132
q	173 174 181 180
q	125 132 181 174
q	132 131 180 181
q	222 223 230 229
q	174 181 230 223
q	181 180 229 230
q	271 272 279 278
q	223 230 279 272
q	230 229 278 279
q	320 321 328 327
q	272 279 328 321
q	279 278 327 328
q	33 40 41 34
q	82 83 90 89
q	34 41 90 83
q	41 40 89 90
q	131 132 139 138
q	83 90 139 132
q	90 89 138 139
q	180 181 188 187
q	132 139 188 181
q	139 138 187 188
q	229 230 237 236
q	181 188 237 230
q	188 187 236 237
q	278 279 286 285
q	230 237 286 279
q	237 236 285 286
q	327 328 335 334
q	279 286 335 328
q	286 285 334 335
q	40 47 48 41
q	89 90 97 96
q	41 48 97 90
q	48 47 96 97
q	138 139 146 145
q	90 97 146 139
q	97 96 145 146
q	187 188 195 194
q	139 146 195 188
q	146 145 194 195
q	236 237 244 243
q	188 195 244 237
q	195 194 243 244
q	285 286 293 292
q	237 244 293 286
q	244 243 292 293
q	334 335 342 341
q	286 293 342 335
q	293 292 341 342
e	0 1
e	1 8
e	8 7
e	7 0
e	0 49
e	1 50
e	8 57
e	7 56
e	49 50
e	50 57
e	57 56
e	56 49
e	49 98
e	50 99
e	57 106
e	56 105
e	98 99
e	99 106
e	106 105
e	105 98
e	98 147
e	99 148
e	106 155
e	105 154
e	147 148
e	148 155
e	155 154
e	154 147
e	147 196
e	148 197
e	155 204
e	154 203
e	196 197
e	197 204
e	204 203
e	203 196
e	196 245
e	197 246
e	204 253
e	203 252
e	245 246
e	246 253
e	253 252
e	252 245
e	245 294
e	246 295
e	253 302
e	252 301
e	294 295
e	295 302
e	302 301
e	301 294
e	8 15
e	15 14
e	14 7
e	15 64
e	14 63
e	57 64
e	64 63
e	63 56
e	64 113
e	63 112
e	106 113
e	113 112
e	112 105
e	113 162
e	112 161
e	155 162
e	162 161
e	161 154
e	162 211
e	161 210
e	204 211
e	211 210
e	210 203
e	211 260
e	210 259
e	253 260
e	260 259
e	259 252
e	260 309
e	259 308
e	302 309
e	309 308
e	308 301
e	15 22
e	22 21
e	21 14
e	22 71
e	21 70
e	64 71
e	71 70
e	70 63
e	71 120
e	70 119
e	113 120
e	120 119
e	119 112
e	120 169
e	119 168
e	162 169
e	169 168
e	168 161
e	169 218
e	168 217
e	211 218
e	218 217
e	217 210
e	218 267
e	217 266
e	260 267
e	267 266
e	266 259
e	267 316
e	266 315
e	309 316
e	316 315
e	315 308
e	22 29
e	29 28
e	28 21
e	29 78
e	28 77
e	71 78
e	78 77
e	77 70
e	78 127
e	77 126
e	120 127
e	127 126
e	126 119
e	127 176
e	126 175
e	169 176
e	176 175
e	175 168
e	176 225
e	175 224
e	218 225
e	225 224
e	224 217
e	225 274
e	224 273
e	267 274
e	274 273
e	273 266
e	274 323
e	273 322
e	316 323
e	323 322
e	322 315
e	29 36
e	36 35
e	35 28
e	36 85
e	35 84
e	78 85
e	85 84
e	84 77
e	85 134
e	84 133
e	127 134
e	134 133
e	133 126
e	134 183
e	133 182
e	176 183
e	183 182
e	182 175
e	183 232
e	182 231
e	225 232
e	232 231
e	231 224
e	232 281
e	231 280
e	274 281
e	281 280
e	280 273
e	281 330
e	280 329
e	323 330
e	330 329
e	329 322
e	36 43
e	43 42
e	42 35
e	43 92
e	42 91
e	85 92
e	92 91
e	91 84
e	92 141
e	91 140
e	134 141
e	141 140
e	140 133
e	141 190
e	140 189
e	183 190
e	190 189
e	189 182
e	190 239
e	189 238
e	232 239
e	239 238
e	238 231
e	239 288
e	238 287
e	281 288
e	288 287
e	287 280
e	288 337
e	287 336
e	330 337
e	337 336
e	336 329
e	1 2
e	2 9
e	9 8
e	2 51
e	9 58
e	50 51
e	51 58
e	58 57
e	51 100
e	58 107
e	99 100
e	100 107
e	107 106
e	100 149
e	107 156
e	148 149
e	149 156
e	156 155
e	149 198
e	156 205
e	197 198
e	198 205
e	205 204
e	198 247
e	205 254
e	246 247
e	247 254
e	254 253
e	247 296
e	254 303
e	295 296
e	296 303
e	303 302
e	9 16
e	16 15
e	16 65
e	58 65
e	65 64
e	65 114
e	107 114
e	114 113
e	114 163
e	156 163
e	163 162
e	163 212
e	205 212
e	212 211
e	212 261
e	254 261
e	261 260
e	261 310
e	303 310
e	310 309
e	16 23
e	23 22
e	23 72
e	65 72
e	72 71
e	72 121
e	114 121
e	121 120
e	121 170
e	163 170
e	170 169
e	170 219
e	212 219
e	219 218
e	219 268
e	261 268
e	268 267
e	268 317
e	310 317
e	317 316
e	23 30
e	30 29
e	30 79
e	72 79
e	79 78
e	79 128
e	121 128
e	128 127
e	128 177
e	170 177
e	177 176
e	177 226
e	219 226
e	226 225
e	226 275
e	268 275
e	275 274
e	275 324
e	317 324
e	324 323
e	30 37
e	37 36
e	37 86
e	79 86
e	86 85
e	86 135
e	128 135
e	135 134
e	135 184
e	177 184
e	184 183
e	184 233
e	226 233
e	233 232
e	233 282
e	275 282
e	282 281
e	282 331
e	324 331
e	331 330
e	37 44
e	44 43
e	44 93
e	86 93
e	93 92
e	93 142
e	135 142
e	142 141
e	142 191
e	184 191
e	191 190
e	191 240
e	233 240
e	240 239
e	240 289
e	282 289
e	289 288
e	289 338
e	331 338
e	338 337
e	2 3
e	3 10
e	10 9
e	3 52
e	10 59
e	51 52
e	52 59
e	59 58
e	52 101
e	59 108
e	100 101
e	101 108
e	108 107
e	101 150
e	108 157
e	149 150
e	150 157
e	157 156
e	150 199
e	157 206
e	198 199
e	199 206
e	206 205
e	199 248
e	206 255
e	247 248
e	248 255
e	255 254
e	248 297
e	255 304
e	296 297
e	297 304
e	304 303
e	10 17
e	17 16
e	17 66
e	59 66
e	66 65
e	66 115
e	108 115
e	115 114
e	115 164
e	157 164
e	164 163
e	164 213
e	206 213
e	213 212
e	213 262
e	255 262
e	262 261
e	262 311
e	304 311
e	311 310
e	17 24
e	24 23
e	24 73
e	66 73
e	73 72
e	73 122
e	115 122
e	122 121
e	122 171
e	164 171
e	171 170
e	171 220
e	213 220
e	220 219
e	220 269
e	262 269
e	269 268
e	269 318
e	311 318
e	318 317
e	24 31
e	31 30
e	31 80
e	73 80
e	80 79
e	80 129
e	122 129
e	129 128
e	129 178
e	171 178
e	178 177
e	178 227
e	220 227
e	227 226
e	227 276
e	269 276
e	276 275
e	276 325
e	318 325
e	325 324
e	31 38
e	38 37
e	38 87
e	80 87
e	87 86
e	87 136
e	129 136
e	136 135
e	136 185
e	178 185
e	185 184
e	185 234
e	227 234
e	234 233
e	234 283
e	276 283
e	283 282
e	283 332
e	325 332
e	332 331
e	38 45
e	45 44
e	45 94
e	87 94
e	94 93
e	94 143
e	136 143
e	143 142
e	143 192
e	185 192
e	192 191
e	192 241
e	234 241
e	241 240
e	241 290
e	283 290
e	290 289
e	290 339
e	332 339
e	339 338
e	3 4
e	4 11
e	11 10
e	4 53
e	11 60
e	52 53
e	53 60
e	60 59
e	53 102
e	60 109
e	101 102
e	102 109
e	109 108
e	102 151
e	109 158
e	150 151
e	151 158
e	158 157
e	151 200
e	158 207
e	199 200
e	200 207
e	207 206
e	200 249
e	207 256
e	248 249
e	249 256
e	256 255
e	249 298
e	256 305
e	297 298
e	298 305
e	305 304
e	11 18
e	18 17
e	18 67
e	60 67
e	67 66
e	67 116
e	109 116
e	116 115
e	116 165
e	158 165
e	165 164
e	165 214
e	207 214
e	214 213
e	214 263
e	256 263
e	263 262
e	263 312
e	305 312
e	312 311
e	18 25
e	25 24
e	25 74
e	67 74
e	74 73
e	74 123
e	116 123
e	123 122
e	123 172
e	165 172
e	172 171
e	172 221
e	214 221
e	221 220
e	221 270
e	263 270
e	270 269
e	270 319
e	312 319
e	319 318
e	25 32
e	32 31
e	32 81
e	74 81
e	81 80
e	81 130
e	123 130
e	130 129
e	130 179
e	172 179
e	179 178
e	179 228
e	221 228
e	228 227
e	228 277
e	270 277
e	277 276
e	277 326
e	319 326
e	326 325
e	32 39
e	39 38
e	39 88
e	81 88
e	88 87
e	88 137
e	130 137
e	137 136
e	137 186
e	179 186
e	186 185
e	186 235
e	228 235
e	235 234
e	235 284
e	277 284
e	284 283
e	284 333
e	326 333
e	333 332
e	39 46
e	46 45
e	46 95
e	88 95
e	95 94
e	95 144
e	137 144
e	144 143
e	144 193
e	186 193
e	193 192
e	193 242
e	235 242
e	242 241
e	242 291
e	284 291
e	291 290
e	291 340
e	333 340
e	340 339
e	4 5
e	5 12
e	12 11
e	5 54
e	12 61
e	53 54
e	54 61
e	61 60
e	54 103
e	61 110
e	102 103
e	103 110
e	110 109
e	103 152
e	110 159
e	151 152
e	152 159
e	159 158
e	152 201
e	159 208
e	200 201
e	201 208
e	208 207
e	201 250
e	208 257
e	249 250
e	250 257
e	257 256
e	250 299
e	257 306
e	298 299
e	299 306
e	306 305
e	12 19
e	19 18
e	19 68
e	61 68
e	68 67
e	68 117
e	110 117
e	117 116
e	117 166
e	159 166
e	166 165
e	166 215
e	208 215
e	215 214
e	215 264
e	257 264
e	264 263
e	264 313
e	306 313
e	313 312
e	19 26
e	26 25
e	26 75
e	68 75
e	75 74
e	75 124
e	117 124
e	124 123
e	124 173
e	166 173
e	173 172
e	173 222
e	215 222
e	222 221
e	222 271
e	264 271
e	271 270
e	271 320
e	313 320
e	320 319
e	26 33
e	33 32
e	33 82
e	75 82
e	82 81
e	82 131
e	124 131
e	131 130
e	131 180
e	173 180
e	180 179
e	180 229
e	222 229
e	229 228
e	229 278
e	271 278
e	278 277
e	278 327
e	320 327
e	327 326
e	33 40
e	40 39
e	40 89
e	82 89
e	89 88
e	89 138
e	131 138
e	138 137
e	138 187
e	180 187
e	187 186
e	187 236
e	229 236
e	236 235
e	236 285
e	278 285
e	285 284
e	285 334
e	327 334
e	334 333
e	40 47
e	47 46
e	47 96
e	89 96
e	96 95
e	96 145
e	138 145
e	145 144
e	145 194
e	187 194
e	194 193
e	194 243
e	236 243
e	243 242
e	243 292
e	285 292
e	292 291
e	292 341
e	334 341
e	341 340
e	5 6
e	6 13
e	13 12
e	6 55
e	13 62
e	54 55
e	55 62
e	62 61
e	55 104
e	62 111
e	103 104
e	104 111
e	111 110
e	104 153
e	111 160
e	152 153
e	153 160
e	160 159
e	153 202
e	160 209
e	201 202
e	202 209
e	209 208
e	202 251
e	209 258
e	250 251
e	251 258
e	258 257
e	251 300
e	258 307
e	299 300
e	300 307
e	307 306
e	13 20
e	20 19
e	20 69
e	62 69
e	69 68
e	69 118
e	111 118
e	118 117
e	118 167
e	160 167
e	167 166
e	167 216
e	209 216
e	216 215
e	216 265
e	258 265
e	265 264
e	265 314
e	307 314
e	314 313
e	20 27
e	27 26
e	27 76
e	69 76
e	76 75
e	76 125
e	118 125
e	125 124
e	125 174
e	167 174
e	174 173
e	174 223
e	216 223
e	223 222
e	223 272
e	265 272
e	272 271
e	272 321
e	314 321
e	321 320
e	27 34
e	34 33
e	34 83
e	76 83
e	83 82
e	83 132
e	125 132
e	132 131
e	132 181
e	174 181
e	181 180
e	181 230
e	223 230
e	230 229
e	230 279
e	272 279
e	279 278
e	279 328
e	321 328
e	328 327
e	34 41
e	41 40
e	41 90
e	83 90
e	90 89
e	90 139
e	132 139
e	139 138
e	139 188
e	181 188
e	188 187
e	188 237
e	230 237
e	237 236
e	237 286
e	279 286
e	286 285
e	286 335
e	328 335
e	335 334
e	41 48
e	48 47
e	48 97
e	90 97
e	97 96
e	97 146
e	139 146
e	146 145
e	146 195
e	188 195
e	195 194
e	195 244
e	237 244
e	244 243
e	244 293
e	286 293
e	293 292
e	293 342
e	335 342
e	342 341

domain
bottom
2 2 36
0
31
56
81
106
131
156
181
200
219
238
257
276
301
320
339
358
377
396
421
440
459
478
497
516
541
560
579
598
617
636
661
680
699
718
737

domain
top
2 2 36
28
53
78
103
128
153
178
197
216
235
254
273
298
317
336
355
374
393
418
437
456
475
494
513
538
557
576
595
614
633
658
677
696
715
734
753

domain
left
2 2 36
2
7
12
17
22
27
157
161
165
169
173
177
277
281
285
289
293
297
397
401
405
409
413
417
517
521
525
529
533
537
637
641
645
649
653
657

domain
front
2 2 36
639
643
647
651
655
659
663
666
669
672
675
678
682
685
688
691
694
697
701
704
707
710
713
716
720
723
726
729
732
735
739
742
745
748
751
754

domain
right
2 2 36
135
139
143
147
151
155
260
263
266
269
272
275
380
383
386
389
392
395
500
503
506
509
512
515
620
623
626
629
632
635
740
743
746
749
752
755

domain
back
2 2 36
1
6
11
16
21
26
32
36
40
44
48
52
57
61
65
69
73
77
82
86
90
94
98
102
107
111
115
119
123
127
132
136
140
144
148
152

domain
boundary
2 2 216
0
31
56
81
106
131
156
181
200
219
238
257
276
301
320
339
358
377
396
421
440
459
478
497
516
541
560
579
598
617
636
661
680
699
718
737
28
53
78
103
128
153
178
197
216
235
254
273
298
317
336
355
374
393
418
437
456
475
494
513
538
557
576
595
614
633
658
677
696
715
734
753
2
7
12
17
22
27
157
161
165
169
173
177
277
281
285
289
293
297
397
401
405
409
413
417
517
521
525
529
533
537
637
641
645
649
653
657
639
643
647
651
655
659
663
666
669
672
675
678
682
685
688
691
694
697
701
704
707
710
713
716
720
723
726
729
732
735
739
742
745
748
751
754
135
139
143
147
151
155
260
263
266
269
272
275
380
383
386
389
392
395
500
503
506
509
512
515
620
623
626
629
632
635
740
743
746
749
752
755
1
6
11
16
21
26
32
36
40
44
48
52
57
61
65
69
73
77
82
86
90
94
98
102
107
111
115
119
123
127
132
136
140
144
148
152
