#!geo
mesh
4
header
 dimension 3
 nodes 125
 tetrahedra 384
end header

0 0 0
0.25 0 0
0.5 0 0
0.75 0 0
1 0 0
0 0.25 0
0.25 0.25 0
0.5 0.25 0
0.75 0.25 0
1 0.25 0
0 0.5 0
0.25 0.5 0
0.5 0.5 0
0.75 0.5 0
1 0.5 0
0 0.75 0
0.25 0.75 0
0.5 0.75 0
0.75 0.75 0
1 0.75 0
0 1 0
0.25 1 0
0.5 1 0
0.75 1 0
1 1 0
0 0 0.25
0.25 0 0.25
0.5 0 0.25
0.75 0 0.25
1 0 0.25
0 0.25 0.25
0.25 0.25 0.25
0.5 0.25 0.25
0.75 0.25 0.25
1 0.25 0.25
0 0.5 0.25
0.25 0.5 0.25
0.5 0.5 0.25
0.75 0.5 0.25
1 0.5 0.25
0 0.75 0.25
0.25 0.75 0.25
0.5 0.75 0.25
0.75 0.75 0.25
1 0.75 0.25
0 1 0.25
0.25 1 0.25
0.5 1 0.25
0.75 1 0.25
1 1 0.25
0 0 0.5
0.25 0 0.5
0.5 0 0.5
0.75 0 0.5
1 0 0.5
0 0.25 0.5
0.25 0.25 0.5
0.5 0.25 0.5
0.75 0.25 0.5
1 0.25 0.5
0 0.5 0.5
0.25 0.5 0.5
0.5 0.5 0.5
0.75 0.5 0.5
1 0.5 0.5
0 0.75 0.5
0.25 0.75 0.5
0.5 0.75 0.5
0.75 0.75 0.5
1 0.75 0.5
0 1 0.5
0.25 1 0.5
0.5 1 0.5
0.75 1 0.5
1 1 0.5
0 0 0.75
0.25 0 0.75
0.5 0 0.75
0.75 0 0.75
1 0 0.75
0 0.25 0.75
0.25 0.25 0.75
0.5 0.25 0.75
0.75 0.25 0.75
1 0.25 0.75
0 0.5 0.75
0.25 0.5 0.75
0.5 0.5 0.75
0.75 0.5 0.75
1 0.5 0.75
0 0.75 0.75
0.25 0.75 0.75
0.5 0.75 0.75
0.75 0.75 0.75
1 0.75 0.75
0 1 0.75
0.25 1 0.75
0.5 1 0.75
0.75 1 0.75
1 1 0.75
0 0 1
0.25 0 1
0.5 0 1
0.75 0 1
1 0 1
0 0.25 1
0.25 0.25 1
0.5 0.25 1
0.75 0.25 1
1 0.25 1
0 0.5 1
0.25 0.5 1
0.5 0.5 1
0.75 0.5 1
1 0.5 1
0 0.75 1
0.25 0.75 1
0.5 0.75 1
0.75 0.75 1
1 0.75 1
0 1 1
0.25 1 1
0.5 1 1
0.75 1 1
1 1 1

T	1 6 0 26
T	31 26 25 6
T	25 6 26 0
T	30 31 25 5
T	0 25 6 5
T	31 6 25 5
T	26 31 25 51
T	56 51 50 31
T	50 31 51 25
T	55 56 50 30
T	25 50 31 30
T	56 31 50 30
T	51 56 50 76
T	81 76 75 56
T	75 56 76 50
T	80 81 75 55
T	50 75 56 55
T	81 56 75 55
T	76 81 75 101
T	106 101 100 81
T	100 81 101 75
T	105 106 100 80
T	75 100 81 80
T	106 81 100 80
T	6 11 5 31
T	36 31 30 11
T	30 11 31 5
T	35 36 30 10
T	5 30 11 10
T	36 11 30 10
T	31 36 30 56
T	61 56 55 36
T	55 36 56 30
T	60 61 55 35
T	30 55 36 35
T	61 36 55 35
T	56 61 55 81
T	86 81 80 61
T	80 61 81 55
T	85 86 80 60
T	55 80 61 60
T	86 61 80 60
T	81 86 80 106
T	111 106 105 86
T	105 86 106 80
T	110 111 105 85
T	80 105 86 85
T	111 86 105 85
T	11 16 10 36
T	41 36 35 16
T	35 16 36 10
T	40 41 35 15
T	10 35 16 15
T	41 16 35 15
T	36 41 35 61
T	66 61 60 41
T	60 41 61 35
T	65 66 60 40
T	35 60 41 40
T	66 41 60 40
T	61 66 60 86
T	91 86 85 66
T	85 66 86 60
T	90 91 85 65
T	60 85 66 65
T	91 66 85 65
T	86 91 85 111
T	116 111 110 91
T	110 91 111 85
T	115 116 110 90
T	85 110 91 90
T	116 91 110 90
T	16 21 15 41
T	46 41 40 21
T	40 21 41 15
T	45 46 40 20
T	15 40 21 20
T	46 21 40 20
T	41 46 40 66
T	71 66 65 46
T	65 46 66 40
T	70 71 65 45
T	40 65 46 45
T	71 46 65 45
T	66 71 65 91
T	96 91 90 71
T	90 71 91 65
T	95 96 90 70
T	65 90 71 70
T	96 71 90 70
T	91 96 90 116
T	121 116 115 96
T	115 96 116 90
T	120 121 115 95
T	90 115 96 95
T	121 96 115 95
T	2 7 1 27
T	32 27 26 7
T	26 7 27 1
T	31 32 26 6
T	1 26 7 6
T	32 7 26 6
T	27 32 26 52
T	57 52 51 32
T	51 32 52 26
T	56 57 51 31
T	26 51 32 31
T	57 32 51 31
T	52 57 51 77
T	82 77 76 57
T	76 57 77 51
T	81 82 76 56
T	51 76 57 56
T	82 57 76 56
T	77 82 76 102
T	107 102 101 82
T	101 82 102 76
T	106 107 101 81
T	76 101 82 81
T	107 82 101 81
T	7 12 6 32
T	37 32 31 12
T	31 12 32 6
T	36 37 31 11
T	6 31 12 11
T	37 12 31 11
T	32 37 31 57
T	62 57 56 37
T	56 37 57 31
T	61 62 56 36
T	31 56 37 36
T	62 37 56 36
T	57 62 56 82
T	87 82 81 62
T	81 62 82 56
T	86 87 81 61
T	56 81 62 61
T	87 62 81 61
T	82 87 81 107
T	112 107 106 87
T	106 87 107 81
T	111 112 106 86
T	81 106 87 86
T	112 87 106 86
T	12 17 11 37
T	42 37 36 17
T	36 17 37 11
T	41 42 36 16
T	11 36 17 16
T	42 17 36 16
T	37 42 36 62
T	67 62 61 42
T	61 42 62 36
T	66 67 61 41
T	36 61 42 41
T	67 42 61 41
T	62 67 61 87
T	92 87 86 67
T	86 67 87 61
T	91 92 86 66
T	61 86 67 66
T	92 67 86 66
T	87 92 86 112
T	117 112 111 92
T	111 92 112 86
T	116 117 111 91
T	86 111 92 91
T	117 92 111 91
T	17 22 16 42
T	47 42 41 22
T	41 22 42 16
T	46 47 41 21
T	16 41 22 21
T	47 22 41 21
T	42 47 41 67
T	72 67 66 47
T	66 47 67 41
T	71 72 66 46
T	41 66 47 46
T	72 47 66 46
T	67 72 66 92
T	97 92 91 72
T	91 72 92 66
T	96 97 91 71
T	66 91 72 71
T	97 72 91 71
T	92 97 91 117
T	122 117 116 97
T	116 97 117 91
T	121 122 116 96
T	91 116 97 96
T	122 97 116 96
T	3 8 2 28
T	33 28 27 8
T	27 8 28 2
T	32 33 27 7
T	2 27 8 7
T	33 8 27 7
T	28 33 27 53
T	58 53 52 33
T	52 33 53 27
T	57 58 52 32
T	27 52 33 32
T	58 33 52 32
T	53 58 52 78
T	83 78 77 58
T	77 58 78 52
T	82 83 77 57
T	52 77 58 57
T	83 58 77 57
T	78 83 77 103
T	108 103 102 83
T	102 83 103 77
T	107 108 102 82
T	77 102 83 82
T	108 83 102 82
T	8 13 7 33
T	38 33 32 13
T	32 13 33 7
T	37 38 32 12
T	7 32 13 12
T	38 13 32 12
T	33 38 32 58
T	63 58 57 38
T	57 38 58 32
T	62 63 57 37
T	32 57 38 37
T	63 38 57 37
T	58 63 57 83
T	88 83 82 63
T	82 63 83 57
T	87 88 82 62
T	57 82 63 62
T	88 63 82 62
T	83 88 82 108
T	113 108 107 88
T	107 88 108 82
T	112 113 107 87
T	82 107 88 87
T	113 88 107 87
T	13 18 12 38
T	43 38 37 18
T	37 18 38 12
T	42 43 37 17
T	12 37 18 17
T	43 18 37 17
T	38 43 37 63
T	68 63 62 43
T	62 43 63 37
T	67 68 62 42
T	37 62 43 42
T	68 43 62 42
T	63 68 62 88
T	93 88 87 68
T	87 68 88 62
T	92 93 87 67
T	62 87 68 67
T	93 68 87 67
T	88 93 87 113
T	118 113 112 93
T	112 93 113 87
T	117 118 112 92
T	87 112 93 92
T	118 93 112 92
T	18 23 17 43
T	48 43 42 23
T	42 23 43 17
T	47 48 42 22
T	17 42 23 22
T	48 23 42 22
T	43 48 42 68
T	73 68 67 48
T	67 48 68 42
T	72 73 67 47
T	42 67 48 47
T	73 48 67 47
T	68 73 67 93
T	98 93 92 73
T	92 73 93 67
T	97 98 92 72
T	67 92 73 72
T	98 73 92 72
T	93 98 92 118
T	123 118 117 98
T	117 98 118 92
T	122 123 117 97
T	92 117 98 97
T	123 98 117 97
T	4 9 3 29
T	34 29 28 9
T	28 9 29 3
T	33 34 28 8
T	3 28 9 8
T	34 9 28 8
T	29 34 28 54
T	59 54 53 34
T	53 34 54 28
T	58 59 53 33
T	28 53 34 33
T	59 34 53 33
T	54 59 53 79
T	84 79 78 59
T	78 59 79 53
T	83 84 78 58
T	53 78 59 58
T	84 59 78 58
T	79 84 78 104
T	109 104 103 84
T	103 84 104 78
T	108 109 103 83
T	78 103 84 83
T	109 84 103 83
T	9 14 8 34
T	39 34 33 14
T	33 14 34 8
T	38 39 33 13
T	8 33 14 13
T	39 14 33 13
T	34 39 33 59
T	64 59 58 39
T	58 39 59 33
T	63 64 58 38
T	33 58 39 38
T	64 39 58 38
T	59 64 58 84
T	89 84 83 64
T	83 64 84 58
T	88 89 83 63
T	58 83 64 63
T	89 64 83 63
T	84 89 83 109
T	114 109 108 89
T	108 89 109 83
T	113 114 108 88
T	83 108 89 88
T	114 89 108 88
T	14 19 13 39
T	44 39 38 19
T	38 19 39 13
T	43 44 38 18
T	13 38 19 18
T	44 19 38 18
T	39 44 38 64
T	69 64 63 44
T	63 44 64 38
T	68 69 63 43
T	38 63 44 43
T	69 44 63 43
T	64 69 63 89
T	94 89 88 69
T	88 69 89 63
T	93 94 88 68
T	63 88 69 68
T	94 69 88 68
T	89 94 88 114
T	119 114 113 94
T	113 94 114 88
T	118 119 113 93
T	88 113 94 93
T	119 94 113 93
T	19 24 18 44
T	49 44 43 24
T	43 24 44 18
T	48 49 43 23
T	18 43 24 23
T	49 24 43 23
T	44 49 43 69
T	74 69 68 49
T	68 49 69 43
T	73 74 68 48
T	43 68 49 48
T	74 49 68 48
T	69 74 68 94
T	99 94 93 74
T	93 74 94 68
T	98 99 93 73
T	68 93 74 73
T	99 74 93 73
T	94 99 93 119
T	124 119 118 99
T	118 99 119 93
T	123 124 118 98
T	93 118 99 98
T	124 99 118 98

domain
boundary
1 2 192
t	0 6 1
t	0 5 6
t	5 11 6
t	5 10 11
t	10 16 11
t	10 15 16
t	15 21 16
t	15 20 21
t	1 7 2
t	1 6 7
t	6 12 7
t	6 11 12
t	11 17 12
t	11 16 17
t	16 22 17
t	16 21 22
t	2 8 3
t	2 7 8
t	7 13 8
t	7 12 13
t	12 18 13
t	12 17 18
t	17 23 18
t	17 22 23
t	3 9 4
t	3 8 9
t	8 14 9
t	8 13 14
t	13 19 14
t	13 18 19
t	18 24 19
t	18 23 24
t	100 101 106
t	100 106 105
t	105 106 111
t	105 111 110
t	110 111 116
t	110 116 115
t	115 116 121
t	115 121 120
t	101 102 107
t	101 107 106
t	106 107 112
t	106 112 111
t	111 112 117
t	111 117 116
t	116 117 122
t	116 122 121
t	102 103 108
t	102 108 107
t	107 108 113
t	107 113 112
t	112 113 118
t	112 118 117
t	117 118 123
t	117 123 122
t	103 104 109
t	103 109 108
t	108 109 114
t	108 114 113
t	113 114 119
t	113 119 118
t	118 119 124
t	118 124 123
t	0 1 26
t	0 26 25
t	25 26 51
t	25 51 50
t	50 51 76
t	50 76 75
t	75 76 101
t	75 101 100
t	1 2 27
t	1 27 26
t	26 27 52
t	26 52 51
t	51 52 77
t	51 77 76
t	76 77 102
t	76 102 101
t	2 3 28
t	2 28 27
t	27 28 53
t	27 53 52
t	52 53 78
t	52 78 77
t	77 78 103
t	77 103 102
t	3 4 29
t	3 29 28
t	28 29 54
t	28 54 53
t	53 54 79
t	53 79 78
t	78 79 104
t	78 104 103
t	4 9 29
t	9 34 29
t	29 34 54
t	34 59 54
t	54 59 79
t	59 84 79
t	79 84 104
t	84 109 104
t	9 14 34
t	14 39 34
t	34 39 59
t	39 64 59
t	59 64 84
t	64 89 84
t	84 89 109
t	89 114 109
t	14 19 39
t	19 44 39
t	39 44 64
t	44 69 64
t	64 69 89
t	69 94 89
t	89 94 114
t	94 119 114
t	19 24 44
t	24 49 44
t	44 49 69
t	49 74 69
t	69 74 94
t	74 99 94
t	94 99 119
t	99 124 119
t	20 46 21
t	20 45 46
t	45 71 46
t	45 70 71
t	70 96 71
t	70 95 96
t	95 121 96
t	95 120 121
t	21 47 22
t	21 46 47
t	46 72 47
t	46 71 72
t	71 97 72
t	71 96 97
t	96 122 97
t	96 121 122
t	22 48 23
t	22 47 48
t	47 73 48
t	47 72 73
t	72 98 73
t	72 97 98
t	97 123 98
t	97 122 123
t	23 49 24
t	23 48 49
t	48 74 49
t	48 73 74
t	73 99 74
t	73 98 99
t	98 124 99
t	98 123 124
t	0 25 5
t	5 25 30
t	25 50 30
t	30 50 55
t	50 75 55
t	55 75 80
t	75 100 80
t	80 100 105
t	5 30 10
t	10 30 35
t	30 55 35
t	35 55 60
t	55 80 60
t	60 80 85
t	80 105 85
t	85 105 110
t	10 35 15
t	15 35 40
t	35 60 40
t	40 60 65
t	60 85 65
t	65 85 90
t	85 110 90
t	90 110 115
t	15 40 20
t	20 40 45
t	40 65 45
t	45 65 70
t	65 90 70
t	70 90 95
t	90 115 95
t	95 115 120

domain
bottom
1 2 32
t	0 6 1
t	0 5 6
t	5 11 6
t	5 10 11
t	10 16 11
t	10 15 16
t	15 21 16
t	15 20 21
t	1 7 2
t	1 6 7
t	6 12 7
t	6 11 12
t	11 17 12
t	11 16 17
t	16 22 17
t	16 21 22
t	2 8 3
t	2 7 8
t	7 13 8
t	7 12 13
t	12 18 13
t	12 17 18
t	17 23 18
t	17 22 23
t	3 9 4
t	3 8 9
t	8 14 9
t	8 13 14
t	13 19 14
t	13 18 19
t	18 24 19
t	18 23 24

domain
top
1 2 32
t	100 101 106
t	100 106 105
t	105 106 111
t	105 111 110
t	110 111 116
t	110 116 115
t	115 116 121
t	115 121 120
t	101 102 107
t	101 107 106
t	106 107 112
t	106 112 111
t	111 112 117
t	111 117 116
t	116 117 122
t	116 122 121
t	102 103 108
t	102 108 107
t	107 108 113
t	107 113 112
t	112 113 118
t	112 118 117
t	117 118 123
t	117 123 122
t	103 104 109
t	103 109 108
t	108 109 114
t	108 114 113
t	113 114 119
t	113 119 118
t	118 119 124
t	118 124 123

domain
left
1 2 32
t	0 1 26
t	0 26 25
t	25 26 51
t	25 51 50
t	50 51 76
t	50 76 75
t	75 76 101
t	75 101 100
t	1 2 27
t	1 27 26
t	26 27 52
t	26 52 51
t	51 52 77
t	51 77 76
t	76 77 102
t	76 102 101
t	2 3 28
t	2 28 27
t	27 28 53
t	27 53 52
t	52 53 78
t	52 78 77
t	77 78 103
t	77 103 102
t	3 4 29
t	3 29 28
t	28 29 54
t	28 54 53
t	53 54 79
t	53 79 78
t	78 79 104
t	78 104 103

domain
front
1 2 32
t	4 9 29
t	9 34 29
t	29 34 54
t	34 59 54
t	54 59 79
t	59 84 79
t	79 84 104
t	84 109 104
t	9 14 34
t	14 39 34
t	34 39 59
t	39 64 59
t	59 64 84
t	64 89 84
t	84 89 109
t	89 114 109
t	14 19 39
t	19 44 39
t	39 44 64
t	44 69 64
t	64 69 89
t	69 94 89
t	89 94 114
t	94 119 114
t	19 24 44
t	24 49 44
t	44 49 69
t	49 74 69
t	69 74 94
t	74 99 94
t	94 99 119
t	99 124 119

domain
right
1 2 32
t	20 46 21
t	20 45 46
t	45 71 46
t	45 70 71
t	70 96 71
t	70 95 96
t	95 121 96
t	95 120 121
t	21 47 22
t	21 46 47
t	46 72 47
t	46 71 72
t	71 97 72
t	71 96 97
t	96 122 97
t	96 121 122
t	22 48 23
t	22 47 48
t	47 73 48
t	47 72 73
t	72 98 73
t	72 97 98
t	97 123 98
t	97 122 123
t	23 49 24
t	23 48 49
t	48 74 49
t	48 73 74
t	73 99 74
t	73 98 99
t	98 124 99
t	98 123 124

domain
back
1 2 32
t	0 25 5
t	5 25 30
t	25 50 30
t	30 50 55
t	50 75 55
t	55 75 80
t	75 100 80
t	80 100 105
t	5 30 10
t	10 30 35
t	30 55 35
t	35 55 60
t	55 80 60
t	60 80 85
t	80 105 85
t	85 105 110
t	10 35 15
t	15 35 40
t	35 60 40
t	40 60 65
t	60 85 65
t	65 85 90
t	85 110 90
t	90 110 115
t	15 40 20
t	20 40 45
t	40 65 45
t	45 65 70
t	65 90 70
t	70 90 95
t	90 115 95
t	95 115 120

