#!geo

mesh
4
header
 dimension 3
 nodes	125
 tetrahedra	384
 triangles	864
 edges	604
end header

0 0 0
0.25 0 0
0.5 0 0
0.75 0 0
1 0 0
0 0.25 0
0.25 0.25 0
0.5 0.25 0
0.75 0.25 0
1 0.25 0
0 0.5 0
0.25 0.5 0
0.5 0.5 0
0.75 0.5 0
1 0.5 0
0 0.75 0
0.25 0.75 0
0.5 0.75 0
0.75 0.75 0
1 0.75 0
0 1 0
0.25 1 0
0.5 1 0
0.75 1 0
1 1 0
0 0 0.25
0.25 0 0.25
0.5 0 0.25
0.75 0 0.25
1 0 0.25
0 0.25 0.25
0.25 0.25 0.25
0.5 0.25 0.25
0.75 0.25 0.25
1 0.25 0.25
0 0.5 0.25
0.25 0.5 0.25
0.5 0.5 0.25
0.75 0.5 0.25
1 0.5 0.25
0 0.75 0.25
0.25 0.75 0.25
0.5 0.75 0.25
0.75 0.75 0.25
1 0.75 0.25
0 1 0.25
0.25 1 0.25
0.5 1 0.25
0.75 1 0.25
1 1 0.25
0 0 0.5
0.25 0 0.5
0.5 0 0.5
0.75 0 0.5
1 0 0.5
0 0.25 0.5
0.25 0.25 0.5
0.5 0.25 0.5
0.75 0.25 0.5
1 0.25 0.5
0 0.5 0.5
0.25 0.5 0.5
0.5 0.5 0.5
0.75 0.5 0.5
1 0.5 0.5
0 0.75 0.5
0.25 0.75 0.5
0.5 0.75 0.5
0.75 0.75 0.5
1 0.75 0.5
0 1 0.5
0.25 1 0.5
0.5 1 0.5
0.75 1 0.5
1 1 0.5
0 0 0.75
0.25 0 0.75
0.5 0 0.75
0.75 0 0.75
1 0 0.75
0 0.25 0.75
0.25 0.25 0.75
0.5 0.25 0.75
0.75 0.25 0.75
1 0.25 0.75
0 0.5 0.75
0.25 0.5 0.75
0.5 0.5 0.75
0.75 0.5 0.75
1 0.5 0.75
0 0.75 0.75
0.25 0.75 0.75
0.5 0.75 0.75
0.75 0.75 0.75
1 0.75 0.75
0 1 0.75
0.25 1 0.75
0.5 1 0.75
0.75 1 0.75
1 1 0.75
0 0 1
0.25 0 1
0.5 0 1
0.75 0 1
1 0 1
0 0.25 1
0.25 0.25 1
0.5 0.25 1
0.75 0.25 1
1 0.25 1
0 0.5 1
0.25 0.5 1
0.5 0.5 1
0.75 0.5 1
1 0.5 1
0 0.75 1
0.25 0.75 1
0.5 0.75 1
0.75 0.75 1
1 0.75 1
0 1 1
0.25 1 1
0.5 1 1
0.75 1 1
1 1 1

T	1 6 0 26
T	31 26 25 6
T	25 6 26 0
T	30 31 25 5
T	0 25 6 5
T	31 6 25 5
T	26 31 25 51
T	56 51 50 31
T	50 31 51 25
T	55 56 50 30
T	25 50 31 30
T	56 31 50 30
T	51 56 50 76
T	81 76 75 56
T	75 56 76 50
T	80 81 75 55
T	50 75 56 55
T	81 56 75 55
T	76 81 75 101
T	106 101 100 81
T	100 81 101 75
T	105 106 100 80
T	75 100 81 80
T	106 81 100 80
T	6 11 5 31
T	36 31 30 11
T	30 11 31 5
T	35 36 30 10
T	5 30 11 10
T	36 11 30 10
T	31 36 30 56
T	61 56 55 36
T	55 36 56 30
T	60 61 55 35
T	30 55 36 35
T	61 36 55 35
T	56 61 55 81
T	86 81 80 61
T	80 61 81 55
T	85 86 80 60
T	55 80 61 60
T	86 61 80 60
T	81 86 80 106
T	111 106 105 86
T	105 86 106 80
T	110 111 105 85
T	80 105 86 85
T	111 86 105 85
T	11 16 10 36
T	41 36 35 16
T	35 16 36 10
T	40 41 35 15
T	10 35 16 15
T	41 16 35 15
T	36 41 35 61
T	66 61 60 41
T	60 41 61 35
T	65 66 60 40
T	35 60 41 40
T	66 41 60 40
T	61 66 60 86
T	91 86 85 66
T	85 66 86 60
T	90 91 85 65
T	60 85 66 65
T	91 66 85 65
T	86 91 85 111
T	116 111 110 91
T	110 91 111 85
T	115 116 110 90
T	85 110 91 90
T	116 91 110 90
T	16 21 15 41
T	46 41 40 21
T	40 21 41 15
T	45 46 40 20
T	15 40 21 20
T	46 21 40 20
T	41 46 40 66
T	71 66 65 46
T	65 46 66 40
T	70 71 65 45
T	40 65 46 45
T	71 46 65 45
T	66 71 65 91
T	96 91 90 71
T	90 71 91 65
T	95 96 90 70
T	65 90 71 70
T	96 71 90 70
T	91 96 90 116
T	121 116 115 96
T	115 96 116 90
T	120 121 115 95
T	90 115 96 95
T	121 96 115 95
T	2 7 1 27
T	32 27 26 7
T	26 7 27 1
T	31 32 26 6
T	1 26 7 6
T	32 7 26 6
T	27 32 26 52
T	57 52 51 32
T	51 32 52 26
T	56 57 51 31
T	26 51 32 31
T	57 32 51 31
T	52 57 51 77
T	82 77 76 57
T	76 57 77 51
T	81 82 76 56
T	51 76 57 56
T	82 57 76 56
T	77 82 76 102
T	107 102 101 82
T	101 82 102 76
T	106 107 101 81
T	76 101 82 81
T	107 82 101 81
T	7 12 6 32
T	37 32 31 12
T	31 12 32 6
T	36 37 31 11
T	6 31 12 11
T	37 12 31 11
T	32 37 31 57
T	62 57 56 37
T	56 37 57 31
T	61 62 56 36
T	31 56 37 36
T	62 37 56 36
T	57 62 56 82
T	87 82 81 62
T	81 62 82 56
T	86 87 81 61
T	56 81 62 61
T	87 62 81 61
T	82 87 81 107
T	112 107 106 87
T	106 87 107 81
T	111 112 106 86
T	81 106 87 86
T	112 87 106 86
T	12 17 11 37
T	42 37 36 17
T	36 17 37 11
T	41 42 36 16
T	11 36 17 16
T	42 17 36 16
T	37 42 36 62
T	67 62 61 42
T	61 42 62 36
T	66 67 61 41
T	36 61 42 41
T	67 42 61 41
T	62 67 61 87
T	92 87 86 67
T	86 67 87 61
T	91 92 86 66
T	61 86 67 66
T	92 67 86 66
T	87 92 86 112
T	117 112 111 92
T	111 92 112 86
T	116 117 111 91
T	86 111 92 91
T	117 92 111 91
T	17 22 16 42
T	47 42 41 22
T	41 22 42 16
T	46 47 41 21
T	16 41 22 21
T	47 22 41 21
T	42 47 41 67
T	72 67 66 47
T	66 47 67 41
T	71 72 66 46
T	41 66 47 46
T	72 47 66 46
T	67 72 66 92
T	97 92 91 72
T	91 72 92 66
T	96 97 91 71
T	66 91 72 71
T	97 72 91 71
T	92 97 91 117
T	122 117 116 97
T	116 97 117 91
T	121 122 116 96
T	91 116 97 96
T	122 97 116 96
T	3 8 2 28
T	33 28 27 8
T	27 8 28 2
T	32 33 27 7
T	2 27 8 7
T	33 8 27 7
T	28 33 27 53
T	58 53 52 33
T	52 33 53 27
T	57 58 52 32
T	27 52 33 32
T	58 33 52 32
T	53 58 52 78
T	83 78 77 58
T	77 58 78 52
T	82 83 77 57
T	52 77 58 57
T	83 58 77 57
T	78 83 77 103
T	108 103 102 83
T	102 83 103 77
T	107 108 102 82
T	77 102 83 82
T	108 83 102 82
T	8 13 7 33
T	38 33 32 13
T	32 13 33 7
T	37 38 32 12
T	7 32 13 12
T	38 13 32 12
T	33 38 32 58
T	63 58 57 38
T	57 38 58 32
T	62 63 57 37
T	32 57 38 37
T	63 38 57 37
T	58 63 57 83
T	88 83 82 63
T	82 63 83 57
T	87 88 82 62
T	57 82 63 62
T	88 63 82 62
T	83 88 82 108
T	113 108 107 88
T	107 88 108 82
T	112 113 107 87
T	82 107 88 87
T	113 88 107 87
T	13 18 12 38
T	43 38 37 18
T	37 18 38 12
T	42 43 37 17
T	12 37 18 17
T	43 18 37 17
T	38 43 37 63
T	68 63 62 43
T	62 43 63 37
T	67 68 62 42
T	37 62 43 42
T	68 43 62 42
T	63 68 62 88
T	93 88 87 68
T	87 68 88 62
T	92 93 87 67
T	62 87 68 67
T	93 68 87 67
T	88 93 87 113
T	118 113 112 93
T	112 93 113 87
T	117 118 112 92
T	87 112 93 92
T	118 93 112 92
T	18 23 17 43
T	48 43 42 23
T	42 23 43 17
T	47 48 42 22
T	17 42 23 22
T	48 23 42 22
T	43 48 42 68
T	73 68 67 48
T	67 48 68 42
T	72 73 67 47
T	42 67 48 47
T	73 48 67 47
T	68 73 67 93
T	98 93 92 73
T	92 73 93 67
T	97 98 92 72
T	67 92 73 72
T	98 73 92 72
T	93 98 92 118
T	123 118 117 98
T	117 98 118 92
T	122 123 117 97
T	92 117 98 97
T	123 98 117 97
T	4 9 3 29
T	34 29 28 9
T	28 9 29 3
T	33 34 28 8
T	3 28 9 8
T	34 9 28 8
T	29 34 28 54
T	59 54 53 34
T	53 34 54 28
T	58 59 53 33
T	28 53 34 33
T	59 34 53 33
T	54 59 53 79
T	84 79 78 59
T	78 59 79 53
T	83 84 78 58
T	53 78 59 58
T	84 59 78 58
T	79 84 78 104
T	109 104 103 84
T	103 84 104 78
T	108 109 103 83
T	78 103 84 83
T	109 84 103 83
T	9 14 8 34
T	39 34 33 14
T	33 14 34 8
T	38 39 33 13
T	8 33 14 13
T	39 14 33 13
T	34 39 33 59
T	64 59 58 39
T	58 39 59 33
T	63 64 58 38
T	33 58 39 38
T	64 39 58 38
T	59 64 58 84
T	89 84 83 64
T	83 64 84 58
T	88 89 83 63
T	58 83 64 63
T	89 64 83 63
T	84 89 83 109
T	114 109 108 89
T	108 89 109 83
T	113 114 108 88
T	83 108 89 88
T	114 89 108 88
T	14 19 13 39
T	44 39 38 19
T	38 19 39 13
T	43 44 38 18
T	13 38 19 18
T	44 19 38 18
T	39 44 38 64
T	69 64 63 44
T	63 44 64 38
T	68 69 63 43
T	38 63 44 43
T	69 44 63 43
T	64 69 63 89
T	94 89 88 69
T	88 69 89 63
T	93 94 88 68
T	63 88 69 68
T	94 69 88 68
T	89 94 88 114
T	119 114 113 94
T	113 94 114 88
T	118 119 113 93
T	88 113 94 93
T	119 94 113 93
T	19 24 18 44
T	49 44 43 24
T	43 24 44 18
T	48 49 43 23
T	18 43 24 23
T	49 24 43 23
T	44 49 43 69
T	74 69 68 49
T	68 49 69 43
T	73 74 68 48
T	43 68 49 48
T	74 49 68 48
T	69 74 68 94
T	99 94 93 74
T	93 74 94 68
T	98 99 93 73
T	68 93 74 73
T	99 74 93 73
T	94 99 93 119
T	124 119 118 99
T	118 99 119 93
T	123 124 118 98
T	93 118 99 98
T	124 99 118 98

t	1 0 6
t	1 26 0
t	1 6 26
t	6 0 26
t	31 25 26
t	31 6 25
t	31 26 6
t	26 25 6
t	25 0 26
t	25 6 0
t	30 25 31
t	30 5 25
t	30 31 5
t	31 25 5
t	0 5 6
t	0 25 5
t	25 6 5
t	31 6 5
t	26 51 25
t	26 31 51
t	31 25 51
t	56 50 51
t	56 31 50
t	56 51 31
t	51 50 31
t	50 25 51
t	50 31 25
t	55 50 56
t	55 30 50
t	55 56 30
t	56 50 30
t	25 50 30
t	50 31 30
t	56 31 30
t	51 76 50
t	51 56 76
t	56 50 76
t	81 75 76
t	81 56 75
t	81 76 56
t	76 75 56
t	75 50 76
t	75 56 50
t	80 75 81
t	80 55 75
t	80 81 55
t	81 75 55
t	50 75 55
t	75 56 55
t	81 56 55
t	76 101 75
t	76 81 101
t	81 75 101
t	106 100 101
t	106 81 100
t	106 101 81
t	101 100 81
t	100 75 101
t	100 81 75
t	105 100 106
t	105 80 100
t	105 106 80
t	106 100 80
t	75 100 80
t	100 81 80
t	106 81 80
t	6 5 11
t	6 11 31
t	11 5 31
t	36 30 31
t	36 11 30
t	36 31 11
t	31 30 11
t	30 11 5
t	35 30 36
t	35 10 30
t	35 36 10
t	36 30 10
t	5 10 11
t	5 30 10
t	30 11 10
t	36 11 10
t	31 36 56
t	36 30 56
t	61 55 56
t	61 36 55
t	61 56 36
t	56 55 36
t	55 36 30
t	60 55 61
t	60 35 55
t	60 61 35
t	61 55 35
t	30 55 35
t	55 36 35
t	61 36 35
t	56 61 81
t	61 55 81
t	86 80 81
t	86 61 80
t	86 81 61
t	81 80 61
t	80 61 55
t	85 80 86
t	85 60 80
t	85 86 60
t	86 80 60
t	55 80 60
t	80 61 60
t	86 61 60
t	81 86 106
t	86 80 106
t	111 105 106
t	111 86 105
t	111 106 86
t	106 105 86
t	105 86 80
t	110 105 111
t	110 85 105
t	110 111 85
t	111 105 85
t	80 105 85
t	105 86 85
t	111 86 85
t	11 10 16
t	11 16 36
t	16 10 36
t	41 35 36
t	41 16 35
t	41 36 16
t	36 35 16
t	35 16 10
t	40 35 41
t	40 15 35
t	40 41 15
t	41 35 15
t	10 15 16
t	10 35 15
t	35 16 15
t	41 16 15
t	36 41 61
t	41 35 61
t	66 60 61
t	66 41 60
t	66 61 41
t	61 60 41
t	60 41 35
t	65 60 66
t	65 40 60
t	65 66 40
t	66 60 40
t	35 60 40
t	60 41 40
t	66 41 40
t	61 66 86
t	66 60 86
t	91 85 86
t	91 66 85
t	91 86 66
t	86 85 66
t	85 66 60
t	90 85 91
t	90 65 85
t	90 91 65
t	91 85 65
t	60 85 65
t	85 66 65
t	91 66 65
t	86 91 111
t	91 85 111
t	116 110 111
t	116 91 110
t	116 111 91
t	111 110 91
t	110 91 85
t	115 110 116
t	115 90 110
t	115 116 90
t	116 110 90
t	85 110 90
t	110 91 90
t	116 91 90
t	16 15 21
t	16 21 41
t	21 15 41
t	46 40 41
t	46 21 40
t	46 41 21
t	41 40 21
t	40 21 15
t	45 40 46
t	45 20 40
t	45 46 20
t	46 40 20
t	15 20 21
t	15 40 20
t	40 21 20
t	46 21 20
t	41 46 66
t	46 40 66
t	71 65 66
t	71 46 65
t	71 66 46
t	66 65 46
t	65 46 40
t	70 65 71
t	70 45 65
t	70 71 45
t	71 65 45
t	40 65 45
t	65 46 45
t	71 46 45
t	66 71 91
t	71 65 91
t	96 90 91
t	96 71 90
t	96 91 71
t	91 90 71
t	90 71 65
t	95 90 96
t	95 70 90
t	95 96 70
t	96 90 70
t	65 90 70
t	90 71 70
t	96 71 70
t	91 96 116
t	96 90 116
t	121 115 116
t	121 96 115
t	121 116 96
t	116 115 96
t	115 96 90
t	120 115 121
t	120 95 115
t	120 121 95
t	121 115 95
t	90 115 95
t	115 96 95
t	121 96 95
t	2 1 7
t	2 27 1
t	2 7 27
t	7 1 27
t	32 26 27
t	32 7 26
t	32 27 7
t	27 26 7
t	26 1 27
t	26 7 1
t	31 26 32
t	31 32 6
t	32 26 6
t	1 6 7
t	26 7 6
t	32 7 6
t	27 52 26
t	27 32 52
t	32 26 52
t	57 51 52
t	57 32 51
t	57 52 32
t	52 51 32
t	51 26 52
t	51 32 26
t	56 51 57
t	56 57 31
t	57 51 31
t	51 32 31
t	57 32 31
t	52 77 51
t	52 57 77
t	57 51 77
t	82 76 77
t	82 57 76
t	82 77 57
t	77 76 57
t	76 51 77
t	76 57 51
t	81 76 82
t	81 82 56
t	82 76 56
t	76 57 56
t	82 57 56
t	77 102 76
t	77 82 102
t	82 76 102
t	107 101 102
t	107 82 101
t	107 102 82
t	102 101 82
t	101 76 102
t	101 82 76
t	106 101 107
t	106 107 81
t	107 101 81
t	101 82 81
t	107 82 81
t	7 6 12
t	7 12 32
t	12 6 32
t	37 31 32
t	37 12 31
t	37 32 12
t	32 31 12
t	31 12 6
t	36 31 37
t	36 37 11
t	37 31 11
t	6 11 12
t	31 12 11
t	37 12 11
t	32 37 57
t	37 31 57
t	62 56 57
t	62 37 56
t	62 57 37
t	57 56 37
t	56 37 31
t	61 56 62
t	61 62 36
t	62 56 36
t	56 37 36
t	62 37 36
t	57 62 82
t	62 56 82
t	87 81 82
t	87 62 81
t	87 82 62
t	82 81 62
t	81 62 56
t	86 81 87
t	86 87 61
t	87 81 61
t	81 62 61
t	87 62 61
t	82 87 107
t	87 81 107
t	112 106 107
t	112 87 106
t	112 107 87
t	107 106 87
t	106 87 81
t	111 106 112
t	111 112 86
t	112 106 86
t	106 87 86
t	112 87 86
t	12 11 17
t	12 17 37
t	17 11 37
t	42 36 37
t	42 17 36
t	42 37 17
t	37 36 17
t	36 17 11
t	41 36 42
t	41 42 16
t	42 36 16
t	11 16 17
t	36 17 16
t	42 17 16
t	37 42 62
t	42 36 62
t	67 61 62
t	67 42 61
t	67 62 42
t	62 61 42
t	61 42 36
t	66 61 67
t	66 67 41
t	67 61 41
t	61 42 41
t	67 42 41
t	62 67 87
t	67 61 87
t	92 86 87
t	92 67 86
t	92 87 67
t	87 86 67
t	86 67 61
t	91 86 92
t	91 92 66
t	92 86 66
t	86 67 66
t	92 67 66
t	87 92 112
t	92 86 112
t	117 111 112
t	117 92 111
t	117 112 92
t	112 111 92
t	111 92 86
t	116 111 117
t	116 117 91
t	117 111 91
t	111 92 91
t	117 92 91
t	17 16 22
t	17 22 42
t	22 16 42
t	47 41 42
t	47 22 41
t	47 42 22
t	42 41 22
t	41 22 16
t	46 41 47
t	46 47 21
t	47 41 21
t	16 21 22
t	41 22 21
t	47 22 21
t	42 47 67
t	47 41 67
t	72 66 67
t	72 47 66
t	72 67 47
t	67 66 47
t	66 47 41
t	71 66 72
t	71 72 46
t	72 66 46
t	66 47 46
t	72 47 46
t	67 72 92
t	72 66 92
t	97 91 92
t	97 72 91
t	97 92 72
t	92 91 72
t	91 72 66
t	96 91 97
t	96 97 71
t	97 91 71
t	91 72 71
t	97 72 71
t	92 97 117
t	97 91 117
t	122 116 117
t	122 97 116
t	122 117 97
t	117 116 97
t	116 97 91
t	121 116 122
t	121 122 96
t	122 116 96
t	116 97 96
t	122 97 96
t	3 2 8
t	3 28 2
t	3 8 28
t	8 2 28
t	33 27 28
t	33 8 27
t	33 28 8
t	28 27 8
t	27 2 28
t	27 8 2
t	32 27 33
t	32 33 7
t	33 27 7
t	2 7 8
t	27 8 7
t	33 8 7
t	28 53 27
t	28 33 53
t	33 27 53
t	58 52 53
t	58 33 52
t	58 53 33
t	53 52 33
t	52 27 53
t	52 33 27
t	57 52 58
t	57 58 32
t	58 52 32
t	52 33 32
t	58 33 32
t	53 78 52
t	53 58 78
t	58 52 78
t	83 77 78
t	83 58 77
t	83 78 58
t	78 77 58
t	77 52 78
t	77 58 52
t	82 77 83
t	82 83 57
t	83 77 57
t	77 58 57
t	83 58 57
t	78 103 77
t	78 83 103
t	83 77 103
t	108 102 103
t	108 83 102
t	108 103 83
t	103 102 83
t	102 77 103
t	102 83 77
t	107 102 108
t	107 108 82
t	108 102 82
t	102 83 82
t	108 83 82
t	8 7 13
t	8 13 33
t	13 7 33
t	38 32 33
t	38 13 32
t	38 33 13
t	33 32 13
t	32 13 7
t	37 32 38
t	37 38 12
t	38 32 12
t	7 12 13
t	32 13 12
t	38 13 12
t	33 38 58
t	38 32 58
t	63 57 58
t	63 38 57
t	63 58 38
t	58 57 38
t	57 38 32
t	62 57 63
t	62 63 37
t	63 57 37
t	57 38 37
t	63 38 37
t	58 63 83
t	63 57 83
t	88 82 83
t	88 63 82
t	88 83 63
t	83 82 63
t	82 63 57
t	87 82 88
t	87 88 62
t	88 82 62
t	82 63 62
t	88 63 62
t	83 88 108
t	88 82 108
t	113 107 108
t	113 88 107
t	113 108 88
t	108 107 88
t	107 88 82
t	112 107 113
t	112 113 87
t	113 107 87
t	107 88 87
t	113 88 87
t	13 12 18
t	13 18 38
t	18 12 38
t	43 37 38
t	43 18 37
t	43 38 18
t	38 37 18
t	37 18 12
t	42 37 43
t	42 43 17
t	43 37 17
t	12 17 18
t	37 18 17
t	43 18 17
t	38 43 63
t	43 37 63
t	68 62 63
t	68 43 62
t	68 63 43
t	63 62 43
t	62 43 37
t	67 62 68
t	67 68 42
t	68 62 42
t	62 43 42
t	68 43 42
t	63 68 88
t	68 62 88
t	93 87 88
t	93 68 87
t	93 88 68
t	88 87 68
t	87 68 62
t	92 87 93
t	92 93 67
t	93 87 67
t	87 68 67
t	93 68 67
t	88 93 113
t	93 87 113
t	118 112 113
t	118 93 112
t	118 113 93
t	113 112 93
t	112 93 87
t	117 112 118
t	117 118 92
t	118 112 92
t	112 93 92
t	118 93 92
t	18 17 23
t	18 23 43
t	23 17 43
t	48 42 43
t	48 23 42
t	48 43 23
t	43 42 23
t	42 23 17
t	47 42 48
t	47 48 22
t	48 42 22
t	17 22 23
t	42 23 22
t	48 23 22
t	43 48 68
t	48 42 68
t	73 67 68
t	73 48 67
t	73 68 48
t	68 67 48
t	67 48 42
t	72 67 73
t	72 73 47
t	73 67 47
t	67 48 47
t	73 48 47
t	68 73 93
t	73 67 93
t	98 92 93
t	98 73 92
t	98 93 73
t	93 92 73
t	92 73 67
t	97 92 98
t	97 98 72
t	98 92 72
t	92 73 72
t	98 73 72
t	93 98 118
t	98 92 118
t	123 117 118
t	123 98 117
t	123 118 98
t	118 117 98
t	117 98 92
t	122 117 123
t	122 123 97
t	123 117 97
t	117 98 97
t	123 98 97
t	4 3 9
t	4 29 3
t	4 9 29
t	9 3 29
t	34 28 29
t	34 9 28
t	34 29 9
t	29 28 9
t	28 3 29
t	28 9 3
t	33 28 34
t	33 34 8
t	34 28 8
t	3 8 9
t	28 9 8
t	34 9 8
t	29 54 28
t	29 34 54
t	34 28 54
t	59 53 54
t	59 34 53
t	59 54 34
t	54 53 34
t	53 28 54
t	53 34 28
t	58 53 59
t	58 59 33
t	59 53 33
t	53 34 33
t	59 34 33
t	54 79 53
t	54 59 79
t	59 53 79
t	84 78 79
t	84 59 78
t	84 79 59
t	79 78 59
t	78 53 79
t	78 59 53
t	83 78 84
t	83 84 58
t	84 78 58
t	78 59 58
t	84 59 58
t	79 104 78
t	79 84 104
t	84 78 104
t	109 103 104
t	109 84 103
t	109 104 84
t	104 103 84
t	103 78 104
t	103 84 78
t	108 103 109
t	108 109 83
t	109 103 83
t	103 84 83
t	109 84 83
t	9 8 14
t	9 14 34
t	14 8 34
t	39 33 34
t	39 14 33
t	39 34 14
t	34 33 14
t	33 14 8
t	38 33 39
t	38 39 13
t	39 33 13
t	8 13 14
t	33 14 13
t	39 14 13
t	34 39 59
t	39 33 59
t	64 58 59
t	64 39 58
t	64 59 39
t	59 58 39
t	58 39 33
t	63 58 64
t	63 64 38
t	64 58 38
t	58 39 38
t	64 39 38
t	59 64 84
t	64 58 84
t	89 83 84
t	89 64 83
t	89 84 64
t	84 83 64
t	83 64 58
t	88 83 89
t	88 89 63
t	89 83 63
t	83 64 63
t	89 64 63
t	84 89 109
t	89 83 109
t	114 108 109
t	114 89 108
t	114 109 89
t	109 108 89
t	108 89 83
t	113 108 114
t	113 114 88
t	114 108 88
t	108 89 88
t	114 89 88
t	14 13 19
t	14 19 39
t	19 13 39
t	44 38 39
t	44 19 38
t	44 39 19
t	39 38 19
t	38 19 13
t	43 38 44
t	43 44 18
t	44 38 18
t	13 18 19
t	38 19 18
t	44 19 18
t	39 44 64
t	44 38 64
t	69 63 64
t	69 44 63
t	69 64 44
t	64 63 44
t	63 44 38
t	68 63 69
t	68 69 43
t	69 63 43
t	63 44 43
t	69 44 43
t	64 69 89
t	69 63 89
t	94 88 89
t	94 69 88
t	94 89 69
t	89 88 69
t	88 69 63
t	93 88 94
t	93 94 68
t	94 88 68
t	88 69 68
t	94 69 68
t	89 94 114
t	94 88 114
t	119 113 114
t	119 94 113
t	119 114 94
t	114 113 94
t	113 94 88
t	118 113 119
t	118 119 93
t	119 113 93
t	113 94 93
t	119 94 93
t	19 18 24
t	19 24 44
t	24 18 44
t	49 43 44
t	49 24 43
t	49 44 24
t	44 43 24
t	43 24 18
t	48 43 49
t	48 49 23
t	49 43 23
t	18 23 24
t	43 24 23
t	49 24 23
t	44 49 69
t	49 43 69
t	74 68 69
t	74 49 68
t	74 69 49
t	69 68 49
t	68 49 43
t	73 68 74
t	73 74 48
t	74 68 48
t	68 49 48
t	74 49 48
t	69 74 94
t	74 68 94
t	99 93 94
t	99 74 93
t	99 94 74
t	94 93 74
t	93 74 68
t	98 93 99
t	98 99 73
t	99 93 73
t	93 74 73
t	99 74 73
t	94 99 119
t	99 93 119
t	124 118 119
t	124 99 118
t	124 119 99
t	119 118 99
t	118 99 93
t	123 118 124
t	123 124 98
t	124 118 98
t	118 99 98
t	124 99 98
e	1 6
e	6 0
e	0 1
e	1 26
e	6 26
e	0 26
e	31 26
e	26 25
e	25 31
e	31 6
e	25 6
e	25 0
e	30 31
e	25 30
e	30 5
e	31 5
e	25 5
e	0 5
e	6 5
e	26 51
e	31 51
e	25 51
e	56 51
e	51 50
e	50 56
e	56 31
e	50 31
e	50 25
e	55 56
e	50 55
e	55 30
e	56 30
e	50 30
e	51 76
e	56 76
e	50 76
e	81 76
e	76 75
e	75 81
e	81 56
e	75 56
e	75 50
e	80 81
e	75 80
e	80 55
e	81 55
e	75 55
e	76 101
e	81 101
e	75 101
e	106 101
e	101 100
e	100 106
e	106 81
e	100 81
e	100 75
e	105 106
e	100 105
e	105 80
e	106 80
e	100 80
e	6 11
e	11 5
e	11 31
e	36 31
e	30 36
e	36 11
e	30 11
e	35 36
e	30 35
e	35 10
e	36 10
e	30 10
e	5 10
e	11 10
e	36 56
e	61 56
e	55 61
e	61 36
e	55 36
e	60 61
e	55 60
e	60 35
e	61 35
e	55 35
e	61 81
e	86 81
e	80 86
e	86 61
e	80 61
e	85 86
e	80 85
e	85 60
e	86 60
e	80 60
e	86 106
e	111 106
e	105 111
e	111 86
e	105 86
e	110 111
e	105 110
e	110 85
e	111 85
e	105 85
e	11 16
e	16 10
e	16 36
e	41 36
e	35 41
e	41 16
e	35 16
e	40 41
e	35 40
e	40 15
e	41 15
e	35 15
e	10 15
e	16 15
e	41 61
e	66 61
e	60 66
e	66 41
e	60 41
e	65 66
e	60 65
e	65 40
e	66 40
e	60 40
e	66 86
e	91 86
e	85 91
e	91 66
e	85 66
e	90 91
e	85 90
e	90 65
e	91 65
e	85 65
e	91 111
e	116 111
e	110 116
e	116 91
e	110 91
e	115 116
e	110 115
e	115 90
e	116 90
e	110 90
e	16 21
e	21 15
e	21 41
e	46 41
e	40 46
e	46 21
e	40 21
e	45 46
e	40 45
e	45 20
e	46 20
e	40 20
e	15 20
e	21 20
e	46 66
e	71 66
e	65 71
e	71 46
e	65 46
e	70 71
e	65 70
e	70 45
e	71 45
e	65 45
e	71 91
e	96 91
e	90 96
e	96 71
e	90 71
e	95 96
e	90 95
e	95 70
e	96 70
e	90 70
e	96 116
e	121 116
e	115 121
e	121 96
e	115 96
e	120 121
e	115 120
e	120 95
e	121 95
e	115 95
e	2 7
e	7 1
e	1 2
e	2 27
e	7 27
e	1 27
e	32 27
e	27 26
e	26 32
e	32 7
e	26 7
e	31 32
e	32 6
e	7 6
e	27 52
e	32 52
e	26 52
e	57 52
e	52 51
e	51 57
e	57 32
e	51 32
e	56 57
e	57 31
e	52 77
e	57 77
e	51 77
e	82 77
e	77 76
e	76 82
e	82 57
e	76 57
e	81 82
e	82 56
e	77 102
e	82 102
e	76 102
e	107 102
e	102 101
e	101 107
e	107 82
e	101 82
e	106 107
e	107 81
e	7 12
e	12 6
e	12 32
e	37 32
e	31 37
e	37 12
e	31 12
e	36 37
e	37 11
e	12 11
e	37 57
e	62 57
e	56 62
e	62 37
e	56 37
e	61 62
e	62 36
e	62 82
e	87 82
e	81 87
e	87 62
e	81 62
e	86 87
e	87 61
e	87 107
e	112 107
e	106 112
e	112 87
e	106 87
e	111 112
e	112 86
e	12 17
e	17 11
e	17 37
e	42 37
e	36 42
e	42 17
e	36 17
e	41 42
e	42 16
e	17 16
e	42 62
e	67 62
e	61 67
e	67 42
e	61 42
e	66 67
e	67 41
e	67 87
e	92 87
e	86 92
e	92 67
e	86 67
e	91 92
e	92 66
e	92 112
e	117 112
e	111 117
e	117 92
e	111 92
e	116 117
e	117 91
e	17 22
e	22 16
e	22 42
e	47 42
e	41 47
e	47 22
e	41 22
e	46 47
e	47 21
e	22 21
e	47 67
e	72 67
e	66 72
e	72 47
e	66 47
e	71 72
e	72 46
e	72 92
e	97 92
e	91 97
e	97 72
e	91 72
e	96 97
e	97 71
e	97 117
e	122 117
e	116 122
e	122 97
e	116 97
e	121 122
e	122 96
e	3 8
e	8 2
e	2 3
e	3 28
e	8 28
e	2 28
e	33 28
e	28 27
e	27 33
e	33 8
e	27 8
e	32 33
e	33 7
e	8 7
e	28 53
e	33 53
e	27 53
e	58 53
e	53 52
e	52 58
e	58 33
e	52 33
e	57 58
e	58 32
e	53 78
e	58 78
e	52 78
e	83 78
e	78 77
e	77 83
e	83 58
e	77 58
e	82 83
e	83 57
e	78 103
e	83 103
e	77 103
e	108 103
e	103 102
e	102 108
e	108 83
e	102 83
e	107 108
e	108 82
e	8 13
e	13 7
e	13 33
e	38 33
e	32 38
e	38 13
e	32 13
e	37 38
e	38 12
e	13 12
e	38 58
e	63 58
e	57 63
e	63 38
e	57 38
e	62 63
e	63 37
e	63 83
e	88 83
e	82 88
e	88 63
e	82 63
e	87 88
e	88 62
e	88 108
e	113 108
e	107 113
e	113 88
e	107 88
e	112 113
e	113 87
e	13 18
e	18 12
e	18 38
e	43 38
e	37 43
e	43 18
e	37 18
e	42 43
e	43 17
e	18 17
e	43 63
e	68 63
e	62 68
e	68 43
e	62 43
e	67 68
e	68 42
e	68 88
e	93 88
e	87 93
e	93 68
e	87 68
e	92 93
e	93 67
e	93 113
e	118 113
e	112 118
e	118 93
e	112 93
e	117 118
e	118 92
e	18 23
e	23 17
e	23 43
e	48 43
e	42 48
e	48 23
e	42 23
e	47 48
e	48 22
e	23 22
e	48 68
e	73 68
e	67 73
e	73 48
e	67 48
e	72 73
e	73 47
e	73 93
e	98 93
e	92 98
e	98 73
e	92 73
e	97 98
e	98 72
e	98 118
e	123 118
e	117 123
e	123 98
e	117 98
e	122 123
e	123 97
e	4 9
e	9 3
e	3 4
e	4 29
e	9 29
e	3 29
e	34 29
e	29 28
e	28 34
e	34 9
e	28 9
e	33 34
e	34 8
e	9 8
e	29 54
e	34 54
e	28 54
e	59 54
e	54 53
e	53 59
e	59 34
e	53 34
e	58 59
e	59 33
e	54 79
e	59 79
e	53 79
e	84 79
e	79 78
e	78 84
e	84 59
e	78 59
e	83 84
e	84 58
e	79 104
e	84 104
e	78 104
e	109 104
e	104 103
e	103 109
e	109 84
e	103 84
e	108 109
e	109 83
e	9 14
e	14 8
e	14 34
e	39 34
e	33 39
e	39 14
e	33 14
e	38 39
e	39 13
e	14 13
e	39 59
e	64 59
e	58 64
e	64 39
e	58 39
e	63 64
e	64 38
e	64 84
e	89 84
e	83 89
e	89 64
e	83 64
e	88 89
e	89 63
e	89 109
e	114 109
e	108 114
e	114 89
e	108 89
e	113 114
e	114 88
e	14 19
e	19 13
e	19 39
e	44 39
e	38 44
e	44 19
e	38 19
e	43 44
e	44 18
e	19 18
e	44 64
e	69 64
e	63 69
e	69 44
e	63 44
e	68 69
e	69 43
e	69 89
e	94 89
e	88 94
e	94 69
e	88 69
e	93 94
e	94 68
e	94 114
e	119 114
e	113 119
e	119 94
e	113 94
e	118 119
e	119 93
e	19 24
e	24 18
e	24 44
e	49 44
e	43 49
e	49 24
e	43 24
e	48 49
e	49 23
e	24 23
e	49 69
e	74 69
e	68 74
e	74 49
e	68 49
e	73 74
e	74 48
e	74 94
e	99 94
e	93 99
e	99 74
e	93 74
e	98 99
e	99 73
e	99 119
e	124 119
e	118 124
e	124 99
e	118 99
e	123 124
e	124 98

domain
boundary
2 2 192
0
14
66
78
124
136
182
194
240
253
298
309
348
359
398
409
448
461
506
517
556
567
606
617
656
669
714
725
764
775
814
825
53
59
112
117
170
175
228
233
287
293
338
343
388
393
438
443
495
501
546
551
596
601
646
651
703
709
754
759
804
809
854
859
1
8
18
25
34
41
50
57
241
248
256
263
270
277
284
291
449
456
464
471
478
485
492
499
657
664
672
679
686
693
700
707
658
662
673
677
687
691
701
705
715
719
728
732
740
744
752
756
765
769
778
782
790
794
802
806
815
819
828
832
840
844
852
856
197
192
211
207
225
221
239
235
411
407
423
420
435
432
447
444
619
615
631
628
643
640
655
652
827
823
839
836
851
848
863
860
15
11
31
28
47
44
63
60
79
75
93
90
107
104
121
118
137
133
151
148
165
162
179
176
195
191
209
206
223
220
237
234

domain
bottom
2 2 32
0
14
66
78
124
136
182
194
240
253
298
309
348
359
398
409
448
461
506
517
556
567
606
617
656
669
714
725
764
775
814
825

domain
top
2 2 32
53
59
112
117
170
175
228
233
287
293
338
343
388
393
438
443
495
501
546
551
596
601
646
651
703
709
754
759
804
809
854
859

domain
left
2 2 32
1
8
18
25
34
41
50
57
241
248
256
263
270
277
284
291
449
456
464
471
478
485
492
499
657
664
672
679
686
693
700
707

domain
front
2 2 32
658
662
673
677
687
691
701
705
715
719
728
732
740
744
752
756
765
769
778
782
790
794
802
806
815
819
828
832
840
844
852
856

domain
right
2 2 32
197
192
211
207
225
221
239
235
411
407
423
420
435
432
447
444
619
615
631
628
643
640
655
652
827
823
839
836
851
848
863
860

domain
back
2 2 32
15
11
31
28
47
44
63
60
79
75
93
90
107
104
121
118
137
133
151
148
165
162
179
176
195
191
209
206
223
220
237
234
