#!geo

mesh
2 3 49 36 0 84

0 1 0
0.166667 1 0
0.333333 1 0
0.5 1 0
0.666667 1 0
0.833333 1 0
1 1 0
0 1 0.166667
0.166667 1 0.166667
0.333333 1 0.166667
0.5 1 0.166667
0.666667 1 0.166667
0.833333 1 0.166667
1 1 0.166667
0 1 0.333333
0.166667 1 0.333333
0.333333 1 0.333333
0.5 1 0.333333
0.666667 1 0.333333
0.833333 1 0.333333
1 1 0.333333
0 1 0.5
0.166667 1 0.5
0.333333 1 0.5
0.5 1 0.5
0.666667 1 0.5
0.833333 1 0.5
1 1 0.5
0 1 0.666667
0.166667 1 0.666667
0.333333 1 0.666667
0.5 1 0.666667
0.666667 1 0.666667
0.833333 1 0.666667
1 1 0.666667
0 1 0.833333
0.166667 1 0.833333
0.333333 1 0.833333
0.5 1 0.833333
0.666667 1 0.833333
0.833333 1 0.833333
1 1 0.833333
0 1 1
0.166667 1 1
0.333333 1 1
0.5 1 1
0.666667 1 1
0.833333 1 1
1 1 1

q	1 0 7 8
q	8 7 14 15
q	15 14 21 22
q	22 21 28 29
q	29 28 35 36
q	36 35 42 43
q	2 1 8 9
q	9 8 15 16
q	16 15 22 23
q	23 22 29 30
q	30 29 36 37
q	37 36 43 44
q	3 2 9 10
q	10 9 16 17
q	17 16 23 24
q	24 23 30 31
q	31 30 37 38
q	38 37 44 45
q	4 3 10 11
q	11 10 17 18
q	18 17 24 25
q	25 24 31 32
q	32 31 38 39
q	39 38 45 46
q	5 4 11 12
q	12 11 18 19
q	19 18 25 26
q	26 25 32 33
q	33 32 39 40
q	40 39 46 47
q	6 5 12 13
q	13 12 19 20
q	20 19 26 27
q	27 26 33 34
q	34 33 40 41
q	41 40 47 48
1 0
1 8
0 7
8 7
8 15
7 14
15 14
15 22
14 21
22 21
22 29
21 28
29 28
29 36
28 35
36 35
36 43
35 42
43 42
2 1
2 9
9 8
9 16
16 15
16 23
23 22
23 30
30 29
30 37
37 36
37 44
44 43
3 2
3 10
10 9
10 17
17 16
17 24
24 23
24 31
31 30
31 38
38 37
38 45
45 44
4 3
4 11
11 10
11 18
18 17
18 25
25 24
25 32
32 31
32 39
39 38
39 46
46 45
5 4
5 12
12 11
12 19
19 18
19 26
26 25
26 33
33 32
33 40
40 39
40 47
47 46
6 5
6 13
13 12
13 20
20 19
20 27
27 26
27 34
34 33
34 41
41 40
41 48
48 47
