$MeshFormat
2.2 0 8
$EndMeshFormat
$PhysicalNames
8
2 1 "boundary"
2 2 "bottom"
2 3 "top"
2 4 "left"
2 5 "front"
2 6 "right"
2 7 "back"
3 8 "interior"
$EndPhysicalNames
$Nodes
150
1 0 0 0
2 1 0 0
3 0 0 1
4 1 0 1
5 0 1 0
6 1 1 0
7 1 1 1
8 0 1 1
9 0.2499999999993999 0 0
10 0.4999999999990217 0 0
11 0.7499999999993374 0 0
12 0 0 0.2499999999993999
13 0 0 0.4999999999990217
14 0 0 0.7499999999993374
15 1 0 0.2499999999993999
16 1 0 0.4999999999990217
17 1 0 0.7499999999993374
18 0.2499999999993999 0 1
19 0.4999999999990217 0 1
20 0.7499999999993374 0 1
21 0.2499999999993999 1 0
22 0.4999999999990217 1 0
23 0.7499999999993374 1 0
24 1 1 0.2499999999993999
25 1 1 0.4999999999990217
26 1 1 0.7499999999993374
27 0.7499999999993374 1 1
28 0.4999999999990217 1 1
29 0.2499999999993999 1 1
30 0 1 0.7499999999993374
31 0 1 0.4999999999990217
32 0 1 0.2499999999993999
33 0 0.2 0
34 0 0.4 0
35 0 0.6 0
36 0 0.8 0
37 1 0.2 0
38 1 0.4 0
39 1 0.6 0
40 1 0.8 0
41 1 0.2 1
42 1 0.4 1
43 1 0.6 1
44 1 0.8 1
45 0 0.2 1
46 0 0.4 1
47 0 0.6 1
48 0 0.8 1
49 0.5004097906433512 0 0.5004069937108221
50 0.2493378106969159 0 0.2490687988571922
51 0.7513486758304021 0 0.2493379948978806
52 0.2490719817799147 0 0.7510796639906785
53 0.7510828469134008 0 0.7513488600313666
54 0.2489724800161215 0 0.5001179307321244
55 0.5007315705614824 0 0.2489742960578011
56 0.7515147210041172 0 0.5007315705614817
57 0.5001233891893272 0 0.7515165370457969
58 0.2499999999993999 0.2 0
59 0.2499999999993999 0.4 0
60 0.2499999999993999 0.6 0
61 0.2499999999993999 0.8 0
62 0.4999999999990217 0.2 0
63 0.4999999999990217 0.4 0
64 0.4999999999990217 0.6 0
65 0.4999999999990217 0.8 0
66 0.7499999999993374 0.2 0
67 0.7499999999993374 0.4 0
68 0.7499999999993374 0.6 0
69 0.7499999999993374 0.8 0
70 1 0.2 0.2499999999993999
71 1 0.4 0.2499999999993999
72 1 0.6 0.2499999999993999
73 1 0.8 0.2499999999993999
74 1 0.2 0.4999999999990217
75 1 0.4 0.4999999999990217
76 1 0.6 0.4999999999990217
77 1 0.8 0.4999999999990217
78 1 0.2 0.7499999999993374
79 1 0.4 0.7499999999993374
80 1 0.6 0.7499999999993374
81 1 0.8 0.7499999999993374
82 0.2499999999993999 0.2 1
83 0.2499999999993999 0.4 1
84 0.2499999999993999 0.6 1
85 0.2499999999993999 0.8 1
86 0.4999999999990217 0.2 1
87 0.4999999999990217 0.4 1
88 0.4999999999990217 0.6 1
89 0.4999999999990217 0.8 1
90 0.7499999999993374 0.2 1
91 0.7499999999993374 0.4 1
92 0.7499999999993374 0.6 1
93 0.7499999999993374 0.8 1
94 0 0.2 0.2499999999993999
95 0 0.4 0.2499999999993999
96 0 0.6 0.2499999999993999
97 0 0.8 0.2499999999993999
98 0 0.2 0.4999999999990217
99 0 0.4 0.4999999999990217
100 0 0.6 0.4999999999990217
101 0 0.8 0.4999999999990217
102 0 0.2 0.7499999999993374
103 0 0.4 0.7499999999993374
104 0 0.6 0.7499999999993374
105 0 0.8 0.7499999999993374
106 0.5004097906433512 1 0.5004069937108221
107 0.2493378106969159 1 0.2490687988571922
108 0.7513486758304021 1 0.2493379948978806
109 0.2490719817799147 1 0.7510796639906785
110 0.7510828469134008 1 0.7513488600313666
111 0.2489724800161215 1 0.5001179307321244
112 0.5007315705614824 1 0.2489742960578011
113 0.7515147210041172 1 0.5007315705614817
114 0.5001233891893272 1 0.7515165370457969
115 0.5004097906433512 0.2 0.5004069937108221
116 0.5004097906433512 0.4 0.5004069937108221
117 0.5004097906433512 0.6 0.5004069937108221
118 0.5004097906433512 0.8 0.5004069937108221
119 0.2493378106969159 0.2 0.2490687988571922
120 0.2493378106969159 0.4 0.2490687988571922
121 0.2493378106969159 0.6 0.2490687988571922
122 0.2493378106969159 0.8 0.2490687988571922
123 0.7513486758304021 0.2 0.2493379948978806
124 0.7513486758304021 0.4 0.2493379948978806
125 0.7513486758304021 0.6 0.2493379948978806
126 0.7513486758304021 0.8 0.2493379948978806
127 0.2490719817799147 0.2 0.7510796639906785
128 0.2490719817799147 0.4 0.7510796639906785
129 0.2490719817799147 0.6 0.7510796639906785
130 0.2490719817799147 0.8 0.7510796639906785
131 0.7510828469134008 0.2 0.7513488600313666
132 0.7510828469134008 0.4 0.7513488600313666
133 0.7510828469134008 0.6 0.7513488600313666
134 0.7510828469134008 0.8 0.7513488600313666
135 0.2489724800161215 0.2 0.5001179307321244
136 0.2489724800161215 0.4 0.5001179307321244
137 0.2489724800161215 0.6 0.5001179307321244
138 0.2489724800161215 0.8 0.5001179307321244
139 0.5007315705614824 0.2 0.2489742960578011
140 0.5007315705614824 0.4 0.2489742960578011
141 0.5007315705614824 0.6 0.2489742960578011
142 0.5007315705614824 0.8 0.2489742960578011
143 0.7515147210041172 0.2 0.5007315705614817
144 0.7515147210041172 0.4 0.5007315705614817
145 0.7515147210041172 0.6 0.5007315705614817
146 0.7515147210041172 0.8 0.5007315705614817
147 0.5001233891893272 0.2 0.7515165370457969
148 0.5001233891893272 0.4 0.7515165370457969
149 0.5001233891893272 0.6 0.7515165370457969
150 0.5001233891893272 0.8 0.7515165370457969
$EndNodes
$Elements
304
1 3 2 1 3 50 9 10 55
2 3 2 4 3 50 9 10 55
3 3 2 1 3 50 54 13 12
4 3 2 4 3 50 54 13 12
5 3 2 1 3 51 15 16 56
6 3 2 4 3 51 15 16 56
7 3 2 1 3 52 57 19 18
8 3 2 4 3 52 57 19 18
9 3 2 1 3 51 55 10 11
10 3 2 4 3 51 55 10 11
11 3 2 1 3 52 14 13 54
12 3 2 4 3 52 14 13 54
13 3 2 1 3 53 20 19 57
14 3 2 4 3 53 20 19 57
15 3 2 1 3 53 56 16 17
16 3 2 4 3 53 56 16 17
17 3 2 1 3 55 49 54 50
18 3 2 4 3 55 49 54 50
19 3 2 1 3 55 51 56 49
20 3 2 4 3 55 51 56 49
21 3 2 1 3 54 49 57 52
22 3 2 4 3 54 49 57 52
23 3 2 1 3 56 53 57 49
24 3 2 4 3 56 53 57 49
25 3 2 1 3 50 12 1 9
26 3 2 4 3 50 12 1 9
27 3 2 1 3 3 14 52 18
28 3 2 4 3 3 14 52 18
29 3 2 1 3 51 11 2 15
30 3 2 4 3 51 11 2 15
31 3 2 1 3 4 20 53 17
32 3 2 4 3 4 20 53 17
33 3 2 1 309 1 33 58 9
34 3 2 2 309 1 33 58 9
35 3 2 1 309 33 34 59 58
36 3 2 2 309 33 34 59 58
37 3 2 1 309 34 35 60 59
38 3 2 2 309 34 35 60 59
39 3 2 1 309 35 36 61 60
40 3 2 2 309 35 36 61 60
41 3 2 1 309 36 5 21 61
42 3 2 2 309 36 5 21 61
43 3 2 1 309 9 58 62 10
44 3 2 2 309 9 58 62 10
45 3 2 1 309 58 59 63 62
46 3 2 2 309 58 59 63 62
47 3 2 1 309 59 60 64 63
48 3 2 2 309 59 60 64 63
49 3 2 1 309 60 61 65 64
50 3 2 2 309 60 61 65 64
51 3 2 1 309 61 21 22 65
52 3 2 2 309 61 21 22 65
53 3 2 1 309 10 62 66 11
54 3 2 2 309 10 62 66 11
55 3 2 1 309 62 63 67 66
56 3 2 2 309 62 63 67 66
57 3 2 1 309 63 64 68 67
58 3 2 2 309 63 64 68 67
59 3 2 1 309 64 65 69 68
60 3 2 2 309 64 65 69 68
61 3 2 1 309 65 22 23 69
62 3 2 2 309 65 22 23 69
63 3 2 1 309 11 66 37 2
64 3 2 2 309 11 66 37 2
65 3 2 1 309 66 67 38 37
66 3 2 2 309 66 67 38 37
67 3 2 1 309 67 68 39 38
68 3 2 2 309 67 68 39 38
69 3 2 1 309 68 69 40 39
70 3 2 2 309 68 69 40 39
71 3 2 1 309 69 23 6 40
72 3 2 2 309 69 23 6 40
73 3 2 1 313 2 37 70 15
74 3 2 5 313 2 37 70 15
75 3 2 1 313 37 38 71 70
76 3 2 5 313 37 38 71 70
77 3 2 1 313 38 39 72 71
78 3 2 5 313 38 39 72 71
79 3 2 1 313 39 40 73 72
80 3 2 5 313 39 40 73 72
81 3 2 1 313 40 6 24 73
82 3 2 5 313 40 6 24 73
83 3 2 1 313 15 70 74 16
84 3 2 5 313 15 70 74 16
85 3 2 1 313 70 71 75 74
86 3 2 5 313 70 71 75 74
87 3 2 1 313 71 72 76 75
88 3 2 5 313 71 72 76 75
89 3 2 1 313 72 73 77 76
90 3 2 5 313 72 73 77 76
91 3 2 1 313 73 24 25 77
92 3 2 5 313 73 24 25 77
93 3 2 1 313 16 74 78 17
94 3 2 5 313 16 74 78 17
95 3 2 1 313 74 75 79 78
96 3 2 5 313 74 75 79 78
97 3 2 1 313 75 76 80 79
98 3 2 5 313 75 76 80 79
99 3 2 1 313 76 77 81 80
100 3 2 5 313 76 77 81 80
101 3 2 1 313 77 25 26 81
102 3 2 5 313 77 25 26 81
103 3 2 1 313 17 78 41 4
104 3 2 5 313 17 78 41 4
105 3 2 1 313 78 79 42 41
106 3 2 5 313 78 79 42 41
107 3 2 1 313 79 80 43 42
108 3 2 5 313 79 80 43 42
109 3 2 1 313 80 81 44 43
110 3 2 5 313 80 81 44 43
111 3 2 1 313 81 26 7 44
112 3 2 5 313 81 26 7 44
113 3 2 1 317 3 18 82 45
114 3 2 3 317 3 18 82 45
115 3 2 1 317 45 82 83 46
116 3 2 3 317 45 82 83 46
117 3 2 1 317 46 83 84 47
118 3 2 3 317 46 83 84 47
119 3 2 1 317 47 84 85 48
120 3 2 3 317 47 84 85 48
121 3 2 1 317 48 85 29 8
122 3 2 3 317 48 85 29 8
123 3 2 1 317 18 19 86 82
124 3 2 3 317 18 19 86 82
125 3 2 1 317 82 86 87 83
126 3 2 3 317 82 86 87 83
127 3 2 1 317 83 87 88 84
128 3 2 3 317 83 87 88 84
129 3 2 1 317 84 88 89 85
130 3 2 3 317 84 88 89 85
131 3 2 1 317 85 89 28 29
132 3 2 3 317 85 89 28 29
133 3 2 1 317 19 20 90 86
134 3 2 3 317 19 20 90 86
135 3 2 1 317 86 90 91 87
136 3 2 3 317 86 90 91 87
137 3 2 1 317 87 91 92 88
138 3 2 3 317 87 91 92 88
139 3 2 1 317 88 92 93 89
140 3 2 3 317 88 92 93 89
141 3 2 1 317 89 93 27 28
142 3 2 3 317 89 93 27 28
143 3 2 1 317 20 4 41 90
144 3 2 3 317 20 4 41 90
145 3 2 1 317 90 41 42 91
146 3 2 3 317 90 41 42 91
147 3 2 1 317 91 42 43 92
148 3 2 3 317 91 42 43 92
149 3 2 1 317 92 43 44 93
150 3 2 3 317 92 43 44 93
151 3 2 1 317 93 44 7 27
152 3 2 3 317 93 44 7 27
153 3 2 1 321 1 12 94 33
154 3 2 7 321 1 12 94 33
155 3 2 1 321 33 94 95 34
156 3 2 7 321 33 94 95 34
157 3 2 1 321 34 95 96 35
158 3 2 7 321 34 95 96 35
159 3 2 1 321 35 96 97 36
160 3 2 7 321 35 96 97 36
161 3 2 1 321 36 97 32 5
162 3 2 7 321 36 97 32 5
163 3 2 1 321 12 13 98 94
164 3 2 7 321 12 13 98 94
165 3 2 1 321 94 98 99 95
166 3 2 7 321 94 98 99 95
167 3 2 1 321 95 99 100 96
168 3 2 7 321 95 99 100 96
169 3 2 1 321 96 100 101 97
170 3 2 7 321 96 100 101 97
171 3 2 1 321 97 101 31 32
172 3 2 7 321 97 101 31 32
173 3 2 1 321 13 14 102 98
174 3 2 7 321 13 14 102 98
175 3 2 1 321 98 102 103 99
176 3 2 7 321 98 102 103 99
177 3 2 1 321 99 103 104 100
178 3 2 7 321 99 103 104 100
179 3 2 1 321 100 104 105 101
180 3 2 7 321 100 104 105 101
181 3 2 1 321 101 105 30 31
182 3 2 7 321 101 105 30 31
183 3 2 1 321 14 3 45 102
184 3 2 7 321 14 3 45 102
185 3 2 1 321 102 45 46 103
186 3 2 7 321 102 45 46 103
187 3 2 1 321 103 46 47 104
188 3 2 7 321 103 46 47 104
189 3 2 1 321 104 47 48 105
190 3 2 7 321 104 47 48 105
191 3 2 1 321 105 48 8 30
192 3 2 7 321 105 48 8 30
193 3 2 1 322 107 112 22 21
194 3 2 6 322 107 112 22 21
195 3 2 1 322 107 32 31 111
196 3 2 6 322 107 32 31 111
197 3 2 1 322 108 113 25 24
198 3 2 6 322 108 113 25 24
199 3 2 1 322 109 29 28 114
200 3 2 6 322 109 29 28 114
201 3 2 1 322 108 23 22 112
202 3 2 6 322 108 23 22 112
203 3 2 1 322 109 111 31 30
204 3 2 6 322 109 111 31 30
205 3 2 1 322 110 114 28 27
206 3 2 6 322 110 114 28 27
207 3 2 1 322 110 26 25 113
208 3 2 6 322 110 26 25 113
209 3 2 1 322 112 107 111 106
210 3 2 6 322 112 107 111 106
211 3 2 1 322 112 106 113 108
212 3 2 6 322 112 106 113 108
213 3 2 1 322 111 109 114 106
214 3 2 6 322 111 109 114 106
215 3 2 1 322 113 106 114 110
216 3 2 6 322 113 106 114 110
217 3 2 1 322 107 21 5 32
218 3 2 6 322 107 21 5 32
219 3 2 1 322 8 29 109 30
220 3 2 6 322 8 29 109 30
221 3 2 1 322 108 24 6 23
222 3 2 6 322 108 24 6 23
223 3 2 1 322 7 26 110 27
224 3 2 6 322 7 26 110 27
225 5 2 8 1 10 9 50 55 62 58 119 139
226 5 2 8 1 62 58 119 139 63 59 120 140
227 5 2 8 1 63 59 120 140 64 60 121 141
228 5 2 8 1 64 60 121 141 65 61 122 142
229 5 2 8 1 65 61 122 142 22 21 107 112
230 5 2 8 1 13 54 50 12 98 135 119 94
231 5 2 8 1 98 135 119 94 99 136 120 95
232 5 2 8 1 99 136 120 95 100 137 121 96
233 5 2 8 1 100 137 121 96 101 138 122 97
234 5 2 8 1 101 138 122 97 31 111 107 32
235 5 2 8 1 16 15 51 56 74 70 123 143
236 5 2 8 1 74 70 123 143 75 71 124 144
237 5 2 8 1 75 71 124 144 76 72 125 145
238 5 2 8 1 76 72 125 145 77 73 126 146
239 5 2 8 1 77 73 126 146 25 24 108 113
240 5 2 8 1 19 57 52 18 86 147 127 82
241 5 2 8 1 86 147 127 82 87 148 128 83
242 5 2 8 1 87 148 128 83 88 149 129 84
243 5 2 8 1 88 149 129 84 89 150 130 85
244 5 2 8 1 89 150 130 85 28 114 109 29
245 5 2 8 1 10 55 51 11 62 139 123 66
246 5 2 8 1 62 139 123 66 63 140 124 67
247 5 2 8 1 63 140 124 67 64 141 125 68
248 5 2 8 1 64 141 125 68 65 142 126 69
249 5 2 8 1 65 142 126 69 22 112 108 23
250 5 2 8 1 13 14 52 54 98 102 127 135
251 5 2 8 1 98 102 127 135 99 103 128 136
252 5 2 8 1 99 103 128 136 100 104 129 137
253 5 2 8 1 100 104 129 137 101 105 130 138
254 5 2 8 1 101 105 130 138 31 30 109 111
255 5 2 8 1 19 20 53 57 86 90 131 147
256 5 2 8 1 86 90 131 147 87 91 132 148
257 5 2 8 1 87 91 132 148 88 92 133 149
258 5 2 8 1 88 92 133 149 89 93 134 150
259 5 2 8 1 89 93 134 150 28 27 110 114
260 5 2 8 1 16 56 53 17 74 143 131 78
261 5 2 8 1 74 143 131 78 75 144 132 79
262 5 2 8 1 75 144 132 79 76 145 133 80
263 5 2 8 1 76 145 133 80 77 146 134 81
264 5 2 8 1 77 146 134 81 25 113 110 26
265 5 2 8 1 54 49 55 50 135 115 139 119
266 5 2 8 1 135 115 139 119 136 116 140 120
267 5 2 8 1 136 116 140 120 137 117 141 121
268 5 2 8 1 137 117 141 121 138 118 142 122
269 5 2 8 1 138 118 142 122 111 106 112 107
270 5 2 8 1 56 51 55 49 143 123 139 115
271 5 2 8 1 143 123 139 115 144 124 140 116
272 5 2 8 1 144 124 140 116 145 125 141 117
273 5 2 8 1 145 125 141 117 146 126 142 118
274 5 2 8 1 146 126 142 118 113 108 112 106
275 5 2 8 1 57 49 54 52 147 115 135 127
276 5 2 8 1 147 115 135 127 148 116 136 128
277 5 2 8 1 148 116 136 128 149 117 137 129
278 5 2 8 1 149 117 137 129 150 118 138 130
279 5 2 8 1 150 118 138 130 114 106 111 109
280 5 2 8 1 57 53 56 49 147 131 143 115
281 5 2 8 1 147 131 143 115 148 132 144 116
282 5 2 8 1 148 132 144 116 149 133 145 117
283 5 2 8 1 149 133 145 117 150 134 146 118
284 5 2 8 1 150 134 146 118 114 110 113 106
285 5 2 8 1 1 12 50 9 33 94 119 58
286 5 2 8 1 33 94 119 58 34 95 120 59
287 5 2 8 1 34 95 120 59 35 96 121 60
288 5 2 8 1 35 96 121 60 36 97 122 61
289 5 2 8 1 36 97 122 61 5 32 107 21
290 5 2 8 1 52 14 3 18 127 102 45 82
291 5 2 8 1 127 102 45 82 128 103 46 83
292 5 2 8 1 128 103 46 83 129 104 47 84
293 5 2 8 1 129 104 47 84 130 105 48 85
294 5 2 8 1 130 105 48 85 109 30 8 29
295 5 2 8 1 2 11 51 15 37 66 123 70
296 5 2 8 1 37 66 123 70 38 67 124 71
297 5 2 8 1 38 67 124 71 39 68 125 72
298 5 2 8 1 39 68 125 72 40 69 126 73
299 5 2 8 1 40 69 126 73 6 23 108 24
300 5 2 8 1 53 20 4 17 131 90 41 78
301 5 2 8 1 131 90 41 78 132 91 42 79
302 5 2 8 1 132 91 42 79 133 92 43 80
303 5 2 8 1 133 92 43 80 134 93 44 81
304 5 2 8 1 134 93 44 81 110 27 7 26
$EndElements
