#!geo

mesh
4
header
 dimension 3
 nodes	28
 triangles	22
 quadrangles	8
 edges	57
end header

1 1 0
0 1 0
1 1 0.5
0 1 0.5
1 1 1
0 1 1
0.750000000000347 1 0
0.500000000001388 1 0
0.250000000001041 1 0
0.750000000000347 1 0.5
0.500000000001388 1 0.5
0.250000000001041 1 0.5
1 1 0.249999999999511
0 1 0.249999999999511
0.750000000000347 1 1
0.500000000001388 1 1
0.250000000001041 1 1
1 1 0.75
0 1 0.75
0.62210424710501 1 0.229054054053997
0.374517374518398 1 0.225675675675625
0.0937500000003903 1 0.343749999999817
0.90625000000013 1 0.343749999999817
0.161377895753478 1 0.219904279279159
0.838059041184306 1 0.220467342342221
0.750000000000347 1 0.75
0.500000000001388 1 0.75
0.250000000001041 1 0.75

t	6 7 19
t	10 9 19
t	8 20 7
t	20 11 10
t	20 10 19
t	20 19 7
t	21 3 11
t	21 13 3
t	22 9 2
t	2 12 22
t	8 1 23
t	23 1 13
t	0 6 24
t	0 24 12
t	12 24 22
t	24 19 9
t	6 19 24
t	22 24 9
t	21 23 13
t	20 23 11
t	8 23 20
t	21 11 23
q	2 9 25 17
q	17 25 14 4
q	9 10 26 25
q	25 26 15 14
q	10 11 27 26
q	26 27 16 15
q	11 3 18 27
q	27 18 5 16

e	22 24
e	20 7
e	23 11
e	6 19
e	21 23
e	21 13
e	23 13
e	22 9
e	22 2
e	2 9
e	20 10
e	20 19
e	10 19
e	8 20
e	20 23
e	23 8
e	21 11
e	8 7
e	21 3
e	22 12
e	12 2
e	3 13
e	6 7
e	7 19
e	10 9
e	19 9
e	23 1
e	1 8
e	3 11
e	0 6
e	0 24
e	6 24
e	1 13
e	11 20
e	24 9
e	24 19
e	24 12
e	10 11
e	0 12
e	10 26
e	11 27
e	26 27
e	26 15
e	27 16
e	15 16
e	9 25
e	25 26
e	25 14
e	14 15
e	2 17
e	17 4
e	17 25
e	4 14
e	3 18
e	27 18
e	18 5
e	16 5

domain
boundary
2 2 30
0
1
2
3
4
5
6
7
8
9
10
11
12
13
14
15
16
17
18
19
20
21
22
23
24
25
26
27
28
29
