#!geo

mesh
4
header
 dimension	3
 nodes		156
 tetrahedra	269
 prisms	84
end header

0 0 0
1 0 0
1 1 0
0 1 0
0 0 0.5
1 0 0.5
1 1 0.5
0 1 0.5
0 0 1
1 0 1
1 1 1
0 1 1
0.2499999999994 0 0
0.499999999999022 0 0
0.749999999999337 0 0
1 0.2499999999994 0
1 0.499999999999022 0
1 0.749999999999337 0
0.750000000000347 1 0
0.500000000001388 1 0
0.250000000001041 1 0
0 0.750000000000347 0
0 0.500000000001388 0
0 0.250000000001041 0
0.2499999999994 0 0.5
0.499999999999022 0 0.5
0.749999999999337 0 0.5
1 0.2499999999994 0.5
1 0.499999999999022 0.5
1 0.749999999999337 0.5
0.750000000000347 1 0.5
0.500000000001388 1 0.5
0.250000000001041 1 0.5
0 0.750000000000347 0.5
0 0.500000000001388 0.5
0 0.250000000001041 0.5
0 0 0.249999999999511
1 0 0.249999999999511
1 1 0.249999999999511
0 1 0.249999999999511
0.2499999999994 0 1
0.499999999999022 0 1
0.749999999999337 0 1
1 0.2499999999994 1
1 0.499999999999022 1
1 0.749999999999337 1
0.750000000000347 1 1
0.500000000001388 1 1
0.250000000001041 1 1
0 0.750000000000347 1
0 0.500000000001388 1
0 0.250000000001041 1
0 0 0.75
1 0 0.75
1 1 0.75
0 1 0.75
0.62038718072689 0.519648210991823 0
0.662384277765604 0.237468336347815 0
0.331022511518464 0.796475109554582 0
0.791798751139876 0.757273711794033 0
0.171206624404821 0.638076871236202 0
0.39020676834201 0.559915919535003 0
0.410776288931753 0.272349059699881 0
0.18275206435144 0.392368137129978 0
0.562263129175067 0.766181312377551 0
0.150445827184865 0.836910396158226 0
0.168705670656519 0.18294343936618 0
0.849938601376006 0.448484322733019 0
0.85246457582819 0.187190531816047 0
0.452604166666986 0.62242890211658 0.5
0.419758029513811 0.394300589497174 0.5
0.600353720964138 0.191168118015604 0.5
0.350457658179674 0.815218200384731 0.5
0.758440910218457 0.718036614819252 0.5
0.217160855517159 0.612383942405204 0.5
0.180328494727267 0.341161073880187 0.5
0.55371527777837 0.825744598765453 0.5
0.721423321813725 0.410966626149454 0.5
0.349555048806671 0.178748215943247 0.5
0.877110227554701 0.867009153704647 0.5
0.163523702739575 0.835520428558056 0.5
0.155976708706667 0.153981857964895 0.5
0.81435540855544 0.170426948832892 0.5
0.377895752895067 0 0.229054054053997
0.625482625481909 0 0.225675675675625
0.906249999999752 0 0.343749999999817
0.093749999999775 0 0.343749999999817
0.838622104246722 0 0.219904279279159
0.161940958815607 0 0.220467342342221
0.62210424710501 1 0.229054054053997
0.374517374518398 1 0.225675675675625
0.0937500000003903 1 0.343749999999817
0.90625000000013 1 0.343749999999817
0.161377895753478 1 0.219904279279159
0.838059041184306 1 0.220467342342221
1 0.377895752895067 0.229054054053997
1 0.625482625481909 0.225675675675625
1 0.906249999999752 0.343749999999817
1 0.093749999999775 0.343749999999817
1 0.838622104246722 0.219904279279159
1 0.161940958815607 0.220467342342221
0 0.62210424710501 0.229054054053997
0 0.374517374518398 0.225675675675625
0 0.0937500000003903 0.343749999999817
0 0.90625000000013 0.343749999999817
0 0.161377895753478 0.219904279279159
0 0.838059041184306 0.220467342342221
0.2499999999994 0 0.75
0.499999999999022 0 0.75
0.749999999999337 0 0.75
1 0.2499999999994 0.75
1 0.499999999999022 0.75
1 0.749999999999337 0.75
0.750000000000347 1 0.75
0.500000000001388 1 0.75
0.250000000001041 1 0.75
0 0.750000000000347 0.75
0 0.500000000001388 0.75
0 0.250000000001041 0.75
0.452604166666986 0.62242890211658 1
0.419758029513811 0.394300589497174 1
0.600353720964138 0.191168118015604 1
0.350457658179674 0.815218200384731 1
0.758440910218457 0.718036614819252 1
0.217160855517159 0.612383942405204 1
0.180328494727267 0.341161073880187 1
0.55371527777837 0.825744598765453 1
0.721423321813725 0.410966626149454 1
0.349555048806671 0.178748215943247 1
0.877110227554701 0.867009153704647 1
0.163523702739575 0.835520428558056 1
0.155976708706667 0.153981857964895 1
0.81435540855544 0.170426948832892 1
0.338256239891052 0.591281235218048 0.253381252288818
0.167793720960617 0.761743724346161 0.253381252288818
0.167793720960617 0.250356256961823 0.253381252288818
0.338256239891052 0.761743724346161 0.253381252288818
0.508718729019165 0.761743724346161 0.253381252288818
0.849643766880035 0.761743724346161 0.253381252288818
0.849643766880035 0.250356256961823 0.253381252288818
0.679181277751923 0.250356256961823 0.253381252288818
0.849643766880035 0.420818746089935 0.253381252288818
0.452604166666986 0.62242890211658 0.75
0.419758029513811 0.394300589497174 0.75
0.600353720964138 0.191168118015604 0.75
0.350457658179674 0.815218200384731 0.75
0.758440910218457 0.718036614819252 0.75
0.217160855517159 0.612383942405204 0.75
0.180328494727267 0.341161073880187 0.75
0.55371527777837 0.825744598765453 0.75
0.721423321813725 0.410966626149454 0.75
0.349555048806671 0.178748215943247 0.75
0.877110227554701 0.867009153704647 0.75
0.163523702739575 0.835520428558056 0.75
0.155976708706667 0.153981857964895 0.75
0.81435540855544 0.170426948832892 0.75

T	60 63 61 133
T	138 96 17 99
T	73 137 138 141
T	140 135 83 78
T	138 92 97 94
T	101 134 33 74
T	86 135 103 81
T	66 88 135 105
T	68 140 87 139
T	90 137 72 136
T	61 60 133 58
T	69 137 133 136
T	90 137 58 19
T	84 140 62 83
T	137 64 58 19
T	36 88 105 86
T	93 134 136 32
T	18 64 59 89
T	104 91 93 39
T	137 69 72 136
T	101 60 22 21
T	66 135 83 62
T	74 134 136 133
T	79 92 97 138
T	140 84 71 83
T	101 63 22 60
T	79 92 138 30
T	63 101 22 102
T	60 134 133 136
T	134 74 136 72
T	15 68 100 139
T	34 101 33 74
T	134 21 106 65
T	80 32 72 136
T	134 60 58 136
T	141 95 139 67
T	140 71 70 78
T	84 25 71 83
T	92 6 30 79
T	16 96 67 141
T	134 80 72 136
T	135 63 102 133
T	28 73 96 141
T	5 98 82 27
T	82 26 87 85
T	61 137 56 64
T	2 59 17 99
T	96 138 67 141
T	95 28 96 141
T	66 88 83 135
T	29 79 97 138
T	140 137 77 141
T	137 90 31 89
T	88 66 83 12
T	20 90 93 58
T	74 69 70 133
T	14 84 57 13
T	82 140 87 26
T	87 98 85 37
T	28 73 29 96
T	134 32 80 136
T	69 74 136 133
T	74 69 136 72
T	70 135 75 133
T	103 35 4 81
T	138 59 94 99
T	86 103 4 81
T	93 104 39 106
T	134 101 106 21
T	135 140 70 78
T	74 101 133 102
T	141 138 67 56
T	135 88 78 24
T	95 28 141 27
T	140 71 82 77
T	140 70 133 62
T	96 16 67 59
T	93 134 65 58
T	25 71 83 78
T	34 101 74 102
T	73 137 77 69
T	134 91 80 32
T	74 102 133 75
T	57 141 139 67
T	68 57 139 67
T	74 70 75 133
T	98 100 139 27
T	140 68 57 139
T	135 102 105 35
T	34 74 75 102
T	96 73 138 141
T	102 135 75 35
T	20 90 58 19
T	61 137 58 136
T	63 101 133 60
T	134 74 72 80
T	91 104 80 7
T	94 92 97 99
T	138 137 89 64
T	15 68 139 67
T	140 57 141 139
T	73 76 30 138
T	34 102 75 35
T	100 68 87 139
T	76 137 69 72
T	135 63 133 62
T	141 77 139 27
T	138 59 67 56
T	93 90 136 58
T	134 104 33 80
T	95 15 139 67
T	95 100 27 139
T	77 140 141 139
T	87 82 85 139
T	137 61 58 64
T	82 140 77 139
T	14 68 57 140
T	135 105 103 35
T	5 82 85 26
T	57 84 62 13
T	63 101 102 133
T	88 135 78 83
T	6 92 38 97
T	61 137 133 56
T	104 7 33 80
T	91 104 7 39
T	138 96 67 59
T	140 57 62 56
T	64 138 59 89
T	64 18 19 89
T	140 135 70 62
T	63 61 133 62
T	31 76 89 30
T	73 76 137 69
T	76 137 89 138
T	24 86 4 81
T	135 88 86 103
T	5 98 85 82
T	100 98 139 85
T	74 134 33 80
T	86 88 105 103
T	87 100 139 85
T	71 140 82 26
T	15 68 1 100
T	82 98 85 139
T	20 93 3 65
T	95 15 100 139
T	98 100 87 85
T	68 14 1 87
T	140 82 87 139
T	137 138 141 56
T	86 88 81 24
T	104 134 33 106
T	137 140 56 141
T	71 140 70 77
T	57 140 67 56
T	137 61 133 136
T	92 6 79 97
T	137 64 59 56
T	23 66 135 105
T	76 73 137 138
T	84 83 62 13
T	137 138 59 64
T	98 5 85 37
T	16 95 141 67
T	15 95 16 67
T	77 82 139 27
T	140 84 87 26
T	100 68 1 87
T	82 98 139 27
T	23 63 135 66
T	91 7 80 32
T	88 83 78 24
T	138 137 59 56
T	140 84 62 57
T	23 135 102 105
T	100 87 1 37
T	140 141 67 56
T	70 140 133 77
T	69 70 133 77
T	25 84 71 26
T	69 137 77 133
T	84 140 71 26
T	76 138 89 30
T	66 23 0 105
T	88 66 0 105
T	137 140 77 133
T	36 88 0 105
T	137 140 133 56
T	137 76 89 31
T	137 90 58 136
T	2 18 59 94
T	100 98 87 37
T	14 84 87 140
T	68 14 87 140
T	141 95 27 139
T	75 135 78 81
T	92 38 97 99
T	96 16 59 17
T	134 101 33 106
T	133 61 56 62
T	140 133 56 62
T	91 134 80 104
T	28 77 141 27
T	3 93 106 65
T	36 86 103 4
T	135 35 103 81
T	93 134 106 65
T	61 58 133 136
T	104 91 106 93
T	20 93 65 58
T	93 3 106 39
T	134 91 106 104
T	91 134 106 93
T	32 90 72 136
T	135 88 81 86
T	29 138 97 99
T	138 92 94 30
T	140 57 67 141
T	88 66 12 0
T	90 93 136 32
T	137 90 72 31
T	84 14 57 140
T	79 73 30 138
T	76 137 72 31
T	18 59 94 89
T	95 96 16 141
T	101 134 133 60
T	101 134 74 133
T	91 134 93 32
T	58 60 133 136
T	29 96 138 99
T	66 63 135 62
T	70 135 133 62
T	38 92 94 99
T	90 31 32 72
T	138 94 89 30
T	59 138 94 89
T	70 135 78 75
T	137 64 19 89
T	23 63 22 102
T	83 12 62 13
T	66 12 62 83
T	134 60 65 58
T	60 134 65 21
T	59 2 94 99
T	135 140 83 62
T	2 38 94 99
T	73 79 29 138
T	96 73 29 138
T	79 6 29 97
T	138 96 59 17
T	73 28 77 141
T	137 73 77 141
T	23 63 102 135
T	134 93 136 58
T	137 90 89 19
T	134 101 21 60
T	35 135 75 81
T	102 135 133 75
T	21 3 106 65
T	138 94 97 99
T	59 138 17 99
T	71 140 83 78
T	88 135 105 103
T	83 25 78 24
T	88 135 81 24
T	86 36 103 105
T	135 24 78 81
P	25 26 71 108 109 144
P	108 109 144 41 42 121
P	31 32 72 114 115 145
P	114 115 145 47 48 122
P	28 29 73 111 112 146
P	111 112 146 44 45 123
P	34 35 75 117 118 148
P	117 118 148 50 51 125
P	69 70 77 142 143 150
P	142 143 150 119 120 127
P	77 70 71 150 143 144
P	150 143 144 127 120 121
P	33 34 74 116 117 147
P	116 117 147 49 50 124
P	30 31 76 113 114 149
P	113 114 149 46 47 126
P	73 30 76 146 113 149
P	146 113 149 123 46 126
P	75 74 34 148 147 117
P	148 147 117 125 124 50
P	69 72 74 142 145 147
P	142 145 147 119 122 124
P	74 70 69 147 143 142
P	147 143 142 124 120 119
P	70 74 75 143 147 148
P	143 147 148 120 124 125
P	73 69 77 146 142 150
P	146 142 150 123 119 127
P	77 28 73 150 111 146
P	150 111 146 127 44 123
P	31 72 76 114 145 149
P	114 145 149 47 122 126
P	69 73 76 142 146 149
P	142 146 149 119 123 126
P	76 72 69 149 145 142
P	149 145 142 126 122 119
P	24 25 78 107 108 151
P	107 108 151 40 41 128
P	70 75 78 143 148 151
P	143 148 151 120 125 128
P	29 6 79 112 54 152
P	112 54 152 45 10 129
P	30 73 79 113 146 152
P	113 146 152 46 123 129
P	79 6 30 152 54 113
P	152 54 113 129 10 46
P	79 73 29 152 146 112
P	152 146 112 129 123 45
P	32 7 80 115 55 153
P	115 55 153 48 11 130
P	80 7 33 153 55 116
P	153 55 116 130 11 49
P	80 72 32 153 145 115
P	153 145 115 130 122 48
P	81 4 24 154 52 107
P	154 52 107 131 8 40
P	81 75 35 154 148 118
P	154 148 118 131 125 51
P	35 4 81 118 52 154
P	118 52 154 51 8 131
P	78 25 71 151 108 144
P	151 108 144 128 41 121
P	70 78 71 143 151 144
P	143 151 144 120 128 121
P	81 24 78 154 107 151
P	154 107 151 131 40 128
P	75 81 78 148 154 151
P	148 154 151 125 131 128
P	80 33 74 153 116 147
P	153 116 147 130 49 124
P	72 80 74 145 153 147
P	145 153 147 122 130 124
P	26 5 82 109 53 155
P	109 53 155 42 9 132
P	82 5 27 155 53 110
P	155 53 110 132 9 43
P	82 77 71 155 150 144
P	155 150 144 132 127 121
P	71 26 82 144 109 155
P	144 109 155 121 42 132
P	27 28 77 110 111 150
P	110 111 150 43 44 127
P	77 82 27 150 155 110
P	150 155 110 127 132 43

domain
boundary
1 2 202
t	13 57 14 
t	19 58 20 
t	58 61 60 
t	57 62 56 
t	22 63 23 
t	63 22 60 
t	62 61 56 
t	21 60 22 
t	18 64 19 
t	60 61 63 
t	59 64 18 
t	13 62 57 
t	64 58 19 
t	61 58 64 
t	64 59 56 
t	61 64 56 
t	59 2 17 
t	18 2 59 
t	20 65 3 
t	65 21 3 
t	65 20 58 
t	65 60 21 
t	58 60 65 
t	63 61 62 
t	66 12 0 
t	23 66 0 
t	66 63 62 
t	63 66 23 
t	12 62 13 
t	62 12 66 
t	67 56 59 
t	14 68 1 
t	68 14 57 
t	68 15 1 
t	67 16 15 
t	67 57 56 
t	57 67 68 
t	68 67 15 
t	16 59 17 
t	16 67 59 
t	41 42 121 
t	47 48 122 
t	44 45 123 
t	50 51 125 
t	119 120 127 
t	127 120 121 
t	49 50 124 
t	46 47 126 
t	123 46 126 
t	125 124 50 
t	119 122 124 
t	124 120 119 
t	120 124 125 
t	123 119 127 
t	127 44 123 
t	47 122 126 
t	119 123 126 
t	126 122 119 
t	40 41 128 
t	120 125 128 
t	45 10 129 
t	46 123 129 
t	129 10 46 
t	129 123 45 
t	48 11 130 
t	130 11 49 
t	130 122 48 
t	131 8 40 
t	131 125 51 
t	51 8 131 
t	128 41 121 
t	120 128 121 
t	131 40 128 
t	125 131 128 
t	130 49 124 
t	122 130 124 
t	42 9 132 
t	132 9 43 
t	132 127 121 
t	121 42 132 
t	43 44 127 
t	127 132 43 
t	12 13 83 
t	25 24 83 
t	84 13 14 
t	84 26 25 
t	83 84 25 
t	13 84 83 
t	37 5 85 
t	85 5 26 
t	24 4 86 
t	86 4 36 
t	87 1 37 
t	14 1 87 
t	88 0 12 
t	36 0 88 
t	36 88 86 
t	83 24 88 
t	88 12 83 
t	86 88 24 
t	85 87 37 
t	87 26 84 
t	84 14 87 
t	26 87 85 
t	15 16 95 
t	28 27 95 
t	16 17 96 
t	16 96 95 
t	29 28 96 
t	95 96 28 
t	97 6 29 
t	38 6 97 
t	98 5 37 
t	27 5 98 
t	17 2 99 
t	99 2 38 
t	37 1 100 
t	100 1 15 
t	37 100 98 
t	95 27 100 
t	100 15 95 
t	98 100 27 
t	97 99 38 
t	99 29 96 
t	96 17 99 
t	29 99 97 
t	19 89 18 
t	30 89 31 
t	20 90 19 
t	31 90 32 
t	31 89 90 
t	89 19 90 
t	32 91 7 
t	91 39 7 
t	92 30 6 
t	38 92 6 
t	93 20 3 
t	39 93 3 
t	18 94 2 
t	94 38 2 
t	92 38 94 
t	94 89 30 
t	89 94 18 
t	30 92 94 
t	39 91 93 
t	90 93 32 
t	93 90 20 
t	91 32 93 
t	101 21 22 
t	101 34 33 
t	23 102 22 
t	34 102 35 
t	34 101 102 
t	101 22 102 
t	35 103 4 
t	103 36 4 
t	104 33 7 
t	39 104 7 
t	105 23 0 
t	36 105 0 
t	21 106 3 
t	106 39 3 
t	104 39 106 
t	106 101 33 
t	101 106 21 
t	33 104 106 
t	36 103 105 
t	102 105 35 
t	105 102 23 
t	103 35 105 
q	4 24 107 52 
q	52 107 40 8 
q	24 25 108 107 
q	107 108 41 40 
q	25 26 109 108 
q	108 109 42 41 
q	26 5 53 109 
q	109 53 9 42 
q	5 27 110 53 
q	53 110 43 9 
q	27 28 111 110 
q	110 111 44 43 
q	28 29 112 111 
q	111 112 45 44 
q	29 6 54 112 
q	112 54 10 45 
q	6 30 113 54 
q	54 113 46 10 
q	30 31 114 113 
q	113 114 47 46 
q	31 32 115 114 
q	114 115 48 47 
q	32 7 55 115 
q	115 55 11 48 
q	7 33 116 55 
q	55 116 49 11 
q	33 34 117 116 
q	116 117 50 49 
q	34 35 118 117 
q	117 118 51 50 
q	35 4 52 118 
q	118 52 8 51 

domain
bottom
1 2 40
t	13 57 14 
t	19 58 20 
t	58 61 60 
t	57 62 56 
t	22 63 23 
t	63 22 60 
t	62 61 56 
t	21 60 22 
t	18 64 19 
t	60 61 63 
t	59 64 18 
t	13 62 57 
t	64 58 19 
t	61 58 64 
t	64 59 56 
t	61 64 56 
t	59 2 17 
t	18 2 59 
t	20 65 3 
t	65 21 3 
t	65 20 58 
t	65 60 21 
t	58 60 65 
t	63 61 62 
t	66 12 0 
t	23 66 0 
t	66 63 62 
t	63 66 23 
t	12 62 13 
t	62 12 66 
t	67 56 59 
t	14 68 1 
t	68 14 57 
t	68 15 1 
t	67 16 15 
t	67 57 56 
t	57 67 68 
t	68 67 15 
t	16 59 17 
t	16 67 59 

domain
top
1 2 42
t	41 42 121 
t	47 48 122 
t	44 45 123 
t	50 51 125 
t	119 120 127 
t	127 120 121 
t	49 50 124 
t	46 47 126 
t	123 46 126 
t	125 124 50 
t	119 122 124 
t	124 120 119 
t	120 124 125 
t	123 119 127 
t	127 44 123 
t	47 122 126 
t	119 123 126 
t	126 122 119 
t	40 41 128 
t	120 125 128 
t	45 10 129 
t	46 123 129 
t	129 10 46 
t	129 123 45 
t	48 11 130 
t	130 11 49 
t	130 122 48 
t	131 8 40 
t	131 125 51 
t	51 8 131 
t	128 41 121 
t	120 128 121 
t	131 40 128 
t	125 131 128 
t	130 49 124 
t	122 130 124 
t	42 9 132 
t	132 9 43 
t	132 127 121 
t	121 42 132 
t	43 44 127 
t	127 132 43 

domain
left
1 2 30
t	12 13 83 
t	25 24 83 
t	84 13 14 
t	84 26 25 
t	83 84 25 
t	13 84 83 
t	37 5 85 
t	85 5 26 
t	24 4 86 
t	86 4 36 
t	87 1 37 
t	14 1 87 
t	88 0 12 
t	36 0 88 
t	36 88 86 
t	83 24 88 
t	88 12 83 
t	86 88 24 
t	85 87 37 
t	87 26 84 
t	84 14 87 
t	26 87 85 
q	4 24 107 52 
q	52 107 40 8 
q	24 25 108 107 
q	107 108 41 40 
q	25 26 109 108 
q	108 109 42 41 
q	26 5 53 109 
q	109 53 9 42 

domain
front
1 2 30
t	15 16 95 
t	28 27 95 
t	16 17 96 
t	16 96 95 
t	29 28 96 
t	95 96 28 
t	97 6 29 
t	38 6 97 
t	98 5 37 
t	27 5 98 
t	17 2 99 
t	99 2 38 
t	37 1 100 
t	100 1 15 
t	37 100 98 
t	95 27 100 
t	100 15 95 
t	98 100 27 
t	97 99 38 
t	99 29 96 
t	96 17 99 
t	29 99 97 
q	5 27 110 53 
q	53 110 43 9 
q	27 28 111 110 
q	110 111 44 43 
q	28 29 112 111 
q	111 112 45 44 
q	29 6 54 112 
q	112 54 10 45 

domain
right
1 2 30
t	19 89 18 
t	30 89 31 
t	20 90 19 
t	31 90 32 
t	31 89 90 
t	89 19 90 
t	32 91 7 
t	91 39 7 
t	92 30 6 
t	38 92 6 
t	93 20 3 
t	39 93 3 
t	18 94 2 
t	94 38 2 
t	92 38 94 
t	94 89 30 
t	89 94 18 
t	30 92 94 
t	39 91 93 
t	90 93 32 
t	93 90 20 
t	91 32 93 
q	6 30 113 54 
q	54 113 46 10 
q	30 31 114 113 
q	113 114 47 46 
q	31 32 115 114 
q	114 115 48 47 
q	32 7 55 115 
q	115 55 11 48 

domain
back
1 2 30
t	101 21 22 
t	101 34 33 
t	23 102 22 
t	34 102 35 
t	34 101 102 
t	101 22 102 
t	35 103 4 
t	103 36 4 
t	104 33 7 
t	39 104 7 
t	105 23 0 
t	36 105 0 
t	21 106 3 
t	106 39 3 
t	104 39 106 
t	106 101 33 
t	101 106 21 
t	33 104 106 
t	36 103 105 
t	102 105 35 
t	105 102 23 
t	103 35 105 
q	7 33 116 55 
q	55 116 49 11 
q	33 34 117 116 
q	116 117 50 49 
q	34 35 118 117 
q	117 118 51 50 
q	35 4 52 118 
q	118 52 8 51 

