#!geo

mesh
4
header
 dimension 3
 nodes	156
 tetrahedra	269
 prisms	84
 triangles	707
 quadrangles	142
 edges	651
end header

0 0 0
1 0 0
1 1 0
0 1 0
0 0 0.5
1 0 0.5
1 1 0.5
0 1 0.5
0 0 1
1 0 1
1 1 1
0 1 1
0.2499999999994 0 0
0.499999999999022 0 0
0.749999999999337 0 0
1 0.2499999999994 0
1 0.499999999999022 0
1 0.749999999999337 0
0.750000000000347 1 0
0.500000000001388 1 0
0.250000000001041 1 0
0 0.750000000000347 0
0 0.500000000001388 0
0 0.250000000001041 0
0.2499999999994 0 0.5
0.499999999999022 0 0.5
0.749999999999337 0 0.5
1 0.2499999999994 0.5
1 0.499999999999022 0.5
1 0.749999999999337 0.5
0.750000000000347 1 0.5
0.500000000001388 1 0.5
0.250000000001041 1 0.5
0 0.750000000000347 0.5
0 0.500000000001388 0.5
0 0.250000000001041 0.5
0 0 0.249999999999511
1 0 0.249999999999511
1 1 0.249999999999511
0 1 0.249999999999511
0.2499999999994 0 1
0.499999999999022 0 1
0.749999999999337 0 1
1 0.2499999999994 1
1 0.499999999999022 1
1 0.749999999999337 1
0.750000000000347 1 1
0.500000000001388 1 1
0.250000000001041 1 1
0 0.750000000000347 1
0 0.500000000001388 1
0 0.250000000001041 1
0 0 0.75
1 0 0.75
1 1 0.75
0 1 0.75
0.62038718072689 0.519648210991823 0
0.662384277765604 0.237468336347815 0
0.331022511518464 0.796475109554582 0
0.791798751139876 0.757273711794033 0
0.171206624404821 0.638076871236202 0
0.39020676834201 0.559915919535003 0
0.410776288931753 0.272349059699881 0
0.18275206435144 0.392368137129978 0
0.562263129175067 0.766181312377551 0
0.150445827184865 0.836910396158226 0
0.168705670656519 0.18294343936618 0
0.849938601376006 0.448484322733019 0
0.85246457582819 0.187190531816047 0
0.452604166666986 0.62242890211658 0.5
0.419758029513811 0.394300589497174 0.5
0.600353720964138 0.191168118015604 0.5
0.350457658179674 0.815218200384731 0.5
0.758440910218457 0.718036614819252 0.5
0.217160855517159 0.612383942405204 0.5
0.180328494727267 0.341161073880187 0.5
0.55371527777837 0.825744598765453 0.5
0.721423321813725 0.410966626149454 0.5
0.349555048806671 0.178748215943247 0.5
0.877110227554701 0.867009153704647 0.5
0.163523702739575 0.835520428558056 0.5
0.155976708706667 0.153981857964895 0.5
0.81435540855544 0.170426948832892 0.5
0.377895752895067 0 0.229054054053997
0.625482625481909 0 0.225675675675625
0.906249999999752 0 0.343749999999817
0.093749999999775 0 0.343749999999817
0.838622104246722 0 0.219904279279159
0.161940958815607 0 0.220467342342221
0.62210424710501 1 0.229054054053997
0.374517374518398 1 0.225675675675625
0.0937500000003903 1 0.343749999999817
0.90625000000013 1 0.343749999999817
0.161377895753478 1 0.219904279279159
0.838059041184306 1 0.220467342342221
1 0.377895752895067 0.229054054053997
1 0.625482625481909 0.225675675675625
1 0.906249999999752 0.343749999999817
1 0.093749999999775 0.343749999999817
1 0.838622104246722 0.219904279279159
1 0.161940958815607 0.220467342342221
0 0.62210424710501 0.229054054053997
0 0.374517374518398 0.225675675675625
0 0.0937500000003903 0.343749999999817
0 0.90625000000013 0.343749999999817
0 0.161377895753478 0.219904279279159
0 0.838059041184306 0.220467342342221
0.2499999999994 0 0.75
0.499999999999022 0 0.75
0.749999999999337 0 0.75
1 0.2499999999994 0.75
1 0.499999999999022 0.75
1 0.749999999999337 0.75
0.750000000000347 1 0.75
0.500000000001388 1 0.75
0.250000000001041 1 0.75
0 0.750000000000347 0.75
0 0.500000000001388 0.75
0 0.250000000001041 0.75
0.452604166666986 0.62242890211658 1
0.419758029513811 0.394300589497174 1
0.600353720964138 0.191168118015604 1
0.350457658179674 0.815218200384731 1
0.758440910218457 0.718036614819252 1
0.217160855517159 0.612383942405204 1
0.180328494727267 0.341161073880187 1
0.55371527777837 0.825744598765453 1
0.721423321813725 0.410966626149454 1
0.349555048806671 0.178748215943247 1
0.877110227554701 0.867009153704647 1
0.163523702739575 0.835520428558056 1
0.155976708706667 0.153981857964895 1
0.81435540855544 0.170426948832892 1
0.338256239891052 0.591281235218048 0.253381252288818
0.167793720960617 0.761743724346161 0.253381252288818
0.167793720960617 0.250356256961823 0.253381252288818
0.338256239891052 0.761743724346161 0.253381252288818
0.508718729019165 0.761743724346161 0.253381252288818
0.849643766880035 0.761743724346161 0.253381252288818
0.849643766880035 0.250356256961823 0.253381252288818
0.679181277751923 0.250356256961823 0.253381252288818
0.849643766880035 0.420818746089935 0.253381252288818
0.452604166666986 0.62242890211658 0.75
0.419758029513811 0.394300589497174 0.75
0.600353720964138 0.191168118015604 0.75
0.350457658179674 0.815218200384731 0.75
0.758440910218457 0.718036614819252 0.75
0.217160855517159 0.612383942405204 0.75
0.180328494727267 0.341161073880187 0.75
0.55371527777837 0.825744598765453 0.75
0.721423321813725 0.410966626149454 0.75
0.349555048806671 0.178748215943247 0.75
0.877110227554701 0.867009153704647 0.75
0.163523702739575 0.835520428558056 0.75
0.155976708706667 0.153981857964895 0.75
0.81435540855544 0.170426948832892 0.75

T	60 63 61 133
T	138 96 17 99
T	73 137 138 141
T	140 135 83 78
T	138 92 97 94
T	101 134 33 74
T	86 135 103 81
T	66 88 135 105
T	68 140 87 139
T	90 137 72 136
T	61 60 133 58
T	69 137 133 136
T	90 137 58 19
T	84 140 62 83
T	137 64 58 19
T	36 88 105 86
T	93 134 136 32
T	18 64 59 89
T	104 91 93 39
T	137 69 72 136
T	101 60 22 21
T	66 135 83 62
T	74 134 136 133
T	79 92 97 138
T	140 84 71 83
T	101 63 22 60
T	79 92 138 30
T	63 101 22 102
T	60 134 133 136
T	134 74 136 72
T	15 68 100 139
T	34 101 33 74
T	134 21 106 65
T	80 32 72 136
T	134 60 58 136
T	141 95 139 67
T	140 71 70 78
T	84 25 71 83
T	92 6 30 79
T	16 96 67 141
T	134 80 72 136
T	135 63 102 133
T	28 73 96 141
T	5 98 82 27
T	82 26 87 85
T	61 137 56 64
T	2 59 17 99
T	96 138 67 141
T	95 28 96 141
T	66 88 83 135
T	29 79 97 138
T	140 137 77 141
T	137 90 31 89
T	88 66 83 12
T	20 90 93 58
T	74 69 70 133
T	14 84 57 13
T	82 140 87 26
T	87 98 85 37
T	28 73 29 96
T	134 32 80 136
T	69 74 136 133
T	74 69 136 72
T	70 135 75 133
T	103 35 4 81
T	138 59 94 99
T	86 103 4 81
T	93 104 39 106
T	134 101 106 21
T	135 140 70 78
T	74 101 133 102
T	141 138 67 56
T	135 88 78 24
T	95 28 141 27
T	140 71 82 77
T	140 70 133 62
T	96 16 67 59
T	93 134 65 58
T	25 71 83 78
T	34 101 74 102
T	73 137 77 69
T	134 91 80 32
T	74 102 133 75
T	57 141 139 67
T	68 57 139 67
T	74 70 75 133
T	98 100 139 27
T	140 68 57 139
T	135 102 105 35
T	34 74 75 102
T	96 73 138 141
T	102 135 75 35
T	20 90 58 19
T	61 137 58 136
T	63 101 133 60
T	134 74 72 80
T	91 104 80 7
T	94 92 97 99
T	138 137 89 64
T	15 68 139 67
T	140 57 141 139
T	73 76 30 138
T	34 102 75 35
T	100 68 87 139
T	76 137 69 72
T	135 63 133 62
T	141 77 139 27
T	138 59 67 56
T	93 90 136 58
T	134 104 33 80
T	95 15 139 67
T	95 100 27 139
T	77 140 141 139
T	87 82 85 139
T	137 61 58 64
T	82 140 77 139
T	14 68 57 140
T	135 105 103 35
T	5 82 85 26
T	57 84 62 13
T	63 101 102 133
T	88 135 78 83
T	6 92 38 97
T	61 137 133 56
T	104 7 33 80
T	91 104 7 39
T	138 96 67 59
T	140 57 62 56
T	64 138 59 89
T	64 18 19 89
T	140 135 70 62
T	63 61 133 62
T	31 76 89 30
T	73 76 137 69
T	76 137 89 138
T	24 86 4 81
T	135 88 86 103
T	5 98 85 82
T	100 98 139 85
T	74 134 33 80
T	86 88 105 103
T	87 100 139 85
T	71 140 82 26
T	15 68 1 100
T	82 98 85 139
T	20 93 3 65
T	95 15 100 139
T	98 100 87 85
T	68 14 1 87
T	140 82 87 139
T	137 138 141 56
T	86 88 81 24
T	104 134 33 106
T	137 140 56 141
T	71 140 70 77
T	57 140 67 56
T	137 61 133 136
T	92 6 79 97
T	137 64 59 56
T	23 66 135 105
T	76 73 137 138
T	84 83 62 13
T	137 138 59 64
T	98 5 85 37
T	16 95 141 67
T	15 95 16 67
T	77 82 139 27
T	140 84 87 26
T	100 68 1 87
T	82 98 139 27
T	23 63 135 66
T	91 7 80 32
T	88 83 78 24
T	138 137 59 56
T	140 84 62 57
T	23 135 102 105
T	100 87 1 37
T	140 141 67 56
T	70 140 133 77
T	69 70 133 77
T	25 84 71 26
T	69 137 77 133
T	84 140 71 26
T	76 138 89 30
T	66 23 0 105
T	88 66 0 105
T	137 140 77 133
T	36 88 0 105
T	137 140 133 56
T	137 76 89 31
T	137 90 58 136
T	2 18 59 94
T	100 98 87 37
T	14 84 87 140
T	68 14 87 140
T	141 95 27 139
T	75 135 78 81
T	92 38 97 99
T	96 16 59 17
T	134 101 33 106
T	133 61 56 62
T	140 133 56 62
T	91 134 80 104
T	28 77 141 27
T	3 93 106 65
T	36 86 103 4
T	135 35 103 81
T	93 134 106 65
T	61 58 133 136
T	104 91 106 93
T	20 93 65 58
T	93 3 106 39
T	134 91 106 104
T	91 134 106 93
T	32 90 72 136
T	135 88 81 86
T	29 138 97 99
T	138 92 94 30
T	140 57 67 141
T	88 66 12 0
T	90 93 136 32
T	137 90 72 31
T	84 14 57 140
T	79 73 30 138
T	76 137 72 31
T	18 59 94 89
T	95 96 16 141
T	101 134 133 60
T	101 134 74 133
T	91 134 93 32
T	58 60 133 136
T	29 96 138 99
T	66 63 135 62
T	70 135 133 62
T	38 92 94 99
T	90 31 32 72
T	138 94 89 30
T	59 138 94 89
T	70 135 78 75
T	137 64 19 89
T	23 63 22 102
T	83 12 62 13
T	66 12 62 83
T	134 60 65 58
T	60 134 65 21
T	59 2 94 99
T	135 140 83 62
T	2 38 94 99
T	73 79 29 138
T	96 73 29 138
T	79 6 29 97
T	138 96 59 17
T	73 28 77 141
T	137 73 77 141
T	23 63 102 135
T	134 93 136 58
T	137 90 89 19
T	134 101 21 60
T	35 135 75 81
T	102 135 133 75
T	21 3 106 65
T	138 94 97 99
T	59 138 17 99
T	71 140 83 78
T	88 135 105 103
T	83 25 78 24
T	88 135 81 24
T	86 36 103 105
T	135 24 78 81
P	25 26 71 108 109 144
P	108 109 144 41 42 121
P	31 32 72 114 115 145
P	114 115 145 47 48 122
P	28 29 73 111 112 146
P	111 112 146 44 45 123
P	34 35 75 117 118 148
P	117 118 148 50 51 125
P	69 70 77 142 143 150
P	142 143 150 119 120 127
P	77 70 71 150 143 144
P	150 143 144 127 120 121
P	33 34 74 116 117 147
P	116 117 147 49 50 124
P	30 31 76 113 114 149
P	113 114 149 46 47 126
P	73 30 76 146 113 149
P	146 113 149 123 46 126
P	75 74 34 148 147 117
P	148 147 117 125 124 50
P	69 72 74 142 145 147
P	142 145 147 119 122 124
P	74 70 69 147 143 142
P	147 143 142 124 120 119
P	70 74 75 143 147 148
P	143 147 148 120 124 125
P	73 69 77 146 142 150
P	146 142 150 123 119 127
P	77 28 73 150 111 146
P	150 111 146 127 44 123
P	31 72 76 114 145 149
P	114 145 149 47 122 126
P	69 73 76 142 146 149
P	142 146 149 119 123 126
P	76 72 69 149 145 142
P	149 145 142 126 122 119
P	24 25 78 107 108 151
P	107 108 151 40 41 128
P	70 75 78 143 148 151
P	143 148 151 120 125 128
P	29 6 79 112 54 152
P	112 54 152 45 10 129
P	30 73 79 113 146 152
P	113 146 152 46 123 129
P	79 6 30 152 54 113
P	152 54 113 129 10 46
P	79 73 29 152 146 112
P	152 146 112 129 123 45
P	32 7 80 115 55 153
P	115 55 153 48 11 130
P	80 7 33 153 55 116
P	153 55 116 130 11 49
P	80 72 32 153 145 115
P	153 145 115 130 122 48
P	81 4 24 154 52 107
P	154 52 107 131 8 40
P	81 75 35 154 148 118
P	154 148 118 131 125 51
P	35 4 81 118 52 154
P	118 52 154 51 8 131
P	78 25 71 151 108 144
P	151 108 144 128 41 121
P	70 78 71 143 151 144
P	143 151 144 120 128 121
P	81 24 78 154 107 151
P	154 107 151 131 40 128
P	75 81 78 148 154 151
P	148 154 151 125 131 128
P	80 33 74 153 116 147
P	153 116 147 130 49 124
P	72 80 74 145 153 147
P	145 153 147 122 130 124
P	26 5 82 109 53 155
P	109 53 155 42 9 132
P	82 5 27 155 53 110
P	155 53 110 132 9 43
P	82 77 71 155 150 144
P	155 150 144 132 127 121
P	71 26 82 144 109 155
P	144 109 155 121 42 132
P	27 28 77 110 111 150
P	110 111 150 43 44 127
P	77 82 27 150 155 110
P	150 155 110 127 132 43

t	60 61 63
t	60 133 61
t	60 63 133
t	63 61 133
t	138 17 96
t	138 99 17
t	138 96 99
t	96 17 99
t	73 138 137
t	73 141 138
t	73 137 141
t	137 138 141
t	140 83 135
t	140 78 83
t	140 135 78
t	135 83 78
t	138 97 92
t	138 94 97
t	138 92 94
t	92 97 94
t	101 33 134
t	101 74 33
t	101 134 74
t	134 33 74
t	86 103 135
t	86 81 103
t	86 135 81
t	135 103 81
t	66 135 88
t	66 105 135
t	66 88 105
t	88 135 105
t	68 87 140
t	68 139 87
t	68 140 139
t	140 87 139
t	90 72 137
t	90 136 72
t	90 137 136
t	137 72 136
t	61 58 133
t	61 60 58
t	60 133 58
t	69 133 137
t	69 136 133
t	69 137 136
t	137 133 136
t	90 58 137
t	90 19 58
t	90 137 19
t	137 58 19
t	84 62 140
t	84 83 62
t	84 140 83
t	140 62 83
t	137 58 64
t	137 64 19
t	64 58 19
t	36 105 88
t	36 86 105
t	36 88 86
t	88 105 86
t	93 136 134
t	93 32 136
t	93 134 32
t	134 136 32
t	18 59 64
t	18 89 59
t	18 64 89
t	64 59 89
t	104 93 91
t	104 39 93
t	104 91 39
t	91 93 39
t	137 72 69
t	69 72 136
t	101 22 60
t	101 21 22
t	101 60 21
t	60 22 21
t	66 83 135
t	66 62 83
t	66 135 62
t	135 83 62
t	74 136 134
t	74 133 136
t	74 134 133
t	134 136 133
t	79 97 92
t	79 138 97
t	79 92 138
t	140 71 84
t	140 83 71
t	84 71 83
t	101 22 63
t	101 63 60
t	63 22 60
t	79 30 138
t	79 92 30
t	92 138 30
t	63 102 22
t	63 101 102
t	101 22 102
t	60 133 134
t	60 136 133
t	60 134 136
t	134 72 136
t	134 74 72
t	74 136 72
t	15 100 68
t	15 139 100
t	15 68 139
t	68 100 139
t	34 33 101
t	34 74 33
t	34 101 74
t	134 106 21
t	134 65 106
t	134 21 65
t	21 106 65
t	80 72 32
t	80 136 72
t	80 32 136
t	32 72 136
t	134 58 60
t	134 136 58
t	60 58 136
t	141 139 95
t	141 67 139
t	141 95 67
t	95 139 67
t	140 70 71
t	140 78 70
t	140 71 78
t	71 70 78
t	84 71 25
t	84 25 83
t	25 71 83
t	92 30 6
t	92 6 79
t	6 30 79
t	16 67 96
t	16 141 67
t	16 96 141
t	96 67 141
t	134 72 80
t	134 80 136
t	135 102 63
t	135 133 102
t	135 63 133
t	63 102 133
t	28 96 73
t	28 141 96
t	28 73 141
t	73 96 141
t	5 82 98
t	5 27 82
t	5 98 27
t	98 82 27
t	82 87 26
t	82 85 87
t	82 26 85
t	26 87 85
t	61 56 137
t	61 64 56
t	61 137 64
t	137 56 64
t	2 17 59
t	2 99 17
t	2 59 99
t	59 17 99
t	96 67 138
t	96 138 141
t	138 67 141
t	95 96 28
t	95 141 96
t	95 28 141
t	66 83 88
t	88 83 135
t	29 97 79
t	29 138 97
t	29 79 138
t	140 77 137
t	140 141 77
t	140 137 141
t	137 77 141
t	137 31 90
t	137 89 31
t	137 90 89
t	90 31 89
t	88 12 83
t	88 66 12
t	66 83 12
t	20 93 90
t	20 58 93
t	20 90 58
t	90 93 58
t	74 70 69
t	74 133 70
t	74 69 133
t	69 70 133
t	14 57 84
t	14 13 57
t	14 84 13
t	84 57 13
t	82 87 140
t	82 140 26
t	140 87 26
t	87 85 98
t	87 37 85
t	87 98 37
t	98 85 37
t	28 29 73
t	28 96 29
t	73 29 96
t	134 80 32
t	69 136 74
t	74 69 72
t	70 75 135
t	70 133 75
t	70 135 133
t	135 75 133
t	103 4 35
t	103 81 4
t	103 35 81
t	35 4 81
t	138 94 59
t	138 99 94
t	138 59 99
t	59 94 99
t	86 4 103
t	86 81 4
t	93 106 39
t	93 104 106
t	104 39 106
t	134 106 101
t	134 101 21
t	101 106 21
t	135 70 140
t	135 78 70
t	74 133 101
t	74 102 133
t	74 101 102
t	101 133 102
t	141 56 67
t	141 138 56
t	138 67 56
t	135 78 88
t	135 24 78
t	135 88 24
t	88 78 24
t	95 27 141
t	95 28 27
t	28 141 27
t	140 82 71
t	140 77 82
t	140 71 77
t	71 82 77
t	140 133 70
t	140 62 133
t	140 70 62
t	70 133 62
t	96 59 67
t	96 16 59
t	16 67 59
t	93 65 134
t	93 58 65
t	93 134 58
t	134 65 58
t	25 78 83
t	25 71 78
t	71 83 78
t	34 102 74
t	34 101 102
t	73 77 137
t	73 69 77
t	73 137 69
t	137 77 69
t	134 80 91
t	134 91 32
t	91 80 32
t	74 75 133
t	74 102 75
t	102 133 75
t	57 139 141
t	57 67 139
t	57 141 67
t	68 139 57
t	68 67 139
t	68 57 67
t	74 75 70
t	98 139 100
t	98 27 139
t	98 100 27
t	100 139 27
t	140 57 68
t	140 139 57
t	135 105 102
t	135 35 105
t	135 102 35
t	102 105 35
t	34 75 74
t	34 102 75
t	96 138 73
t	102 75 135
t	102 35 75
t	135 75 35
t	20 19 58
t	20 90 19
t	61 58 137
t	61 136 58
t	61 137 136
t	137 58 136
t	63 133 101
t	101 133 60
t	134 74 80
t	74 72 80
t	91 80 104
t	91 7 80
t	91 104 7
t	104 80 7
t	94 99 97
t	94 92 99
t	92 97 99
t	138 89 137
t	138 64 89
t	138 137 64
t	137 89 64
t	15 67 139
t	15 68 67
t	140 141 57
t	140 139 141
t	73 30 76
t	73 138 30
t	73 76 138
t	76 30 138
t	34 35 75
t	34 102 35
t	100 87 68
t	100 139 87
t	76 69 137
t	76 72 69
t	76 137 72
t	135 62 133
t	135 63 62
t	63 133 62
t	141 139 77
t	141 27 139
t	141 77 27
t	77 139 27
t	138 67 59
t	138 59 56
t	59 67 56
t	93 136 90
t	93 58 136
t	90 136 58
t	134 33 104
t	134 80 33
t	134 104 80
t	104 33 80
t	95 139 15
t	95 15 67
t	95 27 100
t	95 139 27
t	95 100 139
t	77 140 139
t	87 139 85
t	87 82 139
t	82 85 139
t	61 58 64
t	82 139 77
t	82 140 139
t	14 57 68
t	14 140 57
t	14 68 140
t	135 103 105
t	135 35 103
t	105 103 35
t	5 85 82
t	5 26 85
t	5 82 26
t	57 62 84
t	57 13 62
t	84 62 13
t	88 83 78
t	6 38 92
t	6 97 38
t	6 92 97
t	92 38 97
t	61 133 137
t	61 56 133
t	137 133 56
t	104 33 7
t	7 33 80
t	91 39 7
t	104 7 39
t	138 96 59
t	140 62 57
t	140 56 62
t	140 57 56
t	57 62 56
t	64 59 138
t	138 59 89
t	64 19 18
t	64 89 19
t	18 19 89
t	140 135 62
t	135 70 62
t	63 61 62
t	61 133 62
t	31 89 76
t	31 30 89
t	31 76 30
t	76 89 30
t	73 137 76
t	73 76 69
t	76 89 137
t	76 138 89
t	76 137 138
t	24 4 86
t	24 81 4
t	24 86 81
t	135 86 88
t	135 88 103
t	88 86 103
t	5 85 98
t	98 85 82
t	100 85 139
t	100 98 85
t	98 139 85
t	74 80 33
t	86 103 105
t	88 105 103
t	87 100 85
t	71 26 82
t	71 140 26
t	15 1 68
t	15 100 1
t	68 1 100
t	82 98 139
t	20 3 93
t	20 65 3
t	20 93 65
t	93 3 65
t	95 100 15
t	98 87 100
t	68 1 14
t	68 87 1
t	68 14 87
t	14 1 87
t	137 56 141
t	137 138 56
t	86 81 88
t	86 88 24
t	88 81 24
t	104 106 33
t	104 134 106
t	134 33 106
t	137 56 140
t	140 56 141
t	71 77 70
t	140 70 77
t	57 67 140
t	57 56 67
t	140 67 56
t	61 133 136
t	6 79 97
t	137 59 64
t	137 56 59
t	64 59 56
t	23 135 66
t	23 105 135
t	23 66 105
t	84 83 13
t	83 62 13
t	137 59 138
t	98 5 37
t	5 85 37
t	16 141 95
t	16 95 67
t	15 16 95
t	15 67 16
t	77 82 27
t	82 139 27
t	140 87 84
t	140 84 26
t	84 87 26
t	100 87 1
t	23 135 63
t	23 63 66
t	63 135 66
t	91 7 32
t	7 80 32
t	88 83 24
t	83 78 24
t	140 84 57
t	23 102 135
t	23 105 102
t	100 37 1
t	100 87 37
t	87 1 37
t	140 67 141
t	70 77 133
t	140 133 77
t	69 77 133
t	69 70 77
t	25 26 71
t	25 84 26
t	84 71 26
t	137 77 133
t	138 89 30
t	66 0 23
t	66 105 0
t	23 0 105
t	88 0 66
t	88 105 0
t	137 140 133
t	36 0 88
t	36 105 0
t	140 133 56
t	137 76 31
t	2 59 18
t	2 94 59
t	2 18 94
t	18 59 94
t	100 98 37
t	14 87 84
t	14 140 87
t	14 84 140
t	75 78 135
t	75 81 78
t	75 135 81
t	135 78 81
t	92 38 99
t	38 97 99
t	96 17 59
t	96 16 17
t	16 59 17
t	101 33 106
t	133 62 56
t	61 56 62
t	91 134 104
t	28 141 77
t	28 77 27
t	3 106 93
t	3 65 106
t	93 106 65
t	36 103 86
t	36 4 103
t	36 86 4
t	135 35 81
t	93 106 134
t	58 133 136
t	104 106 91
t	91 106 93
t	20 58 65
t	93 3 39
t	3 106 39
t	134 106 91
t	91 134 93
t	32 72 90
t	32 90 136
t	135 81 88
t	29 99 97
t	29 138 99
t	138 97 99
t	138 30 94
t	92 94 30
t	88 0 12
t	66 12 0
t	90 93 32
t	137 31 72
t	90 72 31
t	79 30 73
t	79 73 138
t	76 31 72
t	18 89 94
t	59 94 89
t	95 16 96
t	101 133 134
t	101 134 60
t	91 32 93
t	29 138 96
t	29 96 99
t	66 63 62
t	38 94 92
t	38 99 94
t	90 32 31
t	31 32 72
t	138 89 94
t	94 89 30
t	70 75 78
t	137 89 19
t	23 22 63
t	23 102 22
t	23 63 102
t	83 62 12
t	83 12 13
t	12 62 13
t	66 62 12
t	134 65 60
t	60 65 58
t	60 21 65
t	60 134 21
t	2 94 99
t	2 94 38
t	2 38 99
t	73 29 79
t	73 138 29
t	79 29 6
t	6 29 97
t	138 17 59
t	73 77 28
t	73 141 77
t	90 89 19
t	35 81 75
t	21 106 3
t	21 3 65
t	83 25 24
t	25 78 24
t	135 81 24
t	36 103 105
t	24 78 81
t	108 109 144
t	41 42 121
t	114 115 145
t	47 48 122
t	111 112 146
t	44 45 123
t	117 118 148
t	50 51 125
t	142 143 150
t	119 120 127
t	150 143 144
t	127 120 121
t	116 117 147
t	49 50 124
t	113 114 149
t	46 47 126
t	146 113 149
t	123 46 126
t	148 147 117
t	125 124 50
t	142 145 147
t	119 122 124
t	147 143 142
t	124 120 119
t	143 147 148
t	120 124 125
t	146 142 150
t	123 119 127
t	150 111 146
t	127 44 123
t	114 145 149
t	47 122 126
t	142 146 149
t	119 123 126
t	149 145 142
t	126 122 119
t	107 108 151
t	40 41 128
t	143 148 151
t	120 125 128
t	112 54 152
t	45 10 129
t	113 146 152
t	46 123 129
t	152 54 113
t	129 10 46
t	152 146 112
t	129 123 45
t	115 55 153
t	48 11 130
t	153 55 116
t	130 11 49
t	153 145 115
t	130 122 48
t	154 52 107
t	131 8 40
t	154 148 118
t	131 125 51
t	118 52 154
t	51 8 131
t	151 108 144
t	128 41 121
t	143 151 144
t	120 128 121
t	154 107 151
t	131 40 128
t	148 154 151
t	125 131 128
t	153 116 147
t	130 49 124
t	145 153 147
t	122 130 124
t	109 53 155
t	42 9 132
t	155 53 110
t	132 9 43
t	155 150 144
t	132 127 121
t	144 109 155
t	121 42 132
t	110 111 150
t	43 44 127
t	150 155 110
t	127 132 43
q	25 26 109 108
q	26 71 144 109
q	25 108 144 71
q	108 109 42 41
q	109 144 121 42
q	108 41 121 144
q	31 32 115 114
q	32 72 145 115
q	31 114 145 72
q	114 115 48 47
q	115 145 122 48
q	114 47 122 145
q	28 29 112 111
q	29 73 146 112
q	28 111 146 73
q	111 112 45 44
q	112 146 123 45
q	111 44 123 146
q	34 35 118 117
q	35 75 148 118
q	34 117 148 75
q	117 118 51 50
q	118 148 125 51
q	117 50 125 148
q	69 70 143 142
q	70 77 150 143
q	69 142 150 77
q	142 143 120 119
q	143 150 127 120
q	142 119 127 150
q	70 71 144 143
q	77 150 144 71
q	143 144 121 120
q	150 127 121 144
q	33 34 117 116
q	34 74 147 117
q	33 116 147 74
q	116 117 50 49
q	117 147 124 50
q	116 49 124 147
q	30 31 114 113
q	31 76 149 114
q	30 113 149 76
q	113 114 47 46
q	114 149 126 47
q	113 46 126 149
q	73 30 113 146
q	73 146 149 76
q	146 113 46 123
q	146 123 126 149
q	75 74 147 148
q	148 147 124 125
q	69 72 145 142
q	72 74 147 145
q	69 142 147 74
q	142 145 122 119
q	145 147 124 122
q	142 119 124 147
q	74 70 143 147
q	147 143 120 124
q	70 143 148 75
q	143 120 125 148
q	73 69 142 146
q	73 146 150 77
q	146 142 119 123
q	146 123 127 150
q	77 28 111 150
q	150 111 44 127
q	72 76 149 145
q	145 149 126 122
q	69 142 149 76
q	142 119 126 149
q	24 25 108 107
q	25 78 151 108
q	24 107 151 78
q	107 108 41 40
q	108 151 128 41
q	107 40 128 151
q	75 78 151 148
q	70 143 151 78
q	148 151 128 125
q	143 120 128 151
q	29 6 54 112
q	6 79 152 54
q	29 112 152 79
q	112 54 10 45
q	54 152 129 10
q	112 45 129 152
q	73 79 152 146
q	30 113 152 79
q	146 152 129 123
q	113 46 129 152
q	6 30 113 54
q	54 113 46 10
q	32 7 55 115
q	7 80 153 55
q	32 115 153 80
q	115 55 11 48
q	55 153 130 11
q	115 48 130 153
q	7 33 116 55
q	80 153 116 33
q	55 116 49 11
q	153 130 49 116
q	80 72 145 153
q	153 145 122 130
q	81 4 52 154
q	4 24 107 52
q	81 154 107 24
q	154 52 8 131
q	52 107 40 8
q	154 131 40 107
q	81 75 148 154
q	81 154 118 35
q	154 148 125 131
q	154 131 51 118
q	35 4 52 118
q	118 52 8 51
q	78 151 144 71
q	151 128 121 144
q	81 154 151 78
q	154 131 128 151
q	80 153 147 74
q	153 130 124 147
q	26 5 53 109
q	5 82 155 53
q	26 109 155 82
q	109 53 9 42
q	53 155 132 9
q	109 42 132 155
q	5 27 110 53
q	82 155 110 27
q	53 110 43 9
q	155 132 43 110
q	82 77 150 155
q	82 155 144 71
q	155 150 127 132
q	155 132 121 144
q	27 28 111 110
q	27 110 150 77
q	110 111 44 43
q	110 43 127 150
e	60 63
e	63 61
e	61 60
e	60 133
e	63 133
e	61 133
e	138 96
e	96 17
e	17 138
e	138 99
e	96 99
e	17 99
e	73 137
e	137 138
e	138 73
e	73 141
e	137 141
e	138 141
e	140 135
e	135 83
e	83 140
e	140 78
e	135 78
e	83 78
e	138 92
e	92 97
e	97 138
e	138 94
e	92 94
e	97 94
e	101 134
e	134 33
e	33 101
e	101 74
e	134 74
e	33 74
e	86 135
e	135 103
e	103 86
e	86 81
e	135 81
e	103 81
e	66 88
e	88 135
e	135 66
e	66 105
e	88 105
e	135 105
e	68 140
e	140 87
e	87 68
e	68 139
e	140 139
e	87 139
e	90 137
e	137 72
e	72 90
e	90 136
e	137 136
e	72 136
e	61 58
e	60 58
e	133 58
e	69 137
e	137 133
e	133 69
e	69 136
e	133 136
e	137 58
e	58 90
e	90 19
e	137 19
e	58 19
e	84 140
e	140 62
e	62 84
e	84 83
e	62 83
e	137 64
e	64 58
e	64 19
e	36 88
e	105 36
e	36 86
e	88 86
e	105 86
e	93 134
e	134 136
e	136 93
e	93 32
e	134 32
e	136 32
e	18 64
e	64 59
e	59 18
e	18 89
e	64 89
e	59 89
e	104 91
e	91 93
e	93 104
e	104 39
e	91 39
e	93 39
e	69 72
e	101 60
e	60 22
e	22 101
e	101 21
e	60 21
e	22 21
e	83 66
e	66 62
e	135 62
e	136 74
e	74 133
e	134 133
e	79 92
e	97 79
e	79 138
e	84 71
e	71 140
e	71 83
e	101 63
e	63 22
e	79 30
e	92 30
e	138 30
e	63 102
e	101 102
e	22 102
e	60 134
e	60 136
e	134 72
e	74 72
e	15 68
e	68 100
e	100 15
e	15 139
e	100 139
e	34 101
e	33 34
e	34 74
e	134 21
e	21 106
e	106 134
e	134 65
e	21 65
e	106 65
e	80 32
e	32 72
e	72 80
e	80 136
e	58 134
e	58 136
e	141 95
e	95 139
e	139 141
e	141 67
e	95 67
e	139 67
e	71 70
e	70 140
e	71 78
e	70 78
e	84 25
e	25 71
e	25 83
e	92 6
e	6 30
e	6 79
e	16 96
e	96 67
e	67 16
e	16 141
e	96 141
e	134 80
e	135 63
e	102 135
e	135 133
e	102 133
e	28 73
e	73 96
e	96 28
e	28 141
e	5 98
e	98 82
e	82 5
e	5 27
e	98 27
e	82 27
e	82 26
e	26 87
e	87 82
e	82 85
e	26 85
e	87 85
e	61 137
e	137 56
e	56 61
e	61 64
e	56 64
e	2 59
e	59 17
e	17 2
e	2 99
e	59 99
e	138 67
e	95 28
e	96 95
e	88 83
e	29 79
e	97 29
e	29 138
e	140 137
e	137 77
e	77 140
e	140 141
e	77 141
e	90 31
e	31 137
e	137 89
e	90 89
e	31 89
e	88 12
e	66 12
e	83 12
e	20 90
e	90 93
e	93 20
e	20 58
e	93 58
e	74 69
e	69 70
e	70 74
e	70 133
e	14 84
e	84 57
e	57 14
e	14 13
e	84 13
e	57 13
e	82 140
e	140 26
e	87 98
e	98 85
e	87 37
e	98 37
e	85 37
e	73 29
e	29 28
e	29 96
e	70 135
e	135 75
e	75 70
e	75 133
e	103 35
e	35 4
e	4 103
e	35 81
e	4 81
e	138 59
e	59 94
e	94 99
e	4 86
e	93 106
e	104 106
e	39 106
e	101 106
e	101 133
e	74 102
e	141 56
e	138 56
e	67 56
e	88 78
e	135 24
e	88 24
e	78 24
e	95 27
e	28 27
e	141 27
e	71 82
e	71 77
e	82 77
e	133 140
e	70 62
e	133 62
e	96 59
e	16 59
e	67 59
e	65 93
e	65 58
e	25 78
e	34 102
e	77 73
e	73 69
e	77 69
e	134 91
e	91 80
e	91 32
e	74 75
e	102 75
e	57 141
e	139 57
e	57 67
e	68 57
e	68 67
e	98 100
e	139 98
e	100 27
e	139 27
e	57 140
e	102 105
e	135 35
e	102 35
e	105 35
e	75 34
e	75 35
e	20 19
e	61 136
e	74 80
e	104 80
e	91 7
e	104 7
e	80 7
e	92 99
e	97 99
e	89 138
e	138 64
e	15 67
e	73 76
e	76 30
e	30 73
e	76 138
e	34 35
e	87 100
e	76 137
e	69 76
e	76 72
e	63 62
e	77 139
e	77 27
e	59 56
e	134 104
e	104 33
e	33 80
e	95 15
e	95 100
e	82 139
e	85 139
e	14 68
e	14 140
e	105 103
e	85 5
e	5 26
e	62 57
e	62 13
e	92 38
e	38 6
e	6 97
e	38 97
e	133 56
e	7 33
e	7 39
e	140 56
e	57 56
e	62 56
e	18 19
e	19 89
e	61 62
e	31 76
e	76 89
e	31 30
e	89 30
e	24 86
e	4 24
e	24 81
e	88 103
e	100 85
e	71 26
e	68 1
e	1 15
e	1 100
e	93 3
e	3 20
e	20 65
e	3 65
e	14 1
e	14 87
e	1 87
e	88 81
e	33 106
e	70 77
e	140 67
e	59 137
e	23 66
e	135 23
e	23 105
e	83 13
e	5 37
e	16 95
e	16 15
e	84 87
e	84 26
e	23 63
e	63 66
e	7 32
e	83 24
e	102 23
e	100 37
e	1 37
e	133 77
e	25 26
e	23 0
e	0 66
e	0 105
e	0 88
e	0 36
e	2 18
e	2 94
e	18 94
e	78 75
e	75 81
e	78 81
e	38 99
e	16 17
e	28 77
e	106 3
e	103 36
e	36 4
e	91 106
e	3 39
e	32 90
e	29 99
e	94 30
e	12 0
e	72 31
e	79 73
e	94 89
e	94 38
e	31 32
e	22 23
e	12 62
e	12 13
e	60 65
e	2 38
e	6 29
e	21 3
e	25 24
e	25 108
e	26 109
e	71 144
e	108 109
e	109 144
e	144 108
e	108 41
e	109 42
e	144 121
e	41 42
e	42 121
e	121 41
e	31 114
e	32 115
e	72 145
e	114 115
e	115 145
e	145 114
e	114 47
e	115 48
e	145 122
e	47 48
e	48 122
e	122 47
e	28 111
e	29 112
e	73 146
e	111 112
e	112 146
e	146 111
e	111 44
e	112 45
e	146 123
e	44 45
e	45 123
e	123 44
e	34 117
e	35 118
e	75 148
e	117 118
e	118 148
e	148 117
e	117 50
e	118 51
e	148 125
e	50 51
e	51 125
e	125 50
e	69 142
e	70 143
e	77 150
e	142 143
e	143 150
e	150 142
e	142 119
e	143 120
e	150 127
e	119 120
e	120 127
e	127 119
e	143 144
e	144 150
e	120 121
e	121 127
e	33 116
e	74 147
e	116 117
e	117 147
e	147 116
e	116 49
e	147 124
e	49 50
e	50 124
e	124 49
e	30 113
e	76 149
e	113 114
e	114 149
e	149 113
e	113 46
e	149 126
e	46 47
e	47 126
e	126 46
e	146 113
e	149 146
e	123 46
e	126 123
e	148 147
e	125 124
e	142 145
e	145 147
e	147 142
e	119 122
e	122 124
e	124 119
e	147 143
e	124 120
e	148 143
e	125 120
e	146 142
e	150 146
e	123 119
e	127 123
e	150 111
e	127 44
e	145 149
e	122 126
e	149 142
e	126 119
e	24 107
e	78 151
e	107 108
e	108 151
e	151 107
e	107 40
e	151 128
e	40 41
e	41 128
e	128 40
e	148 151
e	151 143
e	125 128
e	128 120
e	6 54
e	79 152
e	112 54
e	54 152
e	152 112
e	54 10
e	152 129
e	45 10
e	10 129
e	129 45
e	146 152
e	152 113
e	123 129
e	129 46
e	54 113
e	10 46
e	7 55
e	80 153
e	115 55
e	55 153
e	153 115
e	55 11
e	153 130
e	48 11
e	11 130
e	130 48
e	55 116
e	116 153
e	11 49
e	49 130
e	153 145
e	130 122
e	81 154
e	4 52
e	154 52
e	52 107
e	107 154
e	154 131
e	52 8
e	131 8
e	8 40
e	40 131
e	154 148
e	118 154
e	131 125
e	51 131
e	118 52
e	51 8
e	144 151
e	121 128
e	151 154
e	128 131
e	147 153
e	124 130
e	5 53
e	82 155
e	109 53
e	53 155
e	155 109
e	53 9
e	155 132
e	42 9
e	9 132
e	132 42
e	27 110
e	53 110
e	110 155
e	110 43
e	9 43
e	43 132
e	155 150
e	144 155
e	132 127
e	121 132
e	110 111
e	150 110
e	43 44
e	127 43

domain
boundary
2 2 202
202
307
41
400
593
96
540
79
403
0
66
382
57
369
469
164
167
521
441
617
555
602
601
408
569
511
584
489
598
599
352
446
372
436
481
463
289
329
537
264
624
626
628
630
632
634
636
638
640
642
644
646
648
650
652
654
656
658
660
662
664
666
668
670
672
674
676
678
680
682
684
686
688
690
692
694
696
698
700
702
704
706
597
618
203
507
136
473
477
379
419
549
500
449
568
517
60
493
190
453
209
486
526
162
480
252
536
578
213
174
610
386
476
157
168
606
498
437
525
362
444
293
534
583
7
563
405
411
308
587
189
614
491
394
138
385
440
556
523
605
585
590
576
567
73
570
193
581
77
113
594
337
273
102
222
548
392
395
513
518
616
557
234
538
237
455
621
300
497
377
814
817
779
782
707
710
831
834
837
839
845
847
719
722
789
792
799
800
747
750
713
716
801
804
807
809
741
744
725
728
823
824

domain
bottom
2 2 40
202
307
41
400
593
96
540
79
403
0
66
382
57
369
469
164
167
521
441
617
555
602
601
408
569
511
584
489
598
599
352
446
372
436
481
463
289
329
537
264

domain
top
2 2 42
624
626
628
630
632
634
636
638
640
642
644
646
648
650
652
654
656
658
660
662
664
666
668
670
672
674
676
678
680
682
684
686
688
690
692
694
696
698
700
702
704
706

domain
left
2 2 30
597
618
203
507
136
473
477
379
419
549
500
449
568
517
60
493
190
453
209
486
526
162
814
817
779
782
707
710
831
834

domain
front
2 2 30
480
252
536
578
213
174
610
386
476
157
168
606
498
437
525
362
444
293
534
583
7
563
837
839
845
847
719
722
789
792

domain
right
2 2 30
405
411
308
587
189
614
491
394
138
385
440
556
523
605
585
590
576
567
73
570
193
581
799
800
747
750
713
716
801
804

domain
back
2 2 30
77
113
594
337
273
102
222
548
392
395
513
518
616
557
234
538
237
455
621
300
497
377
807
809
741
744
725
728
823
824
