#!geo

mesh
4
header
 dimension	3
 nodes		156
 prisms	10
 hexahedra	80
end header

0 0 0
1 0 0
0 0 1
1 0 1
0 1 0
1 1 0
1 1 1
0 1 1
0.2499999999994 0 0
0.499999999999022 0 0
0.749999999999337 0 0
0 0 0.2499999999994
0 0 0.499999999999022
0 0 0.749999999999337
1 0 0.2499999999994
1 0 0.499999999999022
1 0 0.749999999999337
0.2499999999994 0 1
0.499999999999022 0 1
0.749999999999337 0 1
0.2499999999994 1 0
0.499999999999022 1 0
0.749999999999337 1 0
1 1 0.2499999999994
1 1 0.499999999999022
1 1 0.749999999999337
0.749999999999337 1 1
0.499999999999022 1 1
0.2499999999994 1 1
0 1 0.749999999999337
0 1 0.499999999999022
0 1 0.2499999999994
0 0.2 0
0 0.4 0
0 0.6 0
0 0.8 0
1 0.2 0
1 0.4 0
1 0.6 0
1 0.8 0
1 0.2 1
1 0.4 1
1 0.6 1
1 0.8 1
0 0.2 1
0 0.4 1
0 0.6 1
0 0.8 1
0.291653540468142 0 0.451640451743882
0.60535904351138 0 0.265145043951617
0.264825609814362 0 0.740095053226147
0.78049481120293 0 0.503329152452646
0.519816907976784 0 0.743037057421012
0.762969308391228 0 0.748717177708334
0.55505629992773 0 0.491976162269022
0.802426011211032 0 0.275341659428347
0.223194861934053 0 0.211842910209752
0.435940881904702 0 0.21354328140771
0.2499999999994 0.2 0
0.2499999999994 0.4 0
0.2499999999994 0.6 0
0.2499999999994 0.8 0
0.499999999999022 0.2 0
0.499999999999022 0.4 0
0.499999999999022 0.6 0
0.499999999999022 0.8 0
0.749999999999337 0.2 0
0.749999999999337 0.4 0
0.749999999999337 0.6 0
0.749999999999337 0.8 0
1 0.2 0.2499999999994
1 0.4 0.2499999999994
1 0.6 0.2499999999994
1 0.8 0.2499999999994
1 0.2 0.499999999999022
1 0.4 0.499999999999022
1 0.6 0.499999999999022
1 0.8 0.499999999999022
1 0.2 0.749999999999337
1 0.4 0.749999999999337
1 0.6 0.749999999999337
1 0.8 0.749999999999337
0.2499999999994 0.2 1
0.2499999999994 0.4 1
0.2499999999994 0.6 1
0.2499999999994 0.8 1
0.499999999999022 0.2 1
0.499999999999022 0.4 1
0.499999999999022 0.6 1
0.499999999999022 0.8 1
0.749999999999337 0.2 1
0.749999999999337 0.4 1
0.749999999999337 0.6 1
0.749999999999337 0.8 1
0 0.2 0.2499999999994
0 0.4 0.2499999999994
0 0.6 0.2499999999994
0 0.8 0.2499999999994
0 0.2 0.499999999999022
0 0.4 0.499999999999022
0 0.6 0.499999999999022
0 0.8 0.499999999999022
0 0.2 0.749999999999337
0 0.4 0.749999999999337
0 0.6 0.749999999999337
0 0.8 0.749999999999337
0.291653540468142 1 0.451640451743882
0.60535904351138 1 0.265145043951617
0.264825609814362 1 0.740095053226147
0.78049481120293 1 0.503329152452646
0.519816907976784 1 0.743037057421012
0.762969308391228 1 0.748717177708334
0.55505629992773 1 0.491976162269022
0.802426011211032 1 0.275341659428347
0.223194861934053 1 0.211842910209752
0.435940881904702 1 0.21354328140771
0.291653540468142 0.2 0.451640451743882
0.291653540468142 0.4 0.451640451743882
0.291653540468142 0.6 0.451640451743882
0.291653540468142 0.8 0.451640451743882
0.60535904351138 0.2 0.265145043951617
0.60535904351138 0.4 0.265145043951617
0.60535904351138 0.6 0.265145043951617
0.60535904351138 0.8 0.265145043951617
0.264825609814362 0.2 0.740095053226147
0.264825609814362 0.4 0.740095053226147
0.264825609814362 0.6 0.740095053226147
0.264825609814362 0.8 0.740095053226147
0.78049481120293 0.2 0.503329152452646
0.78049481120293 0.4 0.503329152452646
0.78049481120293 0.6 0.503329152452646
0.78049481120293 0.8 0.503329152452646
0.519816907976784 0.2 0.743037057421012
0.519816907976784 0.4 0.743037057421012
0.519816907976784 0.6 0.743037057421012
0.519816907976784 0.8 0.743037057421012
0.762969308391228 0.2 0.748717177708334
0.762969308391228 0.4 0.748717177708334
0.762969308391228 0.6 0.748717177708334
0.762969308391228 0.8 0.748717177708334
0.55505629992773 0.2 0.491976162269022
0.55505629992773 0.4 0.491976162269022
0.55505629992773 0.6 0.491976162269022
0.55505629992773 0.8 0.491976162269022
0.802426011211032 0.2 0.275341659428347
0.802426011211032 0.4 0.275341659428347
0.802426011211032 0.6 0.275341659428347
0.802426011211032 0.8 0.275341659428347
0.223194861934053 0.2 0.211842910209752
0.223194861934053 0.4 0.211842910209752
0.223194861934053 0.6 0.211842910209752
0.223194861934053 0.8 0.211842910209752
0.435940881904702 0.2 0.21354328140771
0.435940881904702 0.4 0.21354328140771
0.435940881904702 0.6 0.21354328140771
0.435940881904702 0.8 0.21354328140771

P	10 49 55 66 120 144
P	66 120 144 67 121 145
P	67 121 145 68 122 146
P	68 122 146 69 123 147
P	69 123 147 22 107 113
P	56 48 57 148 116 152
P	148 116 152 149 117 153
P	149 117 153 150 118 154
P	150 118 154 151 119 155
P	151 119 155 114 106 115
H	17 50 13 2 82 124 102 44
H	82 124 102 44 83 125 103 45
H	83 125 103 45 84 126 104 46
H	84 126 104 46 85 127 105 47
H	85 127 105 47 28 108 29 7
H	16 53 19 3 78 136 90 40
H	78 136 90 40 79 137 91 41
H	79 137 91 41 80 138 92 42
H	80 138 92 42 81 139 93 43
H	81 139 93 43 25 111 26 6
H	48 56 11 12 116 148 94 98
H	116 148 94 98 117 149 95 99
H	117 149 95 99 118 150 96 100
H	118 150 96 100 119 151 97 101
H	119 151 97 101 106 114 31 30
H	50 48 12 13 124 116 98 102
H	124 116 98 102 125 117 99 103
H	125 117 99 103 126 118 100 104
H	126 118 100 104 127 119 101 105
H	127 119 101 105 108 106 30 29
H	50 52 54 48 124 132 140 116
H	124 132 140 116 125 133 141 117
H	125 133 141 117 126 134 142 118
H	126 134 142 118 127 135 143 119
H	127 135 143 119 108 110 112 106
H	52 50 17 18 132 124 82 86
H	132 124 82 86 133 125 83 87
H	133 125 83 87 134 126 84 88
H	134 126 84 88 135 127 85 89
H	135 127 85 89 110 108 28 27
H	9 57 49 10 62 152 120 66
H	62 152 120 66 63 153 121 67
H	63 153 121 67 64 154 122 68
H	64 154 122 68 65 155 123 69
H	65 155 123 69 21 115 107 22
H	8 56 57 9 58 148 152 62
H	58 148 152 62 59 149 153 63
H	59 149 153 63 60 150 154 64
H	60 150 154 64 61 151 155 65
H	61 151 155 65 20 114 115 21
H	15 51 53 16 74 128 136 78
H	74 128 136 78 75 129 137 79
H	75 129 137 79 76 130 138 80
H	76 130 138 80 77 131 139 81
H	77 131 139 81 24 109 111 25
H	14 55 51 15 70 144 128 74
H	70 144 128 74 71 145 129 75
H	71 145 129 75 72 146 130 76
H	72 146 130 76 73 147 131 77
H	73 147 131 77 23 113 109 24
H	54 52 53 51 140 132 136 128
H	140 132 136 128 141 133 137 129
H	141 133 137 129 142 134 138 130
H	142 134 138 130 143 135 139 131
H	143 135 139 131 112 110 111 109
H	19 53 52 18 90 136 132 86
H	90 136 132 86 91 137 133 87
H	91 137 133 87 92 138 134 88
H	92 138 134 88 93 139 135 89
H	93 139 135 89 26 111 110 27
H	0 11 56 8 32 94 148 58
H	32 94 148 58 33 95 149 59
H	33 95 149 59 34 96 150 60
H	34 96 150 60 35 97 151 61
H	35 97 151 61 4 31 114 20
H	57 48 54 49 152 116 140 120
H	152 116 140 120 153 117 141 121
H	153 117 141 121 154 118 142 122
H	154 118 142 122 155 119 143 123
H	155 119 143 123 115 106 112 107
H	51 55 49 54 128 144 120 140
H	128 144 120 140 129 145 121 141
H	129 145 121 141 130 146 122 142
H	130 146 122 142 131 147 123 143
H	131 147 123 143 109 113 107 112
H	1 10 55 14 36 66 144 70
H	36 66 144 70 37 67 145 71
H	37 67 145 71 38 68 146 72
H	38 68 146 72 39 69 147 73
H	39 69 147 73 5 22 113 23

domain
boundary
1 2 116
t	49 10 55 
t	48 56 57 
t	107 113 22 
t	106 115 114 
q	0 32 58 8 
q	32 33 59 58 
q	33 34 60 59 
q	34 35 61 60 
q	35 4 20 61 
q	8 58 62 9 
q	58 59 63 62 
q	59 60 64 63 
q	60 61 65 64 
q	61 20 21 65 
q	9 62 66 10 
q	62 63 67 66 
q	63 64 68 67 
q	64 65 69 68 
q	65 21 22 69 
q	10 66 36 1 
q	66 67 37 36 
q	67 68 38 37 
q	68 69 39 38 
q	69 22 5 39 
q	2 17 82 44 
q	44 82 83 45 
q	45 83 84 46 
q	46 84 85 47 
q	47 85 28 7 
q	17 18 86 82 
q	82 86 87 83 
q	83 87 88 84 
q	84 88 89 85 
q	85 89 27 28 
q	18 19 90 86 
q	86 90 91 87 
q	87 91 92 88 
q	88 92 93 89 
q	89 93 26 27 
q	19 3 40 90 
q	90 40 41 91 
q	91 41 42 92 
q	92 42 43 93 
q	93 43 6 26 
q	13 50 17 2 
q	19 53 16 3 
q	11 56 48 12 
q	12 48 50 13 
q	54 52 50 48 
q	17 50 52 18 
q	49 57 9 10 
q	57 56 8 9 
q	53 51 15 16 
q	51 55 14 15 
q	53 52 54 51 
q	52 53 19 18 
q	56 11 0 8 
q	54 48 57 49 
q	49 55 51 54 
q	55 10 1 14 
q	1 36 70 14 
q	36 37 71 70 
q	37 38 72 71 
q	38 39 73 72 
q	39 5 23 73 
q	14 70 74 15 
q	70 71 75 74 
q	71 72 76 75 
q	72 73 77 76 
q	73 23 24 77 
q	15 74 78 16 
q	74 75 79 78 
q	75 76 80 79 
q	76 77 81 80 
q	77 24 25 81 
q	16 78 40 3 
q	78 79 41 40 
q	79 80 42 41 
q	80 81 43 42 
q	81 25 6 43 
q	29 7 28 108 
q	26 6 25 111 
q	31 30 106 114 
q	30 29 108 106 
q	112 106 108 110 
q	28 27 110 108 
q	107 22 21 115 
q	115 21 20 114 
q	111 25 24 109 
q	109 24 23 113 
q	111 109 112 110 
q	110 27 26 111 
q	114 20 4 31 
q	112 107 115 106 
q	107 112 109 113 
q	113 23 5 22 
q	0 11 94 32 
q	32 94 95 33 
q	33 95 96 34 
q	34 96 97 35 
q	35 97 31 4 
q	11 12 98 94 
q	94 98 99 95 
q	95 99 100 96 
q	96 100 101 97 
q	97 101 30 31 
q	12 13 102 98 
q	98 102 103 99 
q	99 103 104 100 
q	100 104 105 101 
q	101 105 29 30 
q	13 2 44 102 
q	102 44 45 103 
q	103 45 46 104 
q	104 46 47 105 
q	105 47 7 29 

domain
bottom
1 2 20
q	0 32 58 8 
q	32 33 59 58 
q	33 34 60 59 
q	34 35 61 60 
q	35 4 20 61 
q	8 58 62 9 
q	58 59 63 62 
q	59 60 64 63 
q	60 61 65 64 
q	61 20 21 65 
q	9 62 66 10 
q	62 63 67 66 
q	63 64 68 67 
q	64 65 69 68 
q	65 21 22 69 
q	10 66 36 1 
q	66 67 37 36 
q	67 68 38 37 
q	68 69 39 38 
q	69 22 5 39 

domain
top
1 2 20
q	2 17 82 44 
q	44 82 83 45 
q	45 83 84 46 
q	46 84 85 47 
q	47 85 28 7 
q	17 18 86 82 
q	82 86 87 83 
q	83 87 88 84 
q	84 88 89 85 
q	85 89 27 28 
q	18 19 90 86 
q	86 90 91 87 
q	87 91 92 88 
q	88 92 93 89 
q	89 93 26 27 
q	19 3 40 90 
q	90 40 41 91 
q	91 41 42 92 
q	92 42 43 93 
q	93 43 6 26 

domain
left
1 2 18
t	49 10 55 
t	48 56 57 
q	13 50 17 2 
q	19 53 16 3 
q	11 56 48 12 
q	12 48 50 13 
q	54 52 50 48 
q	17 50 52 18 
q	49 57 9 10 
q	57 56 8 9 
q	53 51 15 16 
q	51 55 14 15 
q	53 52 54 51 
q	52 53 19 18 
q	56 11 0 8 
q	54 48 57 49 
q	49 55 51 54 
q	55 10 1 14 

domain
front
1 2 20
q	1 36 70 14 
q	36 37 71 70 
q	37 38 72 71 
q	38 39 73 72 
q	39 5 23 73 
q	14 70 74 15 
q	70 71 75 74 
q	71 72 76 75 
q	72 73 77 76 
q	73 23 24 77 
q	15 74 78 16 
q	74 75 79 78 
q	75 76 80 79 
q	76 77 81 80 
q	77 24 25 81 
q	16 78 40 3 
q	78 79 41 40 
q	79 80 42 41 
q	80 81 43 42 
q	81 25 6 43 

domain
right
1 2 18
t	107 113 22 
t	106 115 114 
q	29 7 28 108 
q	26 6 25 111 
q	31 30 106 114 
q	30 29 108 106 
q	112 106 108 110 
q	28 27 110 108 
q	107 22 21 115 
q	115 21 20 114 
q	111 25 24 109 
q	109 24 23 113 
q	111 109 112 110 
q	110 27 26 111 
q	114 20 4 31 
q	112 107 115 106 
q	107 112 109 113 
q	113 23 5 22 

domain
back
1 2 20
q	0 11 94 32 
q	32 94 95 33 
q	33 95 96 34 
q	34 96 97 35 
q	35 97 31 4 
q	11 12 98 94 
q	94 98 99 95 
q	95 99 100 96 
q	96 100 101 97 
q	97 101 30 31 
q	12 13 102 98 
q	98 102 103 99 
q	99 103 104 100 
q	100 104 105 101 
q	101 105 29 30 
q	13 2 44 102 
q	102 44 45 103 
q	103 45 46 104 
q	104 46 47 105 
q	105 47 7 29 

