#!geo

mesh
4
header
 dimension	3
 nodes		158
 tetrahedra	183
 prisms	88
 hexahedra	16
end header

0 0 0
1 0 0
1 0.5 0
0 0.5 0
0 0 0.5
1 0 0.5
1 0.5 0.5
0 0.5 0.5
0 1 0
0 1 0.5
1 1 0.5
1 1 0
0 0 1
1 0 1
1 0.5 1
0 0.5 1
1 1 1
0 1 1
0.2499999999994 0 0
0.499999999999022 0 0
0.749999999999337 0 0
1 0.249999999999511 0
0.750000000000347 0.5 0
0.500000000001388 0.5 0
0.250000000001041 0.5 0
0 0.250000000000694 0
0.2499999999994 0 0.5
0.499999999999022 0 0.5
0.749999999999337 0 0.5
1 0.249999999999511 0.5
0.750000000000347 0.5 0.5
0.500000000001388 0.5 0.5
0.250000000001041 0.5 0.5
0 0.250000000000694 0.5
0 0 0.249999999999511
1 0 0.249999999999511
1 0.5 0.249999999999511
0 0.5 0.249999999999511
0 1 0.249999999999511
0.250000000001041 1 0.5
0.500000000001388 1 0.5
0.750000000000347 1 0.5
1 1 0.249999999999511
0.750000000000347 1 0
0.500000000001388 1 0
0.250000000001041 1 0
0 0.75 0
0 0.75 0.5
1 0.75 0.5
1 0.75 0
0.2499999999994 0 1
0.499999999999022 0 1
0.749999999999337 0 1
1 0.249999999999511 1
0.750000000000347 0.5 1
0.500000000001388 0.5 1
0.250000000001041 0.5 1
0 0.250000000000694 1
0 0 0.75
1 0 0.75
1 0.5 0.75
0 0.5 0.75
1 0.75 1
0.750000000000347 1 1
0.500000000001388 1 1
0.250000000001041 1 1
0 0.75 1
1 1 0.75
0 1 0.75
0.622104241986081 0.270945933522037 0
0.374517373664575 0.274324322253731 0
0.832850706997572 0.274324322253551 0
0.0937499999999801 0.15625000000026 0
0.895712676749227 0.131081080563265 0
0.161377895610833 0.280095720375781 0
0.622104241986081 0.270945933522037 0.5
0.374517373664575 0.274324322253731 0.5
0.832850706997572 0.274324322253551 0.5
0.0937499999999801 0.15625000000026 0.5
0.895712676749227 0.131081080563265 0.5
0.161377895610833 0.280095720375781 0.5
0.377895752895067 0 0.229054054053997
0.625482625481909 0 0.225675675675625
0.906249999999752 0 0.343749999999817
0.093749999999775 0 0.343749999999817
0.838622104246722 0 0.219904279279159
0.161940958815607 0 0.220467342342221
0.62210424710501 0.5 0.229054054053997
0.374517374518398 0.5 0.225675675675625
0.0937500000003903 0.5 0.343749999999817
0.90625000000013 0.5 0.343749999999817
0.161377895753478 0.5 0.219904279279159
0.838059041184306 0.5 0.220467342342221
1 0.178571428571219 0.24999999999986
1 0.360714285714097 0.324999999999825
1 0.357857142856965 0.164999999999839
0 0.250000000000198 0.321428571428362
0 0.175000000000248 0.139285714285526
0 0.335000000000228 0.14214285714268
0 0.75 0.249999999999511
0.750000000000347 0.75 0.5
0.500000000001388 0.75 0.5
0.250000000001041 0.75 0.5
1 0.75 0.249999999999511
0.750000000000347 0.75 0
0.500000000001388 0.75 0
0.250000000001041 0.75 0
0.62210424710501 1 0.229054054053997
0.374517374518398 1 0.225675675675625
0.0937500000003903 1 0.343749999999817
0.90625000000013 1 0.343749999999817
0.161377895753478 1 0.219904279279159
0.838059041184306 1 0.220467342342221
0.2499999999994 0 0.75
0.499999999999022 0 0.75
0.749999999999337 0 0.75
1 0.249999999999511 0.75
0.750000000000347 0.5 0.75
0.500000000001388 0.5 0.75
0.250000000001041 0.5 0.75
0 0.250000000000694 0.75
0.622104241986081 0.270945933522037 1
0.374517373664575 0.274324322253731 1
0.832850706997572 0.274324322253551 1
0.0937499999999801 0.15625000000026 1
0.895712676749227 0.131081080563265 1
0.161377895610833 0.280095720375781 1
1 0.75 0.75
0.250000000001041 1 0.75
0.500000000001388 1 0.75
0.750000000000347 1 0.75
0 0.75 0.75
0.750000000000347 0.75 1
0.500000000001388 0.75 1
0.250000000001041 0.75 1
0.679181277751923 0.341281235218048 0.253381252288818
0.849643766880035 0.341281235218048 0.253381252288818
0.167793720960617 0.170818746089935 0.253381252288818
0.167793720960617 0.341281235218048 0.253381252288818
0.338256239891052 0.341281235218048 0.253381252288818
0.338256239891052 0.170818746089935 0.253381252288818
0.508718729019165 0.341281235218048 0.253381252288818
0.849643766880035 0.170818746089935 0.253381252288818
0.62210424710501 0.75 0.229054054053997
0.374517374518398 0.75 0.225675675675625
0.0937500000003903 0.75 0.343749999999817
0.90625000000013 0.75 0.343749999999817
0.161377895753478 0.75 0.219904279279159
0.838059041184306 0.75 0.220467342342221
0.622104241986081 0.270945933522037 0.75
0.374517373664575 0.274324322253731 0.75
0.832850706997572 0.274324322253551 0.75
0.0937499999999801 0.15625000000026 0.75
0.895712676749227 0.131081080563265 0.75
0.161377895610833 0.280095720375781 0.75
0.750000000000347 0.75 0.75
0.500000000001388 0.75 0.75
0.250000000001041 0.75 0.75

T	84 78 4 26
T	75 141 27 140
T	136 142 135 71
T	36 95 92 2
T	94 6 90 77
T	19 140 81 82
T	35 142 83 93
T	28 5 83 79
T	138 96 37 98
T	96 78 84 137
T	138 139 74 24
T	82 142 28 85
T	89 96 37 138
T	142 21 95 93
T	140 80 76 139
T	5 35 83 93
T	20 142 82 85
T	139 32 91 138
T	136 142 71 95
T	32 139 91 88
T	141 87 135 69
T	140 141 82 69
T	95 2 22 92
T	142 85 83 28
T	73 35 1 93
T	35 85 73 1
T	2 95 22 71
T	141 82 69 135
T	140 141 27 82
T	75 31 30 135
T	141 87 31 135
T	34 96 84 137
T	96 80 138 89
T	74 98 91 24
T	142 75 135 82
T	86 140 81 18
T	98 138 91 37
T	74 137 98 97
T	139 74 24 70
T	88 139 91 24
T	80 140 26 137
T	36 94 136 95
T	135 87 92 22
T	21 142 71 73
T	142 82 135 69
T	140 19 70 69
T	136 71 22 92
T	87 30 135 92
T	135 71 69 22
T	80 89 7 32
T	36 136 92 95
T	141 87 88 31
T	136 95 71 92
T	75 140 27 76
T	139 138 91 24
T	71 95 22 92
T	20 142 71 69
T	136 94 93 95
T	140 74 70 18
T	142 20 82 69
T	86 34 97 0
T	74 138 91 98
T	81 140 70 18
T	98 3 91 24
T	32 89 91 138
T	80 96 33 89
T	19 140 82 69
T	141 23 87 69
T	30 136 90 77
T	80 32 139 138
T	23 88 24 70
T	30 75 135 77
T	142 94 77 29
T	141 75 27 82
T	95 21 71 2
T	20 19 82 69
T	23 87 69 22
T	94 36 136 90
T	75 141 31 135
T	29 5 79 93
T	80 89 33 7
T	33 96 78 4
T	142 136 135 77
T	75 142 135 77
T	140 86 81 26
T	89 96 33 7
T	142 29 77 79
T	83 142 79 93
T	28 142 77 79
T	31 87 30 135
T	136 135 90 92
T	5 83 79 93
T	136 36 92 90
T	94 142 77 136
T	32 80 139 76
T	135 30 90 92
T	32 139 88 31
T	136 94 90 77
T	96 80 78 137
T	96 89 37 7
T	86 34 84 137
T	139 141 88 31
T	136 30 90 135
T	135 136 22 92
T	142 135 71 69
T	19 81 70 18
T	137 74 72 97
T	72 74 25 97
T	139 141 31 76
T	140 139 74 137
T	72 86 0 18
T	137 138 74 98
T	96 138 137 98
T	96 80 33 78
T	6 94 29 77
T	139 138 74 137
T	86 140 18 137
T	80 89 32 138
T	19 140 70 81
T	141 75 31 76
T	84 78 26 137
T	96 34 84 4
T	6 36 94 90
T	139 80 138 137
T	138 89 91 37
T	140 80 139 137
T	20 142 73 71
T	141 140 76 139
T	80 96 138 137
T	81 140 26 27
T	78 80 26 137
T	86 140 137 26
T	74 98 25 97
T	87 135 69 22
T	86 137 18 72
T	136 135 22 71
T	141 140 139 70
T	139 141 70 88
T	74 3 98 24
T	74 3 25 98
T	141 23 69 70
T	6 30 90 77
T	23 141 87 88
T	21 142 73 93
T	75 82 28 27
T	140 27 76 26
T	80 140 76 26
T	137 74 18 72
T	140 139 70 74
T	142 94 93 136
T	142 94 29 93
T	85 20 73 1
T	85 35 73 93
T	3 98 91 37
T	138 74 91 24
T	35 142 85 83
T	142 85 73 93
T	75 142 28 82
T	78 96 84 4
T	142 136 93 95
T	142 35 85 93
T	84 86 137 26
T	96 34 97 137
T	137 86 97 72
T	34 86 97 137
T	88 139 24 70
T	137 140 18 74
T	72 86 97 0
T	97 72 0 25
T	96 137 97 98
T	136 30 135 77
T	142 29 79 93
T	142 75 28 77
T	141 23 70 88
T	140 141 69 70
T	75 141 135 82
T	21 73 1 93
T	142 21 71 95
T	142 28 83 79
T	142 20 73 85
T	141 75 76 140
T	82 140 81 27
T	32 139 31 76
P	23 87 22 105 143 104
P	105 143 104 44 107 43
P	30 87 31 100 143 101
P	100 143 101 41 107 40
P	23 24 88 105 106 144
P	105 106 144 44 45 108
P	32 31 88 102 101 144
P	102 101 144 39 40 108
P	88 31 87 144 101 143
P	144 101 143 108 40 107
P	88 87 23 144 143 105
P	144 143 105 108 107 44
P	7 32 89 47 102 145
P	47 102 145 9 39 109
P	7 89 37 47 145 99
P	47 145 99 9 109 38
P	6 90 30 48 146 100
P	48 146 100 10 110 41
P	6 36 90 48 103 146
P	48 103 146 10 42 110
P	3 91 24 46 147 106
P	46 147 106 8 111 45
P	3 37 91 46 99 147
P	46 99 147 8 38 111
P	2 22 92 49 104 148
P	49 104 148 11 43 112
P	2 92 36 49 148 103
P	49 148 103 11 112 42
P	92 90 36 148 146 103
P	148 146 103 112 110 42
P	30 92 87 100 148 143
P	100 148 143 41 112 107
P	22 87 92 104 143 148
P	104 143 148 43 107 112
P	92 30 90 148 100 146
P	148 100 146 112 41 110
P	91 37 89 147 99 145
P	147 99 145 111 38 109
P	32 88 91 102 144 147
P	102 144 147 39 108 111
P	24 91 88 106 147 144
P	106 147 144 45 111 108
P	91 89 32 147 145 102
P	147 145 102 111 109 39
P	75 27 28 149 114 115
P	149 114 115 121 51 52
P	76 31 32 150 118 119
P	150 118 119 122 55 56
P	26 27 76 113 114 150
P	113 114 150 50 51 122
P	76 27 75 150 114 149
P	150 114 149 122 51 121
P	30 31 75 117 118 149
P	117 118 149 54 55 121
P	75 31 76 149 118 150
P	149 118 150 121 55 122
P	29 6 77 116 60 151
P	116 60 151 53 14 123
P	77 6 30 151 60 117
P	151 60 117 123 14 54
P	78 4 26 152 58 113
P	152 58 113 124 12 50
P	33 4 78 120 58 152
P	120 58 152 57 12 124
P	79 5 29 153 59 116
P	153 59 116 125 13 53
P	28 5 79 115 59 153
P	115 59 153 52 13 125
P	80 7 33 154 61 120
P	154 61 120 126 15 57
P	32 7 80 119 61 154
P	119 61 154 56 15 126
P	29 77 79 116 151 153
P	116 151 153 53 123 125
P	77 30 75 151 117 149
P	151 117 149 123 54 121
P	75 28 77 149 115 151
P	149 115 151 121 52 123
P	79 77 28 153 151 115
P	153 151 115 125 123 52
P	78 80 33 152 154 120
P	152 154 120 124 126 57
P	80 26 76 154 113 150
P	154 113 150 126 50 122
P	76 32 80 150 119 154
P	150 119 154 122 56 126
P	26 80 78 113 154 152
P	113 154 152 50 126 124
H	100 30 6 48 155 117 60 127
H	155 117 60 127 132 54 14 62
H	41 100 48 10 130 155 127 67
H	130 155 127 67 63 132 62 16
H	101 31 30 100 156 118 117 155
H	156 118 117 155 133 55 54 132
H	40 101 100 41 129 156 155 130
H	129 156 155 130 64 133 132 63
H	102 32 31 101 157 119 118 156
H	157 119 118 156 134 56 55 133
H	39 102 101 40 128 157 156 129
H	128 157 156 129 65 134 133 64
H	47 7 32 102 131 61 119 157
H	131 61 119 157 66 15 56 134
H	9 47 102 39 68 131 157 128
H	68 131 157 128 17 66 134 65

domain
boundary
1 2 168
t	69 20 19 
t	70 24 23 
t	18 70 19 
t	70 69 19 
t	22 69 23 
t	69 70 23 
t	71 22 2 
t	21 71 2 
t	72 18 0 
t	25 72 0 
t	73 21 1 
t	20 73 1 
t	24 74 3 
t	74 25 3 
t	21 73 71 
t	71 69 22 
t	69 71 20 
t	73 20 71 
t	72 25 74 
t	74 70 18 
t	70 74 24 
t	18 72 74 
t	121 51 52 
t	122 55 56 
t	50 51 122 
t	122 51 121 
t	54 55 121 
t	121 55 122 
t	53 14 123 
t	123 14 54 
t	124 12 50 
t	57 12 124 
t	125 13 53 
t	52 13 125 
t	126 15 57 
t	56 15 126 
t	53 123 125 
t	123 54 121 
t	121 52 123 
t	125 123 52 
t	124 126 57 
t	126 50 122 
t	122 56 126 
t	50 126 124 
t	18 19 81 
t	27 26 81 
t	82 19 20 
t	82 28 27 
t	81 82 27 
t	19 82 81 
t	83 5 28 
t	35 5 83 
t	26 4 84 
t	84 4 34 
t	20 1 85 
t	85 1 35 
t	86 0 18 
t	34 0 86 
t	34 86 84 
t	81 26 86 
t	86 18 81 
t	84 86 26 
t	83 85 35 
t	85 28 82 
t	82 20 85 
t	28 85 83 
t	21 93 1 
t	93 35 1 
t	93 29 5 
t	35 93 5 
t	29 94 6 
t	94 36 6 
t	94 29 93 
t	95 21 2 
t	36 95 2 
t	21 95 93 
t	94 95 36 
t	94 93 95 
t	107 43 44 
t	107 40 41 
t	45 108 44 
t	40 108 39 
t	40 107 108 
t	107 44 108 
t	39 109 9 
t	109 38 9 
t	110 41 10 
t	42 110 10 
t	111 45 8 
t	38 111 8 
t	43 112 11 
t	112 42 11 
t	110 42 112 
t	112 107 41 
t	107 112 43 
t	41 110 112 
t	38 109 111 
t	108 111 39 
t	111 108 45 
t	109 39 111 
t	96 7 37 
t	33 7 96 
t	96 4 33 
t	34 4 96 
t	97 0 34 
t	34 96 97 
t	25 0 97 
t	98 3 25 
t	98 96 37 
t	37 3 98 
t	98 25 97 
t	96 98 97 
q	2 49 103 36 
q	2 22 104 49 
q	49 104 43 11 
q	22 23 105 104 
q	104 105 44 43 
q	23 24 106 105 
q	105 106 45 44 
q	24 3 46 106 
q	106 46 8 45 
q	14 62 132 54 
q	62 16 63 132 
q	54 132 133 55 
q	132 63 64 133 
q	55 133 134 56 
q	133 64 65 134 
q	56 134 66 15 
q	134 65 17 66 
q	4 26 113 58 
q	58 113 50 12 
q	26 27 114 113 
q	113 114 51 50 
q	27 28 115 114 
q	114 115 52 51 
q	28 5 59 115 
q	115 59 13 52 
q	49 11 42 103 
q	36 103 48 6 
q	103 42 10 48 
q	5 29 116 59 
q	59 116 53 13 
q	29 6 60 116 
q	116 60 14 53 
q	6 48 127 60 
q	60 127 62 14 
q	48 10 67 127 
q	127 67 16 62 
q	9 68 128 39 
q	68 17 65 128 
q	39 128 129 40 
q	128 65 64 129 
q	40 129 130 41 
q	129 64 63 130 
q	41 130 67 10 
q	130 63 16 67 
q	3 37 99 46 
q	46 99 38 8 
q	37 7 47 99 
q	99 47 9 38 
q	7 33 120 61 
q	61 120 57 15 
q	33 4 58 120 
q	120 58 12 57 
q	7 61 131 47 
q	61 15 66 131 
q	47 131 68 9 
q	131 66 17 68 

domain
bottom
1 2 30
t	69 20 19 
t	70 24 23 
t	18 70 19 
t	70 69 19 
t	22 69 23 
t	69 70 23 
t	71 22 2 
t	21 71 2 
t	72 18 0 
t	25 72 0 
t	73 21 1 
t	20 73 1 
t	24 74 3 
t	74 25 3 
t	21 73 71 
t	71 69 22 
t	69 71 20 
t	73 20 71 
t	72 25 74 
t	74 70 18 
t	70 74 24 
t	18 72 74 
q	2 22 104 49 
q	49 104 43 11 
q	22 23 105 104 
q	104 105 44 43 
q	23 24 106 105 
q	105 106 45 44 
q	24 3 46 106 
q	106 46 8 45 

domain
top
1 2 30
t	121 51 52 
t	122 55 56 
t	50 51 122 
t	122 51 121 
t	54 55 121 
t	121 55 122 
t	53 14 123 
t	123 14 54 
t	124 12 50 
t	57 12 124 
t	125 13 53 
t	52 13 125 
t	126 15 57 
t	56 15 126 
t	53 123 125 
t	123 54 121 
t	121 52 123 
t	125 123 52 
t	124 126 57 
t	126 50 122 
t	122 56 126 
t	50 126 124 
q	14 62 132 54 
q	62 16 63 132 
q	54 132 133 55 
q	132 63 64 133 
q	55 133 134 56 
q	133 64 65 134 
q	56 134 66 15 
q	134 65 17 66 

domain
left
1 2 30
t	18 19 81 
t	27 26 81 
t	82 19 20 
t	82 28 27 
t	81 82 27 
t	19 82 81 
t	83 5 28 
t	35 5 83 
t	26 4 84 
t	84 4 34 
t	20 1 85 
t	85 1 35 
t	86 0 18 
t	34 0 86 
t	34 86 84 
t	81 26 86 
t	86 18 81 
t	84 86 26 
t	83 85 35 
t	85 28 82 
t	82 20 85 
t	28 85 83 
q	4 26 113 58 
q	58 113 50 12 
q	26 27 114 113 
q	113 114 51 50 
q	27 28 115 114 
q	114 115 52 51 
q	28 5 59 115 
q	115 59 13 52 

domain
front
1 2 24
t	21 93 1 
t	93 35 1 
t	93 29 5 
t	35 93 5 
t	29 94 6 
t	94 36 6 
t	94 29 93 
t	95 21 2 
t	36 95 2 
t	21 95 93 
t	94 95 36 
t	94 93 95 
q	2 49 103 36 
q	49 11 42 103 
q	36 103 48 6 
q	103 42 10 48 
q	5 29 116 59 
q	59 116 53 13 
q	29 6 60 116 
q	116 60 14 53 
q	6 48 127 60 
q	60 127 62 14 
q	48 10 67 127 
q	127 67 16 62 

domain
right
1 2 30
t	107 43 44 
t	107 40 41 
t	45 108 44 
t	40 108 39 
t	40 107 108 
t	107 44 108 
t	39 109 9 
t	109 38 9 
t	110 41 10 
t	42 110 10 
t	111 45 8 
t	38 111 8 
t	43 112 11 
t	112 42 11 
t	110 42 112 
t	112 107 41 
t	107 112 43 
t	41 110 112 
t	38 109 111 
t	108 111 39 
t	111 108 45 
t	109 39 111 
q	9 68 128 39 
q	68 17 65 128 
q	39 128 129 40 
q	128 65 64 129 
q	40 129 130 41 
q	129 64 63 130 
q	41 130 67 10 
q	130 63 16 67 

domain
back
1 2 24
t	96 7 37 
t	33 7 96 
t	96 4 33 
t	34 4 96 
t	97 0 34 
t	34 96 97 
t	25 0 97 
t	98 3 25 
t	98 96 37 
t	37 3 98 
t	98 25 97 
t	96 98 97 
q	3 37 99 46 
q	46 99 38 8 
q	37 7 47 99 
q	99 47 9 38 
q	7 33 120 61 
q	61 120 57 15 
q	33 4 58 120 
q	120 58 12 57 
q	7 61 131 47 
q	61 15 66 131 
q	47 131 68 9 
q	131 66 17 68 

