#!geo

mesh
4
header
 dimension 3
 nodes	28
 triangles	22
 quadrangles	8
 edges	57
end header

0 1 0
0 1 0.5
1 1 0.5
1 1 0
1 1 1
0 1 1
0 1 0.249999999999511
0.250000000001041 1 0.5
0.500000000001388 1 0.5
0.750000000000347 1 0.5
1 1 0.249999999999511
0.750000000000347 1 0
0.500000000001388 1 0
0.250000000001041 1 0
0.750000000000347 1 1
0.500000000001388 1 1
0.250000000001041 1 1
1 1 0.75
0 1 0.75
0.62210424710501 1 0.229054054053997
0.374517374518398 1 0.225675675675625
0.0937500000003903 1 0.343749999999817
0.90625000000013 1 0.343749999999817
0.161377895753478 1 0.219904279279159
0.838059041184306 1 0.220467342342221
0.250000000001041 1 0.75
0.500000000001388 1 0.75
0.750000000000347 1 0.75

t	12 19 11
t	9 19 8
t	12 13 20
t	7 8 20
t	20 8 19
t	20 19 12
t	1 7 21
t	1 21 6
t	2 22 9
t	2 10 22
t	0 23 13
t	0 6 23
t	3 11 24
t	3 24 10
t	24 22 10
t	9 24 19
t	11 19 24
t	24 9 22
t	23 6 21
t	7 20 23
t	13 23 20
t	23 21 7
q	1 18 25 7
q	18 5 16 25
q	7 25 26 8
q	25 16 15 26
q	8 26 27 9
q	26 15 14 27
q	9 27 17 2
q	27 14 4 17

e	12 19
e	19 11
e	11 12
e	9 19
e	19 8
e	8 9
e	12 13
e	13 20
e	20 12
e	7 8
e	8 20
e	20 7
e	19 20
e	1 7
e	7 21
e	21 1
e	21 6
e	6 1
e	2 22
e	22 9
e	9 2
e	2 10
e	10 22
e	0 23
e	23 13
e	13 0
e	0 6
e	6 23
e	3 11
e	11 24
e	24 3
e	24 10
e	10 3
e	24 22
e	9 24
e	24 19
e	21 23
e	20 23
e	23 7
e	9 27
e	2 17
e	17 27
e	27 14
e	17 4
e	4 14
e	8 26
e	27 26
e	26 15
e	14 15
e	7 25
e	26 25
e	25 16
e	15 16
e	1 18
e	25 18
e	18 5
e	16 5

domain
boundary
2 2 30
0
1
2
3
4
5
6
7
8
9
10
11
12
13
14
15
16
17
18
19
20
21
22
23
24
25
26
27
28
29
