$MeshFormat
2.2 0 8
$EndMeshFormat
$PhysicalNames
2
2 1 "boundary"
3 2 "internal"
$EndPhysicalNames
$Nodes
6
1 0 0 -1
2 1 0 -1
3 0 1 -1
4 0 0 1
5 1 0 1
6 0 1 1
$EndNodes
$Elements
1
1 6 2 2 1 1 2 3 4 5 6
$EndElements
