$MeshFormat
2.2 0 8
$EndMeshFormat
$PhysicalNames
2
2 1 "boundary"
3 2 "internal"
$EndPhysicalNames
$Nodes
127
1 1 0 0
2 0 1 0
3 0 0 1
4 -1 0 0
5 0 -1 0
6 0 0 -1
7 0.923879532512616 0.3826834323618807 0
8 0.7071067811870534 0.7071067811860416 0
9 0.3826834323629063 0.9238795325121912 0
10 -0.3826834323618807 0.923879532512616 0
11 -0.7071067811860416 0.7071067811870534 0
12 -0.9238795325121912 0.3826834323629063 0
13 -0.923879532512616 -0.3826834323618807 0
14 -0.7071067811870534 -0.7071067811860416 0
15 -0.3826834323629063 -0.9238795325121912 0
16 0.3826834323618807 -0.923879532512616 0
17 0.7071067811860416 -0.7071067811870534 0
18 0.9238795325121912 -0.3826834323629063 0
19 0.923879532512616 0 -0.3826834323618807
20 0.7071067811870534 0 -0.7071067811860416
21 0.3826834323629063 0 -0.9238795325121912
22 -0.3826834323618807 0 -0.923879532512616
23 -0.7071067811860416 0 -0.7071067811870534
24 -0.9238795325121912 0 -0.3826834323629063
25 -0.923879532512616 0 0.3826834323618807
26 -0.7071067811870534 0 0.7071067811860416
27 -0.3826834323629063 0 0.9238795325121912
28 0.3826834323618807 0 0.923879532512616
29 0.7071067811860416 0 0.7071067811870534
30 0.9238795325121912 0 0.3826834323629063
31 0 -0.923879532512616 -0.3826834323618807
32 0 -0.7071067811870534 -0.7071067811860416
33 0 -0.3826834323629063 -0.9238795325121912
34 0 0.3826834323618807 -0.923879532512616
35 0 0.7071067811860416 -0.7071067811870534
36 0 0.9238795325121912 -0.3826834323629063
37 0 0.923879532512616 0.3826834323618807
38 0 0.7071067811870534 0.7071067811860416
39 0 0.3826834323629063 0.9238795325121912
40 0 -0.3826834323618807 0.923879532512616
41 0 -0.7071067811860416 0.7071067811870534
42 0 -0.9238795325121912 0.3826834323629063
43 0.4557424696220202 0.8219112368671452 0.341702677915087
44 0.2768252280063614 0.631683342883021 0.7241159765281787
45 0.515389057654762 0.3045584716221224 0.8010107718457556
46 0.2543686954742784 0.2935536835119295 0.9214785953343093
47 0.8302784408645808 0.474711049680683 0.2920396033871861
48 0.5894705020244494 0.5423310494006954 0.5986664848636376
49 0.7429380499010365 0.2649658604720591 0.614683777883837
50 0.2130544125875541 0.9587037531212004 0.1884009846797433
51 -0.5073604921490463 0.2947435404805552 0.8097601968183326
52 -0.3020405599386631 0.7671369656977983 0.5659261223975387
53 -0.7805661655517472 0.3064204569443914 0.544814615040596
54 -0.8113846168671162 0.5088275301657997 0.2876622117289222
55 -0.9274417682575052 0.2630368020510768 0.2658258965152465
56 -0.6002956043365096 0.5445376638027093 0.5857678039245178
57 -0.2812401994821512 0.9152932495326741 0.2883439223482224
58 -0.3082151907258984 0.5033144802619095 0.8072657122437952
59 -0.2497584009272818 0.2397643750108787 0.9381544572413916
60 -0.5729092084975844 0.7625999396285188 0.3003604016798
61 -0.596160865390271 -0.5709530992283488 0.564450866824267
62 -0.858795713970595 -0.3522438977548603 0.3720136531905781
63 -0.5093499717843583 -0.8201080247842673 0.2607401655436328
64 -0.7639527303757413 -0.5990119351271106 0.2399185847880988
65 -0.3383600034483717 -0.7639540196537523 0.5494422298306639
66 -0.2415587297218468 -0.9398252835471455 0.2416150171257894
67 -0.2984007795994446 -0.5247211956198018 0.7972607111866039
68 -0.5357147071678192 -0.3094280748314341 0.7856615168316506
69 -0.2476866322857187 -0.2551737892102242 0.9346323713027788
70 0.5578225223974638 -0.5503518210850689 0.6212462527327464
71 0.2838421614947219 -0.5286708444059656 0.7999629776640214
72 0.3524156839214318 -0.2258596190293972 0.908179838037646
73 0.5618166661507006 -0.3643110150573043 0.7427243889513988
74 0.8275372014721361 -0.3264514105321634 0.4567402508442039
75 0.3122723270550721 -0.7546394414974648 0.5770661202080786
76 0.6443546101455194 -0.7023657107358473 0.3024723867838909
77 0.3186209099701733 -0.9078708741138999 0.2724907184941206
78 0.9598286154470346 -0.1795175779769057 0.2156443093761904
79 0.2947435404846346 0.8097601966014858 -0.5073604924927696
80 0.7671369657690909 0.5659261215947262 -0.3020405612618011
81 0.3064204569364961 0.5448146142721588 -0.7805661660911954
82 0.5088275301453363 0.2876622113054163 -0.8113846170300956
83 0.2630368020440268 0.2658258961255959 -0.9274417683711874
84 0.5445376638015621 0.5857678033473173 -0.6002956049007818
85 0.9152932495396602 0.2883439194240149 -0.2812402024574839
86 0.5033144802800875 0.8072657120803926 -0.3082151911241919
87 0.2397643750135417 0.9381544571956423 -0.2497584010965708
88 0.7625999395578893 0.3003604003923523 -0.5729092092665726
89 -0.2947435404465873 0.8097601985957587 -0.5073604893319625
90 -0.7671369651127831 0.5659261289781703 -0.3020405490945414
91 -0.3064204570085997 0.5448146213388558 -0.780566161130522
92 -0.508827530332666 0.2876622152001887 -0.8113846155317959
93 -0.2630368021083501 0.2658258997089163 -0.9274417673258832
94 -0.5445376638113257 0.5857678086556464 -0.6002955997120633
95 -0.9152932494750675 0.2883439463157713 -0.2812401750966946
96 -0.5033144801120741 0.8072657135835088 -0.3082151874616512
97 -0.2397643749885369 0.9381544576164803 -0.2497583995398029
98 -0.7625999402067092 0.3003604122321862 -0.5729092021956312
99 -0.6212462521928648 -0.5503518210901505 -0.5578225229937158
100 -0.7999629773899589 -0.5286708444419117 -0.2838421622001711
101 -0.9081798374943185 -0.2258596190460571 -0.3524156853109167
102 -0.7427243876033711 -0.3643110150768565 -0.5618166679201212
103 -0.4567402504246866 -0.3264514105250809 -0.8275372017064729
104 -0.5770661200828558 -0.7546394415082773 -0.3122723272603486
105 -0.3024723866201934 -0.7023657107263186 -0.6443546102327488
106 -0.2724906963243279 -0.9078708737946709 -0.3186209298398077
107 -0.2156443092576432 -0.1795175779757529 -0.9598286154738842
108 0.2947435405021412 -0.5073604939795631 -0.8097601956635534
109 0.7671369660772586 -0.3020405669851287 -0.5659261181223932
110 0.3064204569020528 -0.7805661684246442 -0.5448146109483548
111 0.5088275300561304 -0.8113846177354413 -0.2876622094736976
112 0.2630368020131031 -0.9274417688630272 -0.2658258944402119
113 0.5445376637962029 -0.6002956073417155 -0.5857678008508271
114 0.9152932495696948 -0.2812402153275222 -0.2883439067757064
115 0.5033144803585623 -0.308215192847037 -0.8072657113736804
116 0.2397643750249994 -0.2497584018288327 -0.938154456997769
117 0.7625999392518851 -0.5729092125933339 -0.3003603948237973
118 0.3583625555038452 0.1825624853372574 0.006762519478797913
119 0.01743750274181366 0.5234875082969666 0.006762519478797913
120 -0.3234875202178955 0.1825624853372574 0.006762519478797913
121 0.01743750274181366 0.1825624853372574 0.3476875424385071
122 0.01743750274181366 -0.4992875456809998 0.006762519478797913
123 -0.3234875202178955 -0.1583625227212906 0.006762519478797913
124 0.01743750274181366 -0.1583625227212906 0.3476875424385071
125 0.01743750274181366 0.1825624853372574 -0.3341624736785889
126 -0.3234875202178955 0.1825624853372574 -0.3341624736785889
127 0.01743750274181366 -0.1583625227212906 -0.3341624736785889
$EndNodes
$Elements
553
1 2 2 1 1 38 39 44
2 2 2 1 1 9 43 8
3 2 2 1 1 29 45 28
4 2 2 1 1 28 46 3
5 2 2 1 1 46 39 3
6 2 2 1 1 46 28 45
7 2 2 1 1 44 46 45
8 2 2 1 1 46 44 39
9 2 2 1 1 8 43 47
10 2 2 1 1 48 43 44
11 2 2 1 1 45 48 44
12 2 2 1 1 43 48 47
13 2 2 1 1 49 29 30
14 2 2 1 1 29 49 45
15 2 2 1 1 49 48 45
16 2 2 1 1 47 48 49
17 2 2 1 1 43 37 44
18 2 2 1 1 38 44 37
19 2 2 1 1 8 47 7
20 2 2 1 1 50 9 2
21 2 2 1 1 50 37 43
22 2 2 1 1 37 50 2
23 2 2 1 1 9 50 43
24 2 2 1 1 47 49 30
25 2 2 1 1 7 30 1
26 2 2 1 1 7 47 30
27 2 2 1 2 25 26 53
28 2 2 1 2 11 12 54
29 2 2 1 2 55 12 4
30 2 2 1 2 25 55 4
31 2 2 1 2 12 55 54
32 2 2 1 2 53 55 25
33 2 2 1 2 55 53 54
34 2 2 1 2 51 56 53
35 2 2 1 2 56 54 53
36 2 2 1 2 10 57 2
37 2 2 1 2 57 37 2
38 2 2 1 2 26 51 53
39 2 2 1 2 51 26 27
40 2 2 1 2 27 59 51
41 2 2 1 2 39 59 3
42 2 2 1 2 59 27 3
43 2 2 1 2 51 58 56
44 2 2 1 2 38 58 39
45 2 2 1 2 58 51 59
46 2 2 1 2 58 59 39
47 2 2 1 2 52 56 58
48 2 2 1 2 37 57 52
49 2 2 1 2 58 38 52
50 2 2 1 2 37 52 38
51 2 2 1 2 11 60 10
52 2 2 1 2 60 11 54
53 2 2 1 2 60 57 10
54 2 2 1 2 52 57 60
55 2 2 1 2 60 56 52
56 2 2 1 2 54 56 60
57 2 2 1 3 13 62 4
58 2 2 1 3 62 25 4
59 2 2 1 3 61 64 63
60 2 2 1 3 64 61 62
61 2 2 1 3 64 14 63
62 2 2 1 3 64 13 14
63 2 2 1 3 62 13 64
64 2 2 1 3 14 15 63
65 2 2 1 3 41 65 42
66 2 2 1 3 66 15 5
67 2 2 1 3 42 66 5
68 2 2 1 3 15 66 63
69 2 2 1 3 65 66 42
70 2 2 1 3 65 63 66
71 2 2 1 3 61 63 65
72 2 2 1 3 61 65 67
73 2 2 1 3 41 40 67
74 2 2 1 3 65 41 67
75 2 2 1 3 26 68 27
76 2 2 1 3 68 61 67
77 2 2 1 3 61 68 62
78 2 2 1 3 62 26 25
79 2 2 1 3 68 26 62
80 2 2 1 3 69 40 3
81 2 2 1 3 40 69 67
82 2 2 1 3 27 69 3
83 2 2 1 3 68 69 27
84 2 2 1 3 68 67 69
85 2 2 1 4 40 41 71
86 2 2 1 4 72 28 3
87 2 2 1 4 40 72 3
88 2 2 1 4 72 40 71
89 2 2 1 4 73 71 70
90 2 2 1 4 73 74 29
91 2 2 1 4 74 30 29
92 2 2 1 4 71 73 72
93 2 2 1 4 29 28 72
94 2 2 1 4 29 72 73
95 2 2 1 4 74 73 70
96 2 2 1 4 42 75 41
97 2 2 1 4 71 41 75
98 2 2 1 4 70 71 75
99 2 2 1 4 74 76 18
100 2 2 1 4 76 17 18
101 2 2 1 4 76 16 17
102 2 2 1 4 70 76 74
103 2 2 1 4 76 70 75
104 2 2 1 4 16 77 5
105 2 2 1 4 77 42 5
106 2 2 1 4 77 16 76
107 2 2 1 4 75 77 76
108 2 2 1 4 77 75 42
109 2 2 1 4 18 78 74
110 2 2 1 4 30 78 1
111 2 2 1 4 78 30 74
112 2 2 1 4 78 18 1
113 2 2 1 5 34 35 81
114 2 2 1 5 20 21 82
115 2 2 1 5 83 21 6
116 2 2 1 5 34 83 6
117 2 2 1 5 21 83 82
118 2 2 1 5 81 83 34
119 2 2 1 5 83 81 82
120 2 2 1 5 79 84 81
121 2 2 1 5 84 82 81
122 2 2 1 5 85 7 1
123 2 2 1 5 19 85 1
124 2 2 1 5 35 79 81
125 2 2 1 5 79 35 36
126 2 2 1 5 87 36 2
127 2 2 1 5 36 87 79
128 2 2 1 5 9 87 2
129 2 2 1 5 79 86 84
130 2 2 1 5 8 86 9
131 2 2 1 5 86 79 87
132 2 2 1 5 86 87 9
133 2 2 1 5 80 84 86
134 2 2 1 5 7 85 80
135 2 2 1 5 86 8 80
136 2 2 1 5 7 80 8
137 2 2 1 5 20 88 19
138 2 2 1 5 88 20 82
139 2 2 1 5 88 85 19
140 2 2 1 5 80 85 88
141 2 2 1 5 88 84 80
142 2 2 1 5 82 84 88
143 2 2 1 6 35 34 91
144 2 2 1 6 22 23 92
145 2 2 1 6 22 93 6
146 2 2 1 6 93 34 6
147 2 2 1 6 93 22 92
148 2 2 1 6 93 91 34
149 2 2 1 6 91 93 92
150 2 2 1 6 94 89 91
151 2 2 1 6 92 94 91
152 2 2 1 6 12 95 4
153 2 2 1 6 95 24 4
154 2 2 1 6 89 35 91
155 2 2 1 6 35 89 36
156 2 2 1 6 36 97 2
157 2 2 1 6 97 36 89
158 2 2 1 6 97 10 2
159 2 2 1 6 96 89 94
160 2 2 1 6 96 11 10
161 2 2 1 6 89 96 97
162 2 2 1 6 97 96 10
163 2 2 1 6 94 90 96
164 2 2 1 6 95 12 90
165 2 2 1 6 11 96 90
166 2 2 1 6 90 12 11
167 2 2 1 6 98 23 24
168 2 2 1 6 23 98 92
169 2 2 1 6 95 98 24
170 2 2 1 6 95 90 98
171 2 2 1 6 94 98 90
172 2 2 1 6 94 92 98
173 2 2 1 7 14 13 100
174 2 2 1 7 101 13 4
175 2 2 1 7 24 101 4
176 2 2 1 7 13 101 100
177 2 2 1 7 100 102 99
178 2 2 1 7 103 102 23
179 2 2 1 7 22 103 23
180 2 2 1 7 102 100 101
181 2 2 1 7 24 23 101
182 2 2 1 7 101 23 102
183 2 2 1 7 102 103 99
184 2 2 1 7 104 15 14
185 2 2 1 7 14 100 104
186 2 2 1 7 100 99 104
187 2 2 1 7 105 103 33
188 2 2 1 7 32 105 33
189 2 2 1 7 31 105 32
190 2 2 1 7 105 99 103
191 2 2 1 7 99 105 104
192 2 2 1 7 15 106 5
193 2 2 1 7 106 31 5
194 2 2 1 7 31 106 105
195 2 2 1 7 106 104 105
196 2 2 1 7 104 106 15
197 2 2 1 7 107 22 6
198 2 2 1 7 107 33 103
199 2 2 1 7 33 107 6
200 2 2 1 7 22 107 103
201 2 2 1 8 31 32 110
202 2 2 1 8 17 16 111
203 2 2 1 8 112 16 5
204 2 2 1 8 31 112 5
205 2 2 1 8 16 112 111
206 2 2 1 8 110 112 31
207 2 2 1 8 112 110 111
208 2 2 1 8 108 113 110
209 2 2 1 8 113 111 110
210 2 2 1 8 18 114 1
211 2 2 1 8 114 19 1
212 2 2 1 8 32 108 110
213 2 2 1 8 108 32 33
214 2 2 1 8 116 33 6
215 2 2 1 8 33 116 108
216 2 2 1 8 21 116 6
217 2 2 1 8 108 115 113
218 2 2 1 8 20 115 21
219 2 2 1 8 115 108 116
220 2 2 1 8 115 116 21
221 2 2 1 8 109 113 115
222 2 2 1 8 19 114 109
223 2 2 1 8 115 20 109
224 2 2 1 8 19 109 20
225 2 2 1 8 17 117 18
226 2 2 1 8 117 17 111
227 2 2 1 8 117 114 18
228 2 2 1 8 109 114 117
229 2 2 1 8 117 113 109
230 2 2 1 8 111 113 117
231 4 2 2 1 19 114 1 118
232 4 2 2 1 75 71 124 41
233 4 2 2 1 75 122 42 41
234 4 2 2 1 27 69 124 3
235 4 2 2 1 72 28 124 3
236 4 2 2 1 119 43 118 8
237 4 2 2 1 12 120 55 4
238 4 2 2 1 121 27 26 124
239 4 2 2 1 87 9 119 86
240 4 2 2 1 39 121 58 38
241 4 2 2 1 125 88 118 20
242 4 2 2 1 22 93 126 125
243 4 2 2 1 52 120 60 119
244 4 2 2 1 121 120 119 125
245 4 2 2 1 17 122 18 117
246 4 2 2 1 66 122 65 42
247 4 2 2 1 119 97 2 36
248 4 2 2 1 33 127 32 108
249 4 2 2 1 39 121 46 3
250 4 2 2 1 88 85 118 19
251 4 2 2 1 38 121 119 44
252 4 2 2 1 9 43 50 119
253 4 2 2 1 70 76 75 124
254 4 2 2 1 11 12 120 54
255 4 2 2 1 47 30 49 118
256 4 2 2 1 72 3 124 40
257 4 2 2 1 87 119 2 36
258 4 2 2 1 127 21 125 20
259 4 2 2 1 82 21 125 83
260 4 2 2 1 121 43 48 118
261 4 2 2 1 100 102 101 123
262 4 2 2 1 124 74 29 73
263 4 2 2 1 122 111 17 16
264 4 2 2 1 125 121 118 119
265 4 2 2 1 118 114 18 117
266 4 2 2 1 66 122 15 63
267 4 2 2 1 121 43 119 44
268 4 2 2 1 51 121 56 58
269 4 2 2 1 5 122 106 15
270 4 2 2 1 120 56 54 53
271 4 2 2 1 116 127 33 108
272 4 2 2 1 122 104 106 15
273 4 2 2 1 122 111 16 112
274 4 2 2 1 85 118 1 7
275 4 2 2 1 45 121 44 48
276 4 2 2 1 116 127 115 21
277 4 2 2 1 122 5 106 31
278 4 2 2 1 122 66 5 42
279 4 2 2 1 127 115 21 20
280 4 2 2 1 115 127 109 20
281 4 2 2 1 6 116 21 127
282 4 2 2 1 77 122 5 42
283 4 2 2 1 68 26 124 123
284 4 2 2 1 105 127 32 33
285 4 2 2 1 124 70 74 73
286 4 2 2 1 3 69 124 40
287 4 2 2 1 121 52 56 58
288 4 2 2 1 122 127 110 32
289 4 2 2 1 20 88 118 19
290 4 2 2 1 125 119 79 36
291 4 2 2 1 34 6 125 93
292 4 2 2 1 121 39 59 3
293 4 2 2 1 127 125 118 20
294 4 2 2 1 27 68 26 124
295 4 2 2 1 72 71 40 124
296 4 2 2 1 122 76 18 118
297 4 2 2 1 56 120 54 60
298 4 2 2 1 116 127 108 115
299 4 2 2 1 127 22 107 103
300 4 2 2 1 52 57 37 119
301 4 2 2 1 127 109 20 118
302 4 2 2 1 127 6 22 125
303 4 2 2 1 43 121 119 118
304 4 2 2 1 124 121 29 118
305 4 2 2 1 23 126 102 103
306 4 2 2 1 122 17 18 76
307 4 2 2 1 77 122 75 76
308 4 2 2 1 49 30 29 118
309 4 2 2 1 70 71 124 75
310 4 2 2 1 102 126 101 123
311 4 2 2 1 88 125 118 84
312 4 2 2 1 74 30 118 29
313 4 2 2 1 28 121 29 124
314 4 2 2 1 121 52 119 120
315 4 2 2 1 38 52 37 119
316 4 2 2 1 56 51 53 120
317 4 2 2 1 23 98 24 126
318 4 2 2 1 55 120 53 25
319 4 2 2 1 116 6 33 127
320 4 2 2 1 124 74 118 29
321 4 2 2 1 20 109 19 118
322 4 2 2 1 127 105 104 99
323 4 2 2 1 127 122 110 113
324 4 2 2 1 80 8 118 7
325 4 2 2 1 122 105 127 32
326 4 2 2 1 76 74 18 118
327 4 2 2 1 127 110 108 113
328 4 2 2 1 125 86 118 84
329 4 2 2 1 78 118 1 18
330 4 2 2 1 121 28 46 3
331 4 2 2 1 119 86 8 118
332 4 2 2 1 109 127 117 114
333 4 2 2 1 81 82 125 83
334 4 2 2 1 124 41 40 67
335 4 2 2 1 81 125 84 79
336 4 2 2 1 52 121 56 120
337 4 2 2 1 127 109 117 113
338 4 2 2 1 43 37 50 119
339 4 2 2 1 12 120 95 90
340 4 2 2 1 120 11 10 96
341 4 2 2 1 64 63 14 123
342 4 2 2 1 126 120 125 119
343 4 2 2 1 105 127 33 103
344 4 2 2 1 126 98 90 94
345 4 2 2 1 120 126 95 90
346 4 2 2 1 120 121 123 125
347 4 2 2 1 72 124 29 73
348 4 2 2 1 127 105 99 103
349 4 2 2 1 6 127 22 107
350 4 2 2 1 121 52 38 119
351 4 2 2 1 122 118 18 117
352 4 2 2 1 55 120 54 53
353 4 2 2 1 92 126 91 94
354 4 2 2 1 126 89 119 125
355 4 2 2 1 51 121 58 59
356 4 2 2 1 10 97 119 96
357 4 2 2 1 126 89 94 96
358 4 2 2 1 27 121 59 3
359 4 2 2 1 122 75 124 41
360 4 2 2 1 52 56 60 120
361 4 2 2 1 126 127 123 102
362 4 2 2 1 76 122 75 124
363 4 2 2 1 61 68 67 124
364 4 2 2 1 122 77 5 16
365 4 2 2 1 120 10 119 96
366 4 2 2 1 37 38 119 44
367 4 2 2 1 126 120 119 96
368 4 2 2 1 28 121 124 3
369 4 2 2 1 97 89 119 96
370 4 2 2 1 9 50 2 119
371 4 2 2 1 89 97 119 36
372 4 2 2 1 89 126 119 96
373 4 2 2 1 126 89 125 91
374 4 2 2 1 93 126 125 91
375 4 2 2 1 96 126 90 94
376 4 2 2 1 69 124 40 67
377 4 2 2 1 120 126 125 123
378 4 2 2 1 86 80 8 118
379 4 2 2 1 105 122 31 32
380 4 2 2 1 6 93 22 125
381 4 2 2 1 127 122 118 124
382 4 2 2 1 121 27 124 3
383 4 2 2 1 111 127 117 113
384 4 2 2 1 87 9 2 119
385 4 2 2 1 69 27 124 68
386 4 2 2 1 121 49 29 118
387 4 2 2 1 76 124 74 118
388 4 2 2 1 88 82 125 84
389 4 2 2 1 15 122 14 63
390 4 2 2 1 104 122 14 15
391 4 2 2 1 76 122 124 118
392 4 2 2 1 105 122 106 31
393 4 2 2 1 14 100 13 123
394 4 2 2 1 122 105 104 127
395 4 2 2 1 122 105 106 104
396 4 2 2 1 17 122 16 76
397 4 2 2 1 122 77 16 76
398 4 2 2 1 19 85 118 1
399 4 2 2 1 64 61 123 62
400 4 2 2 1 121 51 27 59
401 4 2 2 1 71 124 41 40
402 4 2 2 1 127 122 124 123
403 4 2 2 1 51 121 26 120
404 4 2 2 1 10 97 2 119
405 4 2 2 1 87 86 119 79
406 4 2 2 1 121 45 49 48
407 4 2 2 1 70 76 124 74
408 4 2 2 1 119 87 79 36
409 4 2 2 1 10 120 119 60
410 4 2 2 1 109 114 19 118
411 4 2 2 1 121 46 45 44
412 4 2 2 1 82 81 125 84
413 4 2 2 1 86 125 119 79
414 4 2 2 1 121 52 58 38
415 4 2 2 1 71 72 73 124
416 4 2 2 1 121 39 46 44
417 4 2 2 1 43 37 119 44
418 4 2 2 1 125 121 124 118
419 4 2 2 1 74 118 78 18
420 4 2 2 1 124 65 41 67
421 4 2 2 1 85 80 118 7
422 4 2 2 1 69 68 124 67
423 4 2 2 1 21 82 125 20
424 4 2 2 1 21 6 125 83
425 4 2 2 1 115 127 113 109
426 4 2 2 1 126 23 101 24
427 4 2 2 1 80 88 118 84
428 4 2 2 1 50 37 2 119
429 4 2 2 1 26 68 62 123
430 4 2 2 1 122 110 31 32
431 4 2 2 1 65 122 123 124
432 4 2 2 1 120 26 53 25
433 4 2 2 1 122 66 15 5
434 4 2 2 1 120 26 25 123
435 4 2 2 1 111 122 110 112
436 4 2 2 1 37 57 2 119
437 4 2 2 1 86 80 118 84
438 4 2 2 1 23 126 101 102
439 4 2 2 1 127 114 118 117
440 4 2 2 1 111 122 117 127
441 4 2 2 1 34 81 125 83
442 4 2 2 1 98 23 92 126
443 4 2 2 1 126 127 102 103
444 4 2 2 1 33 127 107 103
445 4 2 2 1 127 99 102 103
446 4 2 2 1 109 127 114 118
447 4 2 2 1 127 125 124 118
448 4 2 2 1 64 14 13 123
449 4 2 2 1 12 11 120 90
450 4 2 2 1 122 65 123 63
451 4 2 2 1 13 100 101 123
452 4 2 2 1 118 30 1 7
453 4 2 2 1 120 12 55 54
454 4 2 2 1 11 120 90 96
455 4 2 2 1 126 120 95 24
456 4 2 2 1 30 118 1 78
457 4 2 2 1 125 81 35 79
458 4 2 2 1 82 88 125 20
459 4 2 2 1 6 34 125 83
460 4 2 2 1 93 126 91 92
461 4 2 2 1 110 122 31 112
462 4 2 2 1 5 122 16 112
463 4 2 2 1 122 5 31 112
464 4 2 2 1 110 127 108 32
465 4 2 2 1 125 89 35 91
466 4 2 2 1 72 28 29 124
467 4 2 2 1 122 127 118 117
468 4 2 2 1 99 100 123 102
469 4 2 2 1 121 51 56 120
470 4 2 2 1 125 36 79 35
471 4 2 2 1 34 81 35 125
472 4 2 2 1 34 125 35 91
473 4 2 2 1 126 127 125 123
474 4 2 2 1 122 127 104 123
475 4 2 2 1 126 98 24 95
476 4 2 2 1 65 61 67 124
477 4 2 2 1 127 125 123 124
478 4 2 2 1 127 99 123 102
479 4 2 2 1 122 111 110 113
480 4 2 2 1 111 122 127 113
481 4 2 2 1 25 4 123 62
482 4 2 2 1 122 77 75 42
483 4 2 2 1 120 4 123 25
484 4 2 2 1 98 126 92 94
485 4 2 2 1 125 89 36 35
486 4 2 2 1 4 13 101 123
487 4 2 2 1 122 111 117 17
488 4 2 2 1 62 4 123 13
489 4 2 2 1 68 61 62 123
490 4 2 2 1 49 47 118 48
491 4 2 2 1 125 89 119 36
492 4 2 2 1 120 12 95 4
493 4 2 2 1 57 10 119 60
494 4 2 2 1 122 104 14 123
495 4 2 2 1 115 127 108 113
496 4 2 2 1 57 52 60 119
497 4 2 2 1 34 93 125 91
498 4 2 2 1 61 65 123 124
499 4 2 2 1 25 26 62 123
500 4 2 2 1 126 24 101 123
501 4 2 2 1 65 61 123 63
502 4 2 2 1 61 68 124 123
503 4 2 2 1 89 126 94 91
504 4 2 2 1 127 22 126 125
505 4 2 2 1 127 6 125 21
506 4 2 2 1 127 99 104 123
507 4 2 2 1 98 126 90 95
508 4 2 2 1 64 62 123 13
509 4 2 2 1 63 122 14 123
510 4 2 2 1 120 126 90 96
511 4 2 2 1 120 4 95 24
512 4 2 2 1 121 26 123 124
513 4 2 2 1 24 4 101 123
514 4 2 2 1 66 122 63 65
515 4 2 2 1 104 100 14 123
516 4 2 2 1 121 51 26 27
517 4 2 2 1 49 121 48 118
518 4 2 2 1 4 120 55 25
519 4 2 2 1 125 121 123 124
520 4 2 2 1 30 47 7 118
521 4 2 2 1 8 47 118 7
522 4 2 2 1 57 10 2 119
523 4 2 2 1 120 4 24 123
524 4 2 2 1 86 125 118 119
525 4 2 2 1 9 86 8 119
526 4 2 2 1 121 39 58 59
527 4 2 2 1 28 121 46 45
528 4 2 2 1 39 121 38 44
529 4 2 2 1 126 120 24 123
530 4 2 2 1 70 71 73 124
531 4 2 2 1 120 51 53 26
532 4 2 2 1 11 120 10 60
533 4 2 2 1 120 11 54 60
534 4 2 2 1 43 121 48 44
535 4 2 2 1 118 114 1 18
536 4 2 2 1 99 100 104 123
537 4 2 2 1 61 64 123 63
538 4 2 2 1 121 120 123 26
539 4 2 2 1 88 80 118 85
540 4 2 2 1 125 86 84 79
541 4 2 2 1 9 43 119 8
542 4 2 2 1 47 43 118 48
543 4 2 2 1 22 23 126 92
544 4 2 2 1 93 22 126 92
545 4 2 2 1 30 74 118 78
546 4 2 2 1 121 45 29 49
547 4 2 2 1 43 47 118 8
548 4 2 2 1 22 127 126 103
549 4 2 2 1 23 22 126 103
550 4 2 2 1 127 6 33 107
551 4 2 2 1 65 122 124 41
552 4 2 2 1 122 65 42 41
553 4 2 2 1 121 28 29 45
$EndElements
