#!geo

mesh
4
header
 dimension	3
 nodes		127
 tetrahedra	323
end header

1 0 0
0 1 0
0 0 1
-1 0 0
0 -1 0
0 0 -1
0.923879532512616 0.382683432361881 0
0.707106781187053 0.707106781186042 0
0.382683432362906 0.923879532512191 0
-0.382683432361881 0.923879532512616 0
-0.707106781186042 0.707106781187053 0
-0.923879532512191 0.382683432362906 0
-0.923879532512616 -0.382683432361881 0
-0.707106781187053 -0.707106781186042 0
-0.382683432362906 -0.923879532512191 0
0.382683432361881 -0.923879532512616 0
0.707106781186042 -0.707106781187053 0
0.923879532512191 -0.382683432362906 0
0.923879532512616 0 -0.382683432361881
0.707106781187053 0 -0.707106781186042
0.382683432362906 0 -0.923879532512191
-0.382683432361881 0 -0.923879532512616
-0.707106781186042 0 -0.707106781187053
-0.923879532512191 0 -0.382683432362906
-0.923879532512616 0 0.382683432361881
-0.707106781187053 0 0.707106781186042
-0.382683432362906 0 0.923879532512191
0.382683432361881 0 0.923879532512616
0.707106781186042 0 0.707106781187053
0.923879532512191 0 0.382683432362906
0 -0.923879532512616 -0.382683432361881
0 -0.707106781187053 -0.707106781186042
0 -0.382683432362906 -0.923879532512191
0 0.382683432361881 -0.923879532512616
0 0.707106781186042 -0.707106781187053
0 0.923879532512191 -0.382683432362906
0 0.923879532512616 0.382683432361881
0 0.707106781187053 0.707106781186042
0 0.382683432362906 0.923879532512191
0 -0.382683432361881 0.923879532512616
0 -0.707106781186042 0.707106781187053
0 -0.923879532512191 0.382683432362906
0.45574246962202 0.821911236867145 0.341702677915087
0.276825228006361 0.631683342883021 0.724115976528179
0.515389057654762 0.304558471622122 0.801010771845756
0.254368695474278 0.29355368351193 0.921478595334309
0.830278440864581 0.474711049680683 0.292039603387186
0.589470502024449 0.542331049400695 0.598666484863638
0.742938049901037 0.264965860472059 0.614683777883837
0.213054412587554 0.9587037531212 0.188400984679743
-0.507360492149046 0.294743540480555 0.809760196818333
-0.302040559938663 0.767136965697798 0.565926122397539
-0.780566165551747 0.306420456944391 0.544814615040596
-0.811384616867116 0.5088275301658 0.287662211728922
-0.927441768257505 0.263036802051077 0.265825896515247
-0.60029560433651 0.544537663802709 0.585767803924518
-0.281240199482151 0.915293249532674 0.288343922348222
-0.308215190725898 0.50331448026191 0.807265712243795
-0.249758400927282 0.239764375010879 0.938154457241392
-0.572909208497584 0.762599939628519 0.3003604016798
-0.596160865390271 -0.570953099228349 0.564450866824267
-0.858795713970595 -0.35224389775486 0.372013653190578
-0.509349971784358 -0.820108024784267 0.260740165543633
-0.763952730375741 -0.599011935127111 0.239918584788099
-0.338360003448372 -0.763954019653752 0.549442229830664
-0.241558729721847 -0.939825283547145 0.241615017125789
-0.298400779599445 -0.524721195619802 0.797260711186604
-0.535714707167819 -0.309428074831434 0.785661516831651
-0.247686632285719 -0.255173789210224 0.934632371302779
0.557822522397464 -0.550351821085069 0.621246252732746
0.283842161494722 -0.528670844405966 0.799962977664021
0.352415683921432 -0.225859619029397 0.908179838037646
0.561816666150701 -0.364311015057304 0.742724388951399
0.827537201472136 -0.326451410532163 0.456740250844204
0.312272327055072 -0.754639441497465 0.577066120208079
0.644354610145519 -0.702365710735847 0.302472386783891
0.318620909970173 -0.9078708741139 0.272490718494121
0.959828615447035 -0.179517577976906 0.21564430937619
0.294743540484635 0.809760196601486 -0.50736049249277
0.767136965769091 0.565926121594726 -0.302040561261801
0.306420456936496 0.544814614272159 -0.780566166091195
0.508827530145336 0.287662211305416 -0.811384617030096
0.263036802044027 0.265825896125596 -0.927441768371187
0.544537663801562 0.585767803347317 -0.600295604900782
0.91529324953966 0.288343919424015 -0.281240202457484
0.503314480280088 0.807265712080393 -0.308215191124192
0.239764375013542 0.938154457195642 -0.249758401096571
0.762599939557889 0.300360400392352 -0.572909209266573
-0.294743540446587 0.809760198595759 -0.507360489331963
-0.767136965112783 0.56592612897817 -0.302040549094541
-0.3064204570086 0.544814621338856 -0.780566161130522
-0.508827530332666 0.287662215200189 -0.811384615531796
-0.26303680210835 0.265825899708916 -0.927441767325883
-0.544537663811326 0.585767808655646 -0.600295599712063
-0.915293249475068 0.288343946315771 -0.281240175096695
-0.503314480112074 0.807265713583509 -0.308215187461651
-0.239764374988537 0.93815445761648 -0.249758399539803
-0.762599940206709 0.300360412232186 -0.572909202195631
-0.621246252192865 -0.55035182109015 -0.557822522993716
-0.799962977389959 -0.528670844441912 -0.283842162200171
-0.908179837494319 -0.225859619046057 -0.352415685310917
-0.742724387603371 -0.364311015076856 -0.561816667920121
-0.456740250424687 -0.326451410525081 -0.827537201706473
-0.577066120082856 -0.754639441508277 -0.312272327260349
-0.302472386620193 -0.702365710726319 -0.644354610232749
-0.272490696324328 -0.907870873794671 -0.318620929839808
-0.215644309257643 -0.179517577975753 -0.959828615473884
0.294743540502141 -0.507360493979563 -0.809760195663553
0.767136966077259 -0.302040566985129 -0.565926118122393
0.306420456902053 -0.780566168424644 -0.544814610948355
0.50882753005613 -0.811384617735441 -0.287662209473698
0.263036802013103 -0.927441768863027 -0.265825894440212
0.544537663796203 -0.600295607341715 -0.585767800850827
0.915293249569695 -0.281240215327522 -0.288343906775706
0.503314480358562 -0.308215192847037 -0.80726571137368
0.239764375024999 -0.249758401828833 -0.938154456997769
0.762599939251885 -0.572909212593334 -0.300360394823797
0.358362555503845 0.182562485337257 0.00676251947879791
0.0174375027418137 0.523487508296967 0.00676251947879791
-0.323487520217896 0.182562485337257 0.00676251947879791
0.0174375027418137 0.182562485337257 0.347687542438507
0.0174375027418137 -0.499287545681 0.00676251947879791
-0.323487520217896 -0.158362522721291 0.00676251947879791
0.0174375027418137 -0.158362522721291 0.347687542438507
0.0174375027418137 0.182562485337257 -0.334162473678589
-0.323487520217896 0.182562485337257 -0.334162473678589
0.0174375027418137 -0.158362522721291 -0.334162473678589

T	18 113 0 117
T	74 70 123 40
T	74 121 41 40
T	26 68 123 2
T	71 27 123 2
T	118 42 117 7
T	11 119 54 3
T	120 26 25 123
T	86 8 118 85
T	38 120 57 37
T	124 87 117 19
T	21 92 125 124
T	51 119 59 118
T	120 119 118 124
T	16 121 17 116
T	65 121 64 41
T	118 96 1 35
T	32 126 31 107
T	38 120 45 2
T	87 84 117 18
T	37 120 118 43
T	8 42 49 118
T	69 75 74 123
T	10 11 119 53
T	46 29 48 117
T	71 2 123 39
T	86 118 1 35
T	126 20 124 19
T	81 20 124 82
T	120 42 47 117
T	99 101 100 122
T	123 73 28 72
T	121 110 16 15
T	124 120 117 118
T	117 113 17 116
T	65 121 14 62
T	120 42 118 43
T	50 120 55 57
T	4 121 105 14
T	119 55 53 52
T	115 126 32 107
T	121 103 105 14
T	121 110 15 111
T	84 117 0 6
T	44 120 43 47
T	115 126 114 20
T	121 4 105 30
T	121 65 4 41
T	126 114 20 19
T	114 126 108 19
T	5 115 20 126
T	76 121 4 41
T	67 25 123 122
T	104 126 31 32
T	123 69 73 72
T	2 68 123 39
T	120 51 55 57
T	121 126 109 31
T	19 87 117 18
T	124 118 78 35
T	33 5 124 92
T	120 38 58 2
T	126 124 117 19
T	26 67 25 123
T	71 70 39 123
T	121 75 17 117
T	55 119 53 59
T	115 126 107 114
T	126 21 106 102
T	51 56 36 118
T	126 108 19 117
T	126 5 21 124
T	42 120 118 117
T	123 120 28 117
T	22 125 101 102
T	121 16 17 75
T	76 121 74 75
T	48 29 28 117
T	69 70 123 74
T	101 125 100 122
T	87 124 117 83
T	73 29 117 28
T	27 120 28 123
T	120 51 118 119
T	37 51 36 118
T	55 50 52 119
T	22 97 23 125
T	54 119 52 24
T	115 5 32 126
T	123 73 117 28
T	19 108 18 117
T	126 104 103 98
T	126 121 109 112
T	79 7 117 6
T	121 104 126 31
T	75 73 17 117
T	126 109 107 112
T	124 85 117 83
T	77 117 0 17
T	120 27 45 2
T	118 85 7 117
T	108 126 116 113
T	80 81 124 82
T	123 40 39 66
T	80 124 83 78
T	51 120 55 119
T	126 108 116 112
T	42 36 49 118
T	11 119 94 89
T	119 10 9 95
T	63 62 13 122
T	125 119 124 118
T	104 126 32 102
T	125 97 89 93
T	119 125 94 89
T	119 120 122 124
T	71 123 28 72
T	126 104 98 102
T	5 126 21 106
T	120 51 37 118
T	121 117 17 116
T	54 119 53 52
T	91 125 90 93
T	125 88 118 124
T	50 120 57 58
T	9 96 118 95
T	125 88 93 95
T	26 120 58 2
T	121 74 123 40
T	51 55 59 119
T	125 126 122 101
T	75 121 74 123
T	60 67 66 123
T	121 76 4 15
T	119 9 118 95
T	36 37 118 43
T	125 119 118 95
T	27 120 123 2
T	96 88 118 95
T	8 49 1 118
T	88 96 118 35
T	88 125 118 95
T	125 88 124 90
T	92 125 124 90
T	95 125 89 93
T	68 123 39 66
T	119 125 124 122
T	85 79 7 117
T	104 121 30 31
T	5 92 21 124
T	126 121 117 123
T	120 26 123 2
T	110 126 116 112
T	86 8 1 118
T	68 26 123 67
T	120 48 28 117
T	75 123 73 117
T	87 81 124 83
T	14 121 13 62
T	103 121 13 14
T	75 121 123 117
T	104 121 105 30
T	13 99 12 122
T	121 104 103 126
T	121 104 105 103
T	16 121 15 75
T	121 76 15 75
T	18 84 117 0
T	63 60 122 61
T	120 50 26 58
T	70 123 40 39
T	126 121 123 122
T	50 120 25 119
T	9 96 1 118
T	86 85 118 78
T	120 44 48 47
T	69 75 123 73
T	118 86 78 35
T	9 119 118 59
T	108 113 18 117
T	120 45 44 43
T	81 80 124 83
T	85 124 118 78
T	120 51 57 37
T	70 71 72 123
T	120 38 45 43
T	42 36 118 43
T	124 120 123 117
T	73 117 77 17
T	123 64 40 66
T	84 79 117 6
T	68 67 123 66
T	20 81 124 19
T	20 5 124 82
T	114 126 112 108
T	125 22 100 23
T	79 87 117 83
T	49 36 1 118
T	25 67 61 122
T	121 109 30 31
T	64 121 122 123
T	119 25 52 24
T	121 65 14 4
T	119 25 24 122
T	110 121 109 111
T	36 56 1 118
T	85 79 117 83
T	22 125 100 101
T	126 113 117 116
T	110 121 116 126
T	33 80 124 82
T	97 22 91 125
T	125 126 101 102
T	32 126 106 102
T	126 98 101 102
T	108 126 113 117
T	126 124 123 117
T	63 13 12 122
T	11 10 119 89
T	121 64 122 62
T	12 99 100 122
T	117 29 0 6
T	119 11 54 53
T	10 119 89 95
T	125 119 94 23
T	29 117 0 77
T	124 80 34 78
T	81 87 124 19
T	5 33 124 82
T	92 125 90 91
T	109 121 30 111
T	4 121 15 111
T	121 4 30 111
T	109 126 107 31
T	124 88 34 90
T	71 27 28 123
T	121 126 117 116
T	98 99 122 101
T	120 50 55 119
T	124 35 78 34
T	33 80 34 124
T	33 124 34 90
T	125 126 124 122
T	121 126 103 122
T	125 97 23 94
T	64 60 66 123
T	126 124 122 123
T	126 98 122 101
T	121 110 109 112
T	110 121 126 112
T	24 3 122 61
T	121 76 74 41
T	119 3 122 24
T	97 125 91 93
T	124 88 35 34
T	3 12 100 122
T	121 110 116 16
T	61 3 122 12
T	67 60 61 122
T	48 46 117 47
T	124 88 118 35
T	119 11 94 3
T	56 9 118 59
T	121 103 13 122
T	114 126 107 112
T	56 51 59 118
T	33 92 124 90
T	60 64 122 123
T	24 25 61 122
T	125 23 100 122
T	64 60 122 62
T	60 67 123 122
T	88 125 93 90
T	126 21 125 124
T	126 5 124 20
T	126 98 103 122
T	97 125 89 94
T	63 61 122 12
T	62 121 13 122
T	119 125 89 95
T	119 3 94 23
T	120 25 122 123
T	23 3 100 122
T	65 121 62 64
T	103 99 13 122
T	120 50 25 26
T	48 120 47 117
T	3 119 54 24
T	124 120 122 123
T	29 46 6 117
T	7 46 117 6
T	56 9 1 118
T	119 3 23 122
T	85 124 117 118
T	8 85 7 118
T	120 38 57 58
T	27 120 45 44
T	38 120 37 43
T	125 119 23 122
T	69 70 72 123
T	119 50 52 25
T	10 119 9 59
T	119 10 53 59
T	42 120 47 43
T	117 113 0 17
T	98 99 103 122
T	60 63 122 62
T	120 119 122 25
T	87 79 117 84
T	124 85 83 78
T	8 42 118 7
T	46 42 117 47
T	21 22 125 91
T	92 21 125 91
T	29 73 117 77
T	120 44 28 48
T	42 46 117 7
T	21 126 125 102
T	22 21 125 102
T	126 5 32 106
T	64 121 123 40
T	121 64 41 40
T	120 27 28 44

domain
boundary
1 2 230
t	37 38 43 
t	8 42 7 
t	28 44 27 
t	27 45 2 
t	45 38 2 
t	45 27 44 
t	43 45 44 
t	45 43 38 
t	7 42 46 
t	47 42 43 
t	44 47 43 
t	42 47 46 
t	48 28 29 
t	28 48 44 
t	48 47 44 
t	46 47 48 
t	42 36 43 
t	37 43 36 
t	7 46 6 
t	49 8 1 
t	49 36 42 
t	36 49 1 
t	8 49 42 
t	46 48 29 
t	6 29 0 
t	6 46 29 
t	24 25 52 
t	10 11 53 
t	54 11 3 
t	24 54 3 
t	11 54 53 
t	52 54 24 
t	54 52 53 
t	50 55 52 
t	55 53 52 
t	9 56 1 
t	56 36 1 
t	25 50 52 
t	50 25 26 
t	26 58 50 
t	38 58 2 
t	58 26 2 
t	50 57 55 
t	37 57 38 
t	57 50 58 
t	57 58 38 
t	51 55 57 
t	36 56 51 
t	57 37 51 
t	36 51 37 
t	10 59 9 
t	59 10 53 
t	59 56 9 
t	51 56 59 
t	59 55 51 
t	53 55 59 
t	12 61 3 
t	61 24 3 
t	60 63 62 
t	63 60 61 
t	63 13 62 
t	63 12 13 
t	61 12 63 
t	13 14 62 
t	40 64 41 
t	65 14 4 
t	41 65 4 
t	14 65 62 
t	64 65 41 
t	64 62 65 
t	60 62 64 
t	60 64 66 
t	40 39 66 
t	64 40 66 
t	25 67 26 
t	67 60 66 
t	60 67 61 
t	61 25 24 
t	67 25 61 
t	68 39 2 
t	39 68 66 
t	26 68 2 
t	67 68 26 
t	67 66 68 
t	39 40 70 
t	71 27 2 
t	39 71 2 
t	71 39 70 
t	72 70 69 
t	72 73 28 
t	73 29 28 
t	70 72 71 
t	28 27 71 
t	28 71 72 
t	73 72 69 
t	41 74 40 
t	70 40 74 
t	69 70 74 
t	73 75 17 
t	75 16 17 
t	75 15 16 
t	69 75 73 
t	75 69 74 
t	15 76 4 
t	76 41 4 
t	76 15 75 
t	74 76 75 
t	76 74 41 
t	17 77 73 
t	29 77 0 
t	77 29 73 
t	77 17 0 
t	33 34 80 
t	19 20 81 
t	82 20 5 
t	33 82 5 
t	20 82 81 
t	80 82 33 
t	82 80 81 
t	78 83 80 
t	83 81 80 
t	84 6 0 
t	18 84 0 
t	34 78 80 
t	78 34 35 
t	86 35 1 
t	35 86 78 
t	8 86 1 
t	78 85 83 
t	7 85 8 
t	85 78 86 
t	85 86 8 
t	79 83 85 
t	6 84 79 
t	85 7 79 
t	6 79 7 
t	19 87 18 
t	87 19 81 
t	87 84 18 
t	79 84 87 
t	87 83 79 
t	81 83 87 
t	34 33 90 
t	21 22 91 
t	21 92 5 
t	92 33 5 
t	92 21 91 
t	92 90 33 
t	90 92 91 
t	93 88 90 
t	91 93 90 
t	11 94 3 
t	94 23 3 
t	88 34 90 
t	34 88 35 
t	35 96 1 
t	96 35 88 
t	96 9 1 
t	95 88 93 
t	95 10 9 
t	88 95 96 
t	96 95 9 
t	93 89 95 
t	94 11 89 
t	10 95 89 
t	89 11 10 
t	97 22 23 
t	22 97 91 
t	94 97 23 
t	94 89 97 
t	93 97 89 
t	93 91 97 
t	13 12 99 
t	100 12 3 
t	23 100 3 
t	12 100 99 
t	99 101 98 
t	102 101 22 
t	21 102 22 
t	101 99 100 
t	23 22 100 
t	100 22 101 
t	101 102 98 
t	103 14 13 
t	13 99 103 
t	99 98 103 
t	104 102 32 
t	31 104 32 
t	30 104 31 
t	104 98 102 
t	98 104 103 
t	14 105 4 
t	105 30 4 
t	30 105 104 
t	105 103 104 
t	103 105 14 
t	106 21 5 
t	106 32 102 
t	32 106 5 
t	21 106 102 
t	30 31 109 
t	16 15 110 
t	111 15 4 
t	30 111 4 
t	15 111 110 
t	109 111 30 
t	111 109 110 
t	107 112 109 
t	112 110 109 
t	17 113 0 
t	113 18 0 
t	31 107 109 
t	107 31 32 
t	115 32 5 
t	32 115 107 
t	20 115 5 
t	107 114 112 
t	19 114 20 
t	114 107 115 
t	114 115 20 
t	108 112 114 
t	18 113 108 
t	114 19 108 
t	18 108 19 
t	16 116 17 
t	116 16 110 
t	116 113 17 
t	108 113 116 
t	116 112 108 
t	110 112 116 

