#!geo

mesh
4
header
 dimension 3
 nodes	622
 quadrangles	620
 edges	1240
end header

1 0 0
0 1 0
0 0 1
-1 0 0
0 -1 0
0 0 -1
0.98078528040354 0.195090322014572 0
0.923879532512616 0.382683432361881 0
0.831469612303739 0.555570233017816 0
0.707106781187053 0.707106781186042 0
0.555570233018998 0.831469612302949 0
0.382683432362906 0.923879532512191 0
0.195090322014999 0.980785280403455 0
-0.195090322014572 0.98078528040354 0
-0.382683432361881 0.923879532512616 0
-0.555570233017816 0.831469612303739 0
-0.707106781186042 0.707106781187053 0
-0.831469612302949 0.555570233018998 0
-0.923879532512191 0.382683432362906 0
-0.980785280403455 0.195090322014999 0
-0.98078528040354 -0.195090322014572 0
-0.923879532512616 -0.382683432361881 0
-0.831469612303739 -0.555570233017816 0
-0.707106781187053 -0.707106781186042 0
-0.555570233018998 -0.831469612302949 0
-0.382683432362906 -0.923879532512191 0
-0.195090322014999 -0.980785280403455 0
0.195090322014572 -0.98078528040354 0
0.382683432361881 -0.923879532512616 0
0.555570233017816 -0.831469612303739 0
0.707106781186042 -0.707106781187053 0
0.831469612302949 -0.555570233018998 0
0.923879532512191 -0.382683432362906 0
0.980785280403455 -0.195090322014999 0
0.98078528040354 0 -0.195090322014572
0.923879532512616 0 -0.382683432361881
0.831469612303739 0 -0.555570233017816
0.707106781187053 0 -0.707106781186042
0.555570233018998 0 -0.831469612302949
0.382683432362906 0 -0.923879532512191
0.195090322014999 0 -0.980785280403455
-0.195090322014572 0 -0.98078528040354
-0.382683432361881 0 -0.923879532512616
-0.555570233017816 0 -0.831469612303739
-0.707106781186042 0 -0.707106781187053
-0.831469612302949 0 -0.555570233018998
-0.923879532512191 0 -0.382683432362906
-0.980785280403455 0 -0.195090322014999
-0.98078528040354 0 0.195090322014572
-0.923879532512616 0 0.382683432361881
-0.831469612303739 0 0.555570233017816
-0.707106781187053 0 0.707106781186042
-0.555570233018998 0 0.831469612302949
-0.382683432362906 0 0.923879532512191
-0.195090322014999 0 0.980785280403455
0.195090322014572 0 0.98078528040354
0.382683432361881 0 0.923879532512616
0.555570233017816 0 0.831469612303739
0.707106781186042 0 0.707106781187053
0.831469612302949 0 0.555570233018998
0.923879532512191 0 0.382683432362906
0.980785280403455 0 0.195090322014999
0 -0.98078528040354 -0.195090322014572
0 -0.923879532512616 -0.382683432361881
0 -0.831469612303739 -0.555570233017816
0 -0.707106781187053 -0.707106781186042
0 -0.555570233018998 -0.831469612302949
0 -0.382683432362906 -0.923879532512191
0 -0.195090322014999 -0.980785280403455
0 0.195090322014572 -0.98078528040354
0 0.382683432361881 -0.923879532512616
0 0.555570233017816 -0.831469612303739
0 0.707106781186042 -0.707106781187053
0 0.831469612302949 -0.555570233018998
0 0.923879532512191 -0.382683432362906
0 0.980785280403455 -0.195090322014999
0 0.98078528040354 0.195090322014572
0 0.923879532512616 0.382683432361881
0 0.831469612303739 0.555570233017816
0 0.707106781187053 0.707106781186042
0 0.555570233018998 0.831469612302949
0 0.382683432362906 0.923879532512191
0 0.195090322014999 0.980785280403455
0 -0.195090322014572 0.98078528040354
0 -0.382683432361881 0.923879532512616
0 -0.555570233017816 0.831469612303739
0 -0.707106781186042 0.707106781187053
0 -0.831469612302949 0.555570233018998
0 -0.923879532512191 0.382683432362906
0 -0.980785280403455 0.195090322014999
0.831331565600272 0.413441539331461 0.37142148778959
0.529928455622569 0.737507465425725 0.418638949887372
0.632363718785581 0.410605371028995 0.656901329307387
0.704634147199492 0.659328047678997 0.26225415944127
0.270566226233394 0.751920697510912 0.601173171288043
0.178805869424874 0.937190897765802 0.299502390982352
0.335095432883489 0.41224531673698 0.847210038708852
0.270190564130266 0.94178462418549 0.200096928269188
0.118866621107088 0.977752075536195 0.172834039388215
0.0883859022638099 0.929811012369898 0.357266586118373
0.888516206700123 0.420180243261421 0.184357027541663
0.886766766276469 0.206424900561208 0.413561921186985
0.949146020915053 0.225628051349358 0.219576440961714
0.745557640431784 0.408272437816963 0.526742272190854
0.762111665538665 0.568912612369732 0.30906997385144
0.636352776056452 0.699061741696659 0.326140806556433
0.58272150271342 0.592985782833475 0.555700919229746
0.688110684777177 0.577137964656187 0.439790240055413
0.673852662347681 0.203020221789152 0.710426195316323
0.794836794066264 0.200679673647589 0.57267978782489
0.707631999416971 0.689974042832996 0.15229173850814
0.805462536965429 0.571268077198617 0.15774309975086
0.470700061615779 0.84690816134665 0.24736211965323
0.594944589660034 0.783530628663529 0.179222457243475
0.134243876653995 0.734795670268192 0.664871344348683
0.22807296128185 0.865411537259181 0.446145262790976
0.113374961744014 0.85133019780239 0.512233357327778
0.403804818656615 0.755368059212438 0.51610150508532
0.346837657985572 0.870150726512896 0.350059069518508
0.492786805732044 0.414274593656437 0.765204368222766
0.360647008216247 0.20674730241171 0.909499471363316
0.527270479016342 0.205923804114782 0.824367168715964
0.305519652849211 0.598343260371502 0.740704451512814
0.451483882288359 0.602111123367484 0.658501707781368
0.167554881320747 0.402096337928047 0.900135488007469
0.15164372179009 0.582766792178464 0.79836523444829
0.181845735861585 0.203542345775421 0.962030478636305
0.193286241630478 0.974440663287754 0.114480664427173
0.065324411558702 0.968880887800068 0.238752060745582
-0.56368974883255 0.646096614030058 0.514599876020185
-0.334403362274796 0.883076957806379 0.329164818731804
-0.806938074947292 0.526995760423389 0.266695353720556
-0.247959288050402 0.754405100817078 0.607773917942118
-0.604526611879495 0.763600946615184 0.226850545200784
-0.779467571940295 0.318748582319406 0.539286237134669
-0.936139564056193 0.248983429697203 0.24829411661354
-0.382839402836964 0.405131843706376 0.830242242270597
-0.196300333585239 0.199694960624308 0.95999380296728
-0.374080875419724 0.91549163876578 0.148116703970756
-0.189322891855054 0.964015537291242 0.186630347159079
-0.150232067471177 0.915559045157256 0.373070986186368
-0.39899707500715 0.705584715662484 0.585620647825219
-0.28640311577289 0.824450473772492 0.488113379832897
-0.452564100445185 0.777343542464888 0.436947081437076
-0.597094023210081 0.715839223103538 0.362012339725213
-0.706159706686534 0.661149715881481 0.253415709541113
-0.704738122853713 0.585232334603713 0.40105771745587
-0.491118227353076 0.825825539644923 0.277155308142824
-0.65886611676562 0.743021984251898 0.1175320003087
-0.779151421576065 0.614072083942118 0.125851253386613
-0.523517730416759 0.843432502744636 0.120626693783777
-0.124369946834529 0.841876771755537 0.525143425649462
-0.130830291554 0.733234309456098 0.667271220905214
-0.877160049262614 0.462174317581027 0.130327081399534
-0.744566489223423 0.172782871451687 0.644799831310785
-0.864419763375444 0.153096310362692 0.478894552526202
-0.943968769155792 0.303701190160106 0.12918417067828
-0.978914354479435 0.143548629294156 0.145328860251089
-0.940829912930472 0.135374071920253 0.310665311206403
-0.887383087942426 0.378526250683892 0.263190297649743
-0.879960235939282 0.280769839882972 0.383194833182513
-0.803046737046779 0.433978585844326 0.408385265585184
-0.67366087662702 0.490359950308143 0.552926887061852
-0.304495358730035 0.62791716115381 0.716242008849249
-0.160138279207551 0.581222061038532 0.797832468187755
-0.499078893996415 0.547601894527102 0.6716043646952
-0.159061341601736 0.415904465512241 0.895389839776414
-0.619292243651164 0.361948250948914 0.696757189118655
-0.411322547076909 0.172851522622468 0.894950341300152
-0.579339596308528 0.190543630244653 0.792501581779027
-0.268642239247787 0.126351341957658 0.954917109322811
-0.127057897858435 0.128312666397895 0.983560954000136
-0.122507796755888 0.270850314247209 0.954794190915616
-0.264574747569275 0.272404451419827 0.925092437432777
-0.259596809566114 0.95900183238521 0.11368809060277
-0.116186911241969 0.95910800260462 0.258093860825527
-0.383490369429009 0.773798777940896 0.504153337599166
-0.673946529510794 0.654620698178136 0.342443888654954
-0.514967960816862 0.776117397354822 0.36393651212169
-0.720317970848303 0.673803227872893 0.164715606367624
-0.582754880738829 0.809264118318467 0.0740833029589466
-0.466838381051628 0.865623729589897 0.180990289098536
-0.0781708875326335 0.806628623990228 0.585866516624728
-0.185558797907856 0.864769087887394 0.466628714454433
-0.833804808964282 0.545462900468601 0.0850868072054508
-0.820233182868347 0.107971969621729 0.561746899855856
-0.972924954438282 0.213500759833129 0.0885124769845695
-0.972225872823 0.0888575006621194 0.216520661345833
-0.906890886803037 0.383786736323732 0.173944417718936
-0.898714224787524 0.190073492528214 0.395202238863455
-0.860356019031307 0.366225656588805 0.354494413175582
-0.732525756030255 0.505136128228196 0.456337056035262
-0.198640492361497 0.646435585925223 0.736656628317356
-0.403899031706081 0.626029614517955 0.667047594953606
-0.109681189260842 0.516572603944699 0.849189485083347
-0.596947076840698 0.469857809683529 0.65029825936315
-0.514574001779557 0.126313338431078 0.848091113753097
-0.646898908031638 0.245736204699101 0.721897167529805
-0.197032095013311 0.0782266995291203 0.977271168619768
-0.186817172952533 0.324683338890935 0.927189340607763
-0.0768717142361315 0.197783081749839 0.977226991094666
-0.320075785554276 0.195313598411433 0.927040500613318
-0.577138398777771 -0.47014514655211 0.667738578958656
-0.855171869963998 -0.320923166822703 0.407049620831129
-0.323876787261509 -0.814565614057353 0.481234544758096
-0.261655308207383 -0.551661024973696 0.791963770138426
-0.695867712438611 -0.650046223356118 0.305299908755149
-0.185508761872492 -0.956337690975108 0.225842246023488
-0.339757041486066 -0.243895249065438 0.908339286964922
-0.869407473848793 -0.462388114587019 0.174149004890992
-0.957584490780043 -0.188086629865604 0.218301082643501
-0.905824416766433 -0.11578949905748 0.407522904752321
-0.65062055684381 -0.254324681863334 0.71555003123986
-0.795161563075441 -0.184694134519857 0.577586500258951
-0.733168295163133 -0.394238182946685 0.554112358709389
-0.713181501649938 -0.69167268639322 0.113846566052409
-0.768050908325588 -0.495200668283998 0.406046918903865
-0.643570340331664 -0.584917521091179 0.49364836732834
-0.523670625962867 -0.756678429942232 0.391416439567652
-0.471748754542155 -0.654618515631317 0.590701034010079
-0.15414142815854 -0.773686335947095 0.614532239751507
-0.142724022026669 -0.882646002556912 0.447845830288542
-0.406274736312488 -0.526832367565827 0.746584553228369
-0.297680273928404 -0.675141197041285 0.674959864415338
-0.114086860835813 -0.950202450257358 0.289999123635819
-0.122968648679669 -0.98230072845021 0.141293985463229
-0.257110743718184 -0.95438695543401 0.151788025753296
-0.239463300893046 -0.918028398863148 0.316039849395881
-0.367651229441287 -0.0899385873909676 0.925604464114358
-0.177760277742312 -0.14177034961381 0.973808221174659
-0.161759066157709 -0.313083693294589 0.935848601809505
-0.301730033886554 -0.414072724589582 0.858779811943538
-0.143241937535464 -0.480585267047387 0.865170242454095
-0.141821655424614 -0.634692461090014 0.759639452561623
-0.550658358143248 -0.814761671953899 0.181490469506995
-0.383508538440683 -0.887597794746471 0.255130076048068
-0.526904022822644 -0.147121933221366 0.837094551110281
-0.474829338720058 -0.347409672746879 0.808605972258787
-0.949966597575657 -0.279991639491105 0.138449071161972
-0.954119043432221 -0.102394177745497 0.281375697820206
-0.731273716751871 -0.277774128663877 0.622960901367757
-0.847022524131267 -0.104061967697508 0.521271474850888
-0.804663164594527 -0.586257948700263 0.0939085146857302
-0.72229748981674 -0.495017258894172 0.48295367231375
-0.549217730629303 -0.671606872910589 0.497296785251682
-0.103233649875352 -0.834750440435661 0.540864600178162
-0.396999286215672 -0.623889089782714 0.673167119216576
-0.0732823448520154 -0.975297727658279 0.208384357276614
-0.192164335643932 -0.977216120192932 0.0901194903536402
-0.167586377425009 -0.918341498912638 0.358557802141373
-0.246157730451687 -0.0797234558925454 0.965945413736938
-0.202283942846631 -0.40249475645164 0.892792908515382
-0.113249381980573 -0.216640081027927 0.969660586377126
-0.199541366216418 -0.701894646008046 0.683759569639595
-0.0923016101446555 -0.558845912348817 0.824118716578942
-0.48561113843767 -0.82944546930143 0.276047162058589
-0.608627654237326 -0.786959072311893 0.101330138673421
-0.29821573640751 -0.923853211051812 0.239922110252854
-0.554554711109505 -0.244281405483159 0.795484548763473
-0.486912108226486 -0.0762480285599456 0.870116565181448
-0.397126607924308 -0.431873210319452 0.809799967576502
0.56213951349232 -0.551946563524201 0.615917330803772
0.312285516733461 -0.513058639098343 0.799530230125836
0.357700683244613 -0.21500691407083 0.908747626191164
0.603410955401562 -0.356292688489767 0.713407834993496
0.79723505547552 -0.370772787964667 0.476386194201566
0.31496178437652 -0.752849053004621 0.577942365441749
0.64933804409853 -0.689303832498206 0.321279210328929
0.311463764781415 -0.907324231133416 0.282405847719808
0.955970430413667 -0.195548215972878 0.218818261131317
0.150962688650572 -0.610715398032567 0.777326809804804
0.158747822728664 -0.459091634369595 0.874090384360086
0.375160857603473 -0.0805604256423851 0.923452407405246
0.185278259160578 -0.12979040154119 0.974077213751663
0.172088997532395 -0.294932521550933 0.939893709235201
0.329955867775189 -0.368898555586457 0.868932092287394
0.465489475865174 -0.423884084003649 0.776943904787954
0.449748689374935 -0.543419449933445 0.708816914188396
0.581425841107143 -0.457147954042329 0.673022837211163
0.687892007763002 -0.381807999027752 0.617274037631756
0.720105890460508 -0.200456489860734 0.664277579176652
0.878894317675516 -0.157110528680498 0.450400999261129
0.508334695002455 -0.282443260334605 0.813524211408806
0.546519704009833 -0.126970582215116 0.827764872642563
0.676580353708907 -0.483820156223818 0.555118979505016
0.149922446274722 -0.846686657444595 0.510533999071856
0.150447555136784 -0.740126745068726 0.655421951407898
0.308073406455285 -0.642279289918739 0.701831952803887
0.459216789999458 -0.648883221085169 0.606688144911971
0.725658047047593 -0.538925466068889 0.427761312857421
0.848970832934926 -0.48082418231168 0.21921822581638
0.707038990966415 -0.698239857569558 0.112057871452375
0.541533788382928 -0.829728683206332 0.135245954853817
0.60891058028736 -0.615819194084877 0.499994625381877
0.4831068411535 -0.74015676869974 0.467734687380192
0.367846607357218 -0.91954598660544 0.138289739220281
0.194083648453795 -0.967806824788877 0.160254445476359
0.161307436952347 -0.923786042904459 0.347274038359889
0.464321323677801 -0.832831471992461 0.30132614827951
0.320757496706229 -0.844046446332376 0.429767640406349
0.951020899609597 -0.273773990027699 0.143551561782051
0.914420523633716 -0.265123456223715 0.305850713449277
0.950829196892558 -0.119240953446208 0.285841622857644
0.982426482135119 -0.126001747634752 0.137701731262183
0.101230503528689 -0.543652315599134 0.833183380114503
0.252571225320915 -0.0704652873413683 0.965009025563901
0.119103885524459 -0.205636951642218 0.971353544582133
0.220049113353336 -0.376131691146758 0.90005740851764
0.499498856065457 -0.475519219968703 0.724142502709001
0.824683952579503 -0.118970629329664 0.55293975052871
0.433998584205067 -0.361300679327008 0.825292098608632
0.49440605213551 -0.0697729006696702 0.866426221869998
0.58906010067154 -0.197496665533746 0.783583604282202
0.656607959831183 -0.435215620001417 0.615997849990659
0.0957329668862555 -0.809000273947981 0.579960132942987
0.203444075318127 -0.667409386432719 0.716362491424177
0.404035798296826 -0.614284395485961 0.677797724367008
0.798286681209245 -0.592350451473739 0.108900492390012
0.606556120647633 -0.790728463492168 0.0826932254069753
0.68288734319979 -0.545687149057299 0.485685507145571
0.521984487737423 -0.672306925245983 0.524914843405854
0.257536355669258 -0.961625701254896 0.0946099159423973
0.126696800745218 -0.963389433533797 0.236281019204581
0.467528049741186 -0.863311522880666 0.190028253601056
0.431186137574265 -0.806495870754714 0.404528027730321
0.208460942992176 -0.87519345000955 0.436555220226713
0.915857822996906 -0.332127404605052 0.225601053112968
0.975865397124398 -0.074419697227872 0.205300841108244
0.917995844598442 -0.180259458827884 0.353256502846121
0.97677511109825 -0.196171740505027 0.0861802214329367
0.550436933133185 0.560005642420001 -0.61920341011714
0.517717562754442 0.301280805088862 -0.80074865076415
0.219075749963261 0.345496085387975 -0.912490148308254
0.341392336648065 0.572677903816289 -0.745312881250925
0.322633767066392 0.825878035275728 -0.462420720986476
0.753715390249262 0.314129065143708 -0.577266005350516
0.697484894766773 0.650242032624072 -0.30116460711893
0.907819499099831 0.313058453304538 -0.279030754342067
0.179143399288323 0.959215582517682 -0.218662088041545
0.461586733737237 0.154471595313818 -0.873542336397609
0.612372821248603 0.14783348338039 -0.776623968846988
0.297173211698088 0.167962496601547 -0.939934403022051
0.131084990677038 0.182445094871447 -0.974438562751162
0.0824633739970613 0.370622265376897 -0.925115629721992
0.373838184866246 0.31750721525452 -0.871455208141664
0.426754120709974 0.446580790671901 -0.786413706556489
0.44891804007697 0.572685357940229 -0.685932995338702
0.544738918275287 0.441753238949274 -0.71282086585207
0.329009427801712 0.695908683142709 -0.638328991307907
0.205682629915161 0.640888342603076 -0.73956526964607
0.166763603204288 0.782526794010597 -0.599868083249826
0.14174882682785 0.886971960740937 -0.439531581291159
0.285343203185153 0.478925279136152 -0.83018662564534
0.129379870496866 0.527599406305845 -0.839583060557998
0.466954396325246 0.688208811310894 -0.555267704613343
0.84689539232682 0.149587218600404 -0.510286055548254
0.740739202661037 0.149003200020003 -0.655059905676489
0.644408830936233 0.30305525163584 -0.702064650204905
0.650141492407333 0.456606221658256 -0.60731112141417
0.514330330314434 0.768343623602305 -0.380936198579664
0.379565151657026 0.891687970252887 -0.246622909223505
0.547480586884749 0.817219868225544 -0.180046366144267
0.705718296134272 0.700393396207551 -0.106821238759865
0.83075431355426 0.540880577685142 -0.131512247315519
0.613959251147691 0.61549915713508 -0.494180964319927
0.741366684737396 0.48511407736815 -0.463723808641234
0.919804757287468 0.368413205551491 -0.135021918393335
0.968246848044161 0.194118326075454 -0.157531319851679
0.924292854941505 0.162676918073235 -0.3452809560782
0.833568246505448 0.46650701112854 -0.295863460038156
0.8444060164681 0.322679944794527 -0.427616805773435
0.253259609620957 0.956500758962144 -0.144795953809089
0.234675317804846 0.92257701474258 -0.306233811134342
0.108952423427198 0.952463488354954 -0.284504257929565
0.118817745380193 0.983500934622996 -0.136412077832067
0.545572272134667 0.0977716030862435 -0.832341041585577
0.206508943416774 0.117206664523002 -0.971399327815436
0.0721519918497039 0.250105563576043 -0.965526435236462
0.379651556068133 0.214347980335601 -0.899955354059908
0.475861141834103 0.485270588938003 -0.733531614318093
0.230902419930577 0.714699685296592 -0.660218473164116
0.104994628123233 0.839869653167334 -0.532536471759302
0.36443164842665 0.413569979371596 -0.834355706990497
0.0717329007599908 0.488967295162883 -0.869347672228811
0.200809916519286 0.553208696828152 -0.808477281796598
0.414585641751406 0.659027120641445 -0.627536453054817
0.809088608753079 0.0952557647998392 -0.579915478719447
0.668497830407697 0.201080334869175 -0.716014908831585
0.615508800957559 0.400002838960813 -0.679077789923274
0.481501996540175 0.833975999991184 -0.269517826435525
0.605923464271461 0.7890186840758 -0.101519809025455
0.792972254664558 0.603948252406842 -0.0802590290679393
0.535408645796748 0.69771637661798 -0.475951089719489
0.67334492077222 0.5225784587697 -0.522989839385181
0.962109605871644 0.256818134791173 -0.0915944972795416
0.963980654482841 0.127537230673175 -0.233399984093938
0.863533389421868 0.469036956235322 -0.185241515430761
0.80715115692435 0.433079192794529 -0.401185022955896
0.875452581043139 0.209046671781195 -0.435754824829413
0.293795013971439 0.927818064796444 -0.229865457176375
0.068523686745831 0.976481297517462 -0.204423041640057
0.163841048134503 0.921837653189107 -0.351242725346715
0.189477110379198 0.97812079890071 -0.0858960266845134
-0.448364173129673 0.320296582807926 -0.834493659230141
-0.333744470869908 0.712429935686705 -0.617299129192
-0.560659810689544 0.770780035418854 -0.30258670439607
-0.20337735143545 0.492359641594293 -0.846297605013887
-0.719389192710071 0.39793202550749 -0.569323539375863
-0.262002318676185 0.926116315083011 -0.271409940763724
-0.913266848481472 0.280305360776673 -0.295588511590994
-0.794106785752594 0.555983585087932 -0.245513066728543
-0.21002326394419 0.246849615195246 -0.946020875076331
-0.151043501016021 0.728097088769394 -0.668625822210268
-0.158022685777302 0.846415212633846 -0.508537234233374
-0.432078884009161 0.149540669562595 -0.889351126462529
-0.583470932365087 0.165387707282492 -0.795115449079476
-0.119021120124696 0.597711497684382 -0.792827180727399
-0.262369909276726 0.591090472522433 -0.762741164484604
-0.315321094100056 0.430268776159263 -0.845837684120277
-0.420061201701909 0.510885416414713 -0.750029784821585
-0.104293270357906 0.453428743214564 -0.885169638309467
-0.838824906813018 0.163501401006529 -0.519268781633399
-0.721860243642705 0.179155511172404 -0.668446775341649
-0.583870560326369 0.365058418341529 -0.72513965550241
-0.633087696258003 0.760880825105624 -0.142338817029364
-0.479596622437211 0.864799142434183 -0.148692713311448
-0.314426843229582 0.938329859270938 -0.143780511395885
-0.148989922298771 0.976518137116038 -0.155609546419325
-0.14264061152442 0.933521176255613 -0.32892532499988
-0.403321489570582 0.865786539833281 -0.296218573850596
-0.299201642212983 0.854073792159119 -0.425483648151132
-0.470341945990804 0.750939150081773 -0.463539476976933
-0.637062535635797 0.622479495520796 -0.45461038631499
-0.540101239135489 0.572652837102693 -0.616732826791752
-0.928153707423485 0.338469698699498 -0.1548191152872
-0.96918472618263 0.149614600656917 -0.19569475671201
-0.922659601013312 0.14031055818534 -0.359182694348816
-0.845077984795093 0.324605687608079 -0.424822724424142
-0.759803566600535 0.637147579291197 -0.129388957737798
-0.858262254340732 0.496656134363002 -0.129300374993901
-0.766562262129275 0.508950389409227 -0.391601582478218
-0.697676236250849 0.658318334316308 -0.282603680219934
-0.85872899471501 0.428131230213386 -0.28158153943702
-0.281337604683134 0.134401719094644 -0.950150161866829
-0.129080411926766 0.144816924806567 -0.981002704148355
-0.107033522175806 0.302083556614877 -0.947253582708214
-0.320046236862765 0.277621820310072 -0.905812635790484
-0.210459017382656 0.369412847071265 -0.905119412244058
-0.108386113865835 0.805654016270576 -0.582386518034332
-0.524628352503346 0.102745152936794 -0.845108587873547
-0.179227117100189 0.645368701268013 -0.74254756071217
-0.335296594623813 0.515845517326114 -0.788339771854895
-0.0713178534557616 0.537634944906063 -0.840156193689196
-0.80063643735673 0.111605494572672 -0.588664173156404
-0.634871109282334 0.238880446398113 -0.734761734800648
-0.558124272895121 0.824054688270115 -0.097114194355592
-0.217871739036287 0.971288690264448 -0.0955520041321883
-0.0919735935884285 0.969993613383627 -0.225062764751093
-0.402268756679106 0.894515612110457 -0.194991453890934
-0.392131623887487 0.828351166881806 -0.400083908540338
-0.201310310961513 0.880975765782631 -0.428200722563947
-0.554716550767115 0.65130228476336 -0.517778796559942
-0.51715306068568 0.488007619660816 -0.703136739885222
-0.964974547661354 0.228207854411167 -0.129403622634053
-0.87039774718478 0.20868549058511 -0.445935116036977
-0.962605130058034 0.0880294647378561 -0.256207292878093
-0.819456382719602 0.567495512127489 -0.0802501123691622
-0.702888468994768 0.599178723070996 -0.383317959366897
-0.69761215892836 0.692549409415715 -0.183609888713156
-0.8852926936494 0.426056935274265 -0.186366130173085
-0.823743431099605 0.424253551190608 -0.37610594786896
-0.201000777158642 0.0882833586366244 -0.975604805323067
-0.0744429268347264 0.213902524382393 -0.974014353439989
-0.347111813827295 0.18840184761267 -0.918704594806001
-0.139398222165553 0.376403733703353 -0.915908491559751
-0.285471788766766 0.358474189281744 -0.888820630632018
-0.620329472290626 -0.548911541546464 -0.560256606712245
-0.801249200052795 -0.516283719896626 -0.302408399328554
-0.912618401050151 -0.218608661425714 -0.345453191061139
-0.745411108753644 -0.341836889756817 -0.572284736602375
-0.462498095350353 -0.322795012857027 -0.825771694520905
-0.577392397965166 -0.753609738072787 -0.314150252990349
-0.301248977497294 -0.697341946316277 -0.65035625888021
-0.278775107083156 -0.907808649836023 -0.313317562472442
-0.218240877255051 -0.180017127449931 -0.959147930884293
-0.873382355769964 -0.462160386063438 -0.15365883698441
-0.776498553893303 -0.612738419198703 -0.146974914320383
-0.939750018286461 -0.297766018619452 -0.167944339845429
-0.974325312597666 -0.131496123483212 -0.182753809099425
-0.924925394922193 -0.082919117784988 -0.370995193680167
-0.871318930453783 -0.37479492635109 -0.316752402697054
-0.786611251311091 -0.427347758891027 -0.445664259596409
-0.686398636691913 -0.448888657349795 -0.572150229266913
-0.713341906824246 -0.544094546918512 -0.441706291535322
-0.638468725064915 -0.329097392730585 -0.695738882923696
-0.739427375306721 -0.206190468000107 -0.640884270015196
-0.599799288580227 -0.166878832125678 -0.782554962163696
-0.438917715458649 -0.142072026975499 -0.887224198389355
-0.829944681415271 -0.286317521457734 -0.478763096632149
-0.839296671866327 -0.130109702165165 -0.527875517519612
-0.555727427110233 -0.466852828552841 -0.687906580306986
-0.510179477235039 -0.846929362713231 -0.149758323916711
-0.655010228250108 -0.740837329971461 -0.148733491213307
-0.702359992408838 -0.644566673856016 -0.302033514725848
-0.607939619310462 -0.64992250059594 -0.456081311272201
-0.381086825556339 -0.51432701388576 -0.768271146259411
-0.24661992385656 -0.379852449845985 -0.89156644704867
-0.180065698971519 -0.547466645185349 -0.817224948507691
-0.106842983493729 -0.705716403542537 -0.700391986425563
-0.131511847050107 -0.830744948619296 -0.540895058610256
-0.494627291653083 -0.613782075963638 -0.615317321044762
-0.46393778679749 -0.741209407779853 -0.485149815830209
-0.34438659015378 -0.924527733265133 -0.163237088144476
-0.157350547486352 -0.968266779744874 -0.194165518175181
-0.134923023606455 -0.919796257864079 -0.368470652454341
-0.295847069716129 -0.833488593594843 -0.466659700089551
-0.42750042266649 -0.844371244742796 -0.322925052715757
-0.284446555166307 -0.109837710924949 -0.952379039307769
-0.135884227628995 -0.119618972549149 -0.983476882335298
-0.144875352279495 -0.254076305048285 -0.956272117921935
-0.305892780544697 -0.235592221776899 -0.922456455258924
-0.832179719890457 -0.545947966958765 -0.0970449956289939
-0.971285768654683 -0.206888226092836 -0.117478583210055
-0.965408787349992 -0.0725006601768785 -0.250458634471512
-0.899752577981542 -0.38047319544629 -0.213741540095645
-0.733999114137754 -0.475963373777411 -0.484462761486802
-0.660224339317386 -0.231105219011403 -0.714628714451506
-0.53289604750332 -0.104393667532103 -0.839716478779913
-0.834309780132619 -0.365332759813875 -0.412867006894277
-0.869522074609227 -0.0717097488142385 -0.488660489186781
-0.808358189960922 -0.201616532827778 -0.553089333122244
-0.62793773981494 -0.414551262052687 -0.658666414846415
-0.579877375254167 -0.809123719772824 -0.0951894729963711
-0.716006698728315 -0.668729555713189 -0.200337686648869
-0.679864412513055 -0.615656166918532 -0.398436776331528
-0.269562778436219 -0.481537620491254 -0.833940902302655
-0.101528472944769 -0.605900429366368 -0.789035258321929
-0.079706232897457 -0.792905648853007 -0.604108887912012
-0.477472177140544 -0.534538104408445 -0.697344488034497
-0.523430061097628 -0.673134555795875 -0.522408691479022
-0.2331411188433 -0.964028244672398 -0.127650938807157
-0.0915091104599515 -0.962114103913202 -0.256831722639794
-0.185191275387821 -0.863505216649101 -0.469108657285304
-0.401071691644513 -0.806459509671715 -0.43447043331102
-0.435480989467778 -0.875505210382559 -0.20939659597318
-0.20426830744989 -0.0691193029865455 -0.976471699808147
-0.229773835614864 -0.294435332296934 -0.92763776311771
-0.0837015158259275 -0.190070453629817 -0.97819593073443
-0.350958213785142 -0.165076941778744 -0.92172552067832
0.645725355138618 -0.565091448967057 -0.513527428707969
0.882539035675423 -0.335128765268227 -0.329869006120443
0.527038240243761 -0.806908986688132 -0.266699419801941
0.754023281369209 -0.248296334558877 -0.60811004053365
0.763561089094591 -0.604546450908947 -0.226931822171504
0.318844817572395 -0.779413003593204 -0.539308216270665
0.248822045023356 -0.936187595196306 -0.248274800394549
0.405144289702977 -0.383131003521408 -0.83010164357249
0.199722084226552 -0.197029716708979 -0.959838725935655
0.915212316471882 -0.150649573075499 -0.373752755053847
0.963580203802207 -0.190392462249814 -0.18778685033556
0.915013897517941 -0.375068869085311 -0.148569548670289
0.705882853504412 -0.397849699332462 -0.586041819215607
0.824092502943792 -0.286864804043791 -0.488446650917738
0.777047191722549 -0.452790777293519 -0.43723926382935
0.715976170641358 -0.596886176021642 -0.362084266363505
0.661246241181108 -0.7060581058208 -0.253446956439804
0.58530787273723 -0.704775595132895 -0.400881596755067
0.825556968071151 -0.491424570693253 -0.277412299273339
0.743027600240013 -0.658856388491176 -0.117551029880353
0.614086746041682 -0.779138813630707 -0.125857766665682
0.843313469427586 -0.523693085693639 -0.120697739327141
0.841718085984085 -0.124542487088322 -0.525356862177647
0.73306958254966 -0.130944905930065 -0.667429710719739
0.462088500243203 -0.877213520064436 -0.130271478686431
0.172822314518297 -0.744558415172762 -0.644798584055489
0.153108544323424 -0.864411189639469 -0.478906116980395
0.303269721693185 -0.944142967329813 -0.128924524997352
0.143373639229387 -0.978912989929921 -0.145510679060281
0.135294379572017 -0.940833337550164 -0.310689655139082
0.378426781818631 -0.887437828726581 -0.263148762010095
0.280743990398204 -0.879965248460621 -0.383202261680343
0.434097324874564 -0.802968224193693 -0.408413446732565
0.490625931736771 -0.673427085115889 -0.552975728345957
0.62754409653706 -0.304777420599935 -0.716448972917077
0.5811405821659 -0.160251014664539 -0.797869184803414
0.547495344588131 -0.499120925266226 -0.671659995545149
0.415782873176209 -0.159140063859894 -0.895432321534132
0.362044497821798 -0.619281023599053 -0.696717155958622
0.172940326644588 -0.411544501728117 -0.89483113854929
0.190576659025467 -0.57941930824806 -0.792435361568393
0.270349215745443 -0.122569286618033 -0.95492830700727
0.127724821391181 -0.127872349083084 -0.983531917296315
0.126572410721338 -0.269347169057079 -0.954689230778857
0.272379702596607 -0.264924296874167 -0.924999683534601
0.958745245429481 -0.11669497530586 -0.259210025085315
0.958611721347709 -0.260785710449017 -0.114255769746583
0.773297139671462 -0.38395028954425 -0.504572798449165
0.654793443348589 -0.673757022423204 -0.34248652715562
0.775970784991435 -0.515041287561297 -0.364145318447153
0.673835544033792 -0.720282880001597 -0.164736857968361
0.809241502027495 -0.582783834464544 -0.0741025889094697
0.865320378249152 -0.467310629385143 -0.181222014806163
0.806521327306633 -0.0782509814629575 -0.586003526012968
0.864467234880209 -0.185892283236277 -0.467055091880786
0.545454192887936 -0.833811257648538 -0.0850794339398977
0.107994485343306 -0.820225170228764 -0.561754271241999
0.213313741031983 -0.972969250408618 -0.0884764694494047
0.0887638610416866 -0.972223885106006 -0.216567989791555
0.383620712614151 -0.906977951687907 -0.173856676620196
0.19004262689963 -0.898715786426078 -0.395213531131773
0.366219509950381 -0.860356388693257 -0.354499865961046
0.505360196966907 -0.732344911825346 -0.456379229857248
0.646240167715311 -0.198813667906644 -0.736781359077978
0.625606272541761 -0.404203279995543 -0.667260444052582
0.515915381475148 -0.110889920995003 -0.849432012923385
0.470071104100644 -0.596776987604969 -0.650300226168452
0.128103916973 -0.513427991563735 -0.848516990952452
0.245784689397585 -0.646921008240527 -0.721860856089865
0.197277078098056 -0.0759164009132839 -0.977403936215456
0.196840859374465 -0.321672150474558 -0.926164512216807
0.0767561280801397 -0.197578305538103 -0.977277498964771
0.325782579178358 -0.188250663857498 -0.926513571763041

q	7 100 102 6
q	100 90 101 102
q	102 101 60 61
q	6 102 61 0
q	92 103 107 106
q	103 90 104 107
q	107 104 93 105
q	106 107 105 91
q	58 59 109 108
q	59 60 101 109
q	109 101 90 103
q	108 109 103 92
q	9 110 111 8
q	110 93 104 111
q	111 104 90 100
q	8 111 100 7
q	93 110 113 105
q	110 9 10 113
q	113 10 11 112
q	105 113 112 91
q	79 114 116 78
q	114 94 115 116
q	116 115 95 99
q	78 116 99 77
q	11 97 118 112
q	97 95 115 118
q	118 115 94 117
q	112 118 117 91
q	92 119 121 108
q	119 96 120 121
q	121 120 56 57
q	108 121 57 58
q	92 106 123 119
q	106 91 117 123
q	123 117 94 122
q	119 123 122 96
q	81 124 125 80
q	124 96 122 125
q	125 122 94 114
q	80 125 114 79
q	2 55 126 82
q	55 56 120 126
q	126 120 96 124
q	82 126 124 81
q	95 97 127 98
q	97 11 12 127
q	98 127 12 1
q	77 99 128 76
q	99 95 98 128
q	76 128 98 1
q	14 138 174 13
q	138 130 139 174
q	13 174 139 1
q	130 140 175 139
q	140 77 76 175
q	139 175 76 1
q	129 141 176 143
q	141 132 142 176
q	143 176 142 130
q	129 144 177 146
q	144 133 145 177
q	146 177 145 131
q	133 144 178 147
q	144 129 143 178
q	147 178 143 130
q	133 148 179 145
q	148 16 149 179
q	145 179 149 131
q	133 150 180 148
q	150 14 15 180
q	148 180 15 16
q	130 138 181 147
q	138 14 150 181
q	147 181 150 133
q	77 151 182 78
q	151 132 152 182
q	78 182 152 79
q	77 140 183 151
q	140 130 142 183
q	151 183 142 132
q	16 17 184 149
q	17 18 153 184
q	149 184 153 131
q	51 154 185 50
q	154 134 155 185
q	50 185 155 49
q	135 156 186 157
q	156 18 19 186
q	157 186 19 3
q	49 158 187 48
q	158 135 157 187
q	48 187 157 3
q	18 156 188 153
q	156 135 159 188
q	153 188 159 131
q	134 160 189 155
q	160 135 158 189
q	155 189 158 49
q	134 161 190 160
q	161 131 159 190
q	160 190 159 135
q	129 146 191 162
q	146 131 161 191
q	162 191 161 134
q	132 163 192 152
q	163 136 164 192
q	152 192 164 79
q	132 141 193 163
q	141 129 165 193
q	163 193 165 136
q	136 166 194 164
q	166 81 80 194
q	164 194 80 79
q	129 162 195 165
q	162 134 167 195
q	165 195 167 136
q	51 52 196 169
q	52 53 168 196
q	169 196 168 136
q	134 154 197 167
q	154 51 169 197
q	167 197 169 136
q	137 170 198 171
q	170 53 54 198
q	171 198 54 2
q	137 172 199 173
q	172 81 166 199
q	173 199 166 136
q	81 172 200 82
q	172 137 171 200
q	82 200 171 2
q	53 170 201 168
q	170 137 173 201
q	168 201 173 136
q	21 209 238 20
q	209 203 210 238
q	20 238 210 3
q	203 211 239 210
q	211 49 48 239
q	210 239 48 3
q	202 212 240 214
q	212 51 213 240
q	214 240 213 203
q	49 211 241 50
q	211 203 213 241
q	50 241 213 51
q	23 215 242 22
q	215 206 209 242
q	22 242 209 21
q	206 217 243 216
q	217 202 214 243
q	216 243 214 203
q	202 217 244 219
q	217 206 218 244
q	219 244 218 204
q	88 87 245 221
q	87 86 220 245
q	221 245 220 204
q	205 222 246 223
q	222 202 219 246
q	223 246 219 204
q	88 224 247 89
q	224 207 225 247
q	89 247 225 4
q	207 226 248 225
q	226 25 26 248
q	225 248 26 4
q	204 227 249 221
q	227 207 224 249
q	221 249 224 88
q	53 228 250 54
q	228 208 229 250
q	54 250 229 2
q	84 230 251 232
q	230 208 231 251
q	232 251 231 205
q	208 230 252 229
q	230 84 83 252
q	229 252 83 2
q	86 233 253 220
q	233 205 223 253
q	220 253 223 204
q	205 233 254 232
q	233 86 85 254
q	232 254 85 84
q	206 234 255 218
q	234 25 235 255
q	218 255 235 204
q	206 215 256 234
q	215 23 24 256
q	234 256 24 25
q	204 235 257 227
q	235 25 226 257
q	227 257 226 207
q	208 236 258 237
q	236 51 212 258
q	237 258 212 202
q	208 228 259 236
q	228 53 52 259
q	236 259 52 51
q	205 231 260 222
q	231 208 237 260
q	222 260 237 202
q	209 206 216 203
q	84 85 304 271
q	85 86 270 304
q	271 304 270 262
q	263 272 305 273
q	272 56 55 305
q	273 305 55 2
q	84 274 306 83
q	274 263 273 306
q	83 306 273 2
q	263 274 307 275
q	274 84 271 307
q	275 307 271 262
q	264 276 308 278
q	276 262 277 308
q	278 308 277 261
q	265 281 309 280
q	281 60 59 309
q	280 309 59 58
q	262 276 310 275
q	276 264 282 310
q	275 310 282 263
q	58 57 311 283
q	57 56 272 311
q	283 311 272 263
q	58 283 312 280
q	283 263 282 312
q	280 312 282 264
q	265 279 313 284
q	279 264 278 313
q	284 313 278 261
q	88 285 314 87
q	285 266 286 314
q	87 314 286 86
q	262 270 315 287
q	270 86 286 315
q	287 315 286 266
q	261 277 316 288
q	277 262 287 316
q	288 316 287 266
q	267 291 317 290
q	291 30 31 317
q	290 317 31 32
q	267 292 318 291
q	292 28 29 318
q	291 318 29 30
q	261 293 319 284
q	293 267 289 319
q	284 319 289 265
q	267 293 320 294
q	293 261 288 320
q	294 320 288 266
q	28 295 321 27
q	295 268 296 321
q	27 321 296 4
q	268 297 322 296
q	297 88 89 322
q	296 322 89 4
q	268 295 323 298
q	295 28 292 323
q	298 323 292 267
q	266 299 324 294
q	299 268 298 324
q	294 324 298 267
q	268 299 325 297
q	299 266 285 325
q	297 325 285 88
q	32 300 326 290
q	300 269 301 326
q	290 326 301 265
q	60 302 327 61
q	302 269 303 327
q	61 327 303 0
q	269 302 328 301
q	302 60 281 328
q	301 328 281 265
q	269 300 329 303
q	300 32 33 329
q	303 329 33 0
q	280 264 279 265
q	290 265 289 267
q	37 38 375 340
q	38 39 339 375
q	340 375 339 331
q	332 341 376 342
q	341 39 40 376
q	342 376 40 5
q	70 343 377 69
q	343 332 342 377
q	69 377 342 5
q	39 341 378 339
q	341 332 344 378
q	339 378 344 331
q	331 345 379 347
q	345 333 346 379
q	347 379 346 330
q	334 348 380 350
q	348 333 349 380
q	350 380 349 72
q	74 351 381 73
q	351 334 350 381
q	73 381 350 72
q	333 345 382 352
q	345 331 344 382
q	352 382 344 332
q	70 71 383 343
q	71 72 353 383
q	343 383 353 332
q	332 353 384 352
q	353 72 349 384
q	352 384 349 333
q	333 348 385 346
q	348 334 354 385
q	346 385 354 330
q	335 355 386 356
q	355 35 36 386
q	356 386 36 37
q	37 340 387 356
q	340 331 357 387
q	356 387 357 335
q	331 347 388 357
q	347 330 358 388
q	357 388 358 335
q	336 359 389 361
q	359 334 360 389
q	361 389 360 11
q	9 362 390 10
q	362 336 361 390
q	10 390 361 11
q	7 363 391 8
q	363 336 362 391
q	8 391 362 9
q	336 364 392 359
q	364 330 354 392
q	359 392 354 334
q	330 364 393 358
q	364 336 365 393
q	358 393 365 335
q	337 366 394 367
q	366 7 6 394
q	367 394 6 0
q	35 368 395 34
q	368 337 367 395
q	34 395 367 0
q	7 366 396 363
q	366 337 369 396
q	363 396 369 336
q	337 370 397 369
q	370 335 365 397
q	369 397 365 336
q	335 370 398 355
q	370 337 368 398
q	355 398 368 35
q	338 371 399 372
q	371 11 360 399
q	372 399 360 334
q	338 373 400 374
q	373 74 75 400
q	374 400 75 1
q	74 373 401 351
q	373 338 372 401
q	351 401 372 334
q	11 371 402 12
q	371 338 374 402
q	12 402 374 1
q	74 73 448 413
q	73 72 412 448
q	413 448 412 404
q	403 414 449 415
q	414 42 43 449
q	415 449 43 44
q	72 416 450 412
q	416 406 417 450
q	412 450 417 404
q	406 418 451 417
q	418 403 419 451
q	417 451 419 404
q	70 420 452 71
q	420 406 416 452
q	71 452 416 72
q	46 421 453 45
q	421 407 422 453
q	45 453 422 44
q	403 415 454 423
q	415 44 422 454
q	423 454 422 407
q	405 424 455 425
q	424 16 15 455
q	425 455 15 14
q	408 426 456 427
q	426 14 13 456
q	427 456 13 1
q	74 428 457 75
q	428 408 427 457
q	75 457 427 1
q	14 426 458 425
q	426 408 429 458
q	425 458 429 405
q	408 430 459 429
q	430 404 431 459
q	429 459 431 405
q	404 430 460 413
q	430 408 428 460
q	413 460 428 74
q	407 432 461 433
q	432 405 431 461
q	433 461 431 404
q	403 423 462 419
q	423 407 433 462
q	419 462 433 404
q	18 434 463 19
q	434 409 435 463
q	19 463 435 3
q	46 436 464 421
q	436 409 437 464
q	421 464 437 407
q	409 436 465 435
q	436 46 47 465
q	435 465 47 3
q	16 438 466 17
q	438 410 439 466
q	17 466 439 18
q	407 440 467 432
q	440 410 441 467
q	432 467 441 405
q	410 438 468 441
q	438 16 424 468
q	441 468 424 405
q	410 442 469 439
q	442 409 434 469
q	439 469 434 18
q	407 437 470 440
q	437 409 442 470
q	440 470 442 410
q	42 443 471 41
q	443 411 444 471
q	41 471 444 5
q	411 445 472 444
q	445 70 69 472
q	444 472 69 5
q	411 443 473 446
q	443 42 414 473
q	446 473 414 403
q	411 447 474 445
q	447 406 420 474
q	445 474 420 70
q	403 418 475 446
q	418 406 447 475
q	446 475 447 411
q	23 22 521 486
q	22 21 485 521
q	486 521 485 477
q	478 487 522 488
q	487 21 20 522
q	488 522 20 3
q	46 489 523 47
q	489 478 488 523
q	47 523 488 3
q	21 487 524 485
q	487 478 490 524
q	485 524 490 477
q	477 491 525 493
q	491 479 492 525
q	493 525 492 476
q	480 494 526 496
q	494 479 495 526
q	496 526 495 44
q	42 497 527 43
q	497 480 496 527
q	43 527 496 44
q	479 491 528 498
q	491 477 490 528
q	498 528 490 478
q	46 45 529 489
q	45 44 499 529
q	489 529 499 478
q	478 499 530 498
q	499 44 495 530
q	498 530 495 479
q	479 494 531 492
q	494 480 500 531
q	492 531 500 476
q	481 501 532 502
q	501 25 24 532
q	502 532 24 23
q	23 486 533 502
q	486 477 503 533
q	502 533 503 481
q	477 493 534 503
q	493 476 504 534
q	503 534 504 481
q	482 505 535 507
q	505 480 506 535
q	507 535 506 67
q	65 508 536 66
q	508 482 507 536
q	66 536 507 67
q	63 509 537 64
q	509 482 508 537
q	64 537 508 65
q	482 510 538 505
q	510 476 500 538
q	505 538 500 480
q	476 510 539 504
q	510 482 511 539
q	504 539 511 481
q	25 512 540 26
q	512 483 513 540
q	26 540 513 4
q	483 514 541 513
q	514 63 62 541
q	513 541 62 4
q	63 514 542 509
q	514 483 515 542
q	509 542 515 482
q	483 516 543 515
q	516 481 511 543
q	515 543 511 482
q	481 516 544 501
q	516 483 512 544
q	501 544 512 25
q	484 517 545 518
q	517 42 41 545
q	518 545 41 5
q	484 519 546 520
q	519 67 506 546
q	520 546 506 480
q	67 519 547 68
q	519 484 518 547
q	68 547 518 5
q	42 517 548 497
q	517 484 520 548
q	497 548 520 480
q	550 558 594 559
q	558 35 34 594
q	559 594 34 0
q	32 560 595 33
q	560 550 559 595
q	33 595 559 0
q	549 561 596 563
q	561 552 562 596
q	563 596 562 550
q	549 564 597 566
q	564 553 565 597
q	566 597 565 551
q	553 564 598 567
q	564 549 563 598
q	567 598 563 550
q	553 568 599 565
q	568 30 569 599
q	565 599 569 551
q	553 570 600 568
q	570 32 31 600
q	568 600 31 30
q	550 560 601 567
q	560 32 570 601
q	567 601 570 553
q	35 571 602 36
q	571 552 572 602
q	36 602 572 37
q	35 558 603 571
q	558 550 562 603
q	571 603 562 552
q	30 29 604 569
q	29 28 573 604
q	569 604 573 551
q	65 574 605 64
q	574 554 575 605
q	64 605 575 63
q	555 576 606 577
q	576 28 27 606
q	577 606 27 4
q	63 578 607 62
q	578 555 577 607
q	62 607 577 4
q	28 576 608 573
q	576 555 579 608
q	573 608 579 551
q	554 580 609 575
q	580 555 578 609
q	575 609 578 63
q	554 581 610 580
q	581 551 579 610
q	580 610 579 555
q	549 566 611 582
q	566 551 581 611
q	582 611 581 554
q	552 583 612 572
q	583 556 584 612
q	572 612 584 37
q	552 561 613 583
q	561 549 585 613
q	583 613 585 556
q	556 586 614 584
q	586 39 38 614
q	584 614 38 37
q	549 582 615 585
q	582 554 587 615
q	585 615 587 556
q	65 66 616 589
q	66 67 588 616
q	589 616 588 556
q	554 574 617 587
q	574 65 589 617
q	587 617 589 556
q	39 590 618 40
q	590 557 591 618
q	40 618 591 5
q	67 592 619 588
q	592 557 593 619
q	588 619 593 556
q	557 592 620 591
q	592 67 68 620
q	591 620 68 5
q	557 590 621 593
q	590 39 586 621
q	593 621 586 556

e	7 100
e	100 102
e	102 6
e	6 7
e	100 90
e	90 101
e	101 102
e	101 60
e	60 61
e	61 102
e	61 0
e	0 6
e	92 103
e	103 107
e	107 106
e	106 92
e	103 90
e	90 104
e	104 107
e	104 93
e	93 105
e	105 107
e	105 91
e	91 106
e	58 59
e	59 109
e	109 108
e	108 58
e	59 60
e	101 109
e	103 109
e	92 108
e	9 110
e	110 111
e	111 8
e	8 9
e	110 93
e	104 111
e	100 111
e	7 8
e	110 113
e	113 105
e	9 10
e	10 113
e	10 11
e	11 112
e	112 113
e	112 91
e	79 114
e	114 116
e	116 78
e	78 79
e	114 94
e	94 115
e	115 116
e	115 95
e	95 99
e	99 116
e	99 77
e	77 78
e	11 97
e	97 118
e	118 112
e	97 95
e	115 118
e	94 117
e	117 118
e	117 91
e	92 119
e	119 121
e	121 108
e	119 96
e	96 120
e	120 121
e	120 56
e	56 57
e	57 121
e	57 58
e	106 123
e	123 119
e	117 123
e	94 122
e	122 123
e	122 96
e	81 124
e	124 125
e	125 80
e	80 81
e	124 96
e	122 125
e	114 125
e	79 80
e	2 55
e	55 126
e	126 82
e	82 2
e	55 56
e	120 126
e	124 126
e	81 82
e	97 127
e	127 98
e	98 95
e	11 12
e	12 127
e	12 1
e	1 98
e	99 128
e	128 76
e	76 77
e	98 128
e	1 76
e	14 138
e	138 174
e	174 13
e	13 14
e	138 130
e	130 139
e	139 174
e	139 1
e	1 13
e	130 140
e	140 175
e	175 139
e	140 77
e	76 175
e	129 141
e	141 176
e	176 143
e	143 129
e	141 132
e	132 142
e	142 176
e	142 130
e	130 143
e	129 144
e	144 177
e	177 146
e	146 129
e	144 133
e	133 145
e	145 177
e	145 131
e	131 146
e	144 178
e	178 147
e	147 133
e	143 178
e	130 147
e	133 148
e	148 179
e	179 145
e	148 16
e	16 149
e	149 179
e	149 131
e	133 150
e	150 180
e	180 148
e	150 14
e	14 15
e	15 180
e	15 16
e	138 181
e	181 147
e	150 181
e	77 151
e	151 182
e	182 78
e	151 132
e	132 152
e	152 182
e	152 79
e	140 183
e	183 151
e	142 183
e	16 17
e	17 184
e	184 149
e	17 18
e	18 153
e	153 184
e	153 131
e	51 154
e	154 185
e	185 50
e	50 51
e	154 134
e	134 155
e	155 185
e	155 49
e	49 50
e	135 156
e	156 186
e	186 157
e	157 135
e	156 18
e	18 19
e	19 186
e	19 3
e	3 157
e	49 158
e	158 187
e	187 48
e	48 49
e	158 135
e	157 187
e	3 48
e	156 188
e	188 153
e	135 159
e	159 188
e	159 131
e	134 160
e	160 189
e	189 155
e	160 135
e	158 189
e	134 161
e	161 190
e	190 160
e	161 131
e	159 190
e	146 191
e	191 162
e	162 129
e	161 191
e	134 162
e	132 163
e	163 192
e	192 152
e	163 136
e	136 164
e	164 192
e	164 79
e	141 193
e	193 163
e	129 165
e	165 193
e	165 136
e	136 166
e	166 194
e	194 164
e	166 81
e	80 194
e	162 195
e	195 165
e	134 167
e	167 195
e	167 136
e	51 52
e	52 196
e	196 169
e	169 51
e	52 53
e	53 168
e	168 196
e	168 136
e	136 169
e	154 197
e	197 167
e	169 197
e	137 170
e	170 198
e	198 171
e	171 137
e	170 53
e	53 54
e	54 198
e	54 2
e	2 171
e	137 172
e	172 199
e	199 173
e	173 137
e	172 81
e	166 199
e	136 173
e	172 200
e	200 82
e	171 200
e	170 201
e	201 168
e	173 201
e	21 209
e	209 238
e	238 20
e	20 21
e	209 203
e	203 210
e	210 238
e	210 3
e	3 20
e	203 211
e	211 239
e	239 210
e	211 49
e	48 239
e	202 212
e	212 240
e	240 214
e	214 202
e	212 51
e	51 213
e	213 240
e	213 203
e	203 214
e	211 241
e	241 50
e	213 241
e	23 215
e	215 242
e	242 22
e	22 23
e	215 206
e	206 209
e	209 242
e	21 22
e	206 217
e	217 243
e	243 216
e	216 206
e	217 202
e	214 243
e	203 216
e	217 244
e	244 219
e	219 202
e	206 218
e	218 244
e	218 204
e	204 219
e	88 87
e	87 245
e	245 221
e	221 88
e	87 86
e	86 220
e	220 245
e	220 204
e	204 221
e	205 222
e	222 246
e	246 223
e	223 205
e	222 202
e	219 246
e	204 223
e	88 224
e	224 247
e	247 89
e	89 88
e	224 207
e	207 225
e	225 247
e	225 4
e	4 89
e	207 226
e	226 248
e	248 225
e	226 25
e	25 26
e	26 248
e	26 4
e	204 227
e	227 249
e	249 221
e	227 207
e	224 249
e	53 228
e	228 250
e	250 54
e	228 208
e	208 229
e	229 250
e	229 2
e	84 230
e	230 251
e	251 232
e	232 84
e	230 208
e	208 231
e	231 251
e	231 205
e	205 232
e	230 252
e	252 229
e	84 83
e	83 252
e	83 2
e	86 233
e	233 253
e	253 220
e	233 205
e	223 253
e	233 254
e	254 232
e	86 85
e	85 254
e	85 84
e	206 234
e	234 255
e	255 218
e	234 25
e	25 235
e	235 255
e	235 204
e	215 256
e	256 234
e	23 24
e	24 256
e	24 25
e	235 257
e	257 227
e	226 257
e	208 236
e	236 258
e	258 237
e	237 208
e	236 51
e	212 258
e	202 237
e	228 259
e	259 236
e	52 259
e	231 260
e	260 222
e	237 260
e	85 304
e	304 271
e	271 84
e	86 270
e	270 304
e	270 262
e	262 271
e	263 272
e	272 305
e	305 273
e	273 263
e	272 56
e	55 305
e	2 273
e	84 274
e	274 306
e	306 83
e	274 263
e	273 306
e	274 307
e	307 275
e	275 263
e	271 307
e	262 275
e	264 276
e	276 308
e	308 278
e	278 264
e	276 262
e	262 277
e	277 308
e	277 261
e	261 278
e	265 281
e	281 309
e	309 280
e	280 265
e	281 60
e	59 309
e	58 280
e	276 310
e	310 275
e	264 282
e	282 310
e	282 263
e	57 311
e	311 283
e	283 58
e	272 311
e	263 283
e	283 312
e	312 280
e	282 312
e	264 280
e	265 279
e	279 313
e	313 284
e	284 265
e	279 264
e	278 313
e	261 284
e	88 285
e	285 314
e	314 87
e	285 266
e	266 286
e	286 314
e	286 86
e	270 315
e	315 287
e	287 262
e	286 315
e	266 287
e	277 316
e	316 288
e	288 261
e	287 316
e	266 288
e	267 291
e	291 317
e	317 290
e	290 267
e	291 30
e	30 31
e	31 317
e	31 32
e	32 290
e	267 292
e	292 318
e	318 291
e	292 28
e	28 29
e	29 318
e	29 30
e	261 293
e	293 319
e	319 284
e	293 267
e	267 289
e	289 319
e	289 265
e	293 320
e	320 294
e	294 267
e	288 320
e	266 294
e	28 295
e	295 321
e	321 27
e	27 28
e	295 268
e	268 296
e	296 321
e	296 4
e	4 27
e	268 297
e	297 322
e	322 296
e	297 88
e	89 322
e	295 323
e	323 298
e	298 268
e	292 323
e	267 298
e	266 299
e	299 324
e	324 294
e	299 268
e	298 324
e	299 325
e	325 297
e	285 325
e	32 300
e	300 326
e	326 290
e	300 269
e	269 301
e	301 326
e	301 265
e	265 290
e	60 302
e	302 327
e	327 61
e	302 269
e	269 303
e	303 327
e	303 0
e	302 328
e	328 301
e	281 328
e	300 329
e	329 303
e	32 33
e	33 329
e	33 0
e	37 38
e	38 375
e	375 340
e	340 37
e	38 39
e	39 339
e	339 375
e	339 331
e	331 340
e	332 341
e	341 376
e	376 342
e	342 332
e	341 39
e	39 40
e	40 376
e	40 5
e	5 342
e	70 343
e	343 377
e	377 69
e	69 70
e	343 332
e	342 377
e	5 69
e	341 378
e	378 339
e	332 344
e	344 378
e	344 331
e	331 345
e	345 379
e	379 347
e	347 331
e	345 333
e	333 346
e	346 379
e	346 330
e	330 347
e	334 348
e	348 380
e	380 350
e	350 334
e	348 333
e	333 349
e	349 380
e	349 72
e	72 350
e	74 351
e	351 381
e	381 73
e	73 74
e	351 334
e	350 381
e	72 73
e	345 382
e	382 352
e	352 333
e	344 382
e	332 352
e	70 71
e	71 383
e	383 343
e	71 72
e	72 353
e	353 383
e	353 332
e	353 384
e	384 352
e	349 384
e	348 385
e	385 346
e	334 354
e	354 385
e	354 330
e	335 355
e	355 386
e	386 356
e	356 335
e	355 35
e	35 36
e	36 386
e	36 37
e	37 356
e	340 387
e	387 356
e	331 357
e	357 387
e	357 335
e	347 388
e	388 357
e	330 358
e	358 388
e	358 335
e	336 359
e	359 389
e	389 361
e	361 336
e	359 334
e	334 360
e	360 389
e	360 11
e	11 361
e	9 362
e	362 390
e	390 10
e	362 336
e	361 390
e	7 363
e	363 391
e	391 8
e	363 336
e	362 391
e	336 364
e	364 392
e	392 359
e	364 330
e	354 392
e	364 393
e	393 358
e	336 365
e	365 393
e	365 335
e	337 366
e	366 394
e	394 367
e	367 337
e	366 7
e	6 394
e	0 367
e	35 368
e	368 395
e	395 34
e	34 35
e	368 337
e	367 395
e	0 34
e	366 396
e	396 363
e	337 369
e	369 396
e	369 336
e	337 370
e	370 397
e	397 369
e	370 335
e	365 397
e	370 398
e	398 355
e	368 398
e	338 371
e	371 399
e	399 372
e	372 338
e	371 11
e	360 399
e	334 372
e	338 373
e	373 400
e	400 374
e	374 338
e	373 74
e	74 75
e	75 400
e	75 1
e	1 374
e	373 401
e	401 351
e	372 401
e	371 402
e	402 12
e	374 402
e	73 448
e	448 413
e	413 74
e	72 412
e	412 448
e	412 404
e	404 413
e	403 414
e	414 449
e	449 415
e	415 403
e	414 42
e	42 43
e	43 449
e	43 44
e	44 415
e	72 416
e	416 450
e	450 412
e	416 406
e	406 417
e	417 450
e	417 404
e	406 418
e	418 451
e	451 417
e	418 403
e	403 419
e	419 451
e	419 404
e	70 420
e	420 452
e	452 71
e	420 406
e	416 452
e	46 421
e	421 453
e	453 45
e	45 46
e	421 407
e	407 422
e	422 453
e	422 44
e	44 45
e	415 454
e	454 423
e	423 403
e	422 454
e	407 423
e	405 424
e	424 455
e	455 425
e	425 405
e	424 16
e	15 455
e	14 425
e	408 426
e	426 456
e	456 427
e	427 408
e	426 14
e	13 456
e	1 427
e	74 428
e	428 457
e	457 75
e	428 408
e	427 457
e	426 458
e	458 425
e	408 429
e	429 458
e	429 405
e	408 430
e	430 459
e	459 429
e	430 404
e	404 431
e	431 459
e	431 405
e	430 460
e	460 413
e	428 460
e	407 432
e	432 461
e	461 433
e	433 407
e	432 405
e	431 461
e	404 433
e	423 462
e	462 419
e	433 462
e	18 434
e	434 463
e	463 19
e	434 409
e	409 435
e	435 463
e	435 3
e	46 436
e	436 464
e	464 421
e	436 409
e	409 437
e	437 464
e	437 407
e	436 465
e	465 435
e	46 47
e	47 465
e	47 3
e	16 438
e	438 466
e	466 17
e	438 410
e	410 439
e	439 466
e	439 18
e	407 440
e	440 467
e	467 432
e	440 410
e	410 441
e	441 467
e	441 405
e	438 468
e	468 441
e	424 468
e	410 442
e	442 469
e	469 439
e	442 409
e	434 469
e	437 470
e	470 440
e	442 470
e	42 443
e	443 471
e	471 41
e	41 42
e	443 411
e	411 444
e	444 471
e	444 5
e	5 41
e	411 445
e	445 472
e	472 444
e	445 70
e	69 472
e	443 473
e	473 446
e	446 411
e	414 473
e	403 446
e	411 447
e	447 474
e	474 445
e	447 406
e	420 474
e	418 475
e	475 446
e	447 475
e	22 521
e	521 486
e	486 23
e	21 485
e	485 521
e	485 477
e	477 486
e	478 487
e	487 522
e	522 488
e	488 478
e	487 21
e	20 522
e	3 488
e	46 489
e	489 523
e	523 47
e	489 478
e	488 523
e	487 524
e	524 485
e	478 490
e	490 524
e	490 477
e	477 491
e	491 525
e	525 493
e	493 477
e	491 479
e	479 492
e	492 525
e	492 476
e	476 493
e	480 494
e	494 526
e	526 496
e	496 480
e	494 479
e	479 495
e	495 526
e	495 44
e	44 496
e	42 497
e	497 527
e	527 43
e	497 480
e	496 527
e	491 528
e	528 498
e	498 479
e	490 528
e	478 498
e	45 529
e	529 489
e	44 499
e	499 529
e	499 478
e	499 530
e	530 498
e	495 530
e	494 531
e	531 492
e	480 500
e	500 531
e	500 476
e	481 501
e	501 532
e	532 502
e	502 481
e	501 25
e	24 532
e	23 502
e	486 533
e	533 502
e	477 503
e	503 533
e	503 481
e	493 534
e	534 503
e	476 504
e	504 534
e	504 481
e	482 505
e	505 535
e	535 507
e	507 482
e	505 480
e	480 506
e	506 535
e	506 67
e	67 507
e	65 508
e	508 536
e	536 66
e	66 65
e	508 482
e	507 536
e	67 66
e	63 509
e	509 537
e	537 64
e	64 63
e	509 482
e	508 537
e	65 64
e	482 510
e	510 538
e	538 505
e	510 476
e	500 538
e	510 539
e	539 504
e	482 511
e	511 539
e	511 481
e	25 512
e	512 540
e	540 26
e	512 483
e	483 513
e	513 540
e	513 4
e	483 514
e	514 541
e	541 513
e	514 63
e	63 62
e	62 541
e	62 4
e	514 542
e	542 509
e	483 515
e	515 542
e	515 482
e	483 516
e	516 543
e	543 515
e	516 481
e	511 543
e	516 544
e	544 501
e	512 544
e	484 517
e	517 545
e	545 518
e	518 484
e	517 42
e	41 545
e	5 518
e	484 519
e	519 546
e	546 520
e	520 484
e	519 67
e	506 546
e	480 520
e	519 547
e	547 68
e	68 67
e	518 547
e	5 68
e	517 548
e	548 497
e	520 548
e	550 558
e	558 594
e	594 559
e	559 550
e	558 35
e	34 594
e	0 559
e	32 560
e	560 595
e	595 33
e	560 550
e	559 595
e	549 561
e	561 596
e	596 563
e	563 549
e	561 552
e	552 562
e	562 596
e	562 550
e	550 563
e	549 564
e	564 597
e	597 566
e	566 549
e	564 553
e	553 565
e	565 597
e	565 551
e	551 566
e	564 598
e	598 567
e	567 553
e	563 598
e	550 567
e	553 568
e	568 599
e	599 565
e	568 30
e	30 569
e	569 599
e	569 551
e	553 570
e	570 600
e	600 568
e	570 32
e	31 600
e	560 601
e	601 567
e	570 601
e	35 571
e	571 602
e	602 36
e	571 552
e	552 572
e	572 602
e	572 37
e	558 603
e	603 571
e	562 603
e	29 604
e	604 569
e	28 573
e	573 604
e	573 551
e	65 574
e	574 605
e	605 64
e	574 554
e	554 575
e	575 605
e	575 63
e	555 576
e	576 606
e	606 577
e	577 555
e	576 28
e	27 606
e	4 577
e	63 578
e	578 607
e	607 62
e	578 555
e	577 607
e	576 608
e	608 573
e	555 579
e	579 608
e	579 551
e	554 580
e	580 609
e	609 575
e	580 555
e	578 609
e	554 581
e	581 610
e	610 580
e	581 551
e	579 610
e	566 611
e	611 582
e	582 549
e	581 611
e	554 582
e	552 583
e	583 612
e	612 572
e	583 556
e	556 584
e	584 612
e	584 37
e	561 613
e	613 583
e	549 585
e	585 613
e	585 556
e	556 586
e	586 614
e	614 584
e	586 39
e	38 614
e	582 615
e	615 585
e	554 587
e	587 615
e	587 556
e	66 616
e	616 589
e	589 65
e	67 588
e	588 616
e	588 556
e	556 589
e	574 617
e	617 587
e	589 617
e	39 590
e	590 618
e	618 40
e	590 557
e	557 591
e	591 618
e	591 5
e	67 592
e	592 619
e	619 588
e	592 557
e	557 593
e	593 619
e	593 556
e	592 620
e	620 591
e	68 620
e	590 621
e	621 593
e	586 621
