#!geo

mesh
4
header
 dimension 2
 order     3
 nodes	1123
 triangles	236
 edges	374
end header

0 0
1 0
1 1
0 1
0.0999999999997599 0
0.19999999999952 0
0.299999999999324 0
0.399999999999173 0
0.499999999999022 0
0.599999999999148 0
0.699999999999274 0
0.79999999999947 0
0.899999999999735 0
1 0.0999999999997599
1 0.19999999999952
1 0.299999999999324
1 0.399999999999173
1 0.499999999999022
1 0.599999999999148
1 0.699999999999274
1 0.79999999999947
1 0.899999999999735
0.900000000000139 1
0.800000000000278 1
0.700000000000555 1
0.600000000000971 1
0.500000000001388 1
0.400000000001249 1
0.30000000000111 1
0.200000000000833 1
0.100000000000416 1
0 0.900000000000139
0 0.800000000000278
0 0.700000000000555
0 0.600000000000971
0 0.500000000001388
0 0.400000000001249
0 0.30000000000111
0 0.200000000000833
0 0.100000000000416
0.656284844631541 0.484529133400115
0.307693766248217 0.422736830621841
0.610711940842616 0.273421076683105
0.401176733233044 0.680504132336945
0.801125309765656 0.839293767850053
0.276808035037156 0.154233995876475
0.839398274201575 0.218762081472886
0.907618781887933 0.904825733418134
0.420106940585015 0.174465785692937
0.369635397118002 0.604173840396852
0.580024131896989 0.753806681983652
0.488241944005017 0.500142752143857
0.50279255217855 0.583721105540529
0.918639059595889 0.557651347675138
0.0867505182050063 0.444790768918966
0.590152189085131 0.381284767862505
0.441165057611326 0.902451102581006
0.917105773693706 0.727022025121155
0.89968502841314 0.83162665073981
0.781948702408019 0.131395079158824
0.574949259743147 0.0845023884807894
0.906068253296398 0.327935048081946
0.272999275613253 0.318389273566325
0.326434799623241 0.0783948557260162
0.711333390694186 0.225402967734263
0.0771250413197398 0.140429051044871
0.745482493902847 0.79492939875727
0.0761706307624995 0.865401578353657
0.835253837259507 0.908836614400532
0.907515637911995 0.142622392680373
0.928348556193212 0.242530905055005
0.506160862078243 0.820542294170253
0.34088361024126 0.904825297576515
0.252688701877862 0.513522735776233
0.519279192252866 0.222855977125434
0.192620988143811 0.404540647660343
0.508779892517713 0.125929322084504
0.341847709233908 0.235928383697773
0.166302494741325 0.52294404289554
0.532084674892917 0.920147410690827
0.674052469499264 0.783773167712375
0.716250974562782 0.42018670419637
0.337245986722664 0.516769613864368
0.394396291874453 0.783840529947784
0.480409032843985 0.720746155711979
0.276086150983392 0.798636581142944
0.345626887203934 0.146596655089421
0.425881120472773 0.548175864564468
0.802459121618307 0.406834329130618
0.398953109157718 0.456394811874111
0.816977472368453 0.76757256052534
0.373182532660113 0.351783309344776
0.415028439933752 0.0841238810975624
0.674457940922131 0.0989723306839878
0.311170535833685 0.680691703715845
0.183542529780788 0.290856536868633
0.707499793827265 0.339552447921373
0.63857312007672 0.670090863979676
0.728195036573421 0.892931054221818
0.454239325671086 0.634208326520484
0.22970676777209 0.59826442564016
0.555637320314465 0.472750358428218
0.479433688822775 0.392457004591495
0.441171283926386 0.281454116141414
0.15056636293277 0.592234595652939
0.74505705306481 0.698722331510144
0.542788856203129 0.656583475539444
0.528149658985955 0.310294588480791
0.818994008127515 0.5311650852151
0.797799812138671 0.304537465113073
0.585506841630515 0.559233969773116
0.761864115182037 0.0572072185839092
0.0662468775845673 0.0599250393985716
0.303142916725551 0.581887894084893
0.108849096394611 0.364871458511099
0.23876782723875 0.0727392909650454
0.846880895395209 0.645129088597237
0.142215316744907 0.925064936005134
0.0778244928092946 0.262966827809715
0.087756727419478 0.755135357419083
0.742513345242097 0.486656333782267
0.611009414618344 0.872867491018623
0.709576259710761 0.579327784884648
0.850221409250187 0.063537448403831
0.187326669167777 0.698866806859352
0.142899088052043 0.0696173549414496
0.250090466367006 0.228803787649883
0.0790540573148722 0.545455865600725
0.599918602828776 0.17184734379868
0.906868208067176 0.451810061374524
0.178151068657825 0.174235263593725
0.0841173028058162 0.648615437588938
0.0670116919716261 0.93761987406032
0.931547409432384 0.0612319682167928
0.237370174409785 0.905940255629082
0.16782094491464 0.824840919234875
0.659801112798323 0.94144963631011
0.782735520455879 0.612792623646383
0.936525145736961 0.64596049227839
0.937378835530932 0.318623365387738
0.968689417765466 0.309311682693531
1 0.333333333332607
1 0.36666666666589
0.968689417765466 0.375978349360097
0.937378835530932 0.351956698721021
0.317623199748602 0.0522632371506775
0.308811599873963 0.0261316185753387
0.333333333332607 0
0.36666666666589 0
0.375478266540529 0.0261316185753387
0.350956533081885 0.0522632371506775
0.856730900977385 0.883099959846958
0.878207964695263 0.857363305293384
0.902329612904738 0.856026344965918
0.904974197396335 0.880426039192026
0.883497133678458 0.9061626937456
0.859375485468982 0.907499654073066
0.833978549314818 0.836738062146639
0.866831788863979 0.834182356443225
0.823877661428224 0.885655665550373
0.81250148559694 0.862474716700213
0.820248416937056 0.189639747368199
0.801098559672538 0.160517413263512
0.823804347576011 0.135137516999341
0.865659992744003 0.138879954839857
0.884809850008522 0.168002288944544
0.862104062105048 0.193382185208715
0.933123352275427 0.821084433826364
0.966561676137713 0.810542216912917
1 0.833333333332892
1 0.866666666666313
0.966561676137713 0.87720888357976
0.933123352275427 0.854417767159785
0.969206260629311 0.901608577805868
0.938412521258622 0.903217155612001
0.0514166942131598 0.160286034030192
0.0257083471065799 0.180143017015512
0 0.16666666666736
0 0.133333333333888
0.0257083471065799 0.113476350348568
0.0514166942131598 0.126952700696719
0.866666666666864 1
0.83333333333355 1
0.811751279086687 0.969612204800177
0.823502558173097 0.939224409600355
0.856835891506384 0.939224409600355
0.878417945753262 0.969612204800177
0.914459944005734 0.175925230138583
0.921404250099473 0.209228067596794
0.898698462196 0.234607963860965
0.869048368198787 0.226685022666926
1 0.133333333333037
1 0.166666666666279
0.969171879303998 0.180874130893138
0.938343758607997 0.161748261786755
0.938343758607997 0.128414928453502
0.969171879303998 0.114207464226631
0.976116185397737 0.214176968351348
0.952232370795475 0.228353936703177
0 0.866666666666864
0 0.83333333333355
0.0253902102541665 0.821800526118071
0.050780420508333 0.843601052235864
0.050780420508333 0.876934385569151
0.0253902102541665 0.888467192784645
0.905079187925335 0.936550488945422
0.902539593962737 0.968275244472711
1 0.233333333332788
1 0.266666666666056
0.976116185397737 0.280843635017885
0.952232370795475 0.261687270036445
0.913495020928669 0.299467000406299
0.920921788560941 0.270998952730652
0.883844926931457 0.291544059212259
0.861621600566516 0.255153070342573
0 0.466666666668008
0 0.433333333334629
0.0289168394016688 0.414930256307155
0.0578336788033375 0.429860512613061
0.0578336788033376 0.46319384594644
0.0289168394016688 0.481596922973914
0.533333333332397 0
0.566666666665773 0
0.591649753247148 0.0281674628269298
0.583299506495147 0.0563349256538596
0.549966173161772 0.0563349256538596
0.524983086580397 0.0281674628269298
0.944737182462471 0.718014683413862
0.972368591231235 0.709007341706568
1 0.733333333332673
1 0.766666666666071
0.972368591231235 0.775674008373365
0.944737182462471 0.75134801674726
0.905491943506662 0.796758442200259
0.911298858600184 0.761890233660707
0.73487182793213 0.194067004875783
0.758410265170075 0.162731042017304
0.796709979699112 0.220975710226678
0.754021685196649 0.223189338980471
0.966666666666703 1
0.933333333333444 1
0.938412521258622 0.936550488945422
0.969206260629311 0.968275244472711
1 0.933333333333157
1 0.966666666666578
0.289358744791432 0.452998799006638
0.271023723334647 0.483260767391436
0.232666130633178 0.477195373070936
0.212643559388494 0.440868010365639
0.230978580845279 0.410606041980842
0.269336173546748 0.416671436301342
0.505853261678149 0.0839528813896692
0.502926630838585 0.0419764406948346
0.552892804001335 0.0983113663486942
0.530836348259524 0.112120344216599
0.512279659096097 0.158238207098147
0.515779425674481 0.190547092111791
0.486221775030249 0.206725913314602
0.453164357807632 0.19059584950377
0.449664591229247 0.158286964490126
0.47922224187348 0.142108143287315
0.462830325766965 0.875148166444088
0.484495593922604 0.847845230307171
0.514802133016467 0.853743999677111
0.523443403954692 0.886945705183969
0.501778135799054 0.914248641320887
0.47147159670519 0.908349871950946
0.634240626116071 0.450114344887579
0.612196407600601 0.415699556375042
0.632185117577681 0.394252079973793
0.674218046070232 0.407219392085081
0.696262264585702 0.441634180597618
0.676273554608621 0.463081656998867
0.30906022510773 0.515687321168323
0.280874463492796 0.514605028472278
0.317544506406366 0.454081091702684
0.327395246564515 0.485425352783526
0.43165114860905 0.796074451355274
0.468906005343646 0.808308372762763
0.425575469032368 0.862914245036599
0.409985880453411 0.823377387492191
0.555403041957407 0.776051886045852
0.530781952017825 0.798297090108052
0.497576919000156 0.787276914684161
0.488992975922071 0.75401153519807
0.513614065861653 0.73176633113587
0.546819098879321 0.742786506559761
0.293350289899184 0.128954282492989
0.309892544761213 0.103674569109503
0.332832162150139 0.101128788847151
0.339229524677036 0.123862721968286
0.322687269815008 0.149142435351772
0.299747652426082 0.151688215614124
0.394020530134646 0.194953318361216
0.367934119684277 0.215440851029494
0.343107435223917 0.206151140828322
0.344367161213925 0.176373897958871
0.370453571664294 0.155886365290593
0.395280256124655 0.165176075491765
0.320167817834991 0.208696921090674
0.298487926436073 0.181465458483575
0.493092146729528 0.528002203276081
0.497942349454039 0.555861654408305
0.477155408276624 0.571872691881842
0.451518264374699 0.560024278223155
0.446668061650188 0.532164827090931
0.467455002827603 0.516153789617394
0.358838926986223 0.575039098219357
0.348042456854443 0.545904356041862
0.366791031306033 0.527238364097734
0.396336075889403 0.537707114331101
0.407132546021183 0.566841856508596
0.388383971569592 0.585507848452724
0.378384068346033 0.476519745870863
0.357815027534348 0.496644679867616
0.33811354721805 0.433956157705931
0.368533328187884 0.445175484790021
0.872115843064911 0.810275287334987
0.844546657716682 0.788923923930163
0.850353572810204 0.754055715390612
0.883729673251955 0.740538870255883
0.381772724825981 0.386653810187888
0.390362916991849 0.421524311030999
0.329523355052182 0.399085656862819
0.351352943856147 0.375434483103798
0.385497226496915 0.0822142059737136
0.355966013060078 0.0803045308498649
0.405009479977366 0.0280412936991875
0.410018959955559 0.0560825873983749
0.380149175823016 0.62961727104355
0.39066295452803 0.655060701690248
0.371174667433258 0.680566656129912
0.341172601633472 0.680629179922878
0.330658822928458 0.65518574927618
0.35014711002323 0.629679794836516
0.644252424126473 0.257415040366824
0.677792907410329 0.241409004050543
0.710055525071879 0.263452794463299
0.708777659449572 0.301502621192336
0.675237176165716 0.317508657508617
0.642974558504166 0.295464867095861
0.710147514215369 0.856545092052004
0.692099991857317 0.82015912988219
0.697862477633792 0.787491911394007
0.72167248576832 0.791210655075638
0.739720008126372 0.827596617245452
0.733957522349897 0.860263835733635
0.462962561395386 0.663054269584315
0.471685797119685 0.691900212648147
0.453998266307005 0.707332147920301
0.427587499770024 0.693918140128623
0.418864264045725 0.665072197064791
0.436551794858406 0.649640261792638
0.567142276571354 0.442261828239647
0.578647232828242 0.411773298051076
0.622735669859182 0.48060287507615
0.589186495086824 0.476676616752184
0.458478999055917 0.485560105387275
0.428716054106818 0.470977458630693
0.42577996904607 0.435082209446572
0.452606828934422 0.413769607019033
0.482369773883522 0.428352253775615
0.48530585894427 0.464247502959736
0.493243222810706 0.242388690130761
0.467207253368546 0.261921403136087
0.434149836145929 0.245791339325255
0.427128388365472 0.210128562509096
0.40806342569556 0.266278871993533
0.374955567464734 0.251103627845653
0.769030526166024 0.721672407848543
0.793003999267238 0.744622484186941
0.793145812879918 0.77669150660265
0.769314153391382 0.78581045267996
0.745340680290168 0.762860376341561
0.745198866677489 0.730791353925853
0.501202307297033 0.699358595654467
0.521995581750081 0.677971035596956
0.555200614767749 0.688991211020847
0.567612373332369 0.721398946502249
0.574716944160993 0.661085938352855
0.606645032118857 0.665588401166266
0.619056790683477 0.697996136647668
0.599540461290233 0.72590140931566
0.553246022331012 0.385008846772168
0.516339855576894 0.388732925681831
0.495672345543835 0.365069532554593
0.511911002264895 0.337682060517692
0.548817169019014 0.333957981608029
0.569484679052072 0.357621374735267
0.768977671657176 0.278159299320136
0.740155531175681 0.251781133527199
0.825532120180607 0.247353876019615
0.811665966159639 0.275945670566344
0.733333333332673 0
0.766666666666071 0
0.787288038393659 0.0190690728613031
0.774576076787848 0.0381381457226061
0.74124274345445 0.0381381457226061
0.720621371726862 0.0190690728613031
0.0441645850563782 0.0399500262657144
0.0220822925281891 0.0199750131328572
0.0333333333332521 0
0.0666666666664957 0
0.0887489591946957 0.0199750131328572
0.0774979183896315 0.0399500262657144
0.0698729321629581 0.086759709947338
0.0734989867413489 0.113594380496104
0.0220822925281891 0.0866416797998014
0.0441645850563782 0.0732833595991865
0 0.0666666666669442
0 0.0333333333334721
0.308494662797641 0.647757100505527
0.305818789761596 0.61482249729521
0.325307076856368 0.589316542855546
0.347471236987185 0.596745191626199
0.416721273484173 0.114237849296021
0.418414107034594 0.144351817494479
0.368760738113873 0.125772397092135
0.391894589023813 0.104948139094848
0.767699806034869 0.316209126049173
0.737599799931067 0.327880786985273
0.533172194877982 0.481881156333431
0.5107070694415 0.491011954238644
0.504834899320005 0.419221455870402
0.530236109817235 0.44598590714931
0.806409363966588 0.815386698741815
0.811693418167521 0.791479629633578
0.782577704478053 0.824505644819125
0.76403009919045 0.809717521788197
0.396656438993983 0.749395064077505
0.398916586113514 0.714949598207225
0.451738119187474 0.74177761379058
0.423067205530963 0.762809071869182
0.314510606724589 0.560181800678051
0.325878296723626 0.538475707271209
0.286324845109655 0.559099507982006
0.269506773493759 0.53631112187912
0.139785169229219 0.496892951570016
0.113267843717113 0.470841860244491
0.122040674851274 0.431374061832758
0.157330831497543 0.41795735474655
0.183848157009649 0.444008446072075
0.175075325875487 0.483476244483808
0.223893299499016 0.516663171482669
0.195097897120171 0.519803607189104
0.697720664021113 0.755422888978298
0.721388858542961 0.727072610244221
0.416905116701088 0.517582180334349
0.407929112929403 0.48698849610423
0.470423734506908 0.617379252860499
0.486608143342729 0.600550179200514
0.516124653520077 0.608008562206834
0.529456754861603 0.632296018873139
0.513272346025782 0.649125092533124
0.483755835848434 0.641666709526804
0.408599584714333 0.365341207760349
0.444016636768554 0.378899106175922
0.254185484089911 0.592805581788404
0.278664200407731 0.587346737936648
0.28401594647982 0.653215944357283
0.256861357125955 0.625740184998722
0.530363981995872 0.575558726951391
0.557935411813193 0.567396348362253
0.57126751315472 0.591683805028558
0.557028184678925 0.624133640284001
0.603195601112584 0.596186267841969
0.620884360594652 0.633138565910823
0.433333333332456 0
0.466666666665739 0
0.471676146643932 0.0280412936991875
0.443352293288842 0.0560825873983749
0.477529408323059 0.111994175088857
0.446278924128406 0.0980590280932095
0.869978772910489 0.320135853758988
0.83388929252458 0.31233665943603
0.871531876070367 0.354234808431503
0.836995498844337 0.380534568781061
0.800906018458428 0.372735374458103
0.799352915298549 0.338636419785588
0.632692176964533 0.509430745524449
0.609099509297524 0.534332357648782
0.575550334525165 0.530406099324816
0.565593827419815 0.501578228876517
0.52066357654685 0.519839824686943
0.553085209088683 0.539536897230029
0.650399569884235 0.707984965223909
0.66222601969175 0.745879066468142
0.642709690298506 0.773784339136134
0.611366911097747 0.763795510559893
0.674067764406084 0.679634686489832
0.709562408735447 0.689178508999988
0.603858690256788 0.309375640409572
0.59700543967096 0.345330204136038
0.555670419604842 0.298003417881562
0.583191180223729 0.285712247282333
0.525192836741592 0.281148384695672
0.522236014497229 0.252002180910553
0.549756775116116 0.239711010311324
0.580234357979366 0.256566043497215
0.499156867299432 0.300681097700998
0.470164075612909 0.291067606921206
0.710416854072437 0.366430533346372
0.71333391431761 0.393308618771371
0.629268057332509 0.367373994548794
0.668383925579887 0.353463221235083
0.407737908487971 0.903242500912842
0.374310759364615 0.904033899244678
0.358721170785657 0.864497041700271
0.376558731330055 0.824168785824028
0.319284457155304 0.869429058765324
0.297685304069348 0.834032819954134
0.315522864613745 0.793704564077891
0.354959578244099 0.788772547012837
0.397836706635697 0.614185335771396
0.426038016153392 0.62419683114594
0.435333855538877 0.57685335188314
0.444786590604982 0.605530839201812
0.295948753486805 0.290902310276808
0.318898231360356 0.26341534698729
0.352292650375976 0.274546692246774
0.362737591518044 0.313165000795775
0.339788113644493 0.340651964085293
0.306393694628873 0.329520618825809
0.296128936036562 0.387954311603336
0.284564105824908 0.353171792584831
0.418508366837628 0.304897180542535
0.39584544974887 0.328340244943655
0.219413750633625 0.375823522962337
0.246206513123439 0.347106398264331
0.189594835356136 0.366645944063106
0.186568682568462 0.32875124046587
0.213361445058277 0.300034115767864
0.243180360335765 0.309211694667095
0.699041574103501 0.183259422050838
0.686749757512816 0.141115876367413
0.71028819475076 0.109779913508933
0.74611844857939 0.120587496333879
0.7035933323421 0.0850506266506283
0.732728723762068 0.0711289226172688
0.768558977590698 0.0819365054422142
0.775253839999358 0.106665792300519
0.624819313640142 0.0329907768946626
0.649638627281136 0.0659815537893252
0.641288380529136 0.094149016616255
0.608118820136141 0.0893257025485222
0.682971960614512 0.0659815537893252
0.691485980306893 0.0329907768946626
0.633333333332523 0
0.666666666665899 0
1 0.533333333332397
1 0.566666666665773
0.972879686531963 0.585883782557811
0.945759373063926 0.571767565116475
0.945759373063926 0.5384342317831
0.972879686531963 0.519217115891061
0.164697024227411 0.391317584610595
0.136773060311011 0.378094521560847
0.133746907523337 0.340199817963611
0.158644718652062 0.315528177416122
0.0941167109348745 0.418150998783011
0.101482903664743 0.391511228647055
0.267990151366914 0.0746244792187023
0.297212475495078 0.0765096674723593
0.264127965771021 0.127069094239332
0.251447896504886 0.0999041926021888
0.77899833384161 0.680857917205842
0.812939614618409 0.662993502901539
0.836913087719624 0.685943579239938
0.826945280044038 0.726758069882639
0.16666666666736 1
0.133333333333888 1
0.11407177224858 0.975021645335045
0.128143544496743 0.950043290670089
0.161476877830215 0.950043290670089
0.180738438915524 0.975021645335045
0.0985075618661721 0.330903248277305
0.0881660273377334 0.29693503804351
0.113063838466459 0.272263397496021
0.148303184123624 0.281559967182327
0.0838946952004852 0.791890764397274
0.0800326629814924 0.828646171375466
0.0292522424731593 0.785045119139879
0.0585044849463187 0.770090238279481
0.833333333332892 0
0.866666666666313 0
0.883407136416552 0.0211791494679437
0.86681427283337 0.0423582989358874
0.833480939499948 0.0423582989358874
0.816740469749709 0.0211791494679437
0.804706271355409 0.10877586890716
0.827463840302798 0.0861566586554955
0.86931948547079 0.0898990964960116
0.888417561691393 0.116260744588192
0.175073233756108 0.663322736457215
0.162819798344439 0.627778666055077
0.17694649787921 0.594244538982013
0.20332663282565 0.596254482311086
0.215580068237319 0.631798552713224
0.201453368702548 0.665332679786288
0.128599392034616 0.0464115699609664
0.114299696017188 0.0232057849804832
0.133333333333037 0
0.166666666666279 0
0.180966362683694 0.0232057849804832
0.161932725367869 0.0464115699609664
0.212922609079263 0.0242464303216818
0.225845218159007 0.0484928606433636
0.206811580843181 0.0716986456238468
0.174855334447612 0.0706580002826482
0.311261961611607 0.233553518348476
0.280676213989306 0.23117865299918
0.258996322590389 0.203947190392081
0.267902178813773 0.179090593134278
0.205725175309527 0.27017228712905
0.227907820838267 0.249488037389467
0.257726736115755 0.258665616288697
0.265363005864504 0.288527444927511
0.0841850312416283 0.478345801146219
0.0816195442782503 0.511900833373472
0.0527027048765815 0.530303910400946
0.0263513524382907 0.515151955201167
0.137219682265841 0.530447983797268
0.108136869790356 0.537951924698997
0.63705686545058 0.189699218443875
0.674195128072383 0.207551093089069
0.60711416150467 0.23956316572163
0.603516382166723 0.205705254760155
0.624765048859894 0.14755567276045
0.649611494891013 0.123264001722219
0.906601556476917 0.410518390276998
0.906334904886657 0.369226719179472
0.968956069355726 0.417270020457623
0.937912138711451 0.434540040916074
0.872065179250887 0.436818150626556
0.837262150434597 0.421826239878587
0.198356654851467 0.140403272717498
0.218562241045109 0.106571281841272
0.243922379577379 0.160901085115559
0.211036724117602 0.167568174354642
0.0446744613144174 0.958413249373547
0.0223372306572087 0.979206624686773
0 0.966666666666703
0 0.933333333333444
0.0223372306572087 0.912539958020199
0.0446744613144174 0.92507991604026
0.0666666666669442 1
0.0333333333334721 1
0.0780077946478895 0.958413249373547
0.0890038973241529 0.979206624686773
0.0731176511655417 0.889474343589211
0.0700646715685839 0.913547108824766
0.954364939621589 0.0408213121445285
0.977182469810794 0.0204106560722642
1 0.0333333333332521
1 0.0666666666664957
0.977182469810794 0.0870773227387709
0.954364939621589 0.0741546454777818
0.933333333333157 0
0.966666666666578 0
0.921031606288167 0.0408213121445285
0.910515803143951 0.0204106560722642
0.915526228418791 0.115492251192513
0.923536818925587 0.0883621097046528
0.266666666667684 1
0.233333333334259 1
0.212456724803817 0.968646751876361
0.224913449606801 0.937293503752721
0.258246782940227 0.937293503752721
0.279123391470669 0.968646751876361
0.271874653020277 0.905568602944893
0.306379131630768 0.905196950260704
0.32725574016121 0.936550198384343
0.31362787008116 0.968275099192172
0.0518829952061964 0.27531121854018
0.0259414976030982 0.287655609270645
0 0.266666666667684
0 0.233333333334259
0.0259414976030982 0.220988942603793
0.0518829952061964 0.241977885206754
0.1739336026332 0.91869004254645
0.205651888521492 0.912315149087766
0.820768977894137 0.0614273717971904
0.791316546538087 0.0593172951905498
0.114444799917865 0.778370544691014
0.141132872416252 0.801605731962944
0.13727084019726 0.838361138941136
0.10672073547988 0.851881358647396
0.159285735524729 0.858248924824962
0.150750526134818 0.891656930415048
0.120200421417438 0.905177150121308
0.0981855260899686 0.885289364237483
0.117348351229551 0.0663865830938236
0.0917976144070594 0.0631558112461976
0.120974405807942 0.09322125364259
0.099049723563841 0.11682515234373
0.174322852999019 0.782849548443034
0.180824761083398 0.740858177651193
0.216913163106315 0.732123398287216
0.246499657044853 0.76537998971508
0.239997748960474 0.807371360506921
0.203909346937557 0.816106139870898
0.233333333332788 0
0.266666666666056 0
0.2795892757458 0.0242464303216818
0.259178551492275 0.0484928606433636
0.904438742704985 0.0620004616124722
0.877330075977586 0.0627689550081516
0.092079566896053 0.933434894708591
0.11714744182048 0.929249915356863
0.144475726211797 0.16296652607744
0.110800383765768 0.151697788561156
0.154649748253971 0.104489991158875
0.166400408455898 0.1393626273763
0.713770511705245 0.485947266988216
0.685027678168393 0.485238200194166
0.725005098122553 0.442343247391669
0.733759221682325 0.464499790586968
0.720555288221206 0.548437301183854
0.731534316731651 0.517546817483061
0.768006899537236 0.501492584259878
0.793500453832376 0.516328834737489
0.782521425321931 0.547219318438283
0.746048842516346 0.563273551661465
0.691812454684354 0.547728234389804
0.674048649657948 0.51612868389496
0.546158995778169 0.205853099349849
0.573038799303473 0.188850221574265
0.539159462621401 0.141235329322563
0.569539032725088 0.156541336560622
0.5915954884669 0.142732358692717
0.583272374105023 0.113617373586753
0 0.566666666667777
0 0.533333333334582
0.0527027048765815 0.563637243734141
0.0263513524382907 0.581818621867556
0.0807418058118536 0.579842389596796
0.0824295543088349 0.614228913592867
0.0560782018705441 0.632410291726282
0.0280391009352721 0.616205145863627
0.161057117471807 0.546040893814673
0.155811740202288 0.569137744733806
0.126728927726804 0.576641685635534
0.102891492520838 0.56104877561813
0.128416676223786 0.611028209631605
0.106266989514801 0.629821823610271
0.870289188161375 0.672426734105209
0.89369748092754 0.699724379613182
0.85220902528364 0.539993839368446
0.885424042439764 0.548822593521792
0.894719671528996 0.586810594649171
0.870800283462103 0.615969841623204
0.837585266305978 0.607141087469858
0.828289637216747 0.569153086342479
0.036283032131537 0.388290486171199
0.0725660642630739 0.376580972341149
0.0292522424731593 0.718378452473398
0.0585044849463187 0.73675690494624
0 0.766666666667041
0 0.733333333333808
0.226110667130612 0.210614279631164
0.202130867894219 0.192424771612444
0.181745376073134 0.251982779110331
0.17994822236548 0.213109021352028
0.245028057175938 0.541769965730875
0.237367412474014 0.570017195685518
0.208572010095168 0.573157631391953
0.187437252418247 0.548050837143747
0.453925418891849 0.318455078958107
0.466679553857312 0.355456041774801
0.590352559470774 0.793493618328643
0.600680987044559 0.833180554673633
0.576059897104977 0.855425758735833
0.54111037959161 0.837984026453043
0.653038117872291 0.813471275481125
0.632023766245318 0.843169383249874
0.584701168043202 0.888627464242691
0.55839292146806 0.904387437466759
0.689133162588396 0.886243199820753
0.65007128860337 0.879555345419688
0.360589073494589 0.936550198384343
0.380294536747919 0.968275099192172
0.366666666667869 1
0.33333333333449 1
0.427443371741301 0.934967401720671
0.413721685871275 0.967483700860335
0.0560782018705441 0.665743625059477
0.0280391009352721 0.682871812530016
0 0.666666666667293
0 0.633333333334153
0.0853304443437035 0.684122077532319
0.0865435858815908 0.719628717475701
0.152923547047123 0.682116350435881
0.11852042492647 0.665365894012409
0.668219787017346 0.572629846514137
0.62686331432393 0.565931908143626
0.685908546499414 0.609582144582991
0.662240833288067 0.639836504281333
0.721403190828777 0.619125967093146
0.733230121946793 0.658924149301645
0.077358191816258 0.181274976633152
0.0775913423127763 0.222120902221434
0.144708876708315 0.203812451665722
0.111266684758805 0.233389639737718
0.74498702358129 0.415735912507786
0.773723072599798 0.411285120819202
0.78247719615957 0.433441664014501
0.762495270700833 0.460048998898384
0.739152903090946 0.361979741657788
0.770806012354626 0.384407035394203
0.607339609745887 0.915244994012416
0.603669804873429 0.957622497006208
0.577361558298287 0.973382470230276
0.554723116595602 0.946764940460551
0 0.366666666667869
0 0.33333333333449
0.036283032131537 0.32162381950444
0.0725660642630739 0.34324763900777
0.639867408532539 0.96096642420674
0.619933704266755 0.98048321210337
0.627273314011671 0.895728206115786
0.643537213404997 0.918588921212948
0.705397061981722 0.909103914917916
0.682599087390023 0.925276775614013
0.666666666667293 1
0.633333333334153 1
0.673200741865734 0.96096642420674
0.686600370933144 0.98048321210337
0.794821683013091 0.585583444169289
0.806907845570303 0.558374264692195
0.825499103748766 0.634350266946952
0.804117312102322 0.623571445296668
0.770176031325522 0.64143585960097
0.757616542195166 0.670079095555557
0.733962679959133 0.59048273113856
0.758349100207506 0.601637677392472
0.521389783262407 0.946764940460551
0.510694891631898 0.973382470230276
0.480388352538034 0.967483700860335
0.46077670507468 0.934967401720671
0.466666666668008 1
0.433333333334629 1
0.566666666667777 1
0.533333333334582 1
0.366654373194197 0.749457587870471
0.338912454513941 0.715074645793158
0.28778094593349 0.759321622000577
0.299475740883587 0.720006662858211
0.228607958056413 0.69280843914485
0.269889246945049 0.686750071430347
0.250275499934321 0.870172364133703
0.263180825458856 0.834404472638323
0.214187097911403 0.87890714349768
0.191004021413022 0.851874031366278
0.120946708002244 0.736379173899173
0.15413668858501 0.717622990379262
0.80797075045471 0.448277914492112
0.813482379291113 0.489721499853606
0.752130024382374 0.928620702814546
0.776065012191326 0.964310351407273
0.766666666667041 1
0.733333333333808 1
0.709398345524844 0.964310351407273
0.718796691049133 0.928620702814546
0.799567570364145 0.903534761007628
0.763881303468783 0.898232907614723
0.7525051276375 0.875051958764563
0.776815218701578 0.857172863307308
1 0.433333333332456
1 0.466666666665739
0.968956069355726 0.483936687124189
0.937912138711451 0.467873374249357
0.914715442419652 0.522370918908267
0.910791825243414 0.487090490141396
0.848285408107402 0.504713410601575
0.877576808087289 0.47826173598805
0.93056311702327 0.616524110743973
0.92460108830958 0.587087729209556
0.978841715245654 0.615320164092229
0.957683430491307 0.63064032818531
0.930052021722543 0.672981003225979
0.923578897708124 0.700001514173567
0.876762312175793 0.645406223157621
0.906643728956377 0.645683357718006
0.978841715245654 0.68198683075898
0.957683430491307 0.663973661518685
1 0.633333333332523
1 0.666666666665899
0.968689417765466 0.342645016026814
0.342144933207246 0.0261316185753388
0.880852549186861 0.881762999519493
0.845354725146102 0.859919010996799
0.84295420484053 0.164259851104028
0.966561676137714 0.843875550246339
0.935767936767025 0.878817461385894
0.02570834710658 0.14680968368204
0.845084612419988 0.969612204800178
0.891754156102261 0.201305126402755
0.969171879303999 0.147540797559902
0.945288064701736 0.195051099244966
0.0253902102541665 0.855133859451371
0.88095753971586 0.937887449272889
0.976116185397738 0.247510301684616
0.944805603163204 0.290155317712092
0.891271694563729 0.263076011536612
0.0289168394016688 0.448263589640534
0.558316419913772 0.0281674628269298
0.972368591231236 0.742340675039967
0.938930267368949 0.786216225286812
0.777560122434594 0.191853376121991
0.935872927296013 0.968275244472712
0.969206260629312 0.93494191113929
0.251001152089963 0.446933404686139
0.527909717419961 0.0701439035217645
0.482722008451865 0.174417028300958
0.493136864860829 0.881046935814029
0.654229336093152 0.42866686848633
0.299209484949581 0.484343060087481
0.447240737188007 0.835611308899681
0.522198008939739 0.765031710621962
0.316289907288111 0.126408502230637
0.369193845674286 0.185663608160044
0.321427543824999 0.178919678221223
0.472305205552114 0.544013240749618
0.377587501437813 0.556373106275229
0.3479642873762 0.465300418786773
0.877922758158433 0.775407078795436
0.359943136022016 0.41030498394691
0.380487746518722 0.0541729122745262
0.360660888728244 0.655123225483214
0.676515041788023 0.27945883077958
0.715909999991845 0.823877873563821
0.445275030582706 0.67848620485647
0.600691451343713 0.446188086563613
0.45554291399517 0.449664856203154
0.460185805588089 0.226258626319928
0.401041977915103 0.230616095177375
0.769172339778704 0.753741430264251
0.534407340314701 0.710378771078359
0.587128702725613 0.693493673834258
0.532578512297954 0.36134545364493
0.782843825678144 0.249567504773407
0.753954705060261 0.0190690728613031
0.0554156258614404 0.0199750131328572
0.0477906396347691 0.100118030147953
0.0220822925281891 0.0533083464663294
0.327982949892413 0.622251146065863
0.393587422574234 0.135062107293307
0.362363375586976 0.103038463971
0.738877665553375 0.289830960256236
0.507770984380752 0.455116705054523
0.541741066074124 0.415497376960739
0.83926260351575 0.812830993038402
0.787861758678986 0.800598575710888
0.425327352650494 0.728363605998903
0.46032206226556 0.775042993276672
0.336674766855406 0.567610449448704
0.297692535108693 0.537393414575165
0.148558000363381 0.457425153158283
0.203870728254333 0.480335808777372
0.721530672155641 0.75914163265993
0.437692057878503 0.501571142860812
0.387360072117718 0.507113430100982
0.499940244684256 0.624837635866819
0.492479071572734 0.670512652590636
0.417189776880202 0.400211708603461
0.281340073443776 0.620281341146966
0.543696083337398 0.599846183617697
0.588956272636789 0.628636103097412
0.438342813310649 0.0280412936991875
0.474602777483496 0.0700177343940221
0.447971757678827 0.128172996291668
0.847755446545548 0.283744864889302
0.835442395684459 0.346435614108546
0.599143002192174 0.505504487200483
0.525513779271361 0.547699275819167
0.543128701983333 0.51070902678173
0.630883240490992 0.735890237891902
0.685894214213598 0.717528787734066
0.576337929637901 0.3216668110088
0.552713597360479 0.268857214096443
0.496200045055069 0.271534893915879
0.67130098582506 0.380341306660083
0.636121307918338 0.331419430822328
0.392148319909013 0.863705643368435
0.337122017699702 0.829100802889081
0.408350485340711 0.639628766418094
0.416585281087287 0.595519343827268
0.460970999440803 0.588701765541827
0.329343172502425 0.302033655536292
0.317958524840528 0.364303137844315
0.385400508606802 0.289721936394654
0.257771343335094 0.381888917282837
0.216387597845951 0.337928819365101
0.722580011341446 0.151923459192358
0.739423586170729 0.0958582094755739
0.616469066888142 0.0611582397215924
0.712107352034481 0.0520598497559657
0.658152646973518 0.0329907768946626
0.972879686531964 0.552550449224436
0.161670871439736 0.353422881013359
0.129406867581143 0.404734291696803
0.280670220633049 0.101789380855846
0.802971806942824 0.703807993544241
0.147405105582052 0.975021645335045
0.123405372994898 0.306231607729816
0.0546424527273259 0.806845645257673
0.850073803083131 0.0211791494679437
0.846561916523401 0.112518306747676
0.189199933290879 0.629788609384151
0.147633029350447 0.0232057849804832
0.193888971763438 0.047452215302165
0.28958207021269 0.206322055741377
0.235544090587016 0.279349866028281
0.288312483738056 0.261040481637994
0.0552681918399595 0.496748878173693
0.110702356753734 0.504396892471744
0.640654644788527 0.223557129405349
0.661903311481698 0.165407547405644
0.937645487121192 0.393248369818548
0.871798527660627 0.395526479529029
0.231242310311244 0.133736183478415
0.0223372306572087 0.945873291353488
0.0556705639906809 0.979206624686774
0.0477274409113752 0.901007150804706
0.977182469810795 0.0537439894055156
0.943849136477373 0.0204106560722642
0.946354349114793 0.101284786965642
0.245790058137243 0.968646751876361
0.292751261550719 0.936921851068533
0.0259414976030982 0.25432227593722
0.193195163718508 0.943668397211406
0.804028508143899 0.0402482223292468
0.798011408946748 0.0840465820488549
0.110582767698873 0.815125951669205
0.128735630807349 0.871769144531223
0.103048655212124 0.0431807981133404
0.0954236689854502 0.0899904817949641
0.210411255021936 0.774114769079058
0.246255942412532 0.0242464303216818
0.288400875620439 0.0503780488970206
0.893922939560769 0.041589805540208
0.896428152198189 0.0891306031003322
0.103075669572316 0.954228270021819
0.0951325464930109 0.909362129473038
0.13272506600987 0.128093889860015
0.18660599464954 0.105530636500073
0.705016388145474 0.463790723792918
0.757027871026791 0.532383067960672
0.7027914831948 0.51683775068901
0.57663657864142 0.22270813253574
0.542659229199785 0.173544214336206
0.616441934498018 0.118440687654486
0.561215918363212 0.127426351454658
0.0263513524382907 0.548485288534362
0.0543904533735628 0.598023767730212
0.131974304996323 0.553544834716402
0.10457924101782 0.595435299614201
0.86032138048579 0.713241224747911
0.861504654372872 0.577981840495826
0.0651998715332057 0.403220742477105
0.0292522424731593 0.751711785806648
0.235016523353996 0.185757682373361
0.203928021601873 0.231298529370747
0.216232654797092 0.544910401437311
0.261846128791835 0.564558351833762
0.182191875148729 0.57114768806288
0.431262501803091 0.341898143359228
0.482918210578372 0.3280685697379
0.565731469531192 0.815738822390843
0.621695338671533 0.803482446904884
0.549751650529835 0.871185731959902
0.671085640230344 0.849857237650939
0.34696120341454 0.968275099192172
0.394016222617945 0.935758800052507
0.0280391009352721 0.649538479196808
0.0572913434084314 0.701250265002859
0.140670111635455 0.646572280033743
0.650455981990939 0.541030296019293
0.644552073805999 0.60288420621248
0.697735477617431 0.64938032679149
0.0516498447096782 0.201131959618473
0.111033534262287 0.192543714149437
0.146506030415969 0.242686209424024
0.753741147141062 0.437892455703085
0.742069963336118 0.388857827082787
0.769252909194748 0.350308080721688
0.581031363170745 0.931004967236484
0.036283032131537 0.35495715283782
0.0622245297346352 0.309279428773975
0.623603509139213 0.938105709109578
0.666335187996697 0.902416060516851
0.653267037599896 0.980483212103371
0.816203474659535 0.596362265819574
0.74578961107715 0.630280913347059
0.770435262764719 0.574428497915378
0.791557822971966 0.652214681251255
0.491083244168544 0.940866171090612
0.447055019204655 0.967483700860336
0.544028224965092 0.973382470230276
0.368914520313728 0.715012122000192
0.327217659563843 0.754389604935525
0.258194451994951 0.726065030572714
0.242734657591184 0.659274312071786
0.284779978544812 0.869800711449514
0.227092423435939 0.843139252002301
0.182468812023111 0.885282036956364
0.147634780500632 0.759614361171104
0.119733566464357 0.700872533955791
0.787988824995973 0.474885249375996
0.742731678858088 0.964310351407273
0.695998716457434 0.944793563510643
0.788191394532862 0.880353812157468
0.758267613413975 0.842384740276381
0.787816291277736 0.933922556207451
0.968956069355726 0.450603353790906
0.941835755887689 0.503153803016228
0.881500425263527 0.513542164754921
0.842773779271 0.463269825240081
0.951721401777617 0.601203946650893
0.900170604941959 0.672703868665595
0.900681700242687 0.616246976183589
0.978841715245654 0.648653497425605
0.951210306476889 0.690994172466274

t	61 15 16
t	63 6 7
t	68 58 47
t	44 58 68
t	46 59 69
t	58 20 21
t	47 58 21
t	65 38 39
t	22 23 68
t	46 69 70
t	13 14 69
t	70 69 14
t	31 32 67
t	47 22 68
t	70 14 15
t	15 61 70
t	70 61 46
t	35 36 54
t	8 9 60
t	57 19 20
t	58 57 20
t	64 59 46
t	2 22 47
t	2 47 21
t	41 73 75
t	76 8 60
t	76 74 48
t	56 71 79
t	40 55 81
t	82 73 41
t	83 71 56
t	50 71 84
t	45 63 86
t	48 77 86
t	86 77 45
t	51 52 87
t	49 82 87
t	89 82 41
t	57 58 90
t	91 89 41
t	92 63 7
t	49 43 94
t	42 64 96
t	98 80 66
t	99 84 43
t	101 55 40
t	51 89 102
t	48 74 103
t	103 77 48
t	105 90 66
t	50 84 106
t	106 97 50
t	55 102 107
t	109 64 46
t	10 11 111
t	112 0 4
t	112 65 39
t	39 0 112
t	49 94 113
t	92 48 86
t	63 92 86
t	64 109 96
t	101 51 102
t	101 102 55
t	90 58 44
t	66 90 44
t	83 43 84
t	83 84 71
t	82 49 113
t	82 113 73
t	78 54 75
t	73 78 75
t	105 66 80
t	89 51 87
t	82 89 87
t	99 52 106
t	99 106 84
t	91 102 89
t	100 113 94
t	106 52 110
t	106 110 97
t	92 7 8
t	8 76 92
t	92 76 48
t	109 46 61
t	109 61 88
t	40 110 101
t	52 51 110
t	101 110 51
t	50 97 80
t	97 105 80
t	42 55 107
t	107 74 42
t	107 103 74
t	96 81 55
t	55 42 96
t	56 72 83
t	72 85 83
t	99 43 49
t	49 87 99
t	99 87 52
t	62 77 91
t	91 41 62
t	77 103 91
t	62 41 75
t	62 75 95
t	59 64 93
t	59 93 111
t	9 93 60
t	111 93 10
t	9 10 93
t	17 18 53
t	95 75 114
t	114 75 54
t	115 63 45
t	90 105 116
t	29 30 117
t	95 114 118
t	119 67 32
t	11 12 123
t	69 59 123
t	124 104 100
t	125 4 5
t	5 115 125
t	45 77 126
t	62 95 126
t	126 77 62
t	35 54 127
t	127 54 78
t	128 64 42
t	93 64 128
t	129 61 16
t	88 61 129
t	130 115 45
t	132 3 31
t	30 3 132
t	31 67 132
t	133 1 13
t	12 1 133
t	13 69 133
t	28 29 134
t	134 72 28
t	118 37 38
t	134 29 117
t	111 11 123
t	111 123 59
t	119 135 67
t	67 135 117
t	112 4 125
t	112 125 65
t	135 124 85
t	115 5 6
t	63 115 6
t	123 12 133
t	123 133 69
t	117 30 132
t	117 132 67
t	130 65 125
t	115 130 125
t	120 40 81
t	122 120 108
t	40 120 122
t	128 42 74
t	74 76 128
t	93 128 60
t	128 76 60
t	34 35 127
t	34 127 131
t	78 104 127
t	131 127 104
t	57 90 116
t	108 53 116
t	36 114 54
t	33 119 32
t	130 45 126
t	130 126 95
t	78 73 100
t	100 73 113
t	100 104 78
t	91 103 102
t	107 102 103
t	50 121 71
t	80 121 50
t	79 71 121
t	121 80 98
t	28 72 27
t	27 72 56
t	131 33 34
t	131 119 33
t	104 124 131
t	40 122 110
t	122 97 110
t	105 97 122
t	118 38 65
t	118 65 130
t	130 95 118
t	81 88 120
t	81 96 88
t	109 88 96
t	79 121 25
t	114 36 37
t	118 114 37
t	136 25 121
t	121 98 136
t	24 25 136
t	137 108 116
t	137 105 122
t	122 108 137
t	116 105 137
t	56 79 26
t	56 26 27
t	25 26 79
t	94 43 83
t	85 94 83
t	85 124 94
t	100 94 124
t	85 72 134
t	135 85 134
t	135 134 117
t	135 119 124
t	124 119 131
t	88 108 120
t	98 23 24
t	98 24 136
t	68 98 44
t	66 44 98
t	68 23 98
t	16 17 129
t	17 53 129
t	129 53 108
t	88 129 108
t	138 53 18
t	138 57 116
t	116 53 138
t	19 138 18
t	57 138 19

e	61 15
e	15 16
e	16 61
e	63 6
e	6 7
e	7 63
e	68 58
e	58 47
e	47 68
e	44 58
e	68 44
e	46 59
e	59 69
e	69 46
e	58 20
e	20 21
e	21 58
e	21 47
e	65 38
e	38 39
e	39 65
e	22 23
e	23 68
e	68 22
e	69 70
e	70 46
e	13 14
e	14 69
e	69 13
e	14 70
e	31 32
e	32 67
e	67 31
e	47 22
e	14 15
e	15 70
e	61 70
e	61 46
e	35 36
e	36 54
e	54 35
e	8 9
e	9 60
e	60 8
e	57 19
e	19 20
e	20 57
e	58 57
e	64 59
e	46 64
e	2 22
e	47 2
e	21 2
e	41 73
e	73 75
e	75 41
e	76 8
e	60 76
e	76 74
e	74 48
e	48 76
e	56 71
e	71 79
e	79 56
e	40 55
e	55 81
e	81 40
e	82 73
e	41 82
e	83 71
e	56 83
e	50 71
e	71 84
e	84 50
e	45 63
e	63 86
e	86 45
e	48 77
e	77 86
e	86 48
e	77 45
e	51 52
e	52 87
e	87 51
e	49 82
e	82 87
e	87 49
e	89 82
e	41 89
e	58 90
e	90 57
e	91 89
e	41 91
e	92 63
e	7 92
e	49 43
e	43 94
e	94 49
e	42 64
e	64 96
e	96 42
e	98 80
e	80 66
e	66 98
e	99 84
e	84 43
e	43 99
e	101 55
e	40 101
e	51 89
e	89 102
e	102 51
e	74 103
e	103 48
e	103 77
e	105 90
e	90 66
e	66 105
e	84 106
e	106 50
e	106 97
e	97 50
e	55 102
e	102 107
e	107 55
e	109 64
e	46 109
e	10 11
e	11 111
e	111 10
e	112 0
e	0 4
e	4 112
e	112 65
e	39 112
e	39 0
e	94 113
e	113 49
e	92 48
e	86 92
e	109 96
e	101 51
e	102 101
e	44 90
e	44 66
e	83 43
e	84 83
e	113 82
e	113 73
e	78 54
e	54 75
e	75 78
e	73 78
e	80 105
e	87 89
e	99 52
e	52 106
e	106 99
e	91 102
e	100 113
e	94 100
e	52 110
e	110 106
e	110 97
e	7 8
e	8 92
e	76 92
e	61 109
e	61 88
e	88 109
e	40 110
e	110 101
e	51 110
e	97 80
e	80 50
e	97 105
e	42 55
e	107 42
e	107 74
e	74 42
e	107 103
e	96 81
e	55 96
e	56 72
e	72 83
e	72 85
e	85 83
e	49 99
e	87 99
e	62 77
e	77 91
e	91 62
e	41 62
e	103 91
e	75 62
e	75 95
e	95 62
e	64 93
e	93 59
e	93 111
e	111 59
e	9 93
e	93 60
e	93 10
e	9 10
e	17 18
e	18 53
e	53 17
e	75 114
e	114 95
e	54 114
e	115 63
e	45 115
e	105 116
e	116 90
e	29 30
e	30 117
e	117 29
e	114 118
e	118 95
e	119 67
e	32 119
e	11 12
e	12 123
e	123 11
e	59 123
e	123 69
e	124 104
e	104 100
e	100 124
e	125 4
e	4 5
e	5 125
e	5 115
e	115 125
e	77 126
e	126 45
e	95 126
e	126 62
e	54 127
e	127 35
e	78 127
e	128 64
e	42 128
e	128 93
e	129 61
e	16 129
e	129 88
e	130 115
e	45 130
e	132 3
e	3 31
e	31 132
e	30 3
e	132 30
e	67 132
e	133 1
e	1 13
e	13 133
e	12 1
e	133 12
e	69 133
e	28 29
e	29 134
e	134 28
e	134 72
e	72 28
e	118 37
e	37 38
e	38 118
e	117 134
e	123 111
e	119 135
e	135 67
e	135 117
e	117 67
e	125 112
e	125 65
e	135 124
e	124 85
e	85 135
e	5 6
e	6 115
e	133 123
e	132 117
e	130 65
e	125 130
e	120 40
e	81 120
e	122 120
e	120 108
e	108 122
e	122 40
e	74 128
e	76 128
e	128 60
e	34 35
e	127 34
e	127 131
e	131 34
e	78 104
e	104 127
e	104 131
e	116 57
e	108 53
e	53 116
e	116 108
e	36 114
e	33 119
e	32 33
e	126 130
e	95 130
e	73 100
e	100 78
e	103 102
e	50 121
e	121 71
e	80 121
e	121 79
e	98 121
e	72 27
e	27 28
e	56 27
e	131 33
e	33 34
e	131 119
e	124 131
e	122 110
e	122 97
e	122 105
e	65 118
e	130 118
e	81 88
e	88 120
e	96 88
e	121 25
e	25 79
e	36 37
e	37 114
e	136 25
e	121 136
e	98 136
e	24 25
e	136 24
e	137 108
e	116 137
e	137 105
e	122 137
e	79 26
e	26 56
e	26 27
e	25 26
e	83 94
e	85 94
e	124 94
e	134 85
e	134 135
e	119 124
e	88 108
e	98 23
e	23 24
e	24 98
e	68 98
e	98 44
e	16 17
e	17 129
e	53 129
e	108 129
e	138 53
e	18 138
e	138 57
e	116 138
e	19 138
e	18 19

domain
boundary
2 1 40
131
231
281
4
164
41
204
127
222
259
257
26
34
1
364
205
373
45
15
52
50
21
360
342
351
350
321
262
215
253
251
30
309
324
296
38
337
268
19
135

domain
bottom
2 1 10
131
231
281
4
164
41
204
127
222
259

domain
right
2 1 10
257
26
34
1
364
205
373
45
15
52

domain
top
2 1 10
50
21
360
342
351
350
321
262
215
253

domain
left
2 1 10
251
30
309
324
296
38
337
268
19
135
