#!geo

mesh
4
header
 dimension 2
 order     2
 nodes	513
 triangles	236
 edges	374
end header

0 0
1 0
1 1
0 1
0.0999999999997599 0
0.19999999999952 0
0.299999999999324 0
0.399999999999173 0
0.499999999999022 0
0.599999999999148 0
0.699999999999274 0
0.79999999999947 0
0.899999999999735 0
1 0.0999999999997599
1 0.19999999999952
1 0.299999999999324
1 0.399999999999173
1 0.499999999999022
1 0.599999999999148
1 0.699999999999274
1 0.79999999999947
1 0.899999999999735
0.900000000000139 1
0.800000000000278 1
0.700000000000555 1
0.600000000000971 1
0.500000000001388 1
0.400000000001249 1
0.30000000000111 1
0.200000000000833 1
0.100000000000416 1
0 0.900000000000139
0 0.800000000000278
0 0.700000000000555
0 0.600000000000971
0 0.500000000001388
0 0.400000000001249
0 0.30000000000111
0 0.200000000000833
0 0.100000000000416
0.656284844631541 0.484529133400115
0.307693766248217 0.422736830621841
0.610711940842616 0.273421076683105
0.401176733233044 0.680504132336945
0.801125309765656 0.839293767850053
0.276808035037156 0.154233995876475
0.839398274201575 0.218762081472886
0.907618781887933 0.904825733418134
0.420106940585015 0.174465785692937
0.369635397118002 0.604173840396852
0.580024131896989 0.753806681983652
0.488241944005017 0.500142752143857
0.50279255217855 0.583721105540529
0.918639059595889 0.557651347675138
0.0867505182050063 0.444790768918966
0.590152189085131 0.381284767862505
0.441165057611326 0.902451102581006
0.917105773693706 0.727022025121155
0.89968502841314 0.83162665073981
0.781948702408019 0.131395079158824
0.574949259743147 0.0845023884807894
0.906068253296398 0.327935048081946
0.272999275613253 0.318389273566325
0.326434799623241 0.0783948557260162
0.711333390694186 0.225402967734263
0.0771250413197398 0.140429051044871
0.745482493902847 0.79492939875727
0.0761706307624995 0.865401578353657
0.835253837259507 0.908836614400532
0.907515637911995 0.142622392680373
0.928348556193212 0.242530905055005
0.506160862078243 0.820542294170253
0.34088361024126 0.904825297576515
0.252688701877862 0.513522735776233
0.519279192252866 0.222855977125434
0.192620988143811 0.404540647660343
0.508779892517713 0.125929322084504
0.341847709233908 0.235928383697773
0.166302494741325 0.52294404289554
0.532084674892917 0.920147410690827
0.674052469499264 0.783773167712375
0.716250974562782 0.42018670419637
0.337245986722664 0.516769613864368
0.394396291874453 0.783840529947784
0.480409032843985 0.720746155711979
0.276086150983392 0.798636581142944
0.345626887203934 0.146596655089421
0.425881120472773 0.548175864564468
0.802459121618307 0.406834329130618
0.398953109157718 0.456394811874111
0.816977472368453 0.76757256052534
0.373182532660113 0.351783309344776
0.415028439933752 0.0841238810975624
0.674457940922131 0.0989723306839878
0.311170535833685 0.680691703715845
0.183542529780788 0.290856536868633
0.707499793827265 0.339552447921373
0.63857312007672 0.670090863979676
0.728195036573421 0.892931054221818
0.454239325671086 0.634208326520484
0.22970676777209 0.59826442564016
0.555637320314465 0.472750358428218
0.479433688822775 0.392457004591495
0.441171283926386 0.281454116141414
0.15056636293277 0.592234595652939
0.74505705306481 0.698722331510144
0.542788856203129 0.656583475539444
0.528149658985955 0.310294588480791
0.818994008127515 0.5311650852151
0.797799812138671 0.304537465113073
0.585506841630515 0.559233969773116
0.761864115182037 0.0572072185839092
0.0662468775845673 0.0599250393985716
0.303142916725551 0.581887894084893
0.108849096394611 0.364871458511099
0.23876782723875 0.0727392909650454
0.846880895395209 0.645129088597237
0.142215316744907 0.925064936005134
0.0778244928092946 0.262966827809715
0.087756727419478 0.755135357419083
0.742513345242097 0.486656333782267
0.611009414618344 0.872867491018623
0.709576259710761 0.579327784884648
0.850221409250187 0.063537448403831
0.187326669167777 0.698866806859352
0.142899088052043 0.0696173549414496
0.250090466367006 0.228803787649883
0.0790540573148722 0.545455865600725
0.599918602828776 0.17184734379868
0.906868208067176 0.451810061374524
0.178151068657825 0.174235263593725
0.0841173028058162 0.648615437588938
0.0670116919716261 0.93761987406032
0.931547409432384 0.0612319682167928
0.237370174409785 0.905940255629082
0.16782094491464 0.824840919234875
0.659801112798323 0.94144963631011
0.782735520455879 0.612792623646383
0.936525145736961 0.64596049227839
0.953034126648199 0.313967524040635
1 0.349999999999249
0.953034126648199 0.363967524040559
0.313217399811283 0.0391974278630081
0.349999999999249 0
0.363217399811207 0.0391974278630081
0.867469432836324 0.870231632570171
0.903651905150537 0.868226192078972
0.87143630957372 0.906831173909333
0.850405169089398 0.835460209294932
0.818189573512582 0.874065191125293
0.810673488304797 0.175078580315855
0.844732170160007 0.137008735919599
0.873456956056785 0.18069223707663
0.94984251420657 0.81581332536964
1 0.849999999999602
0.94984251420657 0.865813325369773
0.953809390943967 0.902412866708934
0.0385625206598699 0.170214525522852
0 0.150000000000624
0.0385625206598699 0.120214525522644
0.850000000000198 1
0.817626918629892 0.954418307200266
0.867626918629823 0.954418307200266
0.917932097052604 0.192576648867689
0.883873415197393 0.230646493263946
1 0.149999999999657
0.953757818955998 0.171311196339946
0.953757818955998 0.121311196340066
0.964174278096606 0.221265452527262
0 0.850000000000198
0.0380853153812498 0.832700789176967
0.0380853153812498 0.882700789176898
0.903809390944036 0.952412866709067
1 0.249999999999422
0.964174278096606 0.271265452527165
0.917208404744805 0.285232976568475
0.872733263748986 0.273348564777416
0 0.450000000001319
0.0433752591025032 0.422395384460108
0.0433752591025032 0.472395384460177
0.549999999999085 0
0.587474629871147 0.0422511942403947
0.537474629871084 0.0422511942403947
0.958552886846853 0.713511012560215
1 0.749999999999372
0.958552886846853 0.763511012560313
0.908395401053423 0.779324337930483
0.746641046551103 0.178399023446543
0.77536583244788 0.222082524603574
0.950000000000072 1
0.953809390943967 0.952412866709067
1 0.949999999999868
0.280191234063039 0.468129783199037
0.222654845010836 0.459031691718288
0.250157377196014 0.413638739141092
0.504389946258367 0.0629646610422519
0.54186457613043 0.105215855282647
0.514029542385289 0.174392649604969
0.46969306641894 0.198660881409186
0.464443416551364 0.15019755388872
0.473662959844785 0.861496698375629
0.51912276848558 0.87034485243054
0.486624866252122 0.911299256635917
0.623218516858336 0.43290695063131
0.653201581823956 0.400735736029437
0.686267909597162 0.452357918798243
0.294967344300263 0.5151461748203
0.32246987648544 0.469753222243105
0.450278576976348 0.802191412059018
0.41778067474289 0.843145816264395
0.543092496987616 0.787174488076952
0.493284947461114 0.770644224941116
0.530216582370487 0.737276418847815
0.301621417330198 0.116314425801246
0.336030843413588 0.112495755407718
0.311217461120545 0.150415325482948
0.380977324909461 0.205197084695355
0.343737298218921 0.191262519393597
0.382866913894474 0.160531220391179
0.309327872135532 0.195081189787124
0.495517248091784 0.541931928842193
0.464336836325662 0.565948485052498
0.457061532238895 0.524159308354162
0.353440691920333 0.56047172713061
0.381563553597718 0.532472739214418
0.397758258795388 0.57617485248066
0.368099547940191 0.486582212869239
0.353323437702967 0.439565821247976
0.858331250390796 0.799599605632575
0.867041623031079 0.747297292823248
0.386067820908915 0.404089060609443
0.340438149454165 0.387260069983309
0.370731619778497 0.0812593684117893
0.407514219966463 0.0420619405487812
0.385406065175523 0.642338986366899
0.356173634533365 0.680597918026395
0.340402966475844 0.642432772056348
0.661022665768401 0.249412022208684
0.709416592260726 0.282477707827818
0.659105867334941 0.306486762302239
0.701123753036343 0.838352110967097
0.709767481701056 0.789351283234822
0.736838765238134 0.843930226489544
0.467324179257536 0.677477241116231
0.440792883038514 0.700625144024462
0.427708029452065 0.657356229428715
0.572894754699798 0.427017563145361
0.605961082473003 0.478639745914167
0.443597526581367 0.478268782008984
0.439193398990246 0.424425908232803
0.483837816413896 0.446299878367676
0.480225238089626 0.252155046633424
0.4306391122557 0.227959950917175
0.391509496580147 0.258691249919593
0.781017262716631 0.733147446017742
0.78122998313565 0.781250979641305
0.745269773483829 0.746825865133707
0.511598944523557 0.688664815625711
0.561406494050059 0.705195078761548
0.590680988139925 0.66333716975956
0.609298625986855 0.711948772981664
0.534792938953953 0.386870886227
0.503791673904365 0.351375796536143
0.559150924035543 0.345789678171648
0.754566601416429 0.264970216423668
0.818599043170123 0.26164977329298
0.749999999999372 0
0.780932057590754 0.0286036092919546
0.730932057590656 0.0286036092919546
0.0331234387922837 0.0299625196992858
0.0499999999998719 0
0.0831234387921636 0.0299625196992858
0.0716859594521535 0.100177045221721
0.0331234387922837 0.079962519699494
0 0.0500000000002081
0.307156726279618 0.631289798900369
0.336389156921777 0.593030867240872
0.417567690259384 0.12929483339525
0.380327663568843 0.115360268093491
0.752649802982968 0.322044956517223
0.521939632159741 0.486446555286037
0.51753550456862 0.432603681509856
0.809051391067054 0.803433164187697
0.773303901834252 0.817111583303662
0.397786512553749 0.732172331142365
0.437402662359219 0.752293342829881
0.320194451724107 0.54932875397463
0.277915809301707 0.547705314930563
0.126526506473166 0.483867405907253
0.139685753174408 0.424665708289654
0.179461741442568 0.463742345277941
0.209495598309593 0.518233389335887
0.709554761282037 0.74124774961126
0.412417114815245 0.502285338219289
0.478515938924818 0.608964716030506
0.52279070419084 0.620152290539987
0.498514090937108 0.645395901029964
0.426308110741444 0.372120156968135
0.266424842248821 0.590076159862526
0.270438651802888 0.639478064678002
0.544149696904533 0.571477537656822
0.564147848916822 0.60790872265628
0.612039980853618 0.614662416876396
0.449999999999097 0
0.457514219966387 0.0420619405487812
0.461904166225732 0.105026601591033
0.851934032717534 0.316236256597509
0.854263687457352 0.367384688606282
0.800129466878489 0.355685897121846
0.620895843131028 0.521881551586616
0.57057208097249 0.515992164100667
0.536874392817766 0.529688360958486
0.656312794787992 0.726932015846026
0.627038300698126 0.768789924848014
0.691815086570765 0.68440659774491
0.600432064963874 0.327352922272805
0.569430799914285 0.291857832581948
0.52371442561941 0.266575282803112
0.564995566547741 0.248138526904269
0.48466047145617 0.295874352311102
0.711875384195023 0.379869576058871
0.648825991456198 0.360418607891939
0.391024333926293 0.90363820007876
0.367639951057856 0.844332913762149
0.308484880612326 0.851730939359729
0.335241221428922 0.791238555545364
0.411937361394544 0.619191083458668
0.44006022307193 0.591192095542476
0.307423492423581 0.277158828632049
0.35751512094701 0.293855846521274
0.323090904136683 0.335086291455551
0.290346520930735 0.370563052094083
0.407176908293249 0.316618712743095
0.232810131878532 0.361464960613334
0.188081758962299 0.347698592264488
0.228270902697021 0.304622905217479
0.692895665808158 0.162187649209125
0.728203321665075 0.115183704921406
0.718161028052084 0.0780897746339485
0.771906408795028 0.0943011488713668
0.637228970460639 0.0494861653419939
0.624703600332639 0.0917373595823886
0.687228970460702 0.0494861653419939
0.649999999999211 0
1 0.549999999999085
0.959319529797944 0.578825673837143
0.959319529797944 0.52882567383708
0.150735042269211 0.384706053085721
0.146195813087699 0.327863997689866
0.0977998072998086 0.404831113715033
0.282601313430996 0.0755670733455308
0.257787931137953 0.11348664342076
0.79596897423001 0.67192571005369
0.831929183881831 0.706350824561288
0.150000000000624 1
0.121107658372662 0.962532468002567
0.17110765837287 0.962532468002567
0.0933367946019528 0.313919143160407
0.130683511295041 0.276911682339174
0.0819636790909888 0.81026846788637
0.043878363709739 0.77756767870968
0.849999999999602 0
0.875110704624961 0.0317687242019155
0.825110704624829 0.0317687242019155
0.816085055829103 0.0974662637813277
0.878868523581091 0.103079920542102
0.168946516050273 0.645550701256146
0.19013656535243 0.59524951064655
0.208516718469933 0.648565616249756
0.121449544025902 0.0348086774707248
0.149999999999657 0
0.171449544025782 0.0348086774707248
0.219383913619135 0.0363696454825227
0.190833457645397 0.0711783229532475
0.295969087800457 0.232366085673828
0.263449250702081 0.191518891763179
0.216816498073897 0.259830162259258
0.26154487099013 0.273596530608104
0.0829022877599393 0.495123317259846
0.0395270286574361 0.522727932801057
0.122678276028099 0.534199954248133
0.655625996761481 0.198625155766472
0.605315271835696 0.222634210240893
0.637188271875453 0.135409837241334
0.906468230681787 0.389872554728235
0.953434104033588 0.425905030686849
0.854663664842742 0.429322195252571
0.208459447948288 0.123487277279385
0.227479551847491 0.1642346297351
0.0335058459858131 0.96880993703016
0 0.950000000000072
0.0335058459858131 0.918809937030229
0.0500000000002081 1
0.0835058459860212 0.96880993703016
0.0715911613670628 0.901510726206989
0.965773704716192 0.0306159841083964
1 0.0499999999998719
0.965773704716192 0.0806159841082763
0.949999999999868 0
0.915773704716059 0.0306159841083964
0.919531523672189 0.101927180448583
0.250000000000971 1
0.218685087205309 0.952970127814541
0.268685087205448 0.952970127814541
0.289126892325523 0.905382776602798
0.320441805121185 0.952412648788257
0.0389122464046473 0.281483413905413
0 0.250000000000971
0.0389122464046473 0.231483413905274
0.189792745577346 0.915502595817108
0.806042762216112 0.0603723334938701
0.127788836167059 0.789988138326979
0.12199578783857 0.845121248794266
0.155018130829773 0.874952927620005
0.109192973753703 0.895233257179396
0.104572982818305 0.0647711971700106
0.110012064685892 0.10502320299316
0.177573807041208 0.761853863047114
0.231706410075584 0.748751694001148
0.221953547949016 0.81173875018891
0.249999999999422 0
0.269383913619037 0.0363696454825227
0.890884409341286 0.0623847083103119
0.104613504358266 0.931342405032727
0.127638054988783 0.157332157319298
0.160525078354934 0.121926309267587
0.699399094936819 0.485592733591191
0.729382159902439 0.453421518989318
0.726044802476429 0.532992059333457
0.780753676684806 0.508910709498684
0.764285133919138 0.555246435049874
0.682930552171151 0.531928459142382
0.559598897540821 0.197351660462057
0.554349247673245 0.148888332941592
0.587433931285962 0.128174866139735
0 0.550000000001258
0.0395270286574361 0.572727932800848
0.0815856800603442 0.597035651594831
0.0420586514029081 0.624307718794955
0.158434428837048 0.55758931927424
0.114810210123821 0.568845230626832
0.117341832869293 0.620425016620938
0.881993334544458 0.686075556859196
0.868816533861702 0.544408216445119
0.882759977495549 0.601390218136188
0.832937451761362 0.588147086906168
0.0544245481973055 0.382435729256174
0.043878363709739 0.727567678709819
0 0.750000000000415
0.214120767512416 0.201519525621804
0.180846799219307 0.232545900231179
0.241197734824976 0.555893580708197
0.198004631256708 0.56060423426785
0.46030248637458 0.336955560366454
0.595516773257667 0.813337086501138
0.558585138348293 0.846704892594438
0.642530942058804 0.828320329365499
0.571547044755631 0.896507450854725
0.669602225595883 0.882899272620221
0.370441805121254 0.952412648788257
0.35000000000118 1
0.420582528806288 0.951225551290503
0.0420586514029081 0.674307718794746
0 0.650000000000724
0.0859370151126471 0.70187539750401
0.135721985986796 0.673741122224145
0.647541550670638 0.569280877328882
0.674074689893741 0.624709324432162
0.727316656387785 0.639025058197396
0.0774747670645172 0.201697939427293
0.12798778073356 0.21860104570172
0.759355048090544 0.413510516663494
0.772486233430202 0.446745331456443
0.754979457722786 0.373193388525996
0.605504707309658 0.936433745509312
0.566042337446944 0.960073705345414
0 0.35000000000118
0.0544245481973055 0.332435729256105
0.629900556399647 0.970724818155055
0.635405263708334 0.907158563664367
0.693998074685872 0.917190345265964
0.650000000000724 1
0.679900556399439 0.970724818155055
0.800864764291697 0.571978854430742
0.814808207925544 0.62896085612181
0.763896286760344 0.655757477578264
0.74615589008332 0.596060204265516
0.516042337447152 0.960073705345414
0.470582528806357 0.951225551290503
0.450000000001319 1
0.550000000001258 1
0.352783413854069 0.732266116831815
0.293628343408538 0.739664142429394
0.249248602500731 0.689779255287599
0.256728162696588 0.852288418386013
0.202595559662212 0.865390587431979
0.137541698293627 0.727001082139218
0.810726564872911 0.468999707172859
0.764097518286849 0.946465527110909
0.750000000000415 1
0.714097518286988 0.946465527110909
0.781724436916464 0.900883834311175
0.764660173169539 0.866112411035936
1 0.449999999999097
0.953434104033588 0.475905030686773
0.912753633831533 0.504730704524831
0.862931108097346 0.491487573294812
0.927582102666425 0.601805919976764
0.96826257286848 0.622980246138769
0.926815459715333 0.686491258699773
0.891703020566085 0.645544790437814
0.96826257286848 0.672980246138832
1 0.649999999999211

t	61 15 16
t	63 6 7
t	68 58 47
t	44 58 68
t	46 59 69
t	58 20 21
t	47 58 21
t	65 38 39
t	22 23 68
t	46 69 70
t	13 14 69
t	70 69 14
t	31 32 67
t	47 22 68
t	70 14 15
t	15 61 70
t	70 61 46
t	35 36 54
t	8 9 60
t	57 19 20
t	58 57 20
t	64 59 46
t	2 22 47
t	2 47 21
t	41 73 75
t	76 8 60
t	76 74 48
t	56 71 79
t	40 55 81
t	82 73 41
t	83 71 56
t	50 71 84
t	45 63 86
t	48 77 86
t	86 77 45
t	51 52 87
t	49 82 87
t	89 82 41
t	57 58 90
t	91 89 41
t	92 63 7
t	49 43 94
t	42 64 96
t	98 80 66
t	99 84 43
t	101 55 40
t	51 89 102
t	48 74 103
t	103 77 48
t	105 90 66
t	50 84 106
t	106 97 50
t	55 102 107
t	109 64 46
t	10 11 111
t	112 0 4
t	112 65 39
t	39 0 112
t	49 94 113
t	92 48 86
t	63 92 86
t	64 109 96
t	101 51 102
t	101 102 55
t	90 58 44
t	66 90 44
t	83 43 84
t	83 84 71
t	82 49 113
t	82 113 73
t	78 54 75
t	73 78 75
t	105 66 80
t	89 51 87
t	82 89 87
t	99 52 106
t	99 106 84
t	91 102 89
t	100 113 94
t	106 52 110
t	106 110 97
t	92 7 8
t	8 76 92
t	92 76 48
t	109 46 61
t	109 61 88
t	40 110 101
t	52 51 110
t	101 110 51
t	50 97 80
t	97 105 80
t	42 55 107
t	107 74 42
t	107 103 74
t	96 81 55
t	55 42 96
t	56 72 83
t	72 85 83
t	99 43 49
t	49 87 99
t	99 87 52
t	62 77 91
t	91 41 62
t	77 103 91
t	62 41 75
t	62 75 95
t	59 64 93
t	59 93 111
t	9 93 60
t	111 93 10
t	9 10 93
t	17 18 53
t	95 75 114
t	114 75 54
t	115 63 45
t	90 105 116
t	29 30 117
t	95 114 118
t	119 67 32
t	11 12 123
t	69 59 123
t	124 104 100
t	125 4 5
t	5 115 125
t	45 77 126
t	62 95 126
t	126 77 62
t	35 54 127
t	127 54 78
t	128 64 42
t	93 64 128
t	129 61 16
t	88 61 129
t	130 115 45
t	132 3 31
t	30 3 132
t	31 67 132
t	133 1 13
t	12 1 133
t	13 69 133
t	28 29 134
t	134 72 28
t	118 37 38
t	134 29 117
t	111 11 123
t	111 123 59
t	119 135 67
t	67 135 117
t	112 4 125
t	112 125 65
t	135 124 85
t	115 5 6
t	63 115 6
t	123 12 133
t	123 133 69
t	117 30 132
t	117 132 67
t	130 65 125
t	115 130 125
t	120 40 81
t	122 120 108
t	40 120 122
t	128 42 74
t	74 76 128
t	93 128 60
t	128 76 60
t	34 35 127
t	34 127 131
t	78 104 127
t	131 127 104
t	57 90 116
t	108 53 116
t	36 114 54
t	33 119 32
t	130 45 126
t	130 126 95
t	78 73 100
t	100 73 113
t	100 104 78
t	91 103 102
t	107 102 103
t	50 121 71
t	80 121 50
t	79 71 121
t	121 80 98
t	28 72 27
t	27 72 56
t	131 33 34
t	131 119 33
t	104 124 131
t	40 122 110
t	122 97 110
t	105 97 122
t	118 38 65
t	118 65 130
t	130 95 118
t	81 88 120
t	81 96 88
t	109 88 96
t	79 121 25
t	114 36 37
t	118 114 37
t	136 25 121
t	121 98 136
t	24 25 136
t	137 108 116
t	137 105 122
t	122 108 137
t	116 105 137
t	56 79 26
t	56 26 27
t	25 26 79
t	94 43 83
t	85 94 83
t	85 124 94
t	100 94 124
t	85 72 134
t	135 85 134
t	135 134 117
t	135 119 124
t	124 119 131
t	88 108 120
t	98 23 24
t	98 24 136
t	68 98 44
t	66 44 98
t	68 23 98
t	16 17 129
t	17 53 129
t	129 53 108
t	88 129 108
t	138 53 18
t	138 57 116
t	116 53 138
t	19 138 18
t	57 138 19

e	61 15
e	15 16
e	16 61
e	63 6
e	6 7
e	7 63
e	68 58
e	58 47
e	47 68
e	44 58
e	68 44
e	46 59
e	59 69
e	69 46
e	58 20
e	20 21
e	21 58
e	21 47
e	65 38
e	38 39
e	39 65
e	22 23
e	23 68
e	68 22
e	69 70
e	70 46
e	13 14
e	14 69
e	69 13
e	14 70
e	31 32
e	32 67
e	67 31
e	47 22
e	14 15
e	15 70
e	61 70
e	61 46
e	35 36
e	36 54
e	54 35
e	8 9
e	9 60
e	60 8
e	57 19
e	19 20
e	20 57
e	58 57
e	64 59
e	46 64
e	2 22
e	47 2
e	21 2
e	41 73
e	73 75
e	75 41
e	76 8
e	60 76
e	76 74
e	74 48
e	48 76
e	56 71
e	71 79
e	79 56
e	40 55
e	55 81
e	81 40
e	82 73
e	41 82
e	83 71
e	56 83
e	50 71
e	71 84
e	84 50
e	45 63
e	63 86
e	86 45
e	48 77
e	77 86
e	86 48
e	77 45
e	51 52
e	52 87
e	87 51
e	49 82
e	82 87
e	87 49
e	89 82
e	41 89
e	58 90
e	90 57
e	91 89
e	41 91
e	92 63
e	7 92
e	49 43
e	43 94
e	94 49
e	42 64
e	64 96
e	96 42
e	98 80
e	80 66
e	66 98
e	99 84
e	84 43
e	43 99
e	101 55
e	40 101
e	51 89
e	89 102
e	102 51
e	74 103
e	103 48
e	103 77
e	105 90
e	90 66
e	66 105
e	84 106
e	106 50
e	106 97
e	97 50
e	55 102
e	102 107
e	107 55
e	109 64
e	46 109
e	10 11
e	11 111
e	111 10
e	112 0
e	0 4
e	4 112
e	112 65
e	39 112
e	39 0
e	94 113
e	113 49
e	92 48
e	86 92
e	109 96
e	101 51
e	102 101
e	44 90
e	44 66
e	83 43
e	84 83
e	113 82
e	113 73
e	78 54
e	54 75
e	75 78
e	73 78
e	80 105
e	87 89
e	99 52
e	52 106
e	106 99
e	91 102
e	100 113
e	94 100
e	52 110
e	110 106
e	110 97
e	7 8
e	8 92
e	76 92
e	61 109
e	61 88
e	88 109
e	40 110
e	110 101
e	51 110
e	97 80
e	80 50
e	97 105
e	42 55
e	107 42
e	107 74
e	74 42
e	107 103
e	96 81
e	55 96
e	56 72
e	72 83
e	72 85
e	85 83
e	49 99
e	87 99
e	62 77
e	77 91
e	91 62
e	41 62
e	103 91
e	75 62
e	75 95
e	95 62
e	64 93
e	93 59
e	93 111
e	111 59
e	9 93
e	93 60
e	93 10
e	9 10
e	17 18
e	18 53
e	53 17
e	75 114
e	114 95
e	54 114
e	115 63
e	45 115
e	105 116
e	116 90
e	29 30
e	30 117
e	117 29
e	114 118
e	118 95
e	119 67
e	32 119
e	11 12
e	12 123
e	123 11
e	59 123
e	123 69
e	124 104
e	104 100
e	100 124
e	125 4
e	4 5
e	5 125
e	5 115
e	115 125
e	77 126
e	126 45
e	95 126
e	126 62
e	54 127
e	127 35
e	78 127
e	128 64
e	42 128
e	128 93
e	129 61
e	16 129
e	129 88
e	130 115
e	45 130
e	132 3
e	3 31
e	31 132
e	30 3
e	132 30
e	67 132
e	133 1
e	1 13
e	13 133
e	12 1
e	133 12
e	69 133
e	28 29
e	29 134
e	134 28
e	134 72
e	72 28
e	118 37
e	37 38
e	38 118
e	117 134
e	123 111
e	119 135
e	135 67
e	135 117
e	117 67
e	125 112
e	125 65
e	135 124
e	124 85
e	85 135
e	5 6
e	6 115
e	133 123
e	132 117
e	130 65
e	125 130
e	120 40
e	81 120
e	122 120
e	120 108
e	108 122
e	122 40
e	74 128
e	76 128
e	128 60
e	34 35
e	127 34
e	127 131
e	131 34
e	78 104
e	104 127
e	104 131
e	116 57
e	108 53
e	53 116
e	116 108
e	36 114
e	33 119
e	32 33
e	126 130
e	95 130
e	73 100
e	100 78
e	103 102
e	50 121
e	121 71
e	80 121
e	121 79
e	98 121
e	72 27
e	27 28
e	56 27
e	131 33
e	33 34
e	131 119
e	124 131
e	122 110
e	122 97
e	122 105
e	65 118
e	130 118
e	81 88
e	88 120
e	96 88
e	121 25
e	25 79
e	36 37
e	37 114
e	136 25
e	121 136
e	98 136
e	24 25
e	136 24
e	137 108
e	116 137
e	137 105
e	122 137
e	79 26
e	26 56
e	26 27
e	25 26
e	83 94
e	85 94
e	124 94
e	134 85
e	134 135
e	119 124
e	88 108
e	98 23
e	23 24
e	24 98
e	68 98
e	98 44
e	16 17
e	17 129
e	53 129
e	108 129
e	138 53
e	18 138
e	138 57
e	116 138
e	19 138
e	18 19

domain
boundary
2 1 40
131
231
281
4
164
41
204
127
222
259
257
26
34
1
364
205
373
45
15
52
50
21
360
342
351
350
321
262
215
253
251
30
309
324
296
38
337
268
19
135

domain
bottom
2 1 10
131
231
281
4
164
41
204
127
222
259

domain
right
2 1 10
257
26
34
1
364
205
373
45
15
52

domain
top
2 1 10
50
21
360
342
351
350
321
262
215
253

domain
left
2 1 10
251
30
309
324
296
38
337
268
19
135
