#!geo

mesh
4
header
 dimension 2
 nodes 142
 triangles 242
 edges 383
end header
0 0
1 0
1 1
0 1
0.9 0
0.8 0
0.7 0
0.6 0
0.5 0
0.4 0
0.3 0
0.2 0
0.1 0
1 0.9
1 0.8
1 0.7
1 0.6
1 0.5
1 0.4
1 0.3
1 0.2
1 0.1
0.1 1
0.2 1
0.3 1
0.4 1
0.5 1
0.6 1
0.7 1
0.8 1
0.9 1
0 0.1
0 0.2
0 0.3
0 0.4
0 0.5
0 0.6
0 0.7
0 0.8
0 0.9
0.849999998976 0.0749999997439
0.15 0.149999998976
0.266666684595 0.13333332565
0.33333337175 0.933333391215
0.13333332565 0.933333335894
0.428571433181 0.928571424986
0.119999999898 0.759999999693
0.0999999994878 0.849999998976
0.850000002049 0.849999998976
0.799999999488 0.75
0.666666666154 0.933333332821
0.600000000512 0.499999994365
0.142857137223 0.357142854582
0.714285704553 0.214285709676
0.866666668203 0.266666660008
0.899999999488 0.15
0.0749999997439 0.224999999232
0.200000012806 0.199999993341
0.266666696888 0.866666713279
0.928571454695 0.571428566819
0.357142860728 0.857142853557
0.179999999078 0.839999999283
0.775000000768 0.924999999232
0.733333332821 0.833333332821
0.924999999232 0.849999998976
0.500000000512 0.499999994365
0.214285709676 0.285714283153
0.785714278031 0.285714282129
0.933333333846 0.333333329748
0.133333342041 0.0666666620566
0.819999999898 0.159999999693
0.133333342041 0.266666662057
0.857142879169 0.642857138247
0.285714288275 0.785714283153
0.400000000512 0.49999999539
0.285714282129 0.214285712749
0.857142852533 0.357142854582
0.0666666702523 0.133333330772
0.759999999693 0.079999999078
0.0666666702523 0.333333330772
0.133333332821 0.666666666154
0.214285715822 0.714285711725
0.225000001281 0.925000002305
0.866666663081 0.933333384044
0.933333332821 0.666666666154
0.300000000512 0.499999996414
0.357142854582 0.14285714132
0.92857142601 0.428571427035
0.900000001537 0.499999991292
0.199999999488 0.499999997439
0.428571427035 0.0714285709163
0.666666672301 0.0666666518121
0.642857151565 0.857142855606
0.0714285719408 0.571428569892
0.919999999898 0.759999999693
0.800000001537 0.499999992317
0.0999999994878 0.499999998463
0.571428557598 0.0714285657941
0.924999999232 0.224999999232
0.225000000256 0.0749999987194
0.333333355359 0.0666666569343
0.571428575014 0.928571427035
0.700000000512 0.499999993341
0.0714285657941 0.42857142601
0.642857131076 0.142857137223
0.621428577575 0.678571423449
0.428571439328 0.678571395789
0.257142854582 0.392857138759
0.166666667179 0.583333344602
0.638095235534 0.404761898103
0.339285725811 0.714285699431
0.338095238607 0.571428566819
0.766666666154 0.666666664106
0.452380964162 0.857142840239
0.446428570148 0.428571423961
0.666666666154 0.583333329236
0.742857140296 0.392857167444
0.17142857399 0.428571443426
0.535714281616 0.410714277775
0.338095253974 0.428571445475
0.257142882242 0.607142821287
0.632142864058 0.767857139015
0.392857150028 0.767857124673
0.446428601906 0.571428534036
0.828571386057 0.4285714926
0.339285711468 0.285714283153
0.392857133637 0.232142847667
0.828571440353 0.57142856477
0.607142844849 0.232142845618
0.547619067596 0.142857133125
0.67619047158 0.309523802865
0.535714274445 0.589285674076
0.547619067596 0.857142826921
0.392857140808 0.357142853557
0.571428563745 0.321428561184
0.452380954942 0.142857135174
0.747619055302 0.57738093727
0.699404718493 0.717261933319
0.488095253462 0.767857111355
0.524999997183 0.678571409107
0.499999989243 0.232142846642
0.482142852277 0.339285707371

t	118 109 51
t	141 126 140
t	119 133 114
t	125 126 133
t	134 130 109
t	114 141 118
t	128 130 134
t	6 78 91
t	101 50 27
t	121 63 92
t	49 48 63
t	2 30 13
t	83 29 62
t	83 64 13
t	62 28 50
t	64 14 13
t	30 83 13
t	48 49 94
t	62 63 48
t	27 50 28
t	27 26 101
t	94 84 15
t	48 94 64
t	49 72 94
t	110 122 73
t	50 92 63
t	113 45 60
t	139 121 138
t	101 45 113
t	64 94 14
t	101 92 50
t	45 101 26
t	122 60 73
t	58 60 43
t	24 82 43
t	123 74 65
t	51 131 65
t	106 111 123
t	121 132 138
t	137 121 105
t	115 137 105
t	112 49 137
t	138 113 122
t	92 132 121
t	92 101 132
t	120 81 80
t	89 120 108
t	111 110 120
t	122 110 106
t	138 122 106
t	123 139 106
t	132 113 138
t	113 60 122
t	73 81 110
t	58 73 60
t	96 93 35
t	34 103 35
t	89 108 96
t	108 80 93
t	85 120 89
t	120 80 108
t	120 110 81
t	74 111 85
t	106 110 111
t	73 61 81
t	46 37 80
t	83 48 64
t	29 83 30
t	62 48 83
t	28 62 29
t	50 63 62
t	131 123 65
t	115 131 51
t	139 138 106
t	105 139 131
t	105 121 139
t	43 60 45
t	58 61 73
t	84 16 15
t	45 26 25
t	3 39 22
t	39 38 47
t	44 22 39
t	37 46 38
t	23 22 44
t	47 38 46
t	61 47 46
t	81 61 46
t	58 82 61
t	44 39 47
t	82 23 44
t	61 82 44
t	58 43 82
t	120 85 111
t	103 117 96
t	117 107 89
t	44 47 61
t	37 36 80
t	82 24 23
t	103 34 79
t	117 103 52
t	107 117 52
t	89 96 117
t	96 35 103
t	25 24 43
t	107 52 66
t	75 125 66
t	85 89 107
t	123 111 74
t	93 36 35
t	108 93 96
t	80 36 93
t	45 25 43
t	115 51 102
t	49 63 137
t	132 101 113
t	139 123 131
t	46 80 81
t	85 107 119
t	75 57 42
t	75 66 57
t	99 100 42
t	125 133 107
t	86 126 75
t	133 119 107
t	71 56 41
t	52 71 66
t	52 79 71
t	79 52 103
t	33 79 34
t	33 56 79
t	126 125 75
t	90 135 86
t	141 134 118
t	126 141 133
t	140 134 141
t	140 129 128
t	86 135 126
t	90 97 135
t	104 53 128
t	74 114 65
t	125 107 66
t	74 119 114
t	74 85 119
t	0 12 31
t	99 11 10
t	41 99 42
t	69 11 99
t	77 69 41
t	12 11 69
t	69 77 12
t	99 10 100
t	77 56 32
t	12 77 31
t	41 56 77
t	9 90 100
t	77 32 31
t	57 71 41
t	33 32 56
t	90 9 8
t	100 86 42
t	9 100 10
t	90 86 100
t	7 91 97
t	129 104 128
t	75 42 86
t	71 79 56
t	7 97 8
t	72 84 94
t	41 69 99
t	57 66 71
t	42 57 41
t	141 114 133
t	1 21 4
t	21 20 55
t	40 4 21
t	98 19 68
t	40 5 4
t	67 76 116
t	70 67 53
t	54 68 76
t	78 5 40
t	68 19 18
t	87 76 68
t	17 87 18
t	17 59 88
t	54 98 68
t	127 59 72
t	112 127 72
t	95 88 127
t	70 40 55
t	98 70 55
t	91 7 6
t	53 104 78
t	97 90 8
t	104 97 91
t	78 104 91
t	53 130 128
t	140 128 134
t	135 140 126
t	135 129 140
t	97 129 135
t	97 104 129
t	78 6 5
t	70 78 40
t	70 53 78
t	70 54 67
t	21 55 40
t	98 54 70
t	20 98 55
t	20 19 98
t	118 65 114
t	67 116 130
t	51 65 118
t	136 102 95
t	112 136 127
t	115 102 136
t	124 87 88
t	94 15 14
t	59 84 72
t	59 16 84
t	102 109 116
t	17 16 59
t	88 87 17
t	127 88 59
t	115 105 131
t	95 127 136
t	112 137 115
t	49 112 72
t	137 63 121
t	134 109 118
t	67 130 53
t	116 109 130
t	124 116 76
t	87 124 76
t	95 116 124
t	95 102 116
t	136 112 115
t	51 109 102
t	95 124 88
t	54 76 67
t	68 18 87

e	118 109
e	109 51
e	51 118
e	141 126
e	126 140
e	140 141
e	119 133
e	133 114
e	114 119
e	125 126
e	126 133
e	133 125
e	134 130
e	130 109
e	109 134
e	114 141
e	141 118
e	118 114
e	128 130
e	134 128
e	6 78
e	78 91
e	91 6
e	101 50
e	50 27
e	27 101
e	121 63
e	63 92
e	92 121
e	49 48
e	48 63
e	63 49
e	2 30
e	30 13
e	13 2
e	83 29
e	29 62
e	62 83
e	83 64
e	64 13
e	13 83
e	62 28
e	28 50
e	50 62
e	64 14
e	14 13
e	30 83
e	49 94
e	94 48
e	62 63
e	48 62
e	28 27
e	27 26
e	26 101
e	94 84
e	84 15
e	15 94
e	94 64
e	64 48
e	49 72
e	72 94
e	110 122
e	122 73
e	73 110
e	50 92
e	63 50
e	113 45
e	45 60
e	60 113
e	139 121
e	121 138
e	138 139
e	101 45
e	113 101
e	94 14
e	101 92
e	26 45
e	122 60
e	60 73
e	58 60
e	60 43
e	43 58
e	24 82
e	82 43
e	43 24
e	123 74
e	74 65
e	65 123
e	51 131
e	131 65
e	65 51
e	106 111
e	111 123
e	123 106
e	121 132
e	132 138
e	137 121
e	121 105
e	105 137
e	115 137
e	105 115
e	112 49
e	49 137
e	137 112
e	138 113
e	113 122
e	122 138
e	92 132
e	101 132
e	120 81
e	81 80
e	80 120
e	89 120
e	120 108
e	108 89
e	111 110
e	110 120
e	120 111
e	110 106
e	106 122
e	106 138
e	123 139
e	139 106
e	132 113
e	73 81
e	81 110
e	58 73
e	96 93
e	93 35
e	35 96
e	34 103
e	103 35
e	35 34
e	108 96
e	96 89
e	108 80
e	80 93
e	93 108
e	85 120
e	89 85
e	74 111
e	111 85
e	85 74
e	73 61
e	61 81
e	46 37
e	37 80
e	80 46
e	83 48
e	30 29
e	29 28
e	131 123
e	115 131
e	51 115
e	105 139
e	139 131
e	131 105
e	45 43
e	58 61
e	84 16
e	16 15
e	26 25
e	25 45
e	3 39
e	39 22
e	22 3
e	39 38
e	38 47
e	47 39
e	44 22
e	39 44
e	46 38
e	38 37
e	23 22
e	44 23
e	46 47
e	61 47
e	46 61
e	46 81
e	58 82
e	82 61
e	47 44
e	82 23
e	44 82
e	44 61
e	103 117
e	117 96
e	96 103
e	117 107
e	107 89
e	89 117
e	37 36
e	36 80
e	24 23
e	34 79
e	79 103
e	103 52
e	52 117
e	52 107
e	25 24
e	43 25
e	52 66
e	66 107
e	75 125
e	125 66
e	66 75
e	107 85
e	93 36
e	36 35
e	51 102
e	102 115
e	63 137
e	107 119
e	119 85
e	75 57
e	57 42
e	42 75
e	66 57
e	99 100
e	100 42
e	42 99
e	133 107
e	107 125
e	86 126
e	126 75
e	75 86
e	71 56
e	56 41
e	41 71
e	52 71
e	71 66
e	52 79
e	79 71
e	33 79
e	34 33
e	33 56
e	56 79
e	90 135
e	135 86
e	86 90
e	141 134
e	134 118
e	141 133
e	140 134
e	140 129
e	129 128
e	128 140
e	135 126
e	90 97
e	97 135
e	104 53
e	53 128
e	128 104
e	74 114
e	114 65
e	74 119
e	0 12
e	12 31
e	31 0
e	99 11
e	11 10
e	10 99
e	41 99
e	42 41
e	69 11
e	99 69
e	77 69
e	69 41
e	41 77
e	12 11
e	69 12
e	77 12
e	10 100
e	77 56
e	56 32
e	32 77
e	77 31
e	9 90
e	90 100
e	100 9
e	32 31
e	57 71
e	41 57
e	33 32
e	9 8
e	8 90
e	100 86
e	86 42
e	10 9
e	7 91
e	91 97
e	97 7
e	129 104
e	97 8
e	8 7
e	72 84
e	1 21
e	21 4
e	4 1
e	21 20
e	20 55
e	55 21
e	40 4
e	21 40
e	98 19
e	19 68
e	68 98
e	40 5
e	5 4
e	67 76
e	76 116
e	116 67
e	70 67
e	67 53
e	53 70
e	54 68
e	68 76
e	76 54
e	78 5
e	40 78
e	19 18
e	18 68
e	87 76
e	68 87
e	17 87
e	87 18
e	18 17
e	17 59
e	59 88
e	88 17
e	54 98
e	127 59
e	59 72
e	72 127
e	112 127
e	72 112
e	95 88
e	88 127
e	127 95
e	70 40
e	40 55
e	55 70
e	98 70
e	55 98
e	7 6
e	104 78
e	78 53
e	104 97
e	91 104
e	53 130
e	135 140
e	135 129
e	97 129
e	6 5
e	70 78
e	70 54
e	54 67
e	20 98
e	20 19
e	118 65
e	116 130
e	130 67
e	136 102
e	102 95
e	95 136
e	112 136
e	136 127
e	136 115
e	124 87
e	87 88
e	88 124
e	15 14
e	59 84
e	59 16
e	102 109
e	109 116
e	116 102
e	17 16
e	115 112
e	124 116
e	76 124
e	95 116
e	124 95

domain
bottom
2 1 10
-298
-308
-353
-344
-294
-284
-288
-260
-269
-256

domain
right
2 1 10
-34
-45
-371
-160
-377
-326
-320
-358
-299
-296

domain
top
2 1 10
-165
-173
-193
-199
-161
-52
-51
-150
-149
-32

domain
left
2 1 10
-258
-280
-283
-234
-132
-208
-191
-172
-166
-163

