#!geo

mesh
4
header
 dimension	3
 order		7
 nodes		120
 tetrahedra	1
end header

0 0 0
1 0 0
0 1 0
0 0 1
0.16734693877551 0.0183673469387755 0.0122448979591837
0.326530612244898 0.0306122448979592 0.0204081632653061
0.477551020408163 0.036734693877551 0.0244897959183673
0.620408163265306 0.036734693877551 0.0244897959183673
0.755102040816327 0.0306122448979592 0.0204081632653061
0.881632653061224 0.0183673469387755 0.0122448979591837
0.906122448979592 0.179591836734694 0.0244897959183673
0.795918367346939 0.346938775510204 0.0408163265306122
0.669387755102041 0.502040816326531 0.0489795918367347
0.526530612244898 0.644897959183673 0.0489795918367347
0.36734693877551 0.775510204081633 0.0408163265306122
0.191836734693877 0.893877551020408 0.0244897959183673
0.0244897959183674 0.875510204081633 0.0122448979591837
0.0408163265306122 0.744897959183674 0.0204081632653061
0.0489795918367347 0.608163265306122 0.0244897959183673
0.0489795918367347 0.46530612244898 0.0244897959183673
0.0408163265306122 0.316326530612245 0.0204081632653061
0.0244897959183673 0.161224489795918 0.0122448979591837
0.0244897959183674 0.0183673469387755 0.869387755102041
0.0408163265306122 0.0306122448979592 0.73469387755102
0.0489795918367347 0.036734693877551 0.595918367346939
0.0489795918367347 0.036734693877551 0.453061224489796
0.0408163265306122 0.0306122448979592 0.306122448979592
0.0244897959183673 0.0183673469387755 0.155102040816326
0.0489795918367347 0.179591836734694 0.881632653061224
0.0816326530612245 0.346938775510204 0.755102040816327
0.0979591836734694 0.502040816326531 0.620408163265306
0.0979591836734694 0.644897959183673 0.477551020408163
0.0816326530612245 0.775510204081633 0.326530612244898
0.0489795918367347 0.893877551020408 0.16734693877551
0.191836734693877 0.036734693877551 0.881632653061224
0.36734693877551 0.0612244897959184 0.755102040816327
0.526530612244898 0.073469387755102 0.620408163265306
0.669387755102041 0.073469387755102 0.477551020408163
0.795918367346939 0.0612244897959184 0.326530612244898
0.906122448979592 0.036734693877551 0.16734693877551
0.191836734694131 0.179591836734781 0.0244897959183868
0.208163265306366 0.763265306122574 0.0326530612245009
0.779591836735512 0.191836734693809 0.0326530612244507
0.208163265306375 0.334693877551135 0.0326530612245088
0.216326530612494 0.483673469387892 0.036734693877568
0.216326530612488 0.626530612245052 0.0367346938775646
0.37551020408213 0.638775510204235 0.0448979591836915
0.526530612245633 0.502040816326634 0.0489795918367461
0.661224489796805 0.353061224489815 0.0448979591836621
0.644897959184552 0.197959183673446 0.0367346938775378
0.502040816327263 0.197959183673512 0.0367346938775629
0.351020408163769 0.191836734693964 0.0326530612245131
0.367346938776013 0.346938775510319 0.0408163265306353
0.375510204082133 0.495918367347077 0.0448979591836946
0.51836734693951 0.353061224489871 0.044897959183686
0.191836734693975 0.0367346938775802 0.167346938775744
0.779591836734824 0.0489795918367514 0.175510204081865
0.208163265306035 0.048979591836676 0.746938775511061
0.35102040816339 0.0489795918367632 0.175510204081866
0.502040816326676 0.0551020408163519 0.179591836734926
0.644897959183835 0.0551020408163468 0.179591836734924
0.661224489796081 0.0673469387755372 0.330612244898439
0.526530612245007 0.0734693877551192 0.477551020408887
0.375510204081646 0.0673469387754931 0.616326530613143
0.216326530612215 0.0551020408163067 0.608163265307014
0.216326530612294 0.0551020408163444 0.4653061224497
0.208163265306221 0.0489795918367696 0.318367346939255
0.367346938775637 0.0612244897959529 0.326530612245378
0.518367346938924 0.0673469387755419 0.330612244898438
0.375510204081714 0.067346938775529 0.473469387755824
0.0489795918367736 0.179591836734938 0.167346938775588
0.0653061224490019 0.191836734694115 0.746938775510324
0.0653061224489014 0.763265306123286 0.175510204081584
0.0653061224490177 0.191836734694121 0.318367346938881
0.0734693877551359 0.19795918367371 0.465306122449108
0.0734693877551291 0.197959183673706 0.60816326530627
0.0897959183673829 0.353061224490285 0.616326530612389
0.0979591836734922 0.50204081632726 0.477551020408261
0.0897959183673241 0.638775510204974 0.330612244897984
0.0734693877550756 0.626530612245783 0.179591836734677
0.0734693877551259 0.483673469388481 0.179591836734731
0.0653061224490261 0.334693877551512 0.175510204081708
0.0816326530612706 0.346938775510696 0.326530612245001
0.0897959183673892 0.353061224490286 0.47346938775523
0.0897959183673721 0.495918367347667 0.330612244898028
0.232653061224567 0.210204081632882 0.759183673469633
0.804081632653272 0.210204081632951 0.187755102041432
0.232653061224508 0.781632653062141 0.187755102041572
0.400000000000114 0.228571428571664 0.628571428571819
0.551020408163426 0.234693877551272 0.489795918367881
0.685714285714499 0.228571428571704 0.342857142857792
0.68571428571455 0.371428571429137 0.200000000000785
0.551020408163483 0.520408163266117 0.204081632653885
0.400000000000127 0.657142857143834 0.200000000000835
0.257142857142883 0.657142857143784 0.342857142857809
0.265306122449042 0.520408163266043 0.489795918367852
0.257142857142946 0.371428571429056 0.628571428571788
0.416326530612385 0.383673469388257 0.493877551020921
0.559183673469589 0.383673469388284 0.351020408163929
0.41632653061238 0.526530612245666 0.351020408163931
0.216326530612799 0.197959183674496 0.179591836735559
0.669387755101678 0.21632653061322 0.191836734694769
0.240816326533426 0.644897959187404 0.191836734695244
0.24081632653066 0.216326530613573 0.620408163267681
0.375510204081976 0.210204081633704 0.187755102041556
0.526530612244981 0.216326530613273 0.191836734694605
0.542857142857699 0.371428571430706 0.200000000001175
0.400000000001635 0.514285714288815 0.200000000001299
0.240816326532723 0.502040816329547 0.191836734695222
0.232653061225779 0.353061224491846 0.187755102042041
0.240816326530881 0.216326530613593 0.47755102041023
0.232653061224953 0.210204081633886 0.330612244899485
0.257142857143768 0.371428571431001 0.485714285716753
0.257142857144783 0.514285714288964 0.342857142859289
0.399999999999808 0.228571428572793 0.485714285716114
0.542857142856836 0.228571428572665 0.34285714285849
0.391836734694867 0.365306122451109 0.195918367348048
0.391836734694012 0.222448979593089 0.338775510205399
0.248979591837912 0.365306122451325 0.338775510206152
0.408163265306822 0.377551020410569 0.346938775512064

T	p7 0 1 2 3 4 5 6 7 8 9 10 11 12 13 14 15 16 17 18 19 20 21 27 26 25 24 23 22 39 38 37 36 35 34 33 32 31 30 29 28 40 43 44 45 41 51 52 53 46 50 54 47 49 48 42 70 73 74 75 71 81 82 83 76 80 84 77 79 78 72 55 58 59 60 56 66 67 68 61 65 69 62 64 63 57 86 91 92 93 87 90 98 99 94 89 97 95 88 96 85 100 104 105 101 109 116 106 108 107 102 111 117 115 118 119 113 110 114 112 103

