$MeshFormat
2.2 0 8
$EndMeshFormat
$PhysicalNames
2
2 1 "boundary"
3 2 "internal"
$EndPhysicalNames
$Nodes
385
1 0 0 0
2 1 0 0
3 0 1 0
4 0 0 1
5 -0.4 -1.3 -0.2
6 0.130864197530864 0.0148148148148148 0.00987654320987654
7 0.25679012345679 0.0259259259259259 0.0172839506172839
8 0.377777777777778 0.0333333333333333 0.0222222222222222
9 0.493827160493827 0.037037037037037 0.0246913580246914
10 0.604938271604938 0.037037037037037 0.0246913580246914
11 0.711111111111111 0.0333333333333333 0.0222222222222222
12 0.812345679012346 0.0259259259259259 0.0172839506172839
13 0.908641975308642 0.0148148148148148 0.00987654320987655
14 0.928395061728395 0.140740740740741 0.0197530864197531
15 0.846913580246914 0.274074074074074 0.0345679012345679
16 0.755555555555556 0.4 0.0444444444444445
17 0.654320987654321 0.518518518518518 0.0493827160493827
18 0.54320987654321 0.62962962962963 0.0493827160493827
19 0.422222222222222 0.733333333333333 0.0444444444444445
20 0.291358024691358 0.82962962962963 0.0345679012345679
21 0.150617283950617 0.918518518518519 0.0197530864197531
22 0.0197530864197531 0.903703703703704 0.00987654320987655
23 0.0345679012345679 0.803703703703704 0.0172839506172839
24 0.0444444444444445 0.7 0.0222222222222222
25 0.0493827160493827 0.592592592592593 0.0246913580246914
26 0.0493827160493827 0.481481481481481 0.0246913580246914
27 0.0444444444444445 0.366666666666667 0.0222222222222222
28 0.0345679012345679 0.248148148148148 0.0172839506172839
29 0.0197530864197531 0.125925925925926 0.00987654320987654
30 0.0197530864197531 0.0148148148148148 0.898765432098765
31 0.0345679012345679 0.0259259259259259 0.795061728395062
32 0.0444444444444445 0.0333333333333333 0.688888888888889
33 0.0493827160493827 0.037037037037037 0.580246913580247
34 0.0493827160493827 0.037037037037037 0.469135802469136
35 0.0444444444444445 0.0333333333333333 0.355555555555556
36 0.0345679012345679 0.0259259259259259 0.239506172839506
37 0.0197530864197531 0.0148148148148148 0.120987654320988
38 0.0395061728395062 0.140740740740741 0.908641975308642
39 0.0691358024691358 0.274074074074074 0.812345679012346
40 0.0888888888888889 0.4 0.711111111111111
41 0.0987654320987654 0.518518518518518 0.604938271604938
42 0.0987654320987654 0.62962962962963 0.493827160493827
43 0.0888888888888889 0.733333333333333 0.377777777777778
44 0.0691358024691358 0.82962962962963 0.25679012345679
45 0.0395061728395062 0.918518518518519 0.130864197530864
46 0.150617283950617 0.0296296296296296 0.908641975308642
47 0.291358024691358 0.0518518518518519 0.812345679012346
48 0.422222222222222 0.0666666666666667 0.711111111111111
49 0.54320987654321 0.0740740740740741 0.604938271604938
50 0.654320987654321 0.0740740740740741 0.493827160493827
51 0.755555555555556 0.0666666666666667 0.377777777777778
52 0.846913580246914 0.0518518518518519 0.25679012345679
53 0.928395061728395 0.0296296296296296 0.130864197530864
54 0.150617283954994 0.140740740760419 0.0197530864212237
55 0.165432098753506 0.81851851863294 0.0271604938203668
56 0.832098765455796 0.151851851869004 0.027160493827178
57 0.165432098770957 0.262962963000828 0.0271604938292054
58 0.175308641980443 0.381481481536387 0.0320987654339481
59 0.180246913583458 0.496296296367301 0.034567901235454
60 0.180246913579977 0.607407407493788 0.0345679012337067
61 0.175308641969968 0.714814814915862 0.0320987654286764
62 0.301234567898399 0.725925926027103 0.0395061728361794
63 0.427160493832114 0.62592592601252 0.0469135802461545
64 0.54320987655445 0.518518518589466 0.0493827160502617
65 0.64938271606537 0.403703703758009 0.046913580248502
66 0.745679012365195 0.281481481517966 0.03950617284086
67 0.730864197548993 0.159259259277413 0.032098765432868
68 0.624691358039696 0.162962962981894 0.0345679012357609
69 0.513580246925888 0.162962962982542 0.0345679012360251
70 0.397530864207103 0.159259259279236 0.0320987654336815
71 0.276543209883339 0.15185185187174 0.0271604938287279
72 0.2913580246993 0.274074074112147 0.0345679012367081
73 0.306172839508332 0.618518518605079 0.0419753086412062
74 0.639506172855743 0.285185185222357 0.0419753086437515
75 0.301234567908783 0.392592592647702 0.0395061728414495
76 0.306172839511798 0.50740740747861 0.0419753086429539
77 0.427160493835565 0.514814814886097 0.0469135802479033
78 0.53827160495139 0.403703703758543 0.0469135802487544
79 0.528395061741871 0.285185185222964 0.0419753086440092
80 0.412345679023063 0.281481481519643 0.0395061728416604
81 0.422222222232547 0.400000000055198 0.0444444444464004
82 0.150617283971031 0.0296296296318356 0.13086419753377
83 0.832098765543124 0.0407407407305502 0.138271604933139
84 0.165432098782593 0.040740740740767 0.804938271628618
85 0.276543209915431 0.0407407407438081 0.138271604941752
86 0.397530864253361 0.0481481481509222 0.143209876546495
87 0.513580246985028 0.0518518518531809 0.145679012348004
88 0.624691358110642 0.0518518518505601 0.14567901234627
89 0.7308641976302 0.0481481481430146 0.143209876541292
90 0.745679012445193 0.0592592592542691 0.261728395062219
91 0.649382716135597 0.0703703703692317 0.380246913585959
92 0.543209876614597 0.0740740740753926 0.493827160504189
93 0.42716049388226 0.070370370372753 0.602469135816868
94 0.301234567938396 0.05925925926129 0.706172839524335
95 0.175308641993847 0.0481481481493019 0.698765432116125
96 0.180246913599775 0.0518518518536414 0.590123456803935
97 0.180246913600554 0.0518518518540376 0.479012345689863
98 0.175308641996077 0.0481481481505222 0.365432098773422
99 0.165432098786104 0.0407407407430918 0.249382716054611
100 0.291358024730501 0.0518518518550622 0.256790123462592
101 0.639506172925682 0.0629629629618092 0.264197530867126
102 0.306172839544233 0.0629629629656272 0.597530864211991
103 0.412345679068427 0.0592592592621742 0.261728395067334
104 0.528395061800087 0.0629629629644308 0.264197530868844
105 0.538271605010048 0.0703703703718549 0.380246913587661
106 0.42716049388292 0.0703703703731315 0.491358024702635
107 0.306172839544969 0.0629629629660138 0.486419753097862
108 0.301234567940473 0.0592592592624905 0.372839506181403
109 0.422222222278398 0.0666666666696005 0.377777777786147
110 0.0395061728424474 0.140740740744382 0.130864197549808
111 0.0543209876407336 0.151851851843323 0.804938271722757
112 0.0543209876543559 0.818518518542207 0.138271604955415
113 0.0543209876584108 0.151851851856355 0.249382716086226
114 0.0641975308678963 0.159259259263469 0.365432098819413
115 0.0691358024709079 0.162962962965731 0.479012345749575
116 0.0691358024674134 0.162962962963123 0.590123456876935
117 0.0641975308573529 0.15925925925563 0.698765432201523
118 0.0790123456723588 0.281481481480309 0.706172839609013
119 0.093827160492309 0.403703703709036 0.602469135889443
120 0.0987654321005235 0.518518518529319 0.493827160564335
121 0.093827160497004 0.625925925941119 0.380246913633758
122 0.0790123456817201 0.725925925944765 0.261728395097536
123 0.0641975308657359 0.714814814832559 0.143209876560979
124 0.0691358024715219 0.607407407421816 0.145679012364014
125 0.0691358024720502 0.496296296307876 0.145679012364529
126 0.0641975308673629 0.381481481490262 0.143209876562396
127 0.0543209876574558 0.262962962968975 0.138271604957376
128 0.0691358024734162 0.274074074080946 0.256790123493793
129 0.0839506172824123 0.285185185187729 0.597530864284475
130 0.0839506172875029 0.618518518533867 0.264197530900481
131 0.0790123456828989 0.281481481488059 0.372839506226978
132 0.0839506172859078 0.285185185190321 0.486419753157133
133 0.0938271604958065 0.403703703711613 0.491358024762145
134 0.0938271604975087 0.514814814827013 0.380246913634166
135 0.0839506172880184 0.507407407419867 0.264197530900959
136 0.0790123456833207 0.392592592602233 0.261728395098812
137 0.0888888888928007 0.400000000009347 0.377777777831998
138 0.185185185203739 0.166666666668913 0.8148148148321
139 0.851851851979511 0.166666666670613 0.148148148256605
140 0.185185185211193 0.833333333363657 0.148148148209461
141 0.320987654357858 0.185185185188174 0.716049382747356
142 0.44691358030177 0.196296296299776 0.612345679057524
143 0.562962963035691 0.200000000003727 0.503703703762815
144 0.669135802559883 0.196296296300054 0.390123456863609
145 0.765432098874515 0.185185185188867 0.271604938360784
146 0.765432098879189 0.296296296305806 0.160493827255851
147 0.669135802567809 0.418518518533196 0.167901234653467
148 0.562962963045379 0.533333333352406 0.170370370447666
149 0.446913580311902 0.640740740763351 0.167901234638003
150 0.320987654367227 0.740740740766388 0.160493827224746
151 0.209876543233388 0.740740740762215 0.271604938319622
152 0.224691358046647 0.64074074075697 0.390123456828941
153 0.229629629650604 0.533333333345413 0.5037037037355
154 0.224691358044908 0.418518518526885 0.612345679038494
155 0.20987654322918 0.296296296301283 0.716049382737452
156 0.340740740779127 0.311111111117416 0.614814814850622
157 0.674074074168665 0.311111111119967 0.281481481560664
158 0.340740740784352 0.644444444463956 0.281481481535995
159 0.461728395118868 0.318518518525889 0.508641975358705
160 0.572839506248622 0.318518518526722 0.397530864261919
161 0.572839506251916 0.429629629643013 0.286419753156755
162 0.461728395123832 0.540740740757697 0.286419753148532
163 0.350617283992316 0.540740740755377 0.397530864244554
164 0.350617283990708 0.429629629639909 0.508641975349591
165 0.466666666726304 0.433333333345276 0.400000000055603
166 0.170370370402614 0.155555555665265 0.140740740774697
167 0.75061728412972 0.174074074173314 0.153086419893573
168 0.195061728504787 0.729629630120916 0.153086419820899
169 0.195061728421039 0.174074074175281 0.708641975423657
170 0.296296296351468 0.16666666677617 0.148148148192019
171 0.417283950700751 0.1740740741832 0.153086419811103
172 0.533333333447319 0.177777777885893 0.155555555631178
173 0.644444444589732 0.177777777883442 0.155555555654958
174 0.659259259421675 0.300000000173595 0.162962963091624
175 0.558024691501505 0.418518518758802 0.167901234686928
176 0.446913580372441 0.529629629942816 0.167901234675997
177 0.325925926039406 0.633333333731681 0.162962963054134
178 0.200000000082023 0.622222222673684 0.155555555626088
179 0.200000000061282 0.51111111149475 0.155555555624902
180 0.195061728444128 0.396296296596973 0.153086419814027
181 0.185185185227001 0.277777777986959 0.148148148196977
182 0.200000000021881 0.177777777884253 0.600000000112314
183 0.200000000022296 0.177777777886933 0.488888888983348
184 0.195061728420259 0.174074074184603 0.375308642049786
185 0.185185185214272 0.16666666677762 0.259259259314137
186 0.214814814842054 0.300000000164946 0.607407407432072
187 0.224691358052223 0.41851851874442 0.501234567854079
188 0.224691358063252 0.529629629933814 0.390123456737328
189 0.214814814882461 0.633333333732497 0.274074074072754
190 0.325925925976502 0.188888888989398 0.607407407556609
191 0.446913580330975 0.1962962963981 0.501234568076715
192 0.558024691481314 0.196296296400605 0.390123456978642
193 0.659259259420265 0.188888888993996 0.274074074253795
194 0.311111111176632 0.288888889090779 0.155555555614151
195 0.325925926011656 0.522222222573246 0.162962963044921
196 0.548148148277056 0.300000000185428 0.162962963057053
197 0.32098765439308 0.407407407689945 0.160493827231576
198 0.441975308746534 0.414814815077573 0.165432098853987
199 0.43209876552782 0.29629629649031 0.160493827233789
200 0.31111111116323 0.17777777788886 0.266666666739587
201 0.548148148268817 0.188888888998705 0.27407407420797
202 0.325925925972888 0.188888888996011 0.496296296425299
203 0.432098765515971 0.185185185296308 0.271604938371342
204 0.441975308724875 0.192592592701596 0.387654321127307
205 0.320987654369497 0.185185185295416 0.382716049483712
206 0.200000000030126 0.288888889076581 0.266666666676425
207 0.21481481483688 0.300000000155997 0.496296296258627
208 0.214814814854728 0.522222222548211 0.27407407401667
209 0.2098765432316 0.296296296460346 0.382716049345912
210 0.219753086441259 0.414814815034468 0.387654320872109
211 0.209876543239055 0.407407407661364 0.271604938225939
212 0.340740740786561 0.311111111250327 0.503703703694565
213 0.562962963087866 0.311111111268065 0.281481481575643
214 0.340740740803944 0.533333333615908 0.281481481444763
215 0.456790123536298 0.314814814952859 0.395061728421246
216 0.456790123542771 0.425925926130947 0.283950617287265
217 0.345679012388477 0.425925926115425 0.395061728302604
218 0.325925925979686 0.300000000179996 0.274074074101591
219 0.446913580333792 0.307407407577919 0.279012345734056
220 0.335802469187512 0.418518518751265 0.279012345651303
221 0.335802469180942 0.307407407561247 0.390123456778422
222 -0.0246913580246914 -0.12962962962963 -0.0123456790123457
223 -0.054320987654321 -0.262962962962963 -0.0271604938271605
224 -0.0888888888888889 -0.4 -0.0444444444444444
225 -0.128395061728395 -0.540740740740741 -0.0641975308641975
226 -0.17283950617284 -0.685185185185185 -0.0864197530864198
227 -0.222222222222222 -0.833333333333333 -0.111111111111111
228 -0.276543209876543 -0.985185185185185 -0.138271604938272
229 -0.335802469135802 -1.14074074074074 -0.167901234567901
230 -0.204938271604938 -1.12592592592593 -0.158024691358025
231 -0.0197530864197531 -0.959259259259259 -0.120987654320988
232 0.155555555555556 -0.8 -0.0888888888888889
233 0.320987654320988 -0.648148148148148 -0.0617283950617284
234 0.476543209876543 -0.503703703703704 -0.0395061728395062
235 0.622222222222222 -0.366666666666667 -0.0222222222222222
236 0.758024691358025 -0.237037037037037 -0.00987654320987654
237 0.883950617283951 -0.114814814814815 -0.00246913580246913
238 -0.00493827160493826 -0.114814814814815 0.88641975308642
239 -0.0197530864197531 -0.237037037037037 0.767901234567901
240 -0.0444444444444444 -0.366666666666667 0.644444444444444
241 -0.0790123456790123 -0.503703703703704 0.516049382716049
242 -0.123456790123457 -0.648148148148148 0.382716049382716
243 -0.177777777777778 -0.8 0.244444444444444
244 -0.241975308641975 -0.959259259259259 0.101234567901235
245 -0.316049382716049 -1.12592592592593 -0.0469135802469136
246 0.106172839526013 -0.114814814814475 -0.0024691358012856
247 0.787654321098015 -0.103703703716054 0.00493827159781233
248 -0.145679012337983 -0.970370370401105 -0.12839506173311
249 0.232098765470413 -0.103703703702503 0.00493827160669606
250 0.353086419808342 -0.0962962962953887 0.00987654321143877
251 0.469135802540009 -0.0925925925931335 0.012345679012944
252 0.580246913665616 -0.0925925925957723 0.012345679011194
253 0.686419753185154 -0.0962962963033855 0.00987654320615333
254 0.656790123554777 -0.229629629639583 -0.00493827160902865
255 0.516049382799675 -0.362962962972514 -0.0197530864218064
256 0.365432098833026 -0.503703703714712 -0.0395061728405236
257 0.204938271654914 -0.651851851866123 -0.0641975308651712
258 0.0345679012650064 -0.807407407427227 -0.0938271604958349
259 -0.0913580246794561 -0.818518518538933 -0.101234567903784
260 -0.041975308627495 -0.670370370384985 -0.0765432098778739
261 0.00246913581901904 -0.525925925935952 -0.0543209876547426
262 0.041975308660181 -0.38518518519114 -0.0345679012342666
263 0.0765432098957504 -0.248148148150557 -0.0172839506164488
264 0.202469135840147 -0.237037037038587 -0.00987654320846861
265 0.550617284035314 -0.225925925931887 -0.00246913580397787
266 0.0839506173169369 -0.659259259273084 -0.0691358024698965
267 0.323456790178073 -0.229629629631476 -0.00493827160372742
268 0.439506172909731 -0.225925925929226 -0.00246913580222407
269 0.404938271674145 -0.36296296296983 -0.0197530864200483
270 0.249382716101368 -0.507407407416914 -0.0419753086420219
271 0.128395061763427 -0.514814814823995 -0.0469135802467614
272 0.167901234604576 -0.374074074079175 -0.0271604938262881
273 0.288888888942499 -0.36666666667207 -0.022222222221549
274 -0.00493827160898608 -0.114814814835323 0.108641975308054
275 -0.256790123520222 -0.970370370542557 -0.0172839506473388
276 0.00987654320306102 -0.103703703725942 0.78271604940297
277 -0.0345679012443974 -0.248148148190318 0.0938271604903479
278 -0.0691358024862896 -0.385185185250182 0.0765432098694021
279 -0.10864197533474 -0.525925926015176 0.0567901234451794
280 -0.153086419789878 -0.670370370485637 0.0345679012176244
281 -0.202469135851786 -0.818518518661686 0.00987654318672253
282 -0.187654321036775 -0.807407407550415 0.128395061707653
283 -0.128395061765006 -0.651851851967043 0.269135802457301
284 -0.0790123457051058 -0.503703703792902 0.404938271601374
285 -0.0395061728570985 -0.36296296302808 0.535802469139817
286 -0.00987654322095044 -0.229629629672389 0.661728395072999
287 0.0197530864144915 -0.0962962963172422 0.676543209890503
288 0.0246913580202207 -0.0925925926130874 0.567901234578285
289 0.0246913580206485 -0.0925925926130179 0.456790123464163
290 0.0197530864158772 -0.0962962963168063 0.343209876547679
291 0.00987654320599654 -0.103703703724151 0.227160493828882
292 -0.0197530864294176 -0.237037037079148 0.212345679011175
293 -0.138271604974895 -0.659259259374441 0.153086419738472
294 -0.00493827161518903 -0.225925925968122 0.553086419760645
295 -0.0543209876713124 -0.374074074139013 0.195061728390228
296 -0.0938271605197638 -0.514814814904002 0.175308641966008
297 -0.0839506173098903 -0.50740740749666 0.291358024684813
298 -0.0395061728566558 -0.362962963027903 0.424691358025553
299 -0.00493827161476172 -0.225925925968021 0.441975308646472
300 -0.00987654321954012 -0.229629629671807 0.328395061729972
301 -0.0444444444614382 -0.366666666731676 0.311111111109028
302 0.140740740736268 -0.0888888889107928 0.792592592606383
303 -0.125925925971063 -0.955555555715266 -0.0074074073238731
304 0.807407407433101 -0.0888888889044917 0.125925925983813
305 0.120987654310576 -0.214814814858499 0.671604938295952
306 0.0913580246746663 -0.348148148213875 0.545679012380431
307 0.0518518518284717 -0.488888888977179 0.414814814859991
308 0.00246913577192649 -0.637037037148706 0.279012345734963
309 -0.056790123494855 -0.79259259272845 0.138271605006215
310 0.0543209876232615 -0.792592592724918 0.0271604939012844
311 0.224691358007011 -0.637037037142884 0.0567901235248094
312 0.385185185179603 -0.488888888969816 0.0814814815448511
313 0.535802469140909 -0.348148148205849 0.101234567960952
314 0.676543209891355 -0.214814814850766 0.11604938277341
315 0.72098765433729 -0.0703703703875862 0.249382716094
316 0.624691358035267 -0.0592592592779335 0.36790123460329
317 0.518518518524536 -0.0555555555754807 0.481481481509799
318 0.402469135804448 -0.0592592592801833 0.590123456812751
319 0.276543209874957 -0.0703703703918433 0.693827160511722
320 0.251851851845092 -0.200000000042678 0.570370370399205
321 0.118518518494009 -0.633333333442203 0.170370370432011
322 0.58518518519317 -0.200000000038032 0.237037037084649
323 0.217283950605012 -0.337037037101182 0.441975308681599
324 0.172839506154661 -0.4814814815676 0.308641975359083
325 0.283950617271735 -0.481481481565259 0.197530864253907
326 0.439506172838138 -0.337037037097219 0.21975308647145
327 0.483950617286438 -0.192592592632511 0.353086419793164
328 0.372839506170438 -0.192592592634131 0.464197530898161
329 0.333333333326214 -0.333333333395747 0.333333333378484
330 0.125925926051948 -0.100000000000365 0.118518518534045
331 -0.0716049382195798 -0.803703703890456 0.0197530865190992
332 0.706172840000265 -0.0814814816368586 0.130864197563827
333 0.150617284062386 -0.0814814814913649 0.68641975314612
334 0.0962962964146745 -0.233333333357969 0.10370370372512
335 0.0617283951696312 -0.370370370427568 0.0864197531168546
336 0.0222222223167844 -0.511111111206867 0.0666666667091872
337 -0.0222222221448676 -0.65555555569429 0.0444444445057741
338 0.103703703852177 -0.644444444590915 0.0518518519446897
339 0.2691358027015 -0.492592592711641 0.0790123457661076
340 0.424691358341492 -0.348148148255123 0.101234567979561
341 0.570370370776402 -0.211111111229154 0.118518518579112
342 0.600000000487249 -0.0777777778639963 0.133333333374313
343 0.488888889319809 -0.077777777810964 0.133333333379137
344 0.372839506518551 -0.0814814814855167 0.130864197572019
345 0.251851852094786 -0.0888888888843932 0.125925925956462
346 0.155555555679463 -0.0777777777751544 0.577777777825429
347 0.155555555683664 -0.0777777777699204 0.466666666702836
348 0.15061728407955 -0.0814814814736855 0.353086419780943
349 0.140740740868833 -0.0888888888843693 0.237037037058729
350 0.281481481669009 -0.0666666666629954 0.585185185163861
351 0.402469136056004 -0.0592592592634438 0.479012345593229
352 0.51358024724293 -0.0592592592944591 0.367901234480574
353 0.614814815230318 -0.0666666667543445 0.251851851816982
354 0.12592592602799 -0.211111111144744 0.562962963060609
355 0.0913580247838869 -0.348148148213398 0.434567901361288
356 0.0469135803290344 -0.492592592697954 0.301234568042478
357 -0.00740740733886963 -0.64444444459581 0.162962963096985
358 0.222222222449548 -0.222222222244125 0.11111111114722
359 0.45925925964335 -0.21111111117217 0.118518518573929
360 0.148148148330714 -0.500000000100954 0.0740740741352501
361 0.343209876861248 -0.214814814845435 0.116049382763524
362 0.30864197559042 -0.35185185192177 0.0987654321589823
363 0.187654321195057 -0.359259259317324 0.0938271605393582
364 0.111111111232147 -0.222222222240891 0.222222222258242
365 0.0370370371305994 -0.50000000009803 0.185185185273386
366 0.125925926042139 -0.211111111130459 0.451851851923813
367 0.0765432099865047 -0.359259259312788 0.204938271662991
368 0.0864197531928562 -0.35185185190639 0.320987654409492
369 0.120987654441954 -0.214814814830679 0.338271604990011
370 0.266666666886603 -0.077777777774776 0.244444444421366
371 0.281481481667751 -0.066666666661297 0.474074073983902
372 0.503703704067836 -0.0666666667081137 0.251851851759796
373 0.276543210072166 -0.0703703703674428 0.360493827078557
374 0.39753086445368 -0.0629629629739004 0.365432098607544
375 0.387654321281985 -0.0703703703819564 0.249382715970209
376 0.251851852004112 -0.200000000023976 0.459259259207986
377 0.16296296310626 -0.4888888889971 0.192592592647927
378 0.474074074372131 -0.200000000067163 0.23703703696949
379 0.21234567915027 -0.340740740805131 0.328395061714525
380 0.323456790332857 -0.340740740818135 0.217283950587515
381 0.367901234774531 -0.196296296332669 0.350617283823337
382 0.237037037240633 -0.211111111133389 0.229629629621031
383 0.20246913598194 -0.348148148208624 0.212345679028058
384 0.358024691619181 -0.203703703740565 0.234567901172161
385 0.246913580421517 -0.203703703726497 0.34567901228886
$EndNodes
$Elements
2
1 74 2 2 1 1 2 3 4 6 7 8 9 10 11 12 13 14 15 16 17 18 19 20 21 22 23 24 25 26 27 28 29 30 31 32 33 34 35 36 37 38 39 40 41 42 43 44 45 46 47 48 49 50 51 52 53 54 55 56 57 58 59 60 61 62 63 64 65 66 67 68 69 70 71 72 73 74 75 76 77 78 79 80 81 82 83 84 85 86 87 88 89 90 91 92 93 94 95 96 97 98 99 100 101 102 103 104 105 106 107 108 109 110 111 112 113 114 115 116 117 118 119 120 121 122 123 124 125 126 127 128 129 130 131 132 133 134 135 136 137 138 139 140 141 142 143 144 145 146 147 148 149 150 151 152 153 154 155 156 157 158 159 160 161 162 163 164 165 166 167 168 169 170 171 172 173 174 175 176 177 178 179 180 181 182 183 184 185 186 187 188 189 190 191 192 193 194 195 196 197 198 199 200 201 202 203 204 205 206 207 208 209 210 211 212 213 214 215 216 217 218 219 220 221
2 74 2 2 1 1 5 2 4 222 223 224 225 226 227 228 229 230 231 232 233 234 235 236 237 13 12 11 10 9 8 7 6 30 31 32 33 34 35 36 37 46 47 48 49 50 51 52 53 238 239 240 241 242 243 244 245 246 247 248 249 250 251 252 253 254 255 256 257 258 259 260 261 262 263 264 265 266 267 268 269 270 271 272 273 274 275 276 277 278 279 280 281 282 283 284 285 286 287 288 289 290 291 292 293 294 295 296 297 298 299 300 301 82 84 83 99 98 97 96 95 94 93 92 91 90 89 88 87 86 85 100 102 101 108 107 106 105 104 103 109 302 303 304 305 306 307 308 309 310 311 312 313 314 315 316 317 318 319 320 321 322 323 324 325 326 327 328 329 330 331 332 333 334 335 336 337 338 339 340 341 342 343 344 345 346 347 348 349 350 351 352 353 354 355 356 357 358 359 360 361 362 363 364 365 366 367 368 369 370 371 372 373 374 375 376 377 378 379 380 381 382 383 384 385
$EndElements
