#!geo

mesh
4
header
 dimension	3
 order		4
 nodes		35
 tetrahedra	1
end header

0 0 0
1 0 0
0 1 0
0 0 1
0.2875 0.028125 0.01875
0.55 0.0375 0.025
0.7875 0.028125 0.01875
0.825 0.30625 0.0375
0.6 0.575 0.05
0.325 0.80625 0.0375
0.0375 0.778125 0.01875
0.05 0.5375 0.025
0.0375 0.278125 0.01875
0.0375 0.028125 0.76875
0.05 0.0375 0.525
0.0375 0.028125 0.26875
0.075 0.30625 0.7875
0.1 0.575 0.55
0.075 0.80625 0.2875
0.325 0.05625 0.7875
0.6 0.075 0.55
0.825 0.05625 0.2875
0.325000000000002 0.30625 0.0375000000000001
0.337500000000002 0.565624999999999 0.0437500000000001
0.587500000000003 0.315624999999999 0.04375
0.325 0.0562500000000001 0.287500000000002
0.587499999999999 0.0656250000000001 0.293750000000002
0.337499999999999 0.0656249999999999 0.543750000000003
0.0750000000000002 0.306250000000002 0.2875
0.0875000000000002 0.315625000000002 0.543749999999999
0.0874999999999999 0.565625000000003 0.293749999999999
0.375 0.343750000000002 0.562500000000002
0.624999999999999 0.343750000000002 0.312500000000002
0.374999999999999 0.593750000000004 0.312500000000003
0.362499999999998 0.334375 0.306249999999996

T	p4 0 1 2 3 4 5 6 7 8 9 10 11 12 15 14 13 21 20 19 18 17 16 22 23 24 28 29 30 25 26 27 32 33 31 34

