$MeshFormat
2.2 0 8
$EndMeshFormat
$PhysicalNames
2
2 1 "boundary"
3 2 "internal"
$EndPhysicalNames
$Nodes
35
1 0 0 0
2 1 0 0
3 0 1 0
4 0 0 1
5 0.2875 0.028125 0.01875
6 0.55 0.0375 0.025
7 0.7875 0.028125 0.01875
8 0.825 0.30625 0.0375
9 0.6 0.575 0.05
10 0.325 0.80625 0.0375
11 0.0375 0.778125 0.01875
12 0.05 0.5375 0.025
13 0.0375 0.278125 0.01875
14 0.0375 0.028125 0.76875
15 0.05 0.0375 0.525
16 0.0375 0.028125 0.26875
17 0.075 0.30625 0.7875
18 0.1 0.575 0.55
19 0.075 0.80625 0.2875
20 0.325 0.05625 0.7875
21 0.6 0.075 0.55
22 0.825 0.05625 0.2875
23 0.325000000000002 0.30625 0.0375000000000001
24 0.337500000000002 0.565624999999999 0.0437500000000001
25 0.587500000000003 0.315624999999999 0.04375
26 0.325 0.0562500000000001 0.287500000000002
27 0.587499999999999 0.0656250000000001 0.293750000000002
28 0.337499999999999 0.0656249999999999 0.543750000000003
29 0.0750000000000002 0.306250000000002 0.2875
30 0.0875000000000002 0.315625000000002 0.543749999999999
31 0.0874999999999999 0.565625000000003 0.293749999999999
32 0.375 0.343750000000002 0.562500000000002
33 0.624999999999999 0.343750000000002 0.312500000000002
34 0.374999999999999 0.593750000000004 0.312500000000003
35 0.362499999999998 0.334375 0.306249999999996
$EndNodes
$Elements
1
1 30 2 2 1 1 2 3 4 5 6 7 8 9 10 11 12 13 14 15 16 17 18 19 20 21 22 23 24 25 26 27 28 29 30 31 32 33 34 35
$EndElements
