#!geo

mesh
4
header
 dimension	3
 order		8
 nodes		165
 tetrahedra	1
end header

0 0 0
1 0 0
0 1 0
0 0 1
0.146875 0.01640625 0.0109375
0.2875 0.028125 0.01875
0.421875 0.03515625 0.0234375
0.55 0.0375 0.025
0.671875 0.03515625 0.0234375
0.7875 0.028125 0.01875
0.896875 0.01640625 0.0109375
0.91875 0.1578125 0.021875
0.825 0.30625 0.0375
0.71875 0.4453125 0.046875
0.6 0.575 0.05
0.46875 0.6953125 0.046875
0.325 0.80625 0.0375
0.16875 0.9078125 0.021875
0.021875 0.89140625 0.0109375
0.0375 0.778125 0.01875
0.046875 0.66015625 0.0234375
0.05 0.5375 0.025
0.046875 0.41015625 0.0234375
0.0375 0.278125 0.01875
0.021875 0.14140625 0.0109375
0.021875 0.01640625 0.8859375
0.0375 0.028125 0.76875
0.046875 0.03515625 0.6484375
0.05 0.0375 0.525
0.046875 0.03515625 0.3984375
0.0375 0.028125 0.26875
0.021875 0.01640625 0.1359375
0.04375 0.1578125 0.896875
0.075 0.30625 0.7875
0.09375 0.4453125 0.671875
0.1 0.575 0.55
0.09375 0.6953125 0.421875
0.075 0.80625 0.2875
0.04375 0.9078125 0.146875
0.16875 0.0328125 0.896875
0.325 0.05625 0.7875
0.46875 0.0703125 0.671875
0.6 0.075 0.55
0.71875 0.0703125 0.421875
0.825 0.05625 0.2875
0.91875 0.0328125 0.146875
0.168749999991262 0.157812500002013 0.0218749999996005
0.184374999989491 0.794531250012518 0.0296874999986846
0.809374999964229 0.169531250006246 0.0296875000022291
0.184374999991416 0.294531250004973 0.0296874999996774
0.193749999991285 0.426562500007704 0.0343749999996118
0.196874999990875 0.553906250010188 0.0359374999994049
0.193749999990214 0.676562500012151 0.0343749999990672
0.334374999982142 0.688281250011926 0.042187499998879
0.47187499997569 0.572656250010343 0.0484374999994212
0.596874999970091 0.447656250008829 0.0484375000002127
0.709374999965801 0.313281250007537 0.0421875000012018
0.693749999965657 0.17656250000459 0.0343750000011321
0.571874999970082 0.178906250003149 0.0359375000002123
0.443749999976072 0.176562500002142 0.0343749999996236
0.30937499998316 0.16953125000173 0.0296874999994126
0.324999999983314 0.306250000004691 0.0374999999994896
0.337499999982781 0.565625000009921 0.0437499999992173
0.587499999970226 0.3156250000061 0.0437500000002837
0.334374999983185 0.438281250007425 0.0421874999994241
0.468749999976089 0.445312500007832 0.0468749999996304
0.459374999976221 0.313281250005099 0.0421874999996982
0.168750000001813 0.0328124999994007 0.146874999991662
0.80937500001186 0.0445312499980269 0.154687499990807
0.18437500000736 0.0445312500033437 0.779687499962
0.309375000004812 0.0445312499995161 0.154687499991739
0.44375000000751 0.0515624999994177 0.159374999991674
0.571875000009891 0.0539062499991073 0.16093749999147
0.693750000011684 0.0515624999986008 0.159374999991146
0.709375000011365 0.0632812499983186 0.292187499983263
0.596875000010054 0.0726562499991318 0.423437499976269
0.471875000008935 0.0726562500003191 0.548437499969878
0.334375000008138 0.0632812500018027 0.667187499964599
0.193750000005156 0.0515625000016981 0.659374999964525
0.196875000003255 0.0539062500003184 0.535937499969869
0.193750000001954 0.0515624999994355 0.409374999976448
0.184375000001437 0.0445312499991189 0.279687499983747
0.325000000004435 0.0562499999992343 0.287499999983825
0.58750000000953 0.065624999998826 0.293749999983564
0.337500000006242 0.0656250000004256 0.543749999969942
0.459375000007137 0.0632812499991361 0.292187499983761
0.468750000007647 0.0703124999994456 0.421874999976459
0.334375000004948 0.0632812499995473 0.417187499976523
0.043749999999201 0.157812499991462 0.146875000002213
0.0593749999973692 0.169531249990149 0.779687500013176
0.0593750000044583 0.794531249963114 0.154687500005131
0.0593749999993548 0.169531249991577 0.279687500005134
0.0687499999992236 0.176562499991479 0.409375000007898
0.0718749999988098 0.178906249991173 0.535937500010486
0.0687499999981344 0.17656249999068 0.659375000012617
0.0843749999977581 0.313281249982703 0.667187500012486
0.0968749999988424 0.447656249975979 0.548437500010633
0.0968750000004255 0.572656249969984 0.423437500008722
0.0843750000024036 0.6882812499652 0.292187500006936
0.0687500000022642 0.676562499965091 0.159375000004024
0.0718750000004246 0.553906249969975 0.160937500003043
0.0687499999992473 0.42656249997626 0.159375000002331
0.0593749999988252 0.294531249983454 0.154687500002024
0.0749999999989791 0.306249999983569 0.287500000004946
0.0874999999984347 0.315624999983173 0.543750000010312
0.0875000000005675 0.565624999970084 0.293750000005958
0.0843749999988481 0.313281249983473 0.417187500007712
0.0937499999992608 0.445312499976274 0.421875000008017
0.0843749999993964 0.438281249976372 0.29218750000525
0.206250000002066 0.185937499991652 0.790624999997194
0.831250000012925 0.185937499990948 0.165625000006316
0.206250000004127 0.810937499960689 0.165624999979055
0.356250000004831 0.204687499991592 0.678124999999292
0.49375000000751 0.214062499991479 0.559375000001349
0.618750000010086 0.214062499991319 0.434375000003411
0.731250000012283 0.204687499991129 0.303125000005351
0.731250000011533 0.329687499982829 0.178125000000081
0.618750000009201 0.464062499975339 0.184374999993305
0.4937500000071 0.589062499968608 0.184374999987057
0.35625000000546 0.704687499963192 0.178124999982006
0.231250000003157 0.704687499963592 0.303124999980141
0.24375000000243 0.589062499969357 0.434374999983303
0.243750000001954 0.46406249997626 0.559374999987525
0.231250000001804 0.329687499983729 0.678124999992242
0.375000000004435 0.343749999983569 0.562499999994272
0.625000000009437 0.343749999983103 0.312499999998246
0.375000000004806 0.593749999969007 0.312499999985206
0.506250000006982 0.348437499983357 0.44062499999626
0.506250000006864 0.473437499975687 0.315624999991405
0.38125000000445 0.473437499975999 0.440624999989488
0.190624999985983 0.174218750000016 0.157812499990235
0.715624999981466 0.192968749996106 0.170312499990801
0.215624999935913 0.692968749973881 0.1703124999812
0.21562499999535 0.192968750001037 0.670312499975284
0.33124999998075 0.185937499999055 0.165624999989024
0.465624999976186 0.192968749998163 0.17031249998807
0.593749999974796 0.19531249999736 0.171874999988168
0.609374999971272 0.332031249991223 0.179687499988073
0.490624999960605 0.461718749985545 0.182812499985449
0.359374999948833 0.582031249979432 0.179687499983118
0.218749999948845 0.570312499984953 0.171874999985638
0.215624999963127 0.442968749993185 0.17031249998774
0.20624999997584 0.310937499998286 0.165624999989152
0.218749999990235 0.195312500000271 0.546874999973303
0.215624999986923 0.192968749999468 0.420312499976737
0.206249999985521 0.185937499999316 0.290624999982732
0.234374999982118 0.332031249995962 0.554687499972494
0.240624999966868 0.461718749988664 0.432812499972883
0.234374999950629 0.582031249980938 0.304687499975861
0.359374999990845 0.207031249999011 0.554687499977247
0.490624999984776 0.21171874999716 0.432812499979122
0.609374999980701 0.207031249996141 0.304687499983014
0.346874999970962 0.322656249996534 0.1734374999881
0.356249999959667 0.454687499990209 0.178124999986571
0.481249999967709 0.32968749999429 0.178124999987391
0.346874999980214 0.197656249998302 0.298437499981255
0.481249999976859 0.20468749999731 0.303124999980634
0.356249999983275 0.204687499998429 0.428124999976484
0.221874999975518 0.322656249996897 0.298437499981238
0.231249999977476 0.329687499996338 0.428124999975017
0.231249999963398 0.45468749999085 0.303124999979332
0.371874999977223 0.341406249993677 0.435937499976323
0.496874999972158 0.341406249991861 0.310937499980681
0.371874999962968 0.466406249986787 0.31093749997848
0.36249999997147 0.334374999994853 0.306249999980211

T	p8 0 1 2 3 4 5 6 7 8 9 10 11 12 13 14 15 16 17 18 19 20 21 22 23 24 31 30 29 28 27 26 25 45 44 43 42 41 40 39 38 37 36 35 34 33 32 46 49 50 51 52 47 60 61 64 62 53 59 66 65 54 58 63 55 57 56 48 88 91 92 93 94 89 102 103 106 104 95 101 108 107 96 100 105 97 99 98 90 67 70 71 72 73 68 81 82 85 83 74 80 87 86 75 79 84 76 78 77 69 110 116 117 118 119 111 115 125 128 126 120 114 127 129 121 113 124 122 112 123 109 130 134 135 136 131 142 152 154 137 141 153 138 140 139 132 145 155 156 151 158 164 162 160 163 148 144 157 150 159 161 147 143 149 146 133

