#!geo

mesh
4
header
 dimension 3
 order     3
 nodes	20
 tetrahedra	1
 triangles	4
 edges	6
end header

0 0 0
1 0 0
0 1 0
0 0 1
0.503055555555556 0.0348611111111111 0
0.698611111111111 -0.0760416666666667 0.0659722222222222
1.11111111111111 0.555555555555556 0
0.777777777777778 0.888888888888889 0
0.222222222222222 0.777777777777778 0
0.222222222222222 0.444444444444444 0
0.0444444444444445 0.0333333333333333 0.355555555555556
0.0444444444444445 0.0333333333333333 0.688888888888889
0.755555555555556 0.0666666666666667 0.377777777777778
0.422222222222222 0.0666666666666667 0.711111111111111
0.0888888888888889 0.733333333333333 0.377777777777778
0.0888888888888889 0.4 0.711111111111111
0.777777777777778 0.555555555555556 0
0.0888888888888889 0.4 0.377777777777778
0.422222222222222 0.0666666666666667 0.377777777777778
0.466666666666667 0.433333333333333 0.400000000000001

T	0 1 2 3

t	0 2 1
t	0 3 2
t	0 1 3
t	1 2 3
e	0 1
e	1 2
e	2 0
e	0 3
e	1 3
e	2 3
