$MeshFormat
2.2 0 8
$EndMeshFormat
$PhysicalNames
2
2 1 "boundary"
3 2 "internal"
$EndPhysicalNames
$Nodes
20
1 0 0 0
2 1 0 0
3 0 1 0
4 0 0 1
5 0.503055555555556 0.0348611111111111 0
6 0.698611111111111 -0.0760416666666667 0.0659722222222222
7 1.11111111111111 0.555555555555556 0
8 0.777777777777778 0.888888888888889 0
9 0.222222222222222 0.777777777777778 0
10 0.222222222222222 0.444444444444444 0
11 0.0444444444444445 0.0333333333333333 0.688888888888889
12 0.0444444444444445 0.0333333333333333 0.355555555555556
13 0.0888888888888889 0.4 0.711111111111111
14 0.0888888888888889 0.733333333333333 0.377777777777778
15 0.422222222222222 0.0666666666666667 0.711111111111111
16 0.755555555555556 0.0666666666666667 0.377777777777778
17 0.777777777777778 0.555555555555556 0
18 0.422222222222222 0.0666666666666667 0.377777777777778
19 0.0888888888888889 0.4 0.377777777777778
20 0.466666666666667 0.433333333333333 0.400000000000001
$EndNodes
$Elements
1
1 29 2 2 1
	1 2 3 4 5 6 7 8 9 10 11 12 13 14 15 16 17 18 19 20
$EndElements
