#!geo

mesh
4
header
 dimension 3
 order     6
 nodes	84
 tetrahedra	1
 triangles	4
 edges	6
end header

0 0 0
1 0 0
0 1 0
0 0 1
0.194444444444445 0.0208333333333333 0.0138888888888889
0.377777777777778 0.0333333333333333 0.0222222222222222
0.55 0.0375 0.025
0.711111111111111 0.0333333333333333 0.0222222222222222
0.861111111111111 0.0208333333333333 0.0138888888888889
0.888888888888889 0.208333333333333 0.0277777777777778
0.755555555555556 0.4 0.0444444444444445
0.6 0.575 0.05
0.422222222222222 0.733333333333333 0.0444444444444445
0.222222222222222 0.875 0.0277777777777778
0.0277777777777778 0.854166666666667 0.0138888888888889
0.0444444444444445 0.7 0.0222222222222222
0.05 0.5375 0.025
0.0444444444444445 0.366666666666667 0.0222222222222222
0.0277777777777778 0.1875 0.0138888888888889
0.0277777777777778 0.0208333333333333 0.180555555555556
0.0444444444444445 0.0333333333333333 0.355555555555556
0.05 0.0375 0.525
0.0444444444444445 0.0333333333333333 0.688888888888889
0.0277777777777778 0.0208333333333333 0.847222222222222
0.888888888888889 0.0416666666666667 0.194444444444445
0.755555555555556 0.0666666666666667 0.377777777777778
0.6 0.075 0.55
0.422222222222222 0.0666666666666667 0.711111111111111
0.222222222222222 0.0416666666666667 0.861111111111111
0.0555555555555556 0.875 0.194444444444445
0.0888888888888889 0.733333333333333 0.377777777777778
0.1 0.575 0.55
0.0888888888888889 0.4 0.711111111111111
0.0555555555555556 0.208333333333333 0.861111111111111
0.222222222222253 0.208333333333364 0.0277777777777811
0.238888888888919 0.387500000000043 0.036111111111114
0.244444444444473 0.55833333333338 0.0388888888888906
0.238888888888916 0.720833333333374 0.0361111111111115
0.405555555555618 0.220833333333371 0.036111111111115
0.422222222222284 0.400000000000048 0.0444444444444477
0.427777777777837 0.570833333333383 0.0472222222222241
0.57777777777787 0.225000000000039 0.0388888888888913
0.594444444444535 0.404166666666714 0.0472222222222237
0.738888888889008 0.220833333333362 0.0361111111111092
0.0555555555555622 0.208333333333363 0.194444444444473
0.0722222222222281 0.220833333333362 0.369444444444486
0.0777777777777811 0.225000000000027 0.538888888888935
0.072222222222223 0.22083333333336 0.702777777777819
0.0722222222222301 0.387500000000061 0.202777777777813
0.0888888888888955 0.40000000000006 0.377777777777825
0.0944444444444481 0.404166666666725 0.547222222222271
0.0777777777777825 0.558333333333424 0.205555555555593
0.0944444444444475 0.570833333333423 0.380555555555602
0.0722222222222183 0.720833333333453 0.202777777777808
0.222222222222254 0.0416666666666717 0.194444444444472
0.4055555555556 0.054166666666671 0.202777777777805
0.577777777777825 0.0583333333333358 0.205555555555582
0.73888888888893 0.0541666666666673 0.202777777777804
0.238888888888928 0.0541666666666726 0.369444444444503
0.422222222222272 0.0666666666666716 0.377777777777836
0.594444444444496 0.0708333333333361 0.380555555555613
0.244444444444485 0.0583333333333369 0.538888888888979
0.427777777777826 0.0708333333333356 0.547222222222311
0.238888888888917 0.0541666666666637 0.702777777777899
0.766666666666721 0.241666666666703 0.216666666666772
0.622222222222294 0.425000000000074 0.227777777777949
0.455555555555633 0.591666666666778 0.227777777778009
0.266666666666731 0.741666666666814 0.216666666666957
0.622222222222277 0.258333333333366 0.394444444444547
0.466666666666727 0.433333333333401 0.400000000000159
0.288888888888942 0.591666666666768 0.394444444444653
0.4555555555556 0.258333333333362 0.561111111111204
0.288888888888928 0.425000000000061 0.561111111111249
0.266666666666694 0.241666666666693 0.716666666666741
0.250000000000095 0.229166666666827 0.208333333333331
0.433333333333526 0.241666666666815 0.216666666666673
0.605555555555829 0.245833333333447 0.21944444444447
0.266666666666718 0.4083333333336 0.216666666666631
0.450000000000139 0.420833333333569 0.224999999999997
0.272222222222225 0.579166666666992 0.219444444444419
0.266666666666754 0.241666666666818 0.383333333333333
0.450000000000177 0.2541666666668 0.391666666666688
0.283333333333372 0.420833333333574 0.391666666666607
0.272222222222305 0.245833333333476 0.552777777777788

T	0 1 2 3

t	0 2 1
t	0 3 2
t	0 1 3
t	1 2 3
e	0 1
e	1 2
e	2 0
e	0 3
e	1 3
e	2 3
