#!geo

mesh
4
header
 dimension 3
 nodes	528
 triangles	1056
 edges	1584
end header

1.6 0 0
1 0 0.6
1 0 -0.6
0.4 0 0
-0.8 1.3856406460551 0
-0.5 0.866025403784439 0.6
-0.2 0.346410161513776 0
-0.5 0.866025403784439 -0.6
-0.800000000000001 -1.3856406460551 0
-0.5 -0.866025403784438 0.6
-0.2 -0.346410161513775 0
-0.5 -0.866025403784438 -0.6
1.55432771950699 0 0.229610059418521
1.42426406871279 0 0.424264068711065
1.22961005941958 0 0.554327719506555
0.770389940581423 0 0.55432771950697
0.575735931288861 0 0.424264068712718
0.445672280493425 0 0.229610059419529
0.445672280493014 0 -0.229610059418537
0.575735931287367 0 -0.424264068711224
0.770389940580582 0 -0.554327719506621
1.22961005941853 0 -0.55432771950699
1.42426406871117 0 -0.424264068712685
1.55432771950655 0 -0.229610059419585
-0.777163859753496 1.34608729089939 0.229610059418521
-0.712132034356396 1.23344886520266 0.424264068711065
-0.614805029709789 1.06487354820625 0.554327719506555
-0.385194970290711 0.667177259363497 0.55432771950697
-0.287867965644431 0.498601942367646 0.424264068712718
-0.222836140246712 0.38596351666985 0.229610059419529
-0.222836140246507 0.385963516669494 -0.229610059418537
-0.287867965643683 0.498601942366352 -0.424264068711224
-0.385194970290291 0.667177259362768 -0.554327719506621
-0.614805029709264 1.06487354820534 -0.55432771950699
-0.712132034355586 1.23344886520126 -0.424264068712685
-0.777163859753276 1.34608729089901 -0.229610059419585
1.57108591562033 0.302801990976656 0
1.48538869282572 0.594659929056524 0
1.34600565252989 0.865025307928956 0
1.15797446096811 1.10412641837138 0
0.928091055313917 1.30332152328054 0
0.664664020803019 1.45541119256723 0
0.377214296815084 1.55489850931767 0
0.0761310653179879 1.59818774269281 0
-0.227703741237256 1.58371430700949 0
-0.523308741307874 1.51200130994347 0
0.981928697262707 0.18925124436041 0.6
0.928367933016073 0.371662455660328 0.6
0.841253532831181 0.540640817455597 0.6
0.72373403810507 0.690079011482112 0.6
0.580056909571198 0.814575952050336 0.6
0.415415013001887 0.909631995354518 0.6
0.235758935509427 0.971811568323542 0.6
0.0475819158237424 0.998867339183008 0.6
-0.142314838273285 0.989821441880933 0.6
-0.327067963317421 0.945000818714669 0.6
0.392771478905083 0.0757004977441641 0
0.371347173206429 0.148664982264131 0
0.336501413132473 0.216256326982239 0
0.289493615242028 0.276031604592845 0
0.232022763828479 0.325830380820134 0
0.166166005200755 0.363852798141807 0
0.0943035742037709 0.388724627329417 0
0.019032766329497 0.399546935673203 0
-0.056925935309314 0.395928576752373 0
-0.130827185326969 0.378000327485867 0
0.981928697262707 0.18925124436041 -0.6
0.928367933016073 0.371662455660328 -0.6
0.841253532831181 0.540640817455597 -0.6
0.72373403810507 0.690079011482112 -0.6
0.580056909571198 0.814575952050336 -0.6
0.415415013001887 0.909631995354518 -0.6
0.235758935509427 0.971811568323542 -0.6
0.0475819158237424 0.998867339183008 -0.6
-0.142314838273285 0.989821441880933 -0.6
-0.327067963317421 0.945000818714669 -0.6
-0.777163859753497 -1.34608729089939 0.229610059418521
-0.712132034356397 -1.23344886520266 0.424264068711065
-0.61480502970979 -1.06487354820625 0.554327719506555
-0.385194970290712 -0.667177259363497 0.55432771950697
-0.287867965644431 -0.498601942367646 0.424264068712718
-0.222836140246712 -0.38596351666985 0.229610059419529
-0.222836140246507 -0.385963516669494 -0.229610059418537
-0.287867965643683 -0.498601942366351 -0.424264068711224
-0.385194970290291 -0.667177259362768 -0.554327719506621
-0.614805029709265 -1.06487354820534 -0.55432771950699
-0.712132034355586 -1.23344886520126 -0.424264068712685
-0.777163859753277 -1.34608729089901 -0.229610059419585
-1.04777717431246 1.20919931896681 0
-1.25768495158846 0.989054377952969 0
-1.42213671784788 0.733162434763857 0
-1.5351887577832 0.450772090946288 0
-1.59275507611693 0.152089669286693 0
-1.59275507611693 -0.152089669286691 0
-1.5351887577832 -0.450772090946287 0
-1.42213671784788 -0.733162434763856 0
-1.25768495158846 -0.989054377952968 0
-1.04777717431246 -1.20919931896681 0
-0.654860733945285 0.755749574354258 0.6
-0.786053094742787 0.618158986220605 0.6
-0.888835448654923 0.458226521727411 0.6
-0.959492973614497 0.28173255684143 0.6
-0.995471922573084 0.095056043304183 0.6
-0.995471922573085 -0.0950560433041822 0.6
-0.959492973614497 -0.281732556841429 0.6
-0.888835448654924 -0.45822652172741 0.6
-0.786053094742788 -0.618158986220605 0.6
-0.654860733945285 -0.755749574354258 0.6
-0.261944293578114 0.302299829741703 0
-0.314421237897115 0.247263594488242 0
-0.355534179461969 0.183290608690964 0
-0.383797189445799 0.112693022736572 0
-0.398188769029234 0.0380224173216732 0
-0.398188769029234 -0.0380224173216729 0
-0.383797189445799 -0.112693022736572 0
-0.35553417946197 -0.183290608690964 0
-0.314421237897115 -0.247263594488242 0
-0.261944293578114 -0.302299829741703 0
-0.654860733945285 0.755749574354258 -0.6
-0.786053094742787 0.618158986220605 -0.6
-0.888835448654923 0.458226521727411 -0.6
-0.959492973614497 0.28173255684143 -0.6
-0.995471922573084 0.095056043304183 -0.6
-0.995471922573085 -0.0950560433041822 -0.6
-0.959492973614497 -0.281732556841429 -0.6
-0.888835448654924 -0.45822652172741 -0.6
-0.786053094742788 -0.618158986220605 -0.6
-0.654860733945285 -0.755749574354258 -0.6
1.57108591562033 -0.302801990976656 0
1.48538869282572 -0.594659929056524 0
1.34600565252989 -0.865025307928956 0
1.15797446096811 -1.10412641837138 0
0.928091055313917 -1.30332152328054 0
0.664664020803019 -1.45541119256723 0
0.377214296815084 -1.55489850931767 0
0.0761310653179879 -1.59818774269281 0
-0.227703741237256 -1.58371430700949 0
-0.523308741307874 -1.51200130994347 0
0.981928697262707 -0.18925124436041 0.6
0.928367933016073 -0.371662455660328 0.6
0.841253532831181 -0.540640817455597 0.6
0.72373403810507 -0.690079011482112 0.6
0.580056909571198 -0.814575952050336 0.6
0.415415013001887 -0.909631995354518 0.6
0.235758935509427 -0.971811568323542 0.6
0.0475819158237424 -0.998867339183008 0.6
-0.142314838273285 -0.989821441880933 0.6
-0.327067963317421 -0.945000818714669 0.6
0.392771478905083 -0.0757004977441641 0
0.371347173206429 -0.148664982264131 0
0.336501413132473 -0.216256326982239 0
0.289493615242028 -0.276031604592845 0
0.232022763828479 -0.325830380820134 0
0.166166005200755 -0.363852798141807 0
0.0943035742037709 -0.388724627329417 0
0.019032766329497 -0.399546935673203 0
-0.056925935309314 -0.395928576752373 0
-0.130827185326969 -0.378000327485867 0
0.981928697262707 -0.18925124436041 -0.6
0.928367933016073 -0.371662455660328 -0.6
0.841253532831181 -0.540640817455597 -0.6
0.72373403810507 -0.690079011482112 -0.6
0.580056909571198 -0.814575952050336 -0.6
0.415415013001887 -0.909631995354518 -0.6
0.235758935509427 -0.971811568323542 -0.6
0.0475819158237424 -0.998867339183008 -0.6
-0.142314838273285 -0.989821441880933 -0.6
-0.327067963317421 -0.945000818714669 -0.6
1.52623899273482 0.294158455060577 0.229610059418521
1.44298801218829 0.577685257132886 0.229610059418521
1.30758368521269 0.840333008868155 0.229610059418521
1.12491987697744 1.07260893619663 0.229610059418521
0.901598533438075 1.26611798191564 0.229610059418521
0.64569106980819 1.41386622492998 0.229610059418521
0.366446648583764 1.51051365878284 0.229610059418521
0.0739578907120912 1.55256719340234 0.229610059418521
-0.221203898025322 1.53850690447791 0.229610059418521
-0.508370801546964 1.46884096748501 0.229610059418521
1.39852576154923 0.269543747301717 0.424264068711065
1.32224108953996 0.529345481286566 0.424264068711065
1.19816717948915 0.770015290381519 0.424264068711065
1.03078838577747 0.982854740626814 0.424264068711065
0.826154214110843 1.16017125974281 0.424264068711065
0.591660676622445 1.29555616673496 0.424264068711065
0.335782980724054 1.38411629832265 0.424264068711065
0.0677692130282729 1.42265086060911 0.424264068711065
-0.202693910597312 1.4097671141125 0.424264068711065
-0.465831148180077 1.34593071099947 0.424264068711065
1.20738940378699 0.232705233823233 0.554327719506555
1.14153054927912 0.456999894188522 0.554327719506555
1.03441380649148 0.664777387676227 0.554327719506555
0.889910653598347 0.848528094312724 0.554327719506555
0.713243811044578 1.00161078480237 0.554327719506555
0.510798478821035 1.11849265185782 0.554327719506555
0.289891558700443 1.19494928027094 0.554327719506555
0.0585072023433293 1.2282173282851 0.554327719506555
-0.174991756745502 1.21709440196599 0.554327719506555
-0.402166057808975 1.16198251285129 0.554327719506555
0.756467990739411 0.145797254897777 0.55432771950697
0.715205316753951 0.286325017132506 0.55432771950697
0.648093259171726 0.41650424723551 0.55432771950697
0.557557422612519 0.531629928652191 0.55432771950697
0.446870008098399 0.627541119299114 0.55432771950697
0.320031547183155 0.700771338852129 0.55432771950697
0.181626312318647 0.748673856377113 0.55432771950697
0.0366566293042032 0.769517350081922 0.55432771950697
-0.109637919801211 0.762548481796871 0.55432771950697
-0.251969868826195 0.72801912457899 0.55432771950697
0.565331632977803 0.108958741419417 0.424264068712718
0.534494776493724 0.213979430034704 0.424264068712718
0.484339886174605 0.31126634453057 0.424264068712718
0.416679690433871 0.397303282338551 0.424264068712718
0.333959605032513 0.468980644359211 0.424264068712718
0.239169349382016 0.523707823975579 0.424264068712718
0.135734890295191 0.559506838326043 0.424264068712718
0.0273946186192905 0.575083817758556 0.424264068712718
-0.0819357659494934 0.569875769651002 0.424264068712718
-0.188304778455307 0.544070926431426 0.424264068712718
0.437618401791008 0.0843440336603224 0.229610059419529
0.41374785384424 0.165639654187925 0.229610059419529
0.374923380450023 0.240948626043266 0.229610059419529
0.322548199233002 0.307549086767881 0.229610059419529
0.258515285704564 0.363033922185376 0.229610059419529
0.185138956195756 0.405397765779432 0.229610059419529
0.105071222435189 0.433109477864644 0.229610059419529
0.0212059409354135 0.44516748496409 0.229610059419529
-0.0634257785213079 0.441135979284365 0.229610059419529
-0.145765125088015 0.42116066994472 0.229610059419529
0.437618401790605 0.0843440336602446 -0.229610059418537
0.413747853843858 0.165639654187772 -0.229610059418537
0.374923380449677 0.240948626043043 -0.229610059418537
0.322548199232704 0.307549086767598 -0.229610059418537
0.258515285704326 0.363033922185041 -0.229610059418537
0.185138956195586 0.405397765779059 -0.229610059418537
0.105071222435092 0.433109477864245 -0.229610059418537
0.0212059409353939 0.44516748496368 -0.229610059418537
-0.0634257785212494 0.441135979283958 -0.229610059418537
-0.145765125087881 0.421160669944331 -0.229610059418537
0.565331632976335 0.108958741419134 -0.424264068711224
0.534494776492336 0.213979430034148 -0.424264068711224
0.484339886173347 0.311266344529762 -0.424264068711224
0.416679690432789 0.397303282337519 -0.424264068711224
0.333959605031646 0.468980644357993 -0.424264068711224
0.239169349381395 0.523707823974219 -0.424264068711224
0.135734890294838 0.559506838324591 -0.424264068711224
0.0273946186192194 0.575083817757063 -0.424264068711224
-0.0819357659492807 0.569875769649523 -0.424264068711224
-0.188304778454818 0.544070926430014 -0.424264068711224
0.756467990738584 0.145797254897617 -0.554327719506621
0.715205316753169 0.286325017132193 -0.554327719506621
0.648093259171018 0.416504247235055 -0.554327719506621
0.557557422611909 0.531629928651611 -0.554327719506621
0.446870008097911 0.627541119298429 -0.554327719506621
0.320031547182805 0.700771338851363 -0.554327719506621
0.181626312318449 0.748673856376295 -0.554327719506621
0.0366566293041631 0.769517350081081 -0.554327719506621
-0.109637919801091 0.762548481796037 -0.554327719506621
-0.25196986882592 0.728019124578194 -0.554327719506621
1.20738940378595 0.232705233823035 -0.55432771950699
1.14153054927815 0.456999894188132 -0.55432771950699
1.0344138064906 0.664777387675659 -0.55432771950699
0.889910653597587 0.848528094311999 -0.55432771950699
0.713243811043969 1.00161078480152 -0.55432771950699
0.510798478820599 1.11849265185686 -0.55432771950699
0.289891558700196 1.19494928026992 -0.55432771950699
0.0585072023432793 1.22821732828405 -0.55432771950699
-0.174991756745352 1.21709440196495 -0.55432771950699
-0.402166057808632 1.1619825128503 -0.55432771950699
1.39852576154764 0.26954374730141 -0.424264068712685
1.32224108953845 0.529345481285964 -0.424264068712685
1.19816717948779 0.770015290380643 -0.424264068712685
1.03078838577629 0.982854740625696 -0.424264068712685
0.826154214109903 1.16017125974149 -0.424264068712685
0.591660676621772 1.29555616673349 -0.424264068712685
0.335782980723672 1.38411629832107 -0.424264068712685
0.0677692130281959 1.42265086060749 -0.424264068712685
-0.202693910597081 1.4097671141109 -0.424264068712685
-0.465831148179547 1.34593071099794 -0.424264068712685
1.52623899273438 0.294158455060494 -0.229610059419585
1.44298801218788 0.577685257132722 -0.229610059419585
1.30758368521232 0.840333008867917 -0.229610059419585
1.12491987697712 1.07260893619633 -0.229610059419585
0.901598533437819 1.26611798191528 -0.229610059419585
0.645691069808007 1.41386622492958 -0.229610059419585
0.36644664858366 1.51051365878242 -0.229610059419585
0.0739578907120703 1.5525671934019 -0.229610059419585
-0.221203898025259 1.53850690447748 -0.229610059419585
-0.50837080154682 1.4688409674846 -0.229610059419585
-1.01786819118785 1.17468251242444 0.229610059418521
-1.22178411416297 0.960821647345028 0.229610059418521
-1.38154157592478 0.712234184534188 0.229610059418521
-1.4913665255612 0.437904722586214 0.229610059418521
-1.54728960324626 0.147748243014349 0.229610059418521
-1.54728960324626 -0.147748243014347 0.229610059418521
-1.4913665255612 -0.437904722586213 0.229610059418521
-1.38154157592478 -0.712234184534187 0.229610059418521
-1.22178411416297 -0.960821647345028 0.229610059418521
-1.01786819118785 -1.17468251242443 0.229610059418521
-0.932694613369157 1.07638696369776 0.424264068711065
-1.11954717894264 0.880421632825934 0.424264068711065
-1.26593639251742 0.652635570227593 0.424264068711065
-1.36657136650152 0.401261557695833 0.424264068711065
-1.41781489073329 0.135384906992155 0.424264068711065
-1.41781489073329 -0.135384906992154 0.424264068711065
-1.36657136650152 -0.401261557695832 0.424264068711065
-1.26593639251742 -0.652635570227592 0.424264068711065
-1.11954717894264 -0.880421632825934 0.424264068711065
-0.932694613369158 -1.07638696369776 0.424264068711065
-0.80522334597801 0.929277279028061 0.554327719506555
-0.966538792533622 0.760094507777465 0.554327719506555
-1.09292100883481 0.563439940608868 0.554327719506555
-1.17980221229879 0.346421185958221 0.554327719506555
-1.22404228986561 0.116881867055446 0.554327719506555
-1.22404228986561 -0.116881867055445 0.554327719506555
-1.17980221229879 -0.34642118595822 0.554327719506555
-1.09292100883481 -0.563439940608867 0.554327719506555
-0.966538792533623 -0.760094507777464 0.554327719506555
-0.805223345978011 -0.92927727902806 0.554327719506555
-0.504498121913215 0.582221869681213 0.55432771950697
-0.60556739695274 0.476223464664365 0.55432771950697
-0.684749888475929 0.353013102846412 0.55432771950697
-0.739183734931166 0.217043927724922 0.55432771950697
-0.766901555281554 0.0732302195530147 0.55432771950697
-0.766901555281554 -0.0732302195530141 0.55432771950697
-0.739183734931166 -0.217043927724921 0.55432771950697
-0.684749888475929 -0.353013102846412 0.55432771950697
-0.60556739695274 -0.476223464664365 0.55432771950697
-0.504498121913216 -0.582221869681213 0.55432771950697
-0.377026854522496 0.435112185012009 0.424264068712718
-0.45255901054423 0.355896339616299 0.424264068712718
-0.511734504793895 0.263817473227986 0.424264068712718
-0.552414580729061 0.162203555987493 0.424264068712718
-0.573128954414528 0.0547271796163681 0.424264068712718
-0.573128954414528 -0.0547271796163677 0.424264068712718
-0.552414580729061 -0.162203555987492 0.424264068712718
-0.511734504793895 -0.263817473227986 0.424264068712718
-0.45255901054423 -0.355896339616298 0.424264068712718
-0.377026854522496 -0.435112185012009 0.424264068712718
-0.291853276702993 0.336816636284397 0.229610059419529
-0.350322075322932 0.275496325096441 0.229610059419529
-0.396129321385436 0.204218858920825 0.229610059419529
-0.42761942166819 0.125560391096764 0.229610059419529
-0.44365424190032 0.042363843594057 0.229610059419529
-0.44365424190032 -0.0423638435940566 0.229610059419529
-0.42761942166819 -0.125560391096763 0.229610059419529
-0.396129321385436 -0.204218858920825 0.229610059419529
-0.350322075322932 -0.275496325096441 0.229610059419529
-0.291853276702993 -0.336816636284397 0.229610059419529
-0.291853276702724 0.336816636284087 -0.229610059418537
-0.350322075322609 0.275496325096187 -0.229610059418537
-0.396129321385071 0.204218858920637 -0.229610059418537
-0.427619421667796 0.125560391096648 -0.229610059418537
-0.443654241899911 0.0423638435940179 -0.229610059418537
-0.443654241899911 -0.0423638435940175 -0.229610059418537
-0.427619421667796 -0.125560391096647 -0.229610059418537
-0.396129321385071 -0.204218858920636 -0.229610059418537
-0.350322075322609 -0.275496325096186 -0.229610059418537
-0.291853276702724 -0.336816636284087 -0.229610059418537
-0.377026854521517 0.43511218501088 -0.424264068711224
-0.452559010543055 0.355896339615375 -0.424264068711224
-0.511734504792567 0.263817473227301 -0.424264068711224
-0.552414580727627 0.162203555987072 -0.424264068711224
-0.57312895441304 0.054727179616226 -0.424264068711224
-0.57312895441304 -0.0547271796162256 -0.424264068711224
-0.552414580727627 -0.162203555987071 -0.424264068711224
-0.511734504792567 -0.263817473227301 -0.424264068711224
-0.452559010543055 -0.355896339615374 -0.424264068711224
-0.377026854521517 -0.43511218501088 -0.424264068711224
-0.504498121912664 0.582221869680577 -0.554327719506621
-0.605567396952078 0.476223464663845 -0.554327719506621
-0.684749888475181 0.353013102846026 -0.554327719506621
-0.739183734930358 0.217043927724685 -0.554327719506621
-0.766901555280716 0.0732302195529347 -0.554327719506621
-0.766901555280716 -0.0732302195529341 -0.554327719506621
-0.739183734930358 -0.217043927724684 -0.554327719506621
-0.684749888475181 -0.353013102846026 -0.554327719506621
-0.605567396952078 -0.476223464663844 -0.554327719506621
-0.504498121912664 -0.582221869680577 -0.554327719506621
-0.805223345977323 0.929277279027268 -0.55432771950699
-0.966538792532797 0.760094507776816 -0.55432771950699
-1.09292100883387 0.563439940608387 -0.55432771950699
-1.17980221229778 0.346421185957925 -0.55432771950699
-1.22404228986457 0.116881867055347 -0.55432771950699
-1.22404228986457 -0.116881867055346 -0.55432771950699
-1.17980221229778 -0.346421185957924 -0.55432771950699
-1.09292100883387 -0.563439940608387 -0.55432771950699
-0.966538792532798 -0.760094507776816 -0.55432771950699
-0.805223345977324 -0.929277279027267 -0.55432771950699
-0.932694613368096 1.07638696369653 -0.424264068712685
-1.11954717894137 0.880421632824933 -0.424264068712685
-1.26593639251598 0.65263557022685 -0.424264068712685
-1.36657136649997 0.401261557695377 -0.424264068712685
-1.41781489073167 0.135384906992001 -0.424264068712685
-1.41781489073167 -0.135384906992 -0.424264068712685
-1.36657136649997 -0.401261557695376 -0.424264068712685
-1.26593639251598 -0.652635570226849 -0.424264068712685
-1.11954717894137 -0.880421632824932 -0.424264068712685
-0.932694613368096 -1.07638696369653 -0.424264068712685
-1.01786819118756 1.1746825124241 -0.229610059419585
-1.22178411416262 0.960821647344756 -0.229610059419585
-1.38154157592439 0.712234184533986 -0.229610059419585
-1.49136652556078 0.43790472258609 -0.229610059419585
-1.54728960324583 0.147748243014307 -0.229610059419585
-1.54728960324583 -0.147748243014306 -0.229610059419585
-1.49136652556078 -0.437904722586089 -0.229610059419585
-1.38154157592439 -0.712234184533985 -0.229610059419585
-1.22178411416262 -0.960821647344755 -0.229610059419585
-1.01786819118756 -1.1746825124241 -0.229610059419585
1.52623899273482 -0.294158455060577 0.229610059418521
1.44298801218829 -0.577685257132886 0.229610059418521
1.30758368521269 -0.840333008868155 0.229610059418521
1.12491987697744 -1.07260893619663 0.229610059418521
0.901598533438075 -1.26611798191564 0.229610059418521
0.64569106980819 -1.41386622492998 0.229610059418521
0.366446648583764 -1.51051365878284 0.229610059418521
0.0739578907120912 -1.55256719340234 0.229610059418521
-0.221203898025322 -1.53850690447791 0.229610059418521
-0.508370801546964 -1.46884096748501 0.229610059418521
1.39852576154923 -0.269543747301717 0.424264068711065
1.32224108953996 -0.529345481286566 0.424264068711065
1.19816717948915 -0.770015290381519 0.424264068711065
1.03078838577747 -0.982854740626814 0.424264068711065
0.826154214110843 -1.16017125974281 0.424264068711065
0.591660676622445 -1.29555616673496 0.424264068711065
0.335782980724054 -1.38411629832265 0.424264068711065
0.0677692130282729 -1.42265086060911 0.424264068711065
-0.202693910597312 -1.4097671141125 0.424264068711065
-0.465831148180077 -1.34593071099947 0.424264068711065
1.20738940378699 -0.232705233823233 0.554327719506555
1.14153054927912 -0.456999894188522 0.554327719506555
1.03441380649148 -0.664777387676227 0.554327719506555
0.889910653598347 -0.848528094312724 0.554327719506555
0.713243811044578 -1.00161078480237 0.554327719506555
0.510798478821035 -1.11849265185782 0.554327719506555
0.289891558700443 -1.19494928027094 0.554327719506555
0.0585072023433293 -1.2282173282851 0.554327719506555
-0.174991756745502 -1.21709440196599 0.554327719506555
-0.402166057808975 -1.16198251285129 0.554327719506555
0.756467990739411 -0.145797254897777 0.55432771950697
0.715205316753951 -0.286325017132506 0.55432771950697
0.648093259171726 -0.41650424723551 0.55432771950697
0.557557422612519 -0.531629928652191 0.55432771950697
0.446870008098399 -0.627541119299114 0.55432771950697
0.320031547183155 -0.700771338852129 0.55432771950697
0.181626312318647 -0.748673856377113 0.55432771950697
0.0366566293042032 -0.769517350081922 0.55432771950697
-0.109637919801211 -0.762548481796871 0.55432771950697
-0.251969868826195 -0.72801912457899 0.55432771950697
0.565331632977803 -0.108958741419417 0.424264068712718
0.534494776493724 -0.213979430034704 0.424264068712718
0.484339886174605 -0.31126634453057 0.424264068712718
0.416679690433871 -0.397303282338551 0.424264068712718
0.333959605032513 -0.468980644359211 0.424264068712718
0.239169349382016 -0.523707823975579 0.424264068712718
0.135734890295191 -0.559506838326043 0.424264068712718
0.0273946186192905 -0.575083817758556 0.424264068712718
-0.0819357659494934 -0.569875769651002 0.424264068712718
-0.188304778455307 -0.544070926431426 0.424264068712718
0.437618401791008 -0.0843440336603224 0.229610059419529
0.41374785384424 -0.165639654187925 0.229610059419529
0.374923380450023 -0.240948626043266 0.229610059419529
0.322548199233002 -0.307549086767881 0.229610059419529
0.258515285704564 -0.363033922185376 0.229610059419529
0.185138956195756 -0.405397765779432 0.229610059419529
0.105071222435189 -0.433109477864644 0.229610059419529
0.0212059409354135 -0.44516748496409 0.229610059419529
-0.0634257785213079 -0.441135979284365 0.229610059419529
-0.145765125088015 -0.42116066994472 0.229610059419529
0.437618401790605 -0.0843440336602446 -0.229610059418537
0.413747853843858 -0.165639654187772 -0.229610059418537
0.374923380449677 -0.240948626043043 -0.229610059418537
0.322548199232704 -0.307549086767598 -0.229610059418537
0.258515285704326 -0.363033922185041 -0.229610059418537
0.185138956195586 -0.405397765779059 -0.229610059418537
0.105071222435092 -0.433109477864245 -0.229610059418537
0.0212059409353939 -0.44516748496368 -0.229610059418537
-0.0634257785212494 -0.441135979283958 -0.229610059418537
-0.145765125087881 -0.421160669944331 -0.229610059418537
0.565331632976335 -0.108958741419134 -0.424264068711224
0.534494776492336 -0.213979430034148 -0.424264068711224
0.484339886173347 -0.311266344529762 -0.424264068711224
0.416679690432789 -0.397303282337519 -0.424264068711224
0.333959605031646 -0.468980644357993 -0.424264068711224
0.239169349381395 -0.523707823974219 -0.424264068711224
0.135734890294838 -0.559506838324591 -0.424264068711224
0.0273946186192194 -0.575083817757063 -0.424264068711224
-0.0819357659492807 -0.569875769649523 -0.424264068711224
-0.188304778454818 -0.544070926430014 -0.424264068711224
0.756467990738584 -0.145797254897617 -0.554327719506621
0.715205316753169 -0.286325017132193 -0.554327719506621
0.648093259171018 -0.416504247235055 -0.554327719506621
0.557557422611909 -0.531629928651611 -0.554327719506621
0.446870008097911 -0.627541119298429 -0.554327719506621
0.320031547182805 -0.700771338851363 -0.554327719506621
0.181626312318449 -0.748673856376295 -0.554327719506621
0.0366566293041631 -0.769517350081081 -0.554327719506621
-0.109637919801091 -0.762548481796037 -0.554327719506621
-0.25196986882592 -0.728019124578194 -0.554327719506621
1.20738940378595 -0.232705233823035 -0.55432771950699
1.14153054927815 -0.456999894188132 -0.55432771950699
1.0344138064906 -0.664777387675659 -0.55432771950699
0.889910653597587 -0.848528094311999 -0.55432771950699
0.713243811043969 -1.00161078480152 -0.55432771950699
0.510798478820599 -1.11849265185686 -0.55432771950699
0.289891558700196 -1.19494928026992 -0.55432771950699
0.0585072023432793 -1.22821732828405 -0.55432771950699
-0.174991756745352 -1.21709440196495 -0.55432771950699
-0.402166057808632 -1.1619825128503 -0.55432771950699
1.39852576154764 -0.26954374730141 -0.424264068712685
1.32224108953845 -0.529345481285964 -0.424264068712685
1.19816717948779 -0.770015290380643 -0.424264068712685
1.03078838577629 -0.982854740625696 -0.424264068712685
0.826154214109903 -1.16017125974149 -0.424264068712685
0.591660676621772 -1.29555616673349 -0.424264068712685
0.335782980723672 -1.38411629832107 -0.424264068712685
0.0677692130281959 -1.42265086060749 -0.424264068712685
-0.202693910597081 -1.4097671141109 -0.424264068712685
-0.465831148179547 -1.34593071099794 -0.424264068712685
1.52623899273438 -0.294158455060494 -0.229610059419585
1.44298801218788 -0.577685257132722 -0.229610059419585
1.30758368521232 -0.840333008867917 -0.229610059419585
1.12491987697712 -1.07260893619633 -0.229610059419585
0.901598533437819 -1.26611798191528 -0.229610059419585
0.645691069808007 -1.41386622492958 -0.229610059419585
0.36644664858366 -1.51051365878242 -0.229610059419585
0.0739578907120703 -1.5525671934019 -0.229610059419585
-0.221203898025259 -1.53850690447748 -0.229610059419585
-0.50837080154682 -1.4688409674846 -0.229610059419585

t	0 168 12
t	0 36 168
t	36 169 168
t	36 37 169
t	37 170 169
t	37 38 170
t	38 171 170
t	38 39 171
t	39 172 171
t	39 40 172
t	40 173 172
t	40 41 173
t	41 174 173
t	41 42 174
t	42 175 174
t	42 43 175
t	43 176 175
t	43 44 176
t	44 177 176
t	44 45 177
t	45 24 177
t	45 4 24
t	12 178 13
t	12 168 178
t	168 179 178
t	168 169 179
t	169 180 179
t	169 170 180
t	170 181 180
t	170 171 181
t	171 182 181
t	171 172 182
t	172 183 182
t	172 173 183
t	173 184 183
t	173 174 184
t	174 185 184
t	174 175 185
t	175 186 185
t	175 176 186
t	176 187 186
t	176 177 187
t	177 25 187
t	177 24 25
t	13 188 14
t	13 178 188
t	178 189 188
t	178 179 189
t	179 190 189
t	179 180 190
t	180 191 190
t	180 181 191
t	181 192 191
t	181 182 192
t	182 193 192
t	182 183 193
t	183 194 193
t	183 184 194
t	184 195 194
t	184 185 195
t	185 196 195
t	185 186 196
t	186 197 196
t	186 187 197
t	187 26 197
t	187 25 26
t	14 46 1
t	14 188 46
t	188 47 46
t	188 189 47
t	189 48 47
t	189 190 48
t	190 49 48
t	190 191 49
t	191 50 49
t	191 192 50
t	192 51 50
t	192 193 51
t	193 52 51
t	193 194 52
t	194 53 52
t	194 195 53
t	195 54 53
t	195 196 54
t	196 55 54
t	196 197 55
t	197 5 55
t	197 26 5
t	1 198 15
t	1 46 198
t	46 199 198
t	46 47 199
t	47 200 199
t	47 48 200
t	48 201 200
t	48 49 201
t	49 202 201
t	49 50 202
t	50 203 202
t	50 51 203
t	51 204 203
t	51 52 204
t	52 205 204
t	52 53 205
t	53 206 205
t	53 54 206
t	54 207 206
t	54 55 207
t	55 27 207
t	55 5 27
t	15 208 16
t	15 198 208
t	198 209 208
t	198 199 209
t	199 210 209
t	199 200 210
t	200 211 210
t	200 201 211
t	201 212 211
t	201 202 212
t	202 213 212
t	202 203 213
t	203 214 213
t	203 204 214
t	204 215 214
t	204 205 215
t	205 216 215
t	205 206 216
t	206 217 216
t	206 207 217
t	207 28 217
t	207 27 28
t	16 218 17
t	16 208 218
t	208 219 218
t	208 209 219
t	209 220 219
t	209 210 220
t	210 221 220
t	210 211 221
t	211 222 221
t	211 212 222
t	212 223 222
t	212 213 223
t	213 224 223
t	213 214 224
t	214 225 224
t	214 215 225
t	215 226 225
t	215 216 226
t	216 227 226
t	216 217 227
t	217 29 227
t	217 28 29
t	17 56 3
t	17 218 56
t	218 57 56
t	218 219 57
t	219 58 57
t	219 220 58
t	220 59 58
t	220 221 59
t	221 60 59
t	221 222 60
t	222 61 60
t	222 223 61
t	223 62 61
t	223 224 62
t	224 63 62
t	224 225 63
t	225 64 63
t	225 226 64
t	226 65 64
t	226 227 65
t	227 6 65
t	227 29 6
t	3 228 18
t	3 56 228
t	56 229 228
t	56 57 229
t	57 230 229
t	57 58 230
t	58 231 230
t	58 59 231
t	59 232 231
t	59 60 232
t	60 233 232
t	60 61 233
t	61 234 233
t	61 62 234
t	62 235 234
t	62 63 235
t	63 236 235
t	63 64 236
t	64 237 236
t	64 65 237
t	65 30 237
t	65 6 30
t	18 238 19
t	18 228 238
t	228 239 238
t	228 229 239
t	229 240 239
t	229 230 240
t	230 241 240
t	230 231 241
t	231 242 241
t	231 232 242
t	232 243 242
t	232 233 243
t	233 244 243
t	233 234 244
t	234 245 244
t	234 235 245
t	235 246 245
t	235 236 246
t	236 247 246
t	236 237 247
t	237 31 247
t	237 30 31
t	19 248 20
t	19 238 248
t	238 249 248
t	238 239 249
t	239 250 249
t	239 240 250
t	240 251 250
t	240 241 251
t	241 252 251
t	241 242 252
t	242 253 252
t	242 243 253
t	243 254 253
t	243 244 254
t	244 255 254
t	244 245 255
t	245 256 255
t	245 246 256
t	246 257 256
t	246 247 257
t	247 32 257
t	247 31 32
t	20 66 2
t	20 248 66
t	248 67 66
t	248 249 67
t	249 68 67
t	249 250 68
t	250 69 68
t	250 251 69
t	251 70 69
t	251 252 70
t	252 71 70
t	252 253 71
t	253 72 71
t	253 254 72
t	254 73 72
t	254 255 73
t	255 74 73
t	255 256 74
t	256 75 74
t	256 257 75
t	257 7 75
t	257 32 7
t	2 258 21
t	2 66 258
t	66 259 258
t	66 67 259
t	67 260 259
t	67 68 260
t	68 261 260
t	68 69 261
t	69 262 261
t	69 70 262
t	70 263 262
t	70 71 263
t	71 264 263
t	71 72 264
t	72 265 264
t	72 73 265
t	73 266 265
t	73 74 266
t	74 267 266
t	74 75 267
t	75 33 267
t	75 7 33
t	21 268 22
t	21 258 268
t	258 269 268
t	258 259 269
t	259 270 269
t	259 260 270
t	260 271 270
t	260 261 271
t	261 272 271
t	261 262 272
t	262 273 272
t	262 263 273
t	263 274 273
t	263 264 274
t	264 275 274
t	264 265 275
t	265 276 275
t	265 266 276
t	266 277 276
t	266 267 277
t	267 34 277
t	267 33 34
t	22 278 23
t	22 268 278
t	268 279 278
t	268 269 279
t	269 280 279
t	269 270 280
t	270 281 280
t	270 271 281
t	271 282 281
t	271 272 282
t	272 283 282
t	272 273 283
t	273 284 283
t	273 274 284
t	274 285 284
t	274 275 285
t	275 286 285
t	275 276 286
t	276 287 286
t	276 277 287
t	277 35 287
t	277 34 35
t	23 36 0
t	23 278 36
t	278 37 36
t	278 279 37
t	279 38 37
t	279 280 38
t	280 39 38
t	280 281 39
t	281 40 39
t	281 282 40
t	282 41 40
t	282 283 41
t	283 42 41
t	283 284 42
t	284 43 42
t	284 285 43
t	285 44 43
t	285 286 44
t	286 45 44
t	286 287 45
t	287 4 45
t	287 35 4
t	4 288 24
t	4 88 288
t	88 289 288
t	88 89 289
t	89 290 289
t	89 90 290
t	90 291 290
t	90 91 291
t	91 292 291
t	91 92 292
t	92 293 292
t	92 93 293
t	93 294 293
t	93 94 294
t	94 295 294
t	94 95 295
t	95 296 295
t	95 96 296
t	96 297 296
t	96 97 297
t	97 76 297
t	97 8 76
t	24 298 25
t	24 288 298
t	288 299 298
t	288 289 299
t	289 300 299
t	289 290 300
t	290 301 300
t	290 291 301
t	291 302 301
t	291 292 302
t	292 303 302
t	292 293 303
t	293 304 303
t	293 294 304
t	294 305 304
t	294 295 305
t	295 306 305
t	295 296 306
t	296 307 306
t	296 297 307
t	297 77 307
t	297 76 77
t	25 308 26
t	25 298 308
t	298 309 308
t	298 299 309
t	299 310 309
t	299 300 310
t	300 311 310
t	300 301 311
t	301 312 311
t	301 302 312
t	302 313 312
t	302 303 313
t	303 314 313
t	303 304 314
t	304 315 314
t	304 305 315
t	305 316 315
t	305 306 316
t	306 317 316
t	306 307 317
t	307 78 317
t	307 77 78
t	26 98 5
t	26 308 98
t	308 99 98
t	308 309 99
t	309 100 99
t	309 310 100
t	310 101 100
t	310 311 101
t	311 102 101
t	311 312 102
t	312 103 102
t	312 313 103
t	313 104 103
t	313 314 104
t	314 105 104
t	314 315 105
t	315 106 105
t	315 316 106
t	316 107 106
t	316 317 107
t	317 9 107
t	317 78 9
t	5 318 27
t	5 98 318
t	98 319 318
t	98 99 319
t	99 320 319
t	99 100 320
t	100 321 320
t	100 101 321
t	101 322 321
t	101 102 322
t	102 323 322
t	102 103 323
t	103 324 323
t	103 104 324
t	104 325 324
t	104 105 325
t	105 326 325
t	105 106 326
t	106 327 326
t	106 107 327
t	107 79 327
t	107 9 79
t	27 328 28
t	27 318 328
t	318 329 328
t	318 319 329
t	319 330 329
t	319 320 330
t	320 331 330
t	320 321 331
t	321 332 331
t	321 322 332
t	322 333 332
t	322 323 333
t	323 334 333
t	323 324 334
t	324 335 334
t	324 325 335
t	325 336 335
t	325 326 336
t	326 337 336
t	326 327 337
t	327 80 337
t	327 79 80
t	28 338 29
t	28 328 338
t	328 339 338
t	328 329 339
t	329 340 339
t	329 330 340
t	330 341 340
t	330 331 341
t	331 342 341
t	331 332 342
t	332 343 342
t	332 333 343
t	333 344 343
t	333 334 344
t	334 345 344
t	334 335 345
t	335 346 345
t	335 336 346
t	336 347 346
t	336 337 347
t	337 81 347
t	337 80 81
t	29 108 6
t	29 338 108
t	338 109 108
t	338 339 109
t	339 110 109
t	339 340 110
t	340 111 110
t	340 341 111
t	341 112 111
t	341 342 112
t	342 113 112
t	342 343 113
t	343 114 113
t	343 344 114
t	344 115 114
t	344 345 115
t	345 116 115
t	345 346 116
t	346 117 116
t	346 347 117
t	347 10 117
t	347 81 10
t	6 348 30
t	6 108 348
t	108 349 348
t	108 109 349
t	109 350 349
t	109 110 350
t	110 351 350
t	110 111 351
t	111 352 351
t	111 112 352
t	112 353 352
t	112 113 353
t	113 354 353
t	113 114 354
t	114 355 354
t	114 115 355
t	115 356 355
t	115 116 356
t	116 357 356
t	116 117 357
t	117 82 357
t	117 10 82
t	30 358 31
t	30 348 358
t	348 359 358
t	348 349 359
t	349 360 359
t	349 350 360
t	350 361 360
t	350 351 361
t	351 362 361
t	351 352 362
t	352 363 362
t	352 353 363
t	353 364 363
t	353 354 364
t	354 365 364
t	354 355 365
t	355 366 365
t	355 356 366
t	356 367 366
t	356 357 367
t	357 83 367
t	357 82 83
t	31 368 32
t	31 358 368
t	358 369 368
t	358 359 369
t	359 370 369
t	359 360 370
t	360 371 370
t	360 361 371
t	361 372 371
t	361 362 372
t	362 373 372
t	362 363 373
t	363 374 373
t	363 364 374
t	364 375 374
t	364 365 375
t	365 376 375
t	365 366 376
t	366 377 376
t	366 367 377
t	367 84 377
t	367 83 84
t	32 118 7
t	32 368 118
t	368 119 118
t	368 369 119
t	369 120 119
t	369 370 120
t	370 121 120
t	370 371 121
t	371 122 121
t	371 372 122
t	372 123 122
t	372 373 123
t	373 124 123
t	373 374 124
t	374 125 124
t	374 375 125
t	375 126 125
t	375 376 126
t	376 127 126
t	376 377 127
t	377 11 127
t	377 84 11
t	7 378 33
t	7 118 378
t	118 379 378
t	118 119 379
t	119 380 379
t	119 120 380
t	120 381 380
t	120 121 381
t	121 382 381
t	121 122 382
t	122 383 382
t	122 123 383
t	123 384 383
t	123 124 384
t	124 385 384
t	124 125 385
t	125 386 385
t	125 126 386
t	126 387 386
t	126 127 387
t	127 85 387
t	127 11 85
t	33 388 34
t	33 378 388
t	378 389 388
t	378 379 389
t	379 390 389
t	379 380 390
t	380 391 390
t	380 381 391
t	381 392 391
t	381 382 392
t	382 393 392
t	382 383 393
t	383 394 393
t	383 384 394
t	384 395 394
t	384 385 395
t	385 396 395
t	385 386 396
t	386 397 396
t	386 387 397
t	387 86 397
t	387 85 86
t	34 398 35
t	34 388 398
t	388 399 398
t	388 389 399
t	389 400 399
t	389 390 400
t	390 401 400
t	390 391 401
t	391 402 401
t	391 392 402
t	392 403 402
t	392 393 403
t	393 404 403
t	393 394 404
t	394 405 404
t	394 395 405
t	395 406 405
t	395 396 406
t	396 407 406
t	396 397 407
t	397 87 407
t	397 86 87
t	35 88 4
t	35 398 88
t	398 89 88
t	398 399 89
t	399 90 89
t	399 400 90
t	400 91 90
t	400 401 91
t	401 92 91
t	401 402 92
t	402 93 92
t	402 403 93
t	403 94 93
t	403 404 94
t	404 95 94
t	404 405 95
t	405 96 95
t	405 406 96
t	406 97 96
t	406 407 97
t	407 8 97
t	407 87 8
t	0 12 408
t	0 408 128
t	128 408 409
t	128 409 129
t	129 409 410
t	129 410 130
t	130 410 411
t	130 411 131
t	131 411 412
t	131 412 132
t	132 412 413
t	132 413 133
t	133 413 414
t	133 414 134
t	134 414 415
t	134 415 135
t	135 415 416
t	135 416 136
t	136 416 417
t	136 417 137
t	137 417 76
t	137 76 8
t	12 13 418
t	12 418 408
t	408 418 419
t	408 419 409
t	409 419 420
t	409 420 410
t	410 420 421
t	410 421 411
t	411 421 422
t	411 422 412
t	412 422 423
t	412 423 413
t	413 423 424
t	413 424 414
t	414 424 425
t	414 425 415
t	415 425 426
t	415 426 416
t	416 426 427
t	416 427 417
t	417 427 77
t	417 77 76
t	13 14 428
t	13 428 418
t	418 428 429
t	418 429 419
t	419 429 430
t	419 430 420
t	420 430 431
t	420 431 421
t	421 431 432
t	421 432 422
t	422 432 433
t	422 433 423
t	423 433 434
t	423 434 424
t	424 434 435
t	424 435 425
t	425 435 436
t	425 436 426
t	426 436 437
t	426 437 427
t	427 437 78
t	427 78 77
t	14 1 138
t	14 138 428
t	428 138 139
t	428 139 429
t	429 139 140
t	429 140 430
t	430 140 141
t	430 141 431
t	431 141 142
t	431 142 432
t	432 142 143
t	432 143 433
t	433 143 144
t	433 144 434
t	434 144 145
t	434 145 435
t	435 145 146
t	435 146 436
t	436 146 147
t	436 147 437
t	437 147 9
t	437 9 78
t	1 15 438
t	1 438 138
t	138 438 439
t	138 439 139
t	139 439 440
t	139 440 140
t	140 440 441
t	140 441 141
t	141 441 442
t	141 442 142
t	142 442 443
t	142 443 143
t	143 443 444
t	143 444 144
t	144 444 445
t	144 445 145
t	145 445 446
t	145 446 146
t	146 446 447
t	146 447 147
t	147 447 79
t	147 79 9
t	15 16 448
t	15 448 438
t	438 448 449
t	438 449 439
t	439 449 450
t	439 450 440
t	440 450 451
t	440 451 441
t	441 451 452
t	441 452 442
t	442 452 453
t	442 453 443
t	443 453 454
t	443 454 444
t	444 454 455
t	444 455 445
t	445 455 456
t	445 456 446
t	446 456 457
t	446 457 447
t	447 457 80
t	447 80 79
t	16 17 458
t	16 458 448
t	448 458 459
t	448 459 449
t	449 459 460
t	449 460 450
t	450 460 461
t	450 461 451
t	451 461 462
t	451 462 452
t	452 462 463
t	452 463 453
t	453 463 464
t	453 464 454
t	454 464 465
t	454 465 455
t	455 465 466
t	455 466 456
t	456 466 467
t	456 467 457
t	457 467 81
t	457 81 80
t	17 3 148
t	17 148 458
t	458 148 149
t	458 149 459
t	459 149 150
t	459 150 460
t	460 150 151
t	460 151 461
t	461 151 152
t	461 152 462
t	462 152 153
t	462 153 463
t	463 153 154
t	463 154 464
t	464 154 155
t	464 155 465
t	465 155 156
t	465 156 466
t	466 156 157
t	466 157 467
t	467 157 10
t	467 10 81
t	3 18 468
t	3 468 148
t	148 468 469
t	148 469 149
t	149 469 470
t	149 470 150
t	150 470 471
t	150 471 151
t	151 471 472
t	151 472 152
t	152 472 473
t	152 473 153
t	153 473 474
t	153 474 154
t	154 474 475
t	154 475 155
t	155 475 476
t	155 476 156
t	156 476 477
t	156 477 157
t	157 477 82
t	157 82 10
t	18 19 478
t	18 478 468
t	468 478 479
t	468 479 469
t	469 479 480
t	469 480 470
t	470 480 481
t	470 481 471
t	471 481 482
t	471 482 472
t	472 482 483
t	472 483 473
t	473 483 484
t	473 484 474
t	474 484 485
t	474 485 475
t	475 485 486
t	475 486 476
t	476 486 487
t	476 487 477
t	477 487 83
t	477 83 82
t	19 20 488
t	19 488 478
t	478 488 489
t	478 489 479
t	479 489 490
t	479 490 480
t	480 490 491
t	480 491 481
t	481 491 492
t	481 492 482
t	482 492 493
t	482 493 483
t	483 493 494
t	483 494 484
t	484 494 495
t	484 495 485
t	485 495 496
t	485 496 486
t	486 496 497
t	486 497 487
t	487 497 84
t	487 84 83
t	20 2 158
t	20 158 488
t	488 158 159
t	488 159 489
t	489 159 160
t	489 160 490
t	490 160 161
t	490 161 491
t	491 161 162
t	491 162 492
t	492 162 163
t	492 163 493
t	493 163 164
t	493 164 494
t	494 164 165
t	494 165 495
t	495 165 166
t	495 166 496
t	496 166 167
t	496 167 497
t	497 167 11
t	497 11 84
t	2 21 498
t	2 498 158
t	158 498 499
t	158 499 159
t	159 499 500
t	159 500 160
t	160 500 501
t	160 501 161
t	161 501 502
t	161 502 162
t	162 502 503
t	162 503 163
t	163 503 504
t	163 504 164
t	164 504 505
t	164 505 165
t	165 505 506
t	165 506 166
t	166 506 507
t	166 507 167
t	167 507 85
t	167 85 11
t	21 22 508
t	21 508 498
t	498 508 509
t	498 509 499
t	499 509 510
t	499 510 500
t	500 510 511
t	500 511 501
t	501 511 512
t	501 512 502
t	502 512 513
t	502 513 503
t	503 513 514
t	503 514 504
t	504 514 515
t	504 515 505
t	505 515 516
t	505 516 506
t	506 516 517
t	506 517 507
t	507 517 86
t	507 86 85
t	22 23 518
t	22 518 508
t	508 518 519
t	508 519 509
t	509 519 520
t	509 520 510
t	510 520 521
t	510 521 511
t	511 521 522
t	511 522 512
t	512 522 523
t	512 523 513
t	513 523 524
t	513 524 514
t	514 524 525
t	514 525 515
t	515 525 526
t	515 526 516
t	516 526 527
t	516 527 517
t	517 527 87
t	517 87 86
t	23 0 128
t	23 128 518
t	518 128 129
t	518 129 519
t	519 129 130
t	519 130 520
t	520 130 131
t	520 131 521
t	521 131 132
t	521 132 522
t	522 132 133
t	522 133 523
t	523 133 134
t	523 134 524
t	524 134 135
t	524 135 525
t	525 135 136
t	525 136 526
t	526 136 137
t	526 137 527
t	527 137 8
t	527 8 87

e	0 168
e	168 12
e	12 0
e	0 36
e	36 168
e	36 169
e	169 168
e	36 37
e	37 169
e	37 170
e	170 169
e	37 38
e	38 170
e	38 171
e	171 170
e	38 39
e	39 171
e	39 172
e	172 171
e	39 40
e	40 172
e	40 173
e	173 172
e	40 41
e	41 173
e	41 174
e	174 173
e	41 42
e	42 174
e	42 175
e	175 174
e	42 43
e	43 175
e	43 176
e	176 175
e	43 44
e	44 176
e	44 177
e	177 176
e	44 45
e	45 177
e	45 24
e	24 177
e	45 4
e	4 24
e	12 178
e	178 13
e	13 12
e	168 178
e	168 179
e	179 178
e	169 179
e	169 180
e	180 179
e	170 180
e	170 181
e	181 180
e	171 181
e	171 182
e	182 181
e	172 182
e	172 183
e	183 182
e	173 183
e	173 184
e	184 183
e	174 184
e	174 185
e	185 184
e	175 185
e	175 186
e	186 185
e	176 186
e	176 187
e	187 186
e	177 187
e	177 25
e	25 187
e	24 25
e	13 188
e	188 14
e	14 13
e	178 188
e	178 189
e	189 188
e	179 189
e	179 190
e	190 189
e	180 190
e	180 191
e	191 190
e	181 191
e	181 192
e	192 191
e	182 192
e	182 193
e	193 192
e	183 193
e	183 194
e	194 193
e	184 194
e	184 195
e	195 194
e	185 195
e	185 196
e	196 195
e	186 196
e	186 197
e	197 196
e	187 197
e	187 26
e	26 197
e	25 26
e	14 46
e	46 1
e	1 14
e	188 46
e	188 47
e	47 46
e	189 47
e	189 48
e	48 47
e	190 48
e	190 49
e	49 48
e	191 49
e	191 50
e	50 49
e	192 50
e	192 51
e	51 50
e	193 51
e	193 52
e	52 51
e	194 52
e	194 53
e	53 52
e	195 53
e	195 54
e	54 53
e	196 54
e	196 55
e	55 54
e	197 55
e	197 5
e	5 55
e	26 5
e	1 198
e	198 15
e	15 1
e	46 198
e	46 199
e	199 198
e	47 199
e	47 200
e	200 199
e	48 200
e	48 201
e	201 200
e	49 201
e	49 202
e	202 201
e	50 202
e	50 203
e	203 202
e	51 203
e	51 204
e	204 203
e	52 204
e	52 205
e	205 204
e	53 205
e	53 206
e	206 205
e	54 206
e	54 207
e	207 206
e	55 207
e	55 27
e	27 207
e	5 27
e	15 208
e	208 16
e	16 15
e	198 208
e	198 209
e	209 208
e	199 209
e	199 210
e	210 209
e	200 210
e	200 211
e	211 210
e	201 211
e	201 212
e	212 211
e	202 212
e	202 213
e	213 212
e	203 213
e	203 214
e	214 213
e	204 214
e	204 215
e	215 214
e	205 215
e	205 216
e	216 215
e	206 216
e	206 217
e	217 216
e	207 217
e	207 28
e	28 217
e	27 28
e	16 218
e	218 17
e	17 16
e	208 218
e	208 219
e	219 218
e	209 219
e	209 220
e	220 219
e	210 220
e	210 221
e	221 220
e	211 221
e	211 222
e	222 221
e	212 222
e	212 223
e	223 222
e	213 223
e	213 224
e	224 223
e	214 224
e	214 225
e	225 224
e	215 225
e	215 226
e	226 225
e	216 226
e	216 227
e	227 226
e	217 227
e	217 29
e	29 227
e	28 29
e	17 56
e	56 3
e	3 17
e	218 56
e	218 57
e	57 56
e	219 57
e	219 58
e	58 57
e	220 58
e	220 59
e	59 58
e	221 59
e	221 60
e	60 59
e	222 60
e	222 61
e	61 60
e	223 61
e	223 62
e	62 61
e	224 62
e	224 63
e	63 62
e	225 63
e	225 64
e	64 63
e	226 64
e	226 65
e	65 64
e	227 65
e	227 6
e	6 65
e	29 6
e	3 228
e	228 18
e	18 3
e	56 228
e	56 229
e	229 228
e	57 229
e	57 230
e	230 229
e	58 230
e	58 231
e	231 230
e	59 231
e	59 232
e	232 231
e	60 232
e	60 233
e	233 232
e	61 233
e	61 234
e	234 233
e	62 234
e	62 235
e	235 234
e	63 235
e	63 236
e	236 235
e	64 236
e	64 237
e	237 236
e	65 237
e	65 30
e	30 237
e	6 30
e	18 238
e	238 19
e	19 18
e	228 238
e	228 239
e	239 238
e	229 239
e	229 240
e	240 239
e	230 240
e	230 241
e	241 240
e	231 241
e	231 242
e	242 241
e	232 242
e	232 243
e	243 242
e	233 243
e	233 244
e	244 243
e	234 244
e	234 245
e	245 244
e	235 245
e	235 246
e	246 245
e	236 246
e	236 247
e	247 246
e	237 247
e	237 31
e	31 247
e	30 31
e	19 248
e	248 20
e	20 19
e	238 248
e	238 249
e	249 248
e	239 249
e	239 250
e	250 249
e	240 250
e	240 251
e	251 250
e	241 251
e	241 252
e	252 251
e	242 252
e	242 253
e	253 252
e	243 253
e	243 254
e	254 253
e	244 254
e	244 255
e	255 254
e	245 255
e	245 256
e	256 255
e	246 256
e	246 257
e	257 256
e	247 257
e	247 32
e	32 257
e	31 32
e	20 66
e	66 2
e	2 20
e	248 66
e	248 67
e	67 66
e	249 67
e	249 68
e	68 67
e	250 68
e	250 69
e	69 68
e	251 69
e	251 70
e	70 69
e	252 70
e	252 71
e	71 70
e	253 71
e	253 72
e	72 71
e	254 72
e	254 73
e	73 72
e	255 73
e	255 74
e	74 73
e	256 74
e	256 75
e	75 74
e	257 75
e	257 7
e	7 75
e	32 7
e	2 258
e	258 21
e	21 2
e	66 258
e	66 259
e	259 258
e	67 259
e	67 260
e	260 259
e	68 260
e	68 261
e	261 260
e	69 261
e	69 262
e	262 261
e	70 262
e	70 263
e	263 262
e	71 263
e	71 264
e	264 263
e	72 264
e	72 265
e	265 264
e	73 265
e	73 266
e	266 265
e	74 266
e	74 267
e	267 266
e	75 267
e	75 33
e	33 267
e	7 33
e	21 268
e	268 22
e	22 21
e	258 268
e	258 269
e	269 268
e	259 269
e	259 270
e	270 269
e	260 270
e	260 271
e	271 270
e	261 271
e	261 272
e	272 271
e	262 272
e	262 273
e	273 272
e	263 273
e	263 274
e	274 273
e	264 274
e	264 275
e	275 274
e	265 275
e	265 276
e	276 275
e	266 276
e	266 277
e	277 276
e	267 277
e	267 34
e	34 277
e	33 34
e	22 278
e	278 23
e	23 22
e	268 278
e	268 279
e	279 278
e	269 279
e	269 280
e	280 279
e	270 280
e	270 281
e	281 280
e	271 281
e	271 282
e	282 281
e	272 282
e	272 283
e	283 282
e	273 283
e	273 284
e	284 283
e	274 284
e	274 285
e	285 284
e	275 285
e	275 286
e	286 285
e	276 286
e	276 287
e	287 286
e	277 287
e	277 35
e	35 287
e	34 35
e	23 36
e	0 23
e	278 36
e	278 37
e	279 37
e	279 38
e	280 38
e	280 39
e	281 39
e	281 40
e	282 40
e	282 41
e	283 41
e	283 42
e	284 42
e	284 43
e	285 43
e	285 44
e	286 44
e	286 45
e	287 45
e	287 4
e	35 4
e	4 288
e	288 24
e	4 88
e	88 288
e	88 289
e	289 288
e	88 89
e	89 289
e	89 290
e	290 289
e	89 90
e	90 290
e	90 291
e	291 290
e	90 91
e	91 291
e	91 292
e	292 291
e	91 92
e	92 292
e	92 293
e	293 292
e	92 93
e	93 293
e	93 294
e	294 293
e	93 94
e	94 294
e	94 295
e	295 294
e	94 95
e	95 295
e	95 296
e	296 295
e	95 96
e	96 296
e	96 297
e	297 296
e	96 97
e	97 297
e	97 76
e	76 297
e	97 8
e	8 76
e	24 298
e	298 25
e	288 298
e	288 299
e	299 298
e	289 299
e	289 300
e	300 299
e	290 300
e	290 301
e	301 300
e	291 301
e	291 302
e	302 301
e	292 302
e	292 303
e	303 302
e	293 303
e	293 304
e	304 303
e	294 304
e	294 305
e	305 304
e	295 305
e	295 306
e	306 305
e	296 306
e	296 307
e	307 306
e	297 307
e	297 77
e	77 307
e	76 77
e	25 308
e	308 26
e	298 308
e	298 309
e	309 308
e	299 309
e	299 310
e	310 309
e	300 310
e	300 311
e	311 310
e	301 311
e	301 312
e	312 311
e	302 312
e	302 313
e	313 312
e	303 313
e	303 314
e	314 313
e	304 314
e	304 315
e	315 314
e	305 315
e	305 316
e	316 315
e	306 316
e	306 317
e	317 316
e	307 317
e	307 78
e	78 317
e	77 78
e	26 98
e	98 5
e	308 98
e	308 99
e	99 98
e	309 99
e	309 100
e	100 99
e	310 100
e	310 101
e	101 100
e	311 101
e	311 102
e	102 101
e	312 102
e	312 103
e	103 102
e	313 103
e	313 104
e	104 103
e	314 104
e	314 105
e	105 104
e	315 105
e	315 106
e	106 105
e	316 106
e	316 107
e	107 106
e	317 107
e	317 9
e	9 107
e	78 9
e	5 318
e	318 27
e	98 318
e	98 319
e	319 318
e	99 319
e	99 320
e	320 319
e	100 320
e	100 321
e	321 320
e	101 321
e	101 322
e	322 321
e	102 322
e	102 323
e	323 322
e	103 323
e	103 324
e	324 323
e	104 324
e	104 325
e	325 324
e	105 325
e	105 326
e	326 325
e	106 326
e	106 327
e	327 326
e	107 327
e	107 79
e	79 327
e	9 79
e	27 328
e	328 28
e	318 328
e	318 329
e	329 328
e	319 329
e	319 330
e	330 329
e	320 330
e	320 331
e	331 330
e	321 331
e	321 332
e	332 331
e	322 332
e	322 333
e	333 332
e	323 333
e	323 334
e	334 333
e	324 334
e	324 335
e	335 334
e	325 335
e	325 336
e	336 335
e	326 336
e	326 337
e	337 336
e	327 337
e	327 80
e	80 337
e	79 80
e	28 338
e	338 29
e	328 338
e	328 339
e	339 338
e	329 339
e	329 340
e	340 339
e	330 340
e	330 341
e	341 340
e	331 341
e	331 342
e	342 341
e	332 342
e	332 343
e	343 342
e	333 343
e	333 344
e	344 343
e	334 344
e	334 345
e	345 344
e	335 345
e	335 346
e	346 345
e	336 346
e	336 347
e	347 346
e	337 347
e	337 81
e	81 347
e	80 81
e	29 108
e	108 6
e	338 108
e	338 109
e	109 108
e	339 109
e	339 110
e	110 109
e	340 110
e	340 111
e	111 110
e	341 111
e	341 112
e	112 111
e	342 112
e	342 113
e	113 112
e	343 113
e	343 114
e	114 113
e	344 114
e	344 115
e	115 114
e	345 115
e	345 116
e	116 115
e	346 116
e	346 117
e	117 116
e	347 117
e	347 10
e	10 117
e	81 10
e	6 348
e	348 30
e	108 348
e	108 349
e	349 348
e	109 349
e	109 350
e	350 349
e	110 350
e	110 351
e	351 350
e	111 351
e	111 352
e	352 351
e	112 352
e	112 353
e	353 352
e	113 353
e	113 354
e	354 353
e	114 354
e	114 355
e	355 354
e	115 355
e	115 356
e	356 355
e	116 356
e	116 357
e	357 356
e	117 357
e	117 82
e	82 357
e	10 82
e	30 358
e	358 31
e	348 358
e	348 359
e	359 358
e	349 359
e	349 360
e	360 359
e	350 360
e	350 361
e	361 360
e	351 361
e	351 362
e	362 361
e	352 362
e	352 363
e	363 362
e	353 363
e	353 364
e	364 363
e	354 364
e	354 365
e	365 364
e	355 365
e	355 366
e	366 365
e	356 366
e	356 367
e	367 366
e	357 367
e	357 83
e	83 367
e	82 83
e	31 368
e	368 32
e	358 368
e	358 369
e	369 368
e	359 369
e	359 370
e	370 369
e	360 370
e	360 371
e	371 370
e	361 371
e	361 372
e	372 371
e	362 372
e	362 373
e	373 372
e	363 373
e	363 374
e	374 373
e	364 374
e	364 375
e	375 374
e	365 375
e	365 376
e	376 375
e	366 376
e	366 377
e	377 376
e	367 377
e	367 84
e	84 377
e	83 84
e	32 118
e	118 7
e	368 118
e	368 119
e	119 118
e	369 119
e	369 120
e	120 119
e	370 120
e	370 121
e	121 120
e	371 121
e	371 122
e	122 121
e	372 122
e	372 123
e	123 122
e	373 123
e	373 124
e	124 123
e	374 124
e	374 125
e	125 124
e	375 125
e	375 126
e	126 125
e	376 126
e	376 127
e	127 126
e	377 127
e	377 11
e	11 127
e	84 11
e	7 378
e	378 33
e	118 378
e	118 379
e	379 378
e	119 379
e	119 380
e	380 379
e	120 380
e	120 381
e	381 380
e	121 381
e	121 382
e	382 381
e	122 382
e	122 383
e	383 382
e	123 383
e	123 384
e	384 383
e	124 384
e	124 385
e	385 384
e	125 385
e	125 386
e	386 385
e	126 386
e	126 387
e	387 386
e	127 387
e	127 85
e	85 387
e	11 85
e	33 388
e	388 34
e	378 388
e	378 389
e	389 388
e	379 389
e	379 390
e	390 389
e	380 390
e	380 391
e	391 390
e	381 391
e	381 392
e	392 391
e	382 392
e	382 393
e	393 392
e	383 393
e	383 394
e	394 393
e	384 394
e	384 395
e	395 394
e	385 395
e	385 396
e	396 395
e	386 396
e	386 397
e	397 396
e	387 397
e	387 86
e	86 397
e	85 86
e	34 398
e	398 35
e	388 398
e	388 399
e	399 398
e	389 399
e	389 400
e	400 399
e	390 400
e	390 401
e	401 400
e	391 401
e	391 402
e	402 401
e	392 402
e	392 403
e	403 402
e	393 403
e	393 404
e	404 403
e	394 404
e	394 405
e	405 404
e	395 405
e	395 406
e	406 405
e	396 406
e	396 407
e	407 406
e	397 407
e	397 87
e	87 407
e	86 87
e	35 88
e	398 88
e	398 89
e	399 89
e	399 90
e	400 90
e	400 91
e	401 91
e	401 92
e	402 92
e	402 93
e	403 93
e	403 94
e	404 94
e	404 95
e	405 95
e	405 96
e	406 96
e	406 97
e	407 97
e	407 8
e	87 8
e	12 408
e	408 0
e	408 128
e	128 0
e	408 409
e	409 128
e	409 129
e	129 128
e	409 410
e	410 129
e	410 130
e	130 129
e	410 411
e	411 130
e	411 131
e	131 130
e	411 412
e	412 131
e	412 132
e	132 131
e	412 413
e	413 132
e	413 133
e	133 132
e	413 414
e	414 133
e	414 134
e	134 133
e	414 415
e	415 134
e	415 135
e	135 134
e	415 416
e	416 135
e	416 136
e	136 135
e	416 417
e	417 136
e	417 137
e	137 136
e	417 76
e	76 137
e	8 137
e	13 418
e	418 12
e	418 408
e	418 419
e	419 408
e	419 409
e	419 420
e	420 409
e	420 410
e	420 421
e	421 410
e	421 411
e	421 422
e	422 411
e	422 412
e	422 423
e	423 412
e	423 413
e	423 424
e	424 413
e	424 414
e	424 425
e	425 414
e	425 415
e	425 426
e	426 415
e	426 416
e	426 427
e	427 416
e	427 417
e	427 77
e	77 417
e	14 428
e	428 13
e	428 418
e	428 429
e	429 418
e	429 419
e	429 430
e	430 419
e	430 420
e	430 431
e	431 420
e	431 421
e	431 432
e	432 421
e	432 422
e	432 433
e	433 422
e	433 423
e	433 434
e	434 423
e	434 424
e	434 435
e	435 424
e	435 425
e	435 436
e	436 425
e	436 426
e	436 437
e	437 426
e	437 427
e	437 78
e	78 427
e	1 138
e	138 14
e	138 428
e	138 139
e	139 428
e	139 429
e	139 140
e	140 429
e	140 430
e	140 141
e	141 430
e	141 431
e	141 142
e	142 431
e	142 432
e	142 143
e	143 432
e	143 433
e	143 144
e	144 433
e	144 434
e	144 145
e	145 434
e	145 435
e	145 146
e	146 435
e	146 436
e	146 147
e	147 436
e	147 437
e	147 9
e	9 437
e	15 438
e	438 1
e	438 138
e	438 439
e	439 138
e	439 139
e	439 440
e	440 139
e	440 140
e	440 441
e	441 140
e	441 141
e	441 442
e	442 141
e	442 142
e	442 443
e	443 142
e	443 143
e	443 444
e	444 143
e	444 144
e	444 445
e	445 144
e	445 145
e	445 446
e	446 145
e	446 146
e	446 447
e	447 146
e	447 147
e	447 79
e	79 147
e	16 448
e	448 15
e	448 438
e	448 449
e	449 438
e	449 439
e	449 450
e	450 439
e	450 440
e	450 451
e	451 440
e	451 441
e	451 452
e	452 441
e	452 442
e	452 453
e	453 442
e	453 443
e	453 454
e	454 443
e	454 444
e	454 455
e	455 444
e	455 445
e	455 456
e	456 445
e	456 446
e	456 457
e	457 446
e	457 447
e	457 80
e	80 447
e	17 458
e	458 16
e	458 448
e	458 459
e	459 448
e	459 449
e	459 460
e	460 449
e	460 450
e	460 461
e	461 450
e	461 451
e	461 462
e	462 451
e	462 452
e	462 463
e	463 452
e	463 453
e	463 464
e	464 453
e	464 454
e	464 465
e	465 454
e	465 455
e	465 466
e	466 455
e	466 456
e	466 467
e	467 456
e	467 457
e	467 81
e	81 457
e	3 148
e	148 17
e	148 458
e	148 149
e	149 458
e	149 459
e	149 150
e	150 459
e	150 460
e	150 151
e	151 460
e	151 461
e	151 152
e	152 461
e	152 462
e	152 153
e	153 462
e	153 463
e	153 154
e	154 463
e	154 464
e	154 155
e	155 464
e	155 465
e	155 156
e	156 465
e	156 466
e	156 157
e	157 466
e	157 467
e	157 10
e	10 467
e	18 468
e	468 3
e	468 148
e	468 469
e	469 148
e	469 149
e	469 470
e	470 149
e	470 150
e	470 471
e	471 150
e	471 151
e	471 472
e	472 151
e	472 152
e	472 473
e	473 152
e	473 153
e	473 474
e	474 153
e	474 154
e	474 475
e	475 154
e	475 155
e	475 476
e	476 155
e	476 156
e	476 477
e	477 156
e	477 157
e	477 82
e	82 157
e	19 478
e	478 18
e	478 468
e	478 479
e	479 468
e	479 469
e	479 480
e	480 469
e	480 470
e	480 481
e	481 470
e	481 471
e	481 482
e	482 471
e	482 472
e	482 483
e	483 472
e	483 473
e	483 484
e	484 473
e	484 474
e	484 485
e	485 474
e	485 475
e	485 486
e	486 475
e	486 476
e	486 487
e	487 476
e	487 477
e	487 83
e	83 477
e	20 488
e	488 19
e	488 478
e	488 489
e	489 478
e	489 479
e	489 490
e	490 479
e	490 480
e	490 491
e	491 480
e	491 481
e	491 492
e	492 481
e	492 482
e	492 493
e	493 482
e	493 483
e	493 494
e	494 483
e	494 484
e	494 495
e	495 484
e	495 485
e	495 496
e	496 485
e	496 486
e	496 497
e	497 486
e	497 487
e	497 84
e	84 487
e	2 158
e	158 20
e	158 488
e	158 159
e	159 488
e	159 489
e	159 160
e	160 489
e	160 490
e	160 161
e	161 490
e	161 491
e	161 162
e	162 491
e	162 492
e	162 163
e	163 492
e	163 493
e	163 164
e	164 493
e	164 494
e	164 165
e	165 494
e	165 495
e	165 166
e	166 495
e	166 496
e	166 167
e	167 496
e	167 497
e	167 11
e	11 497
e	21 498
e	498 2
e	498 158
e	498 499
e	499 158
e	499 159
e	499 500
e	500 159
e	500 160
e	500 501
e	501 160
e	501 161
e	501 502
e	502 161
e	502 162
e	502 503
e	503 162
e	503 163
e	503 504
e	504 163
e	504 164
e	504 505
e	505 164
e	505 165
e	505 506
e	506 165
e	506 166
e	506 507
e	507 166
e	507 167
e	507 85
e	85 167
e	22 508
e	508 21
e	508 498
e	508 509
e	509 498
e	509 499
e	509 510
e	510 499
e	510 500
e	510 511
e	511 500
e	511 501
e	511 512
e	512 501
e	512 502
e	512 513
e	513 502
e	513 503
e	513 514
e	514 503
e	514 504
e	514 515
e	515 504
e	515 505
e	515 516
e	516 505
e	516 506
e	516 517
e	517 506
e	517 507
e	517 86
e	86 507
e	23 518
e	518 22
e	518 508
e	518 519
e	519 508
e	519 509
e	519 520
e	520 509
e	520 510
e	520 521
e	521 510
e	521 511
e	521 522
e	522 511
e	522 512
e	522 523
e	523 512
e	523 513
e	523 524
e	524 513
e	524 514
e	524 525
e	525 514
e	525 515
e	525 526
e	526 515
e	526 516
e	526 527
e	527 516
e	527 517
e	527 87
e	87 517
e	128 23
e	128 518
e	129 518
e	129 519
e	130 519
e	130 520
e	131 520
e	131 521
e	132 521
e	132 522
e	133 522
e	133 523
e	134 523
e	134 524
e	135 524
e	135 525
e	136 525
e	136 526
e	137 526
e	137 527
e	8 527
