#!geo

mesh
4
header
 dimension	2
 order		4
 nodes		15
 triangles	1
end header

0 0
1 0
0 1
0.25 -0.02
0.5 -0.05
0.75 -0.02
0.75 0.25
0.61 0.5
0.3 0.75
0.02 0.75
0.05 0.5
0.02 0.25
0.25 0.25
0.5 0.25
0.25 0.5

t	p4 0 1 2 3 4 5 6 7 8 9 10 11 12 13 14

