#!geo

mesh
4
header
 dimension 2
 order     5
 nodes	36
 triangles	2
 edges	5
end header

0 0
1 0
0 1
1 1
0.28 0.04
0.52 0.06
0.72 0.06
0.88 0.04
0.96 0.28
0.84 0.52
0.64 0.72
0.36 0.88
0.08 0.84
0.12 0.66
0.12 0.46
0.08 0.24
1.08 0.24
1.12 0.46
1.12 0.66
1.08 0.84
0.88 1.04
0.72 1.06
0.52 1.06
0.28 1.04
0.36 0.28
0.6 0.3
0.8 0.3
0.4 0.5
0.64 0.52
0.4 0.7
1 0.5
1 0.7
0.96 0.88
0.84 0.72
0.8 0.9
0.6 0.9

t	0 1 2
t	1 3 2

e	0 1
e	1 2
e	2 0
e	1 3
e	3 2
