#!geo

mesh
4
header
 dimension 2
 order     5
 nodes	21
 triangles	1
 edges	3
end header

0 0
1 0
0 1
0.28 0.04
0.52 0.06
0.72 0.06
0.88 0.04
0.96 0.28
0.84 0.52
0.64 0.72
0.36 0.88
0.08 0.84
0.12 0.66
0.12 0.46
0.08 0.24
0.36 0.28
0.6 0.3
0.8 0.3
0.4 0.5
0.64 0.52
0.4 0.7

t	0 1 2

e	0 1
e	1 2
e	2 0
