#!geo

mesh
4
header
 dimension	2
 order		9
 nodes		55
 triangles	1
end header

0 0
1 0
0 1
0.209876543209877 0.0493827160493827
0.395061728395062 0.0864197530864197
0.555555555555556 0.111111111111111
0.691358024691358 0.123456790123457
0.802469135802469 0.123456790123457
0.888888888888889 0.111111111111111
0.950617283950617 0.0864197530864197
0.987654320987654 0.0493827160493827
1.08641975308642 0.209876543209877
1.12345679012346 0.395061728395062
1.11111111111111 0.555555555555556
1.04938271604938 0.691358024691358
0.938271604938272 0.802469135802469
0.777777777777778 0.888888888888889
0.567901234567901 0.950617283950617
0.308641975308642 0.987654320987654
0.0987654320987655 0.938271604938272
0.172839506172839 0.864197530864198
0.222222222222222 0.777777777777778
0.246913580246914 0.679012345679012
0.246913580246914 0.567901234567901
0.222222222222222 0.444444444444445
0.172839506172839 0.308641975308642
0.0987654320987655 0.160493827160494
0.308641975308642 0.209876543209877
1.04938271604938 0.246913580246914
0.382716049382716 0.91358024691358
0.493827160493827 0.246913580246914
0.654320987654321 0.271604938271605
0.790123456790124 0.283950617283951
0.901234567901235 0.283950617283951
0.987654320987654 0.271604938271605
1.06172839506173 0.419753086419753
1.02469135802469 0.567901234567901
0.938271604938272 0.691358024691358
0.802469135802469 0.790123456790123
0.617283950617284 0.864197530864198
0.432098765432099 0.827160493827161
0.45679012345679 0.728395061728395
0.45679012345679 0.617283950617284
0.432098765432099 0.493827160493827
0.382716049382716 0.358024691358025
0.567901234567901 0.395061728395062
0.975308641975309 0.432098765432099
0.641975308641975 0.765432098765432
0.728395061728395 0.419753086419753
0.864197530864198 0.432098765432099
0.91358024691358 0.567901234567901
0.802469135802469 0.679012345679012
0.641975308641975 0.654320987654321
0.617283950617284 0.530864197530864
0.777777777777778 0.555555555555556

t	p9 0 1 2 3 4 5 6 7 8 9 10 11 12 13 14 15 16 17 18 19 20 21 22 23 24 25 26 27 30 31 32 33 34 28 44 45 48 49 46 35 43 53 54 50 36 42 52 51 37 41 47 38 40 39 29

