#!geo

mesh
4
header
 dimension	2
 order		5
 nodes		36
 triangles	2
end header

0 0
1 0
0 1
1 1
0.28 0.04
0.52 0.06
0.72 0.06
0.88 0.04
0.96 0.28
0.84 0.52
0.64 0.72
0.36 0.88
0.08 0.84
0.12 0.66
0.12 0.46
0.08 0.24
1.08 0.24
1.12 0.46
1.12 0.66
1.08 0.84
0.88 1.04
0.72 1.06
0.52 1.06
0.28 1.04
0.36 0.28
0.8 0.3
0.4 0.7
0.6 0.3
0.64 0.52
0.4 0.5
1 0.5
0.96 0.88
0.6 0.9
1 0.7
0.8 0.9
0.84 0.72

t	p5 0 1 2 4 5 6 7 8 9 10 11 12 13 14 15 24 27 25 29 28 26
t	p5 1 3 2 16 17 18 19 20 21 22 23 11 10 9 8 30 33 31 35 34 32

