$MeshFormat
2.2 0 8
$EndMeshFormat
$PhysicalNames
2
2 1 "boundary"
3 2 "internal"
$EndPhysicalNames
$Nodes
55
1 0 0 0
2 1 0 0
3 0 1 0
4 0.209876543209877 0.0493827160493827 0
5 0.395061728395062 0.0864197530864197 0
6 0.555555555555556 0.111111111111111 0
7 0.691358024691358 0.123456790123457 0
8 0.802469135802469 0.123456790123457 0
9 0.888888888888889 0.111111111111111 0
10 0.950617283950617 0.0864197530864197 0
11 0.987654320987654 0.0493827160493827 0
12 1.08641975308642 0.209876543209877 0
13 1.12345679012346 0.395061728395062 0
14 1.11111111111111 0.555555555555556 0
15 1.04938271604938 0.691358024691358 0
16 0.938271604938272 0.802469135802469 0
17 0.777777777777778 0.888888888888889 0
18 0.567901234567901 0.950617283950617 0
19 0.308641975308642 0.987654320987654 0
20 0.0987654320987655 0.938271604938272 0
21 0.172839506172839 0.864197530864198 0
22 0.222222222222222 0.777777777777778 0
23 0.246913580246914 0.679012345679012 0
24 0.246913580246914 0.567901234567901 0
25 0.222222222222222 0.444444444444445 0
26 0.172839506172839 0.308641975308642 0
27 0.0987654320987655 0.160493827160494 0
28 0.308641975308642 0.209876543209877 0
29 1.04938271604938 0.246913580246914 0
30 0.382716049382716 0.91358024691358 0
31 0.493827160493827 0.246913580246914 0
32 0.654320987654321 0.271604938271605 0
33 0.790123456790124 0.283950617283951 0
34 0.901234567901235 0.283950617283951 0
35 0.987654320987654 0.271604938271605 0
36 1.06172839506173 0.419753086419753 0
37 1.02469135802469 0.567901234567901 0
38 0.938271604938272 0.691358024691358 0
39 0.802469135802469 0.790123456790123 0
40 0.617283950617284 0.864197530864198 0
41 0.432098765432099 0.827160493827161 0
42 0.45679012345679 0.728395061728395 0
43 0.45679012345679 0.617283950617284 0
44 0.432098765432099 0.493827160493827 0
45 0.382716049382716 0.358024691358025 0
46 0.567901234567901 0.395061728395062 0
47 0.975308641975309 0.432098765432099 0
48 0.641975308641975 0.765432098765432 0
49 0.728395061728395 0.419753086419753 0
50 0.864197530864198 0.432098765432099 0
51 0.91358024691358 0.567901234567901 0
52 0.802469135802469 0.679012345679012 0
53 0.641975308641975 0.654320987654321 0
54 0.617283950617284 0.530864197530864 0
55 0.777777777777778 0.555555555555556 0
$EndNodes
$Elements
1
1 45 2 2 1 1 2 3 4 5 6 7 8 9 10 11 12 13 14 15 16 17 18 19 20 21 22 23 24 25 26 27 28 29 30 31 32 33 34 35 36 37 38 39 40 41 42 43 44 45 46 47 48 49 50 51 52 53 54 55
$EndElements
