#!geo

mesh
4
header
 dimension 2
 order     10
 nodes	66
 triangles	1
 edges	3
end header

0 0
1 0
0 1
0.145 0.0225
0.28 0.04
0.405 0.0525
0.52 0.06
0.625 0.0625
0.72 0.06
0.805 0.0525
0.88 0.04
0.945 0.0225
0.99 0.145
0.96 0.28
0.91 0.405
0.84 0.52
0.75 0.625
0.64 0.72
0.51 0.805
0.36 0.88
0.19 0.945
0.045 0.9225
0.08 0.84
0.105 0.7525
0.12 0.66
0.125 0.5625
0.12 0.46
0.105 0.3525
0.08 0.24
0.045 0.1225
0.19 0.145
0.325 0.1625
0.45 0.175
0.565 0.1825
0.67 0.185
0.765 0.1825
0.85 0.175
0.925 0.1625
0.225 0.2625
0.36 0.28
0.485 0.2925
0.6 0.3
0.705 0.3025
0.8 0.3
0.885 0.2925
0.25 0.375
0.385 0.3925
0.51 0.405
0.625 0.4125
0.73 0.415
0.825 0.4125
0.265 0.4825
0.4 0.5
0.525 0.5125
0.64 0.52
0.745 0.5225
0.27 0.585
0.405 0.6025
0.53 0.615
0.645 0.6225
0.265 0.6825
0.4 0.7
0.525 0.7125
0.25 0.775
0.385 0.7925
0.225 0.8625

t	0 1 2

e	0 1
e	1 2
e	2 0
