$MeshFormat
2.2 0 8
$EndMeshFormat
$PhysicalNames
2
2 1 "boundary"
3 2 "internal"
$EndPhysicalNames
$Nodes
21
1 0 0 0
2 1 0 0
3 0 1 0
4 0.28 0.04 0
5 0.52 0.06 0
6 0.72 0.06 0
7 0.88 0.04 0
8 0.96 0.28 0
9 0.84 0.52 0
10 0.64 0.72 0
11 0.36 0.88 0
12 0.08 0.84 0
13 0.12 0.66 0
14 0.12 0.46 0
15 0.08 0.24 0
16 0.36 0.28 0
17 0.8 0.3 0
18 0.4 0.7 0
19 0.6 0.3 0
20 0.64 0.52 0
21 0.4 0.5 0
$EndNodes
$Elements
1
1 25 2 2 1 1 2 3 4 5 6 7 8 9 10 11 12 13 14 15 16 17 18 19 20 21
$EndElements
